%!PS-Adobe-2.0 EPSF-2.0
%% This is a Stata generated postscript file
%%BoundingBox: 0 0 396 288
%%HiResBoundingBox: 0.000 0.000 396.000 288.000
%%DocumentNeededResources: font Helvetica
/xratio 0.012375 def
/yratio 0.012375 def
/Sbgfill {
	/y1 exch def
	/x1 exch def
	/y0 exch def
	/x0 exch def
	x0 y0 moveto
	x0 y1 lineto x1 y1 lineto x1 y0 lineto x0 y0 lineto
	fill
} def
/Spt {
	yratio mul
	/yp exch def
	xratio mul
	/xp exch def
	Slrgb setrgbcolor
	xp yp .5 0 360 arc fill
} def
/Sln {
	yratio mul
	/y1p exch def
	xratio mul
	/x1p exch def
	yratio mul
	/y0p exch def
	xratio mul
	/x0p exch def
	Slw setlinewidth
	Slrgb setrgbcolor
	x0p y0p M x1p y1p lineto S
} def
/Scrv {
	yratio mul
	/y3p exch def
	xratio mul
	/x3p exch def
	yratio mul
	/y2p exch def
	xratio mul
	/x2p exch def
	yratio mul
	/y1p exch def
	xratio mul
	/x1p exch def
	Slw setlinewidth
	Slrgb setrgbcolor
	x1p y1p x2p y2p x3p y3p curveto
	stroke
} def
/Stxtl {
	/sp exch def
	yratio mul
	/sizep exch def
	dup
	/anglep exch def
	0 exch sub
	/angle2p exch def
	yratio mul
	/y0p exch def
	xratio mul
	/x0p exch def
	Strgb setrgbcolor
	x0p y0p M anglep rotate sizep fntsize sp show stroke angle2p rotate
} def
/Stxtc {
	/sp exch def
	yratio mul
	/sizep exch def
	dup
	/anglep exch def
	0 exch sub
	/angle2p exch def
	yratio mul
	/y0p exch def
	xratio mul
	/x0p exch def
	Strgb setrgbcolor
	x0p y0p M anglep rotate sizep fntsize sp stringwidth exch -2 div exch rm sp show stroke angle2p rotate
} def
/Stxtr {
	/sp exch def
	yratio mul
	/sizep exch def
	dup
	/anglep exch def
	0 exch sub
	/angle2p exch def
	yratio mul
	/y0p exch def
	xratio mul
	/x0p exch def
	Strgb setrgbcolor
	x0p y0p M anglep rotate sizep fntsize sp stringwidth 1 index -1 mul exch rm pop sp show stroke angle2p rotate
} def
/Srect {
	/sfill exch def
	yratio mul
	/y1 exch def
	xratio mul
	/x1 exch def
	yratio mul
	/y0 exch def
	xratio mul
	/x0 exch def
	newpath x0 y0 moveto x0 y1 lineto x1 y1 lineto x1 y0 lineto x0 y0 lineto closepath
	sfill 1 eq {
		Ssrgb setrgbcolor
		gsave
		fill
		grestore
	} if
	Slw setlinewidth
	Slrgb setrgbcolor
	stroke
} def
/Sellipse {
	/sfill exch def
	yratio mul
	/yrad exch def
	xratio mul
	/xrad exch def
	yratio mul
	/y exch def
	xratio mul
	/x exch def
	/savematrix matrix currentmatrix def
	x y translate
	xrad yrad scale
	0 0 1 0 360 arc
	savematrix setmatrix
	sfill 1 eq {
		Ssrgb setrgbcolor
		gsave
		fill
		grestore
	} if
	Slw setlinewidth
	Slrgb setrgbcolor
	stroke
} def
/Stri {
	/sfill exch def
	xratio mul
	/r exch def
	yratio mul
	/y0 exch def
	xratio mul
	/x0 exch def
	/xcen x0 def
	y0 r add
	/ytop exch def
	r 2 div
	y0 exch sub
	/ybot exch def
	r 3 sqrt 2 div mul dup
	xcen exch sub
	/xleft exch def
	xcen add
	/xright exch def
	newpath xcen ytop moveto xright ybot lineto xleft ybot lineto xcen ytop lineto closepath
	sfill 1 eq {
		Ssrgb setrgbcolor
		gsave
		fill
		grestore
	} if
	Slw setlinewidth
	Slrgb setrgbcolor
	stroke
} def
/Soldtri {
	/sfill exch def
	xratio mul
	/r exch def
	yratio mul
	/y0 exch def
	xratio mul
	/x0 exch def
	x0 r sub
	/x1 exch def
	y0 r sub
	/y1 exch def
	x0 r add
	/x2 exch def
	y0 r sub
	/y2 exch def
	/x3 x0 def
	y0 r add
	/y3 exch def
	newpath x1 y1 moveto x2 y2 lineto x3 y3 lineto x1 y1 lineto closepath
	sfill 1 eq {
		Ssrgb setrgbcolor
		gsave
		fill
		grestore
	} if
	Slw setlinewidth
	Slrgb setrgbcolor
	stroke
} def
/Sdia {
	/sfill exch def
	xratio mul
	/r exch def
	yratio mul
	/y exch def
	xratio mul
	/x exch def
	x r sub
	/x0 exch def
	/y0 y def
	/x1 x def
	y r sub
	/y1 exch def
	x r add
	/x2 exch def
	/y2 y def
	/x3 x def
	y r add
	/y3 exch def
	newpath x0 y0 moveto x1 y1 lineto x2 y2 lineto x3 y3 lineto x0 y0 lineto closepath
	sfill 1 eq {
		Ssrgb setrgbcolor
		gsave
		fill
		grestore
	} if
	Slw setlinewidth
	Slrgb setrgbcolor
	stroke
} def
/Scc {
	/sfill exch def
	xratio mul
	/r0 exch def
	yratio mul
	/y0 exch def
	xratio mul
	/x0 exch def
	x0 y0 r0 0 360 arc closepath
	sfill 1 eq {
		Ssrgb setrgbcolor
		gsave
		fill
		grestore
	} if
	Slw setlinewidth
	Slrgb setrgbcolor
	stroke
} def
/Spie {
	/sfill exch def
	/a1 exch def
	/a0 exch def
	xratio mul
	/r exch def
	yratio mul
	/y exch def
	xratio mul
	/x exch def
	newpath x y moveto x y r a0 a1 arc closepath
	sfill 1 eq {
		Ssrgb setrgbcolor
		gsave
		fill
		grestore
	} if
	Slw setlinewidth
	Slrgb setrgbcolor
	stroke
} def
/Splu {
	xratio mul
	/r exch def
	yratio mul
	/y exch def
	xratio mul
	/x exch def
	x r sub
	/x0 exch def
	x r add
	/x1 exch def
	x0 y M x1 y L
	y r sub
	/y0 exch def
	y r add
	/y1 exch def
	x y0 M x y1 L
} def
/Scro {
	xratio mul
	/r exch def
	yratio mul
	/y exch def
	xratio mul
	/x exch def
	x r sub
	/x0 exch def
	y r sub
	/y0 exch def
	x r add
	/x1 exch def
	y r add
	/y1 exch def
	x0 y0 M x1 y1 L
	x r add
	/x0 exch def
	y r sub
	/y0 exch def
	x r sub
	/x1 exch def
	y r add
	/y1 exch def
	x0 y0 M x1 y1 L
} def
/Sm {
	yratio mul
	/y exch def
	xratio mul
	/x exch def
	x y M
} def
/Sl {
	yratio mul
	/y exch def
	xratio mul
	/x exch def
	x y L
} def
/SPl {
	yratio mul
	/y exch def
	xratio mul
	/x exch def
	x y PL
} def
/Lcs {
	currentlinecap
	1 setlinecap
} def
/Lcr {
	setlinecap
} def
/Sbp {
	newpath
} def
/Sep {
	/sfill exch def
	closepath
	sfill 1 eq  {
		Ssrgb setrgbcolor
		gsave
		fill
		grestore
	} if
	Slw setlinewidth
	Slrgb setrgbcolor
	Lcs
	stroke
	Lcr
} def
/cp {currentpoint} def 
/M {moveto} def 
/rm {rmoveto} def 
/S {stroke} def 
/L {Slw setlinewidth Slrgb setrgbcolor lineto Lcs S Lcr} def 
/PL {Slw setlinewidth Slrgb setrgbcolor lineto} def 
/MF-Helvetica {
  /newfontname exch def
  /fontname exch def
  /fontdict fontname findfont def
  /newfont fontdict maxlength dict def
  fontdict {
  exch dup /FID eq {pop pop} {exch newfont 3 1 roll put} ifelse
  } forall
  newfont /FontName newfontname put
  newfont /Encoding ISOLatin1Encoding put
  newfontname newfont definefont pop
} def
/Helvetica /Helvetica-0 MF-Helvetica
/Slw 0.120 def
0.918 0.949 0.953 setrgbcolor
0 0 396.000 288.000 Sbgfill
/Slrgb {1.000 1.000 1.000} def
/Strgb {1.000 1.000 1.000} def
/Ssrgb {1.000 1.000 1.000} def
/Ssrgb {0.918 0.949 0.953} def
/Slw 0.576 def
/Slrgb {0.918 0.949 0.953} def
0 0 31999 23272 1 Srect
/Ssrgb {1.000 1.000 1.000} def
/Slrgb {1.000 1.000 1.000} def
2350 5890 31184 21047 1 Srect
/Slrgb {0.000 0.000 0.000} def
/Strgb {0.000 0.000 0.000} def
/Slw 0.864 def
/Slrgb {0.757 0.020 0.204} def
2350 11557 31184 11557 Sln
/Ssrgb {0.282 0.424 0.549} def
/Slrgb {0.102 0.278 0.435} def
3311 10488 3311 14616 Sln
6194 9707 6194 20535 Sln
9078 10423 9078 12042 Sln
11961 10059 11961 11721 Sln
14845 9458 14845 11357 Sln
17728 9479 17728 11871 Sln
20612 9615 20612 12734 Sln
23495 9674 23495 13051 Sln
26379 10055 26379 14235 Sln
29262 9520 29262 14418 Sln
3310 12551 Sm
6194 15120 Sl
6194 15120 Sm
9077 11232 Sl
9077 11232 Sm
11961 10890 Sl
11961 10890 Sm
14844 10407 Sl
14844 10407 Sm
17728 10675 Sl
17728 10675 Sm
20611 11174 Sl
20611 11174 Sm
23495 11362 Sl
23495 11362 Sm
26378 12145 Sl
26378 12145 Sm
29262 11969 Sl
/Ssrgb {0.651 0.365 0.384} def
/Slrgb {0.565 0.208 0.231} def
4272 9191 4272 12590 Sln
7156 9776 7156 11117 Sln
10039 9387 10039 10931 Sln
12922 8665 12922 10619 Sln
15806 7773 15806 10204 Sln
18689 7605 18689 10677 Sln
21573 6918 21573 10767 Sln
24456 7226 24456 11109 Sln
27340 7770 27340 11331 Sln
30223 6402 30223 12353 Sln
4272 10890 Sm
7155 10446 Sl
7155 10446 Sm
10039 10159 Sl
10039 10159 Sm
12922 9641 Sl
12922 9641 Sm
15805 8988 Sl
15805 8988 Sm
18689 9140 Sl
18689 9140 Sm
21572 8842 Sl
21572 8842 Sm
24456 9167 Sl
24456 9167 Sm
27339 9550 Sl
27339 9550 Sm
30223 9377 Sl
/Slw 0.576 def
/Slrgb {0.000 0.000 0.000} def
2350 5890 2350 21047 Sln
2350 7333 2027 7333 Sln
1623 7333 0
/Helvetica-0 findfont 808 yratio mul scalefont setfont
(-2) stringwidth pop add
2 div xratio div
dup 4 3 roll exch 90.000 cos mul sub 3 1 roll 90.000 sin mul sub 2 copy
/fntsize {/Helvetica-0 findfont exch scalefont setfont } def
90.000 808
(-2) Stxtl
(-2) stringwidth pop xratio div
dup 4 3 roll exch 90.000 cos mul add 3 1 roll 90.000 sin mul add 2 copy
pop pop pop pop
2350 11557 2027 11557 Sln
1623 11557 0
/Helvetica-0 findfont 808 yratio mul scalefont setfont
(0) stringwidth pop add
2 div xratio div
dup 4 3 roll exch 90.000 cos mul sub 3 1 roll 90.000 sin mul sub 2 copy
/fntsize {/Helvetica-0 findfont exch scalefont setfont } def
90.000 808
(0) Stxtl
(0) stringwidth pop xratio div
dup 4 3 roll exch 90.000 cos mul add 3 1 roll 90.000 sin mul add 2 copy
pop pop pop pop
2350 15782 2027 15782 Sln
1623 15782 0
/Helvetica-0 findfont 808 yratio mul scalefont setfont
(2) stringwidth pop add
2 div xratio div
dup 4 3 roll exch 90.000 cos mul sub 3 1 roll 90.000 sin mul sub 2 copy
/fntsize {/Helvetica-0 findfont exch scalefont setfont } def
90.000 808
(2) Stxtl
(2) stringwidth pop xratio div
dup 4 3 roll exch 90.000 cos mul add 3 1 roll 90.000 sin mul add 2 copy
pop pop pop pop
2350 20006 2027 20006 Sln
1623 20006 0
/Helvetica-0 findfont 808 yratio mul scalefont setfont
(4) stringwidth pop add
2 div xratio div
dup 4 3 roll exch 90.000 cos mul sub 3 1 roll 90.000 sin mul sub 2 copy
/fntsize {/Helvetica-0 findfont exch scalefont setfont } def
90.000 808
(4) Stxtl
(4) stringwidth pop xratio div
dup 4 3 roll exch 90.000 cos mul add 3 1 roll 90.000 sin mul add 2 copy
pop pop pop pop
2350 5890 31184 5890 Sln
3792 5890 3792 5567 Sln
4037 5264 0
/Helvetica-0 findfont 808 yratio mul scalefont setfont
(0) stringwidth pop add
xratio div
dup 4 3 roll exch 60.000 cos mul sub 3 1 roll 60.000 sin mul sub 2 copy
/fntsize {/Helvetica-0 findfont exch scalefont setfont } def
60.000 808
(0) Stxtl
(0) stringwidth pop xratio div
dup 4 3 roll exch 60.000 cos mul add 3 1 roll 60.000 sin mul add 2 copy
pop pop pop pop
6675 5890 6675 5567 Sln
6920 5264 0
/Helvetica-0 findfont 808 yratio mul scalefont setfont
(1-2) stringwidth pop add
xratio div
dup 4 3 roll exch 60.000 cos mul sub 3 1 roll 60.000 sin mul sub 2 copy
/fntsize {/Helvetica-0 findfont exch scalefont setfont } def
60.000 808
(1-2) Stxtl
(1-2) stringwidth pop xratio div
dup 4 3 roll exch 60.000 cos mul add 3 1 roll 60.000 sin mul add 2 copy
pop pop pop pop
9558 5890 9558 5567 Sln
9803 5264 0
/Helvetica-0 findfont 808 yratio mul scalefont setfont
(3-4) stringwidth pop add
xratio div
dup 4 3 roll exch 60.000 cos mul sub 3 1 roll 60.000 sin mul sub 2 copy
/fntsize {/Helvetica-0 findfont exch scalefont setfont } def
60.000 808
(3-4) Stxtl
(3-4) stringwidth pop xratio div
dup 4 3 roll exch 60.000 cos mul add 3 1 roll 60.000 sin mul add 2 copy
pop pop pop pop
12442 5890 12442 5567 Sln
12687 5264 0
/Helvetica-0 findfont 808 yratio mul scalefont setfont
(5-6) stringwidth pop add
xratio div
dup 4 3 roll exch 60.000 cos mul sub 3 1 roll 60.000 sin mul sub 2 copy
/fntsize {/Helvetica-0 findfont exch scalefont setfont } def
60.000 808
(5-6) Stxtl
(5-6) stringwidth pop xratio div
dup 4 3 roll exch 60.000 cos mul add 3 1 roll 60.000 sin mul add 2 copy
pop pop pop pop
15325 5890 15325 5567 Sln
15570 5264 0
/Helvetica-0 findfont 808 yratio mul scalefont setfont
(7-8) stringwidth pop add
xratio div
dup 4 3 roll exch 60.000 cos mul sub 3 1 roll 60.000 sin mul sub 2 copy
/fntsize {/Helvetica-0 findfont exch scalefont setfont } def
60.000 808
(7-8) Stxtl
(7-8) stringwidth pop xratio div
dup 4 3 roll exch 60.000 cos mul add 3 1 roll 60.000 sin mul add 2 copy
pop pop pop pop
18209 5890 18209 5567 Sln
18454 5264 0
/Helvetica-0 findfont 808 yratio mul scalefont setfont
(9-10) stringwidth pop add
xratio div
dup 4 3 roll exch 60.000 cos mul sub 3 1 roll 60.000 sin mul sub 2 copy
/fntsize {/Helvetica-0 findfont exch scalefont setfont } def
60.000 808
(9-10) Stxtl
(9-10) stringwidth pop xratio div
dup 4 3 roll exch 60.000 cos mul add 3 1 roll 60.000 sin mul add 2 copy
pop pop pop pop
21092 5890 21092 5567 Sln
21337 5264 0
/Helvetica-0 findfont 808 yratio mul scalefont setfont
(11-12) stringwidth pop add
xratio div
dup 4 3 roll exch 60.000 cos mul sub 3 1 roll 60.000 sin mul sub 2 copy
/fntsize {/Helvetica-0 findfont exch scalefont setfont } def
60.000 808
(11-12) Stxtl
(11-12) stringwidth pop xratio div
dup 4 3 roll exch 60.000 cos mul add 3 1 roll 60.000 sin mul add 2 copy
pop pop pop pop
23976 5890 23976 5567 Sln
24221 5264 0
/Helvetica-0 findfont 808 yratio mul scalefont setfont
(13-14) stringwidth pop add
xratio div
dup 4 3 roll exch 60.000 cos mul sub 3 1 roll 60.000 sin mul sub 2 copy
/fntsize {/Helvetica-0 findfont exch scalefont setfont } def
60.000 808
(13-14) Stxtl
(13-14) stringwidth pop xratio div
dup 4 3 roll exch 60.000 cos mul add 3 1 roll 60.000 sin mul add 2 copy
pop pop pop pop
26859 5890 26859 5567 Sln
27104 5264 0
/Helvetica-0 findfont 808 yratio mul scalefont setfont
(15-19) stringwidth pop add
xratio div
dup 4 3 roll exch 60.000 cos mul sub 3 1 roll 60.000 sin mul sub 2 copy
/fntsize {/Helvetica-0 findfont exch scalefont setfont } def
60.000 808
(15-19) Stxtl
(15-19) stringwidth pop xratio div
dup 4 3 roll exch 60.000 cos mul add 3 1 roll 60.000 sin mul add 2 copy
pop pop pop pop
29743 5890 29743 5567 Sln
29988 5264 0
/Helvetica-0 findfont 808 yratio mul scalefont setfont
(20+) stringwidth pop add
xratio div
dup 4 3 roll exch 60.000 cos mul sub 3 1 roll 60.000 sin mul sub 2 copy
/fntsize {/Helvetica-0 findfont exch scalefont setfont } def
60.000 808
(20+) Stxtl
(20+) stringwidth pop xratio div
dup 4 3 roll exch 60.000 cos mul add 3 1 roll 60.000 sin mul add 2 copy
pop pop pop pop
/Ssrgb {1.000 1.000 1.000} def
5201 1094 28333 2600 1 Srect
/Slw 0.864 def
/Slrgb {0.102 0.278 0.435} def
5550 1847 8576 1847 Sln
/Slrgb {0.565 0.208 0.231} def
19713 1847 22739 1847 Sln
9060 1564 2 copy
/fntsize {/Helvetica-0 findfont exch scalefont setfont } def
0.000 808
(marginal structural model) Stxtl
(marginal structural model) stringwidth pop xratio div
dup 4 3 roll exch 0.000 cos mul add 3 1 roll 0.000 sin mul add 2 copy
pop pop pop pop
23223 1564 2 copy
/fntsize {/Helvetica-0 findfont exch scalefont setfont } def
0.000 808
(Fixed effects) Stxtl
(Fixed effects) stringwidth pop xratio div
dup 4 3 roll exch 0.000 cos mul add 3 1 roll 0.000 sin mul add 2 copy
pop pop pop pop
/Strgb {0.118 0.176 0.325} def
16767 21526 0
/Helvetica-0 findfont 1131 yratio mul scalefont setfont
(BMI) stringwidth pop add
2 div xratio div
dup 4 3 roll exch 0.000 cos mul sub 3 1 roll 0.000 sin mul sub 2 copy
/fntsize {/Helvetica-0 findfont exch scalefont setfont } def
0.000 1131
(BMI) Stxtl
(BMI) stringwidth pop xratio div
dup 4 3 roll exch 0.000 cos mul add 3 1 roll 0.000 sin mul add 2 copy
pop pop pop pop
S showpage
%%EOF
