%!PS-Adobe-2.0 EPSF-2.0
%% This is a Stata generated postscript file
%%BoundingBox: 0 0 396 288
%%HiResBoundingBox: 0.000 0.000 396.000 288.000
%%DocumentNeededResources: font Helvetica
/xratio 0.012375 def
/yratio 0.012375 def
/Sbgfill {
	/y1 exch def
	/x1 exch def
	/y0 exch def
	/x0 exch def
	x0 y0 moveto
	x0 y1 lineto x1 y1 lineto x1 y0 lineto x0 y0 lineto
	fill
} def
/Spt {
	yratio mul
	/yp exch def
	xratio mul
	/xp exch def
	Slrgb setrgbcolor
	xp yp .5 0 360 arc fill
} def
/Sln {
	yratio mul
	/y1p exch def
	xratio mul
	/x1p exch def
	yratio mul
	/y0p exch def
	xratio mul
	/x0p exch def
	Slw setlinewidth
	Slrgb setrgbcolor
	x0p y0p M x1p y1p lineto S
} def
/Scrv {
	yratio mul
	/y3p exch def
	xratio mul
	/x3p exch def
	yratio mul
	/y2p exch def
	xratio mul
	/x2p exch def
	yratio mul
	/y1p exch def
	xratio mul
	/x1p exch def
	Slw setlinewidth
	Slrgb setrgbcolor
	x1p y1p x2p y2p x3p y3p curveto
	stroke
} def
/Stxtl {
	/sp exch def
	yratio mul
	/sizep exch def
	dup
	/anglep exch def
	0 exch sub
	/angle2p exch def
	yratio mul
	/y0p exch def
	xratio mul
	/x0p exch def
	Strgb setrgbcolor
	x0p y0p M anglep rotate sizep fntsize sp show stroke angle2p rotate
} def
/Stxtc {
	/sp exch def
	yratio mul
	/sizep exch def
	dup
	/anglep exch def
	0 exch sub
	/angle2p exch def
	yratio mul
	/y0p exch def
	xratio mul
	/x0p exch def
	Strgb setrgbcolor
	x0p y0p M anglep rotate sizep fntsize sp stringwidth exch -2 div exch rm sp show stroke angle2p rotate
} def
/Stxtr {
	/sp exch def
	yratio mul
	/sizep exch def
	dup
	/anglep exch def
	0 exch sub
	/angle2p exch def
	yratio mul
	/y0p exch def
	xratio mul
	/x0p exch def
	Strgb setrgbcolor
	x0p y0p M anglep rotate sizep fntsize sp stringwidth 1 index -1 mul exch rm pop sp show stroke angle2p rotate
} def
/Srect {
	/sfill exch def
	yratio mul
	/y1 exch def
	xratio mul
	/x1 exch def
	yratio mul
	/y0 exch def
	xratio mul
	/x0 exch def
	newpath x0 y0 moveto x0 y1 lineto x1 y1 lineto x1 y0 lineto x0 y0 lineto closepath
	sfill 1 eq {
		Ssrgb setrgbcolor
		gsave
		fill
		grestore
	} if
	Slw setlinewidth
	Slrgb setrgbcolor
	stroke
} def
/Sellipse {
	/sfill exch def
	yratio mul
	/yrad exch def
	xratio mul
	/xrad exch def
	yratio mul
	/y exch def
	xratio mul
	/x exch def
	/savematrix matrix currentmatrix def
	x y translate
	xrad yrad scale
	0 0 1 0 360 arc
	savematrix setmatrix
	sfill 1 eq {
		Ssrgb setrgbcolor
		gsave
		fill
		grestore
	} if
	Slw setlinewidth
	Slrgb setrgbcolor
	stroke
} def
/Stri {
	/sfill exch def
	xratio mul
	/r exch def
	yratio mul
	/y0 exch def
	xratio mul
	/x0 exch def
	/xcen x0 def
	y0 r add
	/ytop exch def
	r 2 div
	y0 exch sub
	/ybot exch def
	r 3 sqrt 2 div mul dup
	xcen exch sub
	/xleft exch def
	xcen add
	/xright exch def
	newpath xcen ytop moveto xright ybot lineto xleft ybot lineto xcen ytop lineto closepath
	sfill 1 eq {
		Ssrgb setrgbcolor
		gsave
		fill
		grestore
	} if
	Slw setlinewidth
	Slrgb setrgbcolor
	stroke
} def
/Soldtri {
	/sfill exch def
	xratio mul
	/r exch def
	yratio mul
	/y0 exch def
	xratio mul
	/x0 exch def
	x0 r sub
	/x1 exch def
	y0 r sub
	/y1 exch def
	x0 r add
	/x2 exch def
	y0 r sub
	/y2 exch def
	/x3 x0 def
	y0 r add
	/y3 exch def
	newpath x1 y1 moveto x2 y2 lineto x3 y3 lineto x1 y1 lineto closepath
	sfill 1 eq {
		Ssrgb setrgbcolor
		gsave
		fill
		grestore
	} if
	Slw setlinewidth
	Slrgb setrgbcolor
	stroke
} def
/Sdia {
	/sfill exch def
	xratio mul
	/r exch def
	yratio mul
	/y exch def
	xratio mul
	/x exch def
	x r sub
	/x0 exch def
	/y0 y def
	/x1 x def
	y r sub
	/y1 exch def
	x r add
	/x2 exch def
	/y2 y def
	/x3 x def
	y r add
	/y3 exch def
	newpath x0 y0 moveto x1 y1 lineto x2 y2 lineto x3 y3 lineto x0 y0 lineto closepath
	sfill 1 eq {
		Ssrgb setrgbcolor
		gsave
		fill
		grestore
	} if
	Slw setlinewidth
	Slrgb setrgbcolor
	stroke
} def
/Scc {
	/sfill exch def
	xratio mul
	/r0 exch def
	yratio mul
	/y0 exch def
	xratio mul
	/x0 exch def
	x0 y0 r0 0 360 arc closepath
	sfill 1 eq {
		Ssrgb setrgbcolor
		gsave
		fill
		grestore
	} if
	Slw setlinewidth
	Slrgb setrgbcolor
	stroke
} def
/Spie {
	/sfill exch def
	/a1 exch def
	/a0 exch def
	xratio mul
	/r exch def
	yratio mul
	/y exch def
	xratio mul
	/x exch def
	newpath x y moveto x y r a0 a1 arc closepath
	sfill 1 eq {
		Ssrgb setrgbcolor
		gsave
		fill
		grestore
	} if
	Slw setlinewidth
	Slrgb setrgbcolor
	stroke
} def
/Splu {
	xratio mul
	/r exch def
	yratio mul
	/y exch def
	xratio mul
	/x exch def
	x r sub
	/x0 exch def
	x r add
	/x1 exch def
	x0 y M x1 y L
	y r sub
	/y0 exch def
	y r add
	/y1 exch def
	x y0 M x y1 L
} def
/Scro {
	xratio mul
	/r exch def
	yratio mul
	/y exch def
	xratio mul
	/x exch def
	x r sub
	/x0 exch def
	y r sub
	/y0 exch def
	x r add
	/x1 exch def
	y r add
	/y1 exch def
	x0 y0 M x1 y1 L
	x r add
	/x0 exch def
	y r sub
	/y0 exch def
	x r sub
	/x1 exch def
	y r add
	/y1 exch def
	x0 y0 M x1 y1 L
} def
/Sm {
	yratio mul
	/y exch def
	xratio mul
	/x exch def
	x y M
} def
/Sl {
	yratio mul
	/y exch def
	xratio mul
	/x exch def
	x y L
} def
/SPl {
	yratio mul
	/y exch def
	xratio mul
	/x exch def
	x y PL
} def
/Lcs {
	currentlinecap
	1 setlinecap
} def
/Lcr {
	setlinecap
} def
/Sbp {
	newpath
} def
/Sep {
	/sfill exch def
	closepath
	sfill 1 eq  {
		Ssrgb setrgbcolor
		gsave
		fill
		grestore
	} if
	Slw setlinewidth
	Slrgb setrgbcolor
	Lcs
	stroke
	Lcr
} def
/cp {currentpoint} def 
/M {moveto} def 
/rm {rmoveto} def 
/S {stroke} def 
/L {Slw setlinewidth Slrgb setrgbcolor lineto Lcs S Lcr} def 
/PL {Slw setlinewidth Slrgb setrgbcolor lineto} def 
/MF-Helvetica {
  /newfontname exch def
  /fontname exch def
  /fontdict fontname findfont def
  /newfont fontdict maxlength dict def
  fontdict {
  exch dup /FID eq {pop pop} {exch newfont 3 1 roll put} ifelse
  } forall
  newfont /FontName newfontname put
  newfont /Encoding ISOLatin1Encoding put
  newfontname newfont definefont pop
} def
/Helvetica /Helvetica-0 MF-Helvetica
/Slw 0.120 def
0.918 0.949 0.953 setrgbcolor
0 0 396.000 288.000 Sbgfill
/Slrgb {1.000 1.000 1.000} def
/Strgb {1.000 1.000 1.000} def
/Ssrgb {1.000 1.000 1.000} def
/Ssrgb {0.918 0.949 0.953} def
/Slw 0.576 def
/Slrgb {0.918 0.949 0.953} def
0 0 31999 23272 1 Srect
/Ssrgb {1.000 1.000 1.000} def
/Slw 0.490 def
/Slrgb {1.000 1.000 1.000} def
2330 5649 16338 21185 1 Srect
/Slrgb {0.000 0.000 0.000} def
/Strgb {0.000 0.000 0.000} def
/Slw 0.734 def
/Slrgb {0.757 0.020 0.204} def
2330 13013 16338 13013 Sln
/Slw 0.490 def
/Slrgb {1.000 1.000 1.000} def
16897 5649 30905 21185 1 Srect
/Slrgb {0.000 0.000 0.000} def
/Slw 0.734 def
/Slrgb {0.757 0.020 0.204} def
16897 13013 30905 13013 Sln
/Ssrgb {0.282 0.424 0.549} def
/Slrgb {0.102 0.278 0.435} def
4028 11315 4028 16896 Sln
5302 12042 5302 13895 Sln
6575 11789 6575 13365 Sln
7848 11744 7848 13285 Sln
9122 11538 9122 13244 Sln
10395 11123 10395 13430 Sln
11669 11091 11669 13583 Sln
12942 11497 12942 13978 Sln
14216 11262 14216 13598 Sln
15489 9765 15489 14812 Sln
2754 13012 Sm
4028 14105 Sl
4028 14105 Sm
5301 12968 Sl
5301 12968 Sm
6575 12577 Sl
6575 12577 Sm
7848 12514 Sl
7848 12514 Sm
9121 12391 Sl
9121 12391 Sm
10395 12276 Sl
10395 12276 Sm
11668 12337 Sl
11668 12337 Sm
12942 12737 Sl
12942 12737 Sm
14215 12430 Sl
14215 12430 Sm
15489 12288 Sl
/Ssrgb {0.651 0.365 0.384} def
/Slrgb {0.565 0.208 0.231} def
4453 11073 4453 14316 Sln
5726 11373 5726 12693 Sln
7000 11355 7000 12802 Sln
8273 10779 8273 12697 Sln
9546 10199 9546 12700 Sln
10820 9439 10820 12315 Sln
12093 9090 12093 12696 Sln
13367 9381 13367 13141 Sln
14640 9402 14640 12645 Sln
15914 7122 15914 13348 Sln
3179 13012 Sm
4452 12694 Sl
4452 12694 Sm
5726 12033 Sl
5726 12033 Sm
6999 12078 Sl
6999 12078 Sm
8272 11737 Sl
8272 11737 Sm
9546 11449 Sl
9546 11449 Sm
10819 10877 Sl
10819 10877 Sm
12093 10893 Sl
12093 10893 Sm
13366 11261 Sl
13366 11261 Sm
14640 11023 Sl
14640 11023 Sm
15913 10234 Sl
/Ssrgb {0.282 0.424 0.549} def
/Slrgb {0.102 0.278 0.435} def
18595 11315 18595 16896 Sln
19868 12042 19868 13895 Sln
21142 11789 21142 13365 Sln
22415 11744 22415 13285 Sln
23689 11538 23689 13244 Sln
24962 11123 24962 13430 Sln
26236 11091 26236 13583 Sln
27509 11497 27509 13978 Sln
28783 11262 28783 13598 Sln
30056 9765 30056 14812 Sln
17321 13012 Sm
18594 14105 Sl
18594 14105 Sm
19868 12968 Sl
19868 12968 Sm
21141 12577 Sl
21141 12577 Sm
22415 12514 Sl
22415 12514 Sm
23688 12391 Sl
23688 12391 Sm
24962 12276 Sl
24962 12276 Sm
26235 12337 Sl
26235 12337 Sm
27509 12737 Sl
27509 12737 Sm
28782 12430 Sl
28782 12430 Sm
30056 12288 Sl
/Ssrgb {0.651 0.365 0.384} def
/Slrgb {0.565 0.208 0.231} def
19019 11933 19019 15611 Sln
20293 11690 20293 20750 Sln
21566 12272 21566 13667 Sln
22840 11963 22840 13425 Sln
24113 11113 24113 13094 Sln
25387 11316 25387 14124 Sln
26660 11309 26660 15651 Sln
27934 10536 27934 15747 Sln
29207 11730 29207 17292 Sln
30481 10934 30481 16766 Sln
17745 13012 Sm
19019 13772 Sl
19019 13772 Sm
20292 16220 Sl
20292 16220 Sm
21566 12969 Sl
21566 12969 Sm
22839 12694 Sl
22839 12694 Sm
24113 12103 Sl
24113 12103 Sm
25386 12719 Sl
25386 12719 Sm
26660 13480 Sl
26660 13480 Sm
27933 13141 Sl
27933 13141 Sm
29207 14510 Sl
29207 14510 Sm
30480 13849 Sl
/Slw 0.490 def
/Slrgb {0.000 0.000 0.000} def
2330 5649 2330 21185 Sln
2330 6084 2055 6084 Sln
1712 6084 0
/Helvetica-0 findfont 687 yratio mul scalefont setfont
(-5) stringwidth pop add
2 div xratio div
dup 4 3 roll exch 90.000 cos mul sub 3 1 roll 90.000 sin mul sub 2 copy
/fntsize {/Helvetica-0 findfont exch scalefont setfont } def
90.000 687
(-5) Stxtl
(-5) stringwidth pop xratio div
dup 4 3 roll exch 90.000 cos mul add 3 1 roll 90.000 sin mul add 2 copy
pop pop pop pop
2330 13013 2055 13013 Sln
1712 13013 0
/Helvetica-0 findfont 687 yratio mul scalefont setfont
(0) stringwidth pop add
2 div xratio div
dup 4 3 roll exch 90.000 cos mul sub 3 1 roll 90.000 sin mul sub 2 copy
/fntsize {/Helvetica-0 findfont exch scalefont setfont } def
90.000 687
(0) Stxtl
(0) stringwidth pop xratio div
dup 4 3 roll exch 90.000 cos mul add 3 1 roll 90.000 sin mul add 2 copy
pop pop pop pop
2330 19941 2055 19941 Sln
1712 19941 0
/Helvetica-0 findfont 687 yratio mul scalefont setfont
(5) stringwidth pop add
2 div xratio div
dup 4 3 roll exch 90.000 cos mul sub 3 1 roll 90.000 sin mul sub 2 copy
/fntsize {/Helvetica-0 findfont exch scalefont setfont } def
90.000 687
(5) Stxtl
(5) stringwidth pop xratio div
dup 4 3 roll exch 90.000 cos mul add 3 1 roll 90.000 sin mul add 2 copy
pop pop pop pop
2330 5649 16338 5649 Sln
2967 5649 2967 5375 Sln
3175 5117 0
/Helvetica-0 findfont 687 yratio mul scalefont setfont
(No) stringwidth pop add
xratio div
dup 4 3 roll exch 60.000 cos mul sub 3 1 roll 60.000 sin mul sub 2 copy
/fntsize {/Helvetica-0 findfont exch scalefont setfont } def
60.000 687
(No) Stxtl
(No) stringwidth pop xratio div
dup 4 3 roll exch 60.000 cos mul add 3 1 roll 60.000 sin mul add 2 copy
pop pop pop pop
4240 5649 4240 5375 Sln
4448 5117 0
/Helvetica-0 findfont 687 yratio mul scalefont setfont
(0) stringwidth pop add
xratio div
dup 4 3 roll exch 60.000 cos mul sub 3 1 roll 60.000 sin mul sub 2 copy
/fntsize {/Helvetica-0 findfont exch scalefont setfont } def
60.000 687
(0) Stxtl
(0) stringwidth pop xratio div
dup 4 3 roll exch 60.000 cos mul add 3 1 roll 60.000 sin mul add 2 copy
pop pop pop pop
5514 5649 5514 5375 Sln
5722 5117 0
/Helvetica-0 findfont 687 yratio mul scalefont setfont
(1-2) stringwidth pop add
xratio div
dup 4 3 roll exch 60.000 cos mul sub 3 1 roll 60.000 sin mul sub 2 copy
/fntsize {/Helvetica-0 findfont exch scalefont setfont } def
60.000 687
(1-2) Stxtl
(1-2) stringwidth pop xratio div
dup 4 3 roll exch 60.000 cos mul add 3 1 roll 60.000 sin mul add 2 copy
pop pop pop pop
6787 5649 6787 5375 Sln
6995 5117 0
/Helvetica-0 findfont 687 yratio mul scalefont setfont
(3-4) stringwidth pop add
xratio div
dup 4 3 roll exch 60.000 cos mul sub 3 1 roll 60.000 sin mul sub 2 copy
/fntsize {/Helvetica-0 findfont exch scalefont setfont } def
60.000 687
(3-4) Stxtl
(3-4) stringwidth pop xratio div
dup 4 3 roll exch 60.000 cos mul add 3 1 roll 60.000 sin mul add 2 copy
pop pop pop pop
8061 5649 8061 5375 Sln
8269 5117 0
/Helvetica-0 findfont 687 yratio mul scalefont setfont
(5-6) stringwidth pop add
xratio div
dup 4 3 roll exch 60.000 cos mul sub 3 1 roll 60.000 sin mul sub 2 copy
/fntsize {/Helvetica-0 findfont exch scalefont setfont } def
60.000 687
(5-6) Stxtl
(5-6) stringwidth pop xratio div
dup 4 3 roll exch 60.000 cos mul add 3 1 roll 60.000 sin mul add 2 copy
pop pop pop pop
9334 5649 9334 5375 Sln
9542 5117 0
/Helvetica-0 findfont 687 yratio mul scalefont setfont
(7-8) stringwidth pop add
xratio div
dup 4 3 roll exch 60.000 cos mul sub 3 1 roll 60.000 sin mul sub 2 copy
/fntsize {/Helvetica-0 findfont exch scalefont setfont } def
60.000 687
(7-8) Stxtl
(7-8) stringwidth pop xratio div
dup 4 3 roll exch 60.000 cos mul add 3 1 roll 60.000 sin mul add 2 copy
pop pop pop pop
10608 5649 10608 5375 Sln
10816 5117 0
/Helvetica-0 findfont 687 yratio mul scalefont setfont
(9-10) stringwidth pop add
xratio div
dup 4 3 roll exch 60.000 cos mul sub 3 1 roll 60.000 sin mul sub 2 copy
/fntsize {/Helvetica-0 findfont exch scalefont setfont } def
60.000 687
(9-10) Stxtl
(9-10) stringwidth pop xratio div
dup 4 3 roll exch 60.000 cos mul add 3 1 roll 60.000 sin mul add 2 copy
pop pop pop pop
11881 5649 11881 5375 Sln
12089 5117 0
/Helvetica-0 findfont 687 yratio mul scalefont setfont
(11-12) stringwidth pop add
xratio div
dup 4 3 roll exch 60.000 cos mul sub 3 1 roll 60.000 sin mul sub 2 copy
/fntsize {/Helvetica-0 findfont exch scalefont setfont } def
60.000 687
(11-12) Stxtl
(11-12) stringwidth pop xratio div
dup 4 3 roll exch 60.000 cos mul add 3 1 roll 60.000 sin mul add 2 copy
pop pop pop pop
13155 5649 13155 5375 Sln
13363 5117 0
/Helvetica-0 findfont 687 yratio mul scalefont setfont
(13-14) stringwidth pop add
xratio div
dup 4 3 roll exch 60.000 cos mul sub 3 1 roll 60.000 sin mul sub 2 copy
/fntsize {/Helvetica-0 findfont exch scalefont setfont } def
60.000 687
(13-14) Stxtl
(13-14) stringwidth pop xratio div
dup 4 3 roll exch 60.000 cos mul add 3 1 roll 60.000 sin mul add 2 copy
pop pop pop pop
14428 5649 14428 5375 Sln
14636 5117 0
/Helvetica-0 findfont 687 yratio mul scalefont setfont
(15-19) stringwidth pop add
xratio div
dup 4 3 roll exch 60.000 cos mul sub 3 1 roll 60.000 sin mul sub 2 copy
/fntsize {/Helvetica-0 findfont exch scalefont setfont } def
60.000 687
(15-19) Stxtl
(15-19) stringwidth pop xratio div
dup 4 3 roll exch 60.000 cos mul add 3 1 roll 60.000 sin mul add 2 copy
pop pop pop pop
15702 5649 15702 5375 Sln
15910 5117 0
/Helvetica-0 findfont 687 yratio mul scalefont setfont
(20+) stringwidth pop add
xratio div
dup 4 3 roll exch 60.000 cos mul sub 3 1 roll 60.000 sin mul sub 2 copy
/fntsize {/Helvetica-0 findfont exch scalefont setfont } def
60.000 687
(20+) Stxtl
(20+) stringwidth pop xratio div
dup 4 3 roll exch 60.000 cos mul add 3 1 roll 60.000 sin mul add 2 copy
pop pop pop pop
16897 5649 30905 5649 Sln
17534 5649 17534 5375 Sln
17742 5117 0
/Helvetica-0 findfont 687 yratio mul scalefont setfont
(No) stringwidth pop add
xratio div
dup 4 3 roll exch 60.000 cos mul sub 3 1 roll 60.000 sin mul sub 2 copy
/fntsize {/Helvetica-0 findfont exch scalefont setfont } def
60.000 687
(No) Stxtl
(No) stringwidth pop xratio div
dup 4 3 roll exch 60.000 cos mul add 3 1 roll 60.000 sin mul add 2 copy
pop pop pop pop
18807 5649 18807 5375 Sln
19015 5117 0
/Helvetica-0 findfont 687 yratio mul scalefont setfont
(0) stringwidth pop add
xratio div
dup 4 3 roll exch 60.000 cos mul sub 3 1 roll 60.000 sin mul sub 2 copy
/fntsize {/Helvetica-0 findfont exch scalefont setfont } def
60.000 687
(0) Stxtl
(0) stringwidth pop xratio div
dup 4 3 roll exch 60.000 cos mul add 3 1 roll 60.000 sin mul add 2 copy
pop pop pop pop
20081 5649 20081 5375 Sln
20289 5117 0
/Helvetica-0 findfont 687 yratio mul scalefont setfont
(1-2) stringwidth pop add
xratio div
dup 4 3 roll exch 60.000 cos mul sub 3 1 roll 60.000 sin mul sub 2 copy
/fntsize {/Helvetica-0 findfont exch scalefont setfont } def
60.000 687
(1-2) Stxtl
(1-2) stringwidth pop xratio div
dup 4 3 roll exch 60.000 cos mul add 3 1 roll 60.000 sin mul add 2 copy
pop pop pop pop
21354 5649 21354 5375 Sln
21562 5117 0
/Helvetica-0 findfont 687 yratio mul scalefont setfont
(3-4) stringwidth pop add
xratio div
dup 4 3 roll exch 60.000 cos mul sub 3 1 roll 60.000 sin mul sub 2 copy
/fntsize {/Helvetica-0 findfont exch scalefont setfont } def
60.000 687
(3-4) Stxtl
(3-4) stringwidth pop xratio div
dup 4 3 roll exch 60.000 cos mul add 3 1 roll 60.000 sin mul add 2 copy
pop pop pop pop
22628 5649 22628 5375 Sln
22836 5117 0
/Helvetica-0 findfont 687 yratio mul scalefont setfont
(5-6) stringwidth pop add
xratio div
dup 4 3 roll exch 60.000 cos mul sub 3 1 roll 60.000 sin mul sub 2 copy
/fntsize {/Helvetica-0 findfont exch scalefont setfont } def
60.000 687
(5-6) Stxtl
(5-6) stringwidth pop xratio div
dup 4 3 roll exch 60.000 cos mul add 3 1 roll 60.000 sin mul add 2 copy
pop pop pop pop
23901 5649 23901 5375 Sln
24109 5117 0
/Helvetica-0 findfont 687 yratio mul scalefont setfont
(7-8) stringwidth pop add
xratio div
dup 4 3 roll exch 60.000 cos mul sub 3 1 roll 60.000 sin mul sub 2 copy
/fntsize {/Helvetica-0 findfont exch scalefont setfont } def
60.000 687
(7-8) Stxtl
(7-8) stringwidth pop xratio div
dup 4 3 roll exch 60.000 cos mul add 3 1 roll 60.000 sin mul add 2 copy
pop pop pop pop
25175 5649 25175 5375 Sln
25383 5117 0
/Helvetica-0 findfont 687 yratio mul scalefont setfont
(9-10) stringwidth pop add
xratio div
dup 4 3 roll exch 60.000 cos mul sub 3 1 roll 60.000 sin mul sub 2 copy
/fntsize {/Helvetica-0 findfont exch scalefont setfont } def
60.000 687
(9-10) Stxtl
(9-10) stringwidth pop xratio div
dup 4 3 roll exch 60.000 cos mul add 3 1 roll 60.000 sin mul add 2 copy
pop pop pop pop
26448 5649 26448 5375 Sln
26656 5117 0
/Helvetica-0 findfont 687 yratio mul scalefont setfont
(11-12) stringwidth pop add
xratio div
dup 4 3 roll exch 60.000 cos mul sub 3 1 roll 60.000 sin mul sub 2 copy
/fntsize {/Helvetica-0 findfont exch scalefont setfont } def
60.000 687
(11-12) Stxtl
(11-12) stringwidth pop xratio div
dup 4 3 roll exch 60.000 cos mul add 3 1 roll 60.000 sin mul add 2 copy
pop pop pop pop
27722 5649 27722 5375 Sln
27930 5117 0
/Helvetica-0 findfont 687 yratio mul scalefont setfont
(13-14) stringwidth pop add
xratio div
dup 4 3 roll exch 60.000 cos mul sub 3 1 roll 60.000 sin mul sub 2 copy
/fntsize {/Helvetica-0 findfont exch scalefont setfont } def
60.000 687
(13-14) Stxtl
(13-14) stringwidth pop xratio div
dup 4 3 roll exch 60.000 cos mul add 3 1 roll 60.000 sin mul add 2 copy
pop pop pop pop
28995 5649 28995 5375 Sln
29203 5117 0
/Helvetica-0 findfont 687 yratio mul scalefont setfont
(15-19) stringwidth pop add
xratio div
dup 4 3 roll exch 60.000 cos mul sub 3 1 roll 60.000 sin mul sub 2 copy
/fntsize {/Helvetica-0 findfont exch scalefont setfont } def
60.000 687
(15-19) Stxtl
(15-19) stringwidth pop xratio div
dup 4 3 roll exch 60.000 cos mul add 3 1 roll 60.000 sin mul add 2 copy
pop pop pop pop
30268 5649 30268 5375 Sln
30476 5117 0
/Helvetica-0 findfont 687 yratio mul scalefont setfont
(20+) stringwidth pop add
xratio div
dup 4 3 roll exch 60.000 cos mul sub 3 1 roll 60.000 sin mul sub 2 copy
/fntsize {/Helvetica-0 findfont exch scalefont setfont } def
60.000 687
(20+) Stxtl
(20+) stringwidth pop xratio div
dup 4 3 roll exch 60.000 cos mul add 3 1 roll 60.000 sin mul add 2 copy
pop pop pop pop
/Ssrgb {0.851 0.902 0.922} def
/Slrgb {0.851 0.902 0.922} def
2330 21185 16338 22178 1 Srect
9334 21531 0
/Helvetica-0 findfont 756 yratio mul scalefont setfont
(mi_bmi_0_dur_g) stringwidth pop add
2 div xratio div
dup 4 3 roll exch 0.000 cos mul sub 3 1 roll 0.000 sin mul sub 2 copy
/fntsize {/Helvetica-0 findfont exch scalefont setfont } def
0.000 756
(mi_bmi_0_dur_g) Stxtl
(mi_bmi_0_dur_g) stringwidth pop xratio div
dup 4 3 roll exch 0.000 cos mul add 3 1 roll 0.000 sin mul add 2 copy
pop pop pop pop
16897 21185 30905 22178 1 Srect
23901 21531 0
/Helvetica-0 findfont 756 yratio mul scalefont setfont
(mi_bmi_0_dur_g) stringwidth pop add
2 div xratio div
dup 4 3 roll exch 0.000 cos mul sub 3 1 roll 0.000 sin mul sub 2 copy
/fntsize {/Helvetica-0 findfont exch scalefont setfont } def
0.000 756
(mi_bmi_0_dur_g) Stxtl
(mi_bmi_0_dur_g) stringwidth pop xratio div
dup 4 3 roll exch 0.000 cos mul add 3 1 roll 0.000 sin mul add 2 copy
pop pop pop pop
/Ssrgb {1.000 1.000 1.000} def
/Slw 0.576 def
/Slrgb {0.000 0.000 0.000} def
8829 1094 23170 2600 1 Srect
/Slw 0.864 def
/Slrgb {0.102 0.278 0.435} def
9178 1847 12203 1847 Sln
/Slrgb {0.565 0.208 0.231} def
16082 1847 19107 1847 Sln
12688 1564 2 copy
/fntsize {/Helvetica-0 findfont exch scalefont setfont } def
0.000 808
(Males) Stxtl
(Males) stringwidth pop xratio div
dup 4 3 roll exch 0.000 cos mul add 3 1 roll 0.000 sin mul add 2 copy
pop pop pop pop
19592 1564 2 copy
/fntsize {/Helvetica-0 findfont exch scalefont setfont } def
0.000 808
(Females) Stxtl
(Females) stringwidth pop xratio div
dup 4 3 roll exch 0.000 cos mul add 3 1 roll 0.000 sin mul add 2 copy
pop pop pop pop
S showpage
%%EOF
