%!PS-Adobe-2.0 EPSF-2.0
%% This is a Stata generated postscript file
%%BoundingBox: 0 0 396 288
%%HiResBoundingBox: 0.000 0.000 396.000 288.000
%%DocumentNeededResources: font Helvetica
/xratio 0.012375 def
/yratio 0.012375 def
/Sbgfill {
	/y1 exch def
	/x1 exch def
	/y0 exch def
	/x0 exch def
	x0 y0 moveto
	x0 y1 lineto x1 y1 lineto x1 y0 lineto x0 y0 lineto
	fill
} def
/Spt {
	yratio mul
	/yp exch def
	xratio mul
	/xp exch def
	Slrgb setrgbcolor
	xp yp .5 0 360 arc fill
} def
/Sln {
	yratio mul
	/y1p exch def
	xratio mul
	/x1p exch def
	yratio mul
	/y0p exch def
	xratio mul
	/x0p exch def
	Slw setlinewidth
	Slrgb setrgbcolor
	x0p y0p M x1p y1p lineto S
} def
/Scrv {
	yratio mul
	/y3p exch def
	xratio mul
	/x3p exch def
	yratio mul
	/y2p exch def
	xratio mul
	/x2p exch def
	yratio mul
	/y1p exch def
	xratio mul
	/x1p exch def
	Slw setlinewidth
	Slrgb setrgbcolor
	x1p y1p x2p y2p x3p y3p curveto
	stroke
} def
/Stxtl {
	/sp exch def
	yratio mul
	/sizep exch def
	dup
	/anglep exch def
	0 exch sub
	/angle2p exch def
	yratio mul
	/y0p exch def
	xratio mul
	/x0p exch def
	Strgb setrgbcolor
	x0p y0p M anglep rotate sizep fntsize sp show stroke angle2p rotate
} def
/Stxtc {
	/sp exch def
	yratio mul
	/sizep exch def
	dup
	/anglep exch def
	0 exch sub
	/angle2p exch def
	yratio mul
	/y0p exch def
	xratio mul
	/x0p exch def
	Strgb setrgbcolor
	x0p y0p M anglep rotate sizep fntsize sp stringwidth exch -2 div exch rm sp show stroke angle2p rotate
} def
/Stxtr {
	/sp exch def
	yratio mul
	/sizep exch def
	dup
	/anglep exch def
	0 exch sub
	/angle2p exch def
	yratio mul
	/y0p exch def
	xratio mul
	/x0p exch def
	Strgb setrgbcolor
	x0p y0p M anglep rotate sizep fntsize sp stringwidth 1 index -1 mul exch rm pop sp show stroke angle2p rotate
} def
/Srect {
	/sfill exch def
	yratio mul
	/y1 exch def
	xratio mul
	/x1 exch def
	yratio mul
	/y0 exch def
	xratio mul
	/x0 exch def
	newpath x0 y0 moveto x0 y1 lineto x1 y1 lineto x1 y0 lineto x0 y0 lineto closepath
	sfill 1 eq {
		Ssrgb setrgbcolor
		gsave
		fill
		grestore
	} if
	Slw setlinewidth
	Slrgb setrgbcolor
	stroke
} def
/Sellipse {
	/sfill exch def
	yratio mul
	/yrad exch def
	xratio mul
	/xrad exch def
	yratio mul
	/y exch def
	xratio mul
	/x exch def
	/savematrix matrix currentmatrix def
	x y translate
	xrad yrad scale
	0 0 1 0 360 arc
	savematrix setmatrix
	sfill 1 eq {
		Ssrgb setrgbcolor
		gsave
		fill
		grestore
	} if
	Slw setlinewidth
	Slrgb setrgbcolor
	stroke
} def
/Stri {
	/sfill exch def
	xratio mul
	/r exch def
	yratio mul
	/y0 exch def
	xratio mul
	/x0 exch def
	/xcen x0 def
	y0 r add
	/ytop exch def
	r 2 div
	y0 exch sub
	/ybot exch def
	r 3 sqrt 2 div mul dup
	xcen exch sub
	/xleft exch def
	xcen add
	/xright exch def
	newpath xcen ytop moveto xright ybot lineto xleft ybot lineto xcen ytop lineto closepath
	sfill 1 eq {
		Ssrgb setrgbcolor
		gsave
		fill
		grestore
	} if
	Slw setlinewidth
	Slrgb setrgbcolor
	stroke
} def
/Soldtri {
	/sfill exch def
	xratio mul
	/r exch def
	yratio mul
	/y0 exch def
	xratio mul
	/x0 exch def
	x0 r sub
	/x1 exch def
	y0 r sub
	/y1 exch def
	x0 r add
	/x2 exch def
	y0 r sub
	/y2 exch def
	/x3 x0 def
	y0 r add
	/y3 exch def
	newpath x1 y1 moveto x2 y2 lineto x3 y3 lineto x1 y1 lineto closepath
	sfill 1 eq {
		Ssrgb setrgbcolor
		gsave
		fill
		grestore
	} if
	Slw setlinewidth
	Slrgb setrgbcolor
	stroke
} def
/Sdia {
	/sfill exch def
	xratio mul
	/r exch def
	yratio mul
	/y exch def
	xratio mul
	/x exch def
	x r sub
	/x0 exch def
	/y0 y def
	/x1 x def
	y r sub
	/y1 exch def
	x r add
	/x2 exch def
	/y2 y def
	/x3 x def
	y r add
	/y3 exch def
	newpath x0 y0 moveto x1 y1 lineto x2 y2 lineto x3 y3 lineto x0 y0 lineto closepath
	sfill 1 eq {
		Ssrgb setrgbcolor
		gsave
		fill
		grestore
	} if
	Slw setlinewidth
	Slrgb setrgbcolor
	stroke
} def
/Scc {
	/sfill exch def
	xratio mul
	/r0 exch def
	yratio mul
	/y0 exch def
	xratio mul
	/x0 exch def
	x0 y0 r0 0 360 arc closepath
	sfill 1 eq {
		Ssrgb setrgbcolor
		gsave
		fill
		grestore
	} if
	Slw setlinewidth
	Slrgb setrgbcolor
	stroke
} def
/Spie {
	/sfill exch def
	/a1 exch def
	/a0 exch def
	xratio mul
	/r exch def
	yratio mul
	/y exch def
	xratio mul
	/x exch def
	newpath x y moveto x y r a0 a1 arc closepath
	sfill 1 eq {
		Ssrgb setrgbcolor
		gsave
		fill
		grestore
	} if
	Slw setlinewidth
	Slrgb setrgbcolor
	stroke
} def
/Splu {
	xratio mul
	/r exch def
	yratio mul
	/y exch def
	xratio mul
	/x exch def
	x r sub
	/x0 exch def
	x r add
	/x1 exch def
	x0 y M x1 y L
	y r sub
	/y0 exch def
	y r add
	/y1 exch def
	x y0 M x y1 L
} def
/Scro {
	xratio mul
	/r exch def
	yratio mul
	/y exch def
	xratio mul
	/x exch def
	x r sub
	/x0 exch def
	y r sub
	/y0 exch def
	x r add
	/x1 exch def
	y r add
	/y1 exch def
	x0 y0 M x1 y1 L
	x r add
	/x0 exch def
	y r sub
	/y0 exch def
	x r sub
	/x1 exch def
	y r add
	/y1 exch def
	x0 y0 M x1 y1 L
} def
/Sm {
	yratio mul
	/y exch def
	xratio mul
	/x exch def
	x y M
} def
/Sl {
	yratio mul
	/y exch def
	xratio mul
	/x exch def
	x y L
} def
/SPl {
	yratio mul
	/y exch def
	xratio mul
	/x exch def
	x y PL
} def
/Lcs {
	currentlinecap
	1 setlinecap
} def
/Lcr {
	setlinecap
} def
/Sbp {
	newpath
} def
/Sep {
	/sfill exch def
	closepath
	sfill 1 eq  {
		Ssrgb setrgbcolor
		gsave
		fill
		grestore
	} if
	Slw setlinewidth
	Slrgb setrgbcolor
	Lcs
	stroke
	Lcr
} def
/cp {currentpoint} def 
/M {moveto} def 
/rm {rmoveto} def 
/S {stroke} def 
/L {Slw setlinewidth Slrgb setrgbcolor lineto Lcs S Lcr} def 
/PL {Slw setlinewidth Slrgb setrgbcolor lineto} def 
/MF-Helvetica {
  /newfontname exch def
  /fontname exch def
  /fontdict fontname findfont def
  /newfont fontdict maxlength dict def
  fontdict {
  exch dup /FID eq {pop pop} {exch newfont 3 1 roll put} ifelse
  } forall
  newfont /FontName newfontname put
  newfont /Encoding ISOLatin1Encoding put
  newfontname newfont definefont pop
} def
/Helvetica /Helvetica-0 MF-Helvetica
/Slw 0.120 def
0.918 0.949 0.953 setrgbcolor
0 0 396.000 288.000 Sbgfill
/Slrgb {1.000 1.000 1.000} def
/Strgb {1.000 1.000 1.000} def
/Ssrgb {1.000 1.000 1.000} def
/Ssrgb {0.918 0.949 0.953} def
/Slw 0.576 def
/Slrgb {0.918 0.949 0.953} def
0 0 31999 23272 1 Srect
/Ssrgb {1.000 1.000 1.000} def
/Slrgb {1.000 1.000 1.000} def
2350 4415 31184 21047 1 Srect
/Slrgb {0.000 0.000 0.000} def
/Strgb {0.000 0.000 0.000} def
/Slw 0.864 def
/Slrgb {0.918 0.949 0.953} def
2350 6646 31184 6646 Sln
/Slw 0.576 def
/Slrgb {0.000 0.000 0.000} def
/Slw 0.864 def
/Slrgb {0.918 0.949 0.953} def
2350 10972 31184 10972 Sln
/Slw 0.576 def
/Slrgb {0.000 0.000 0.000} def
/Slw 0.864 def
/Slrgb {0.918 0.949 0.953} def
2350 15297 31184 15297 Sln
/Slw 0.576 def
/Slrgb {0.000 0.000 0.000} def
/Slw 0.864 def
/Slrgb {0.918 0.949 0.953} def
2350 19623 31184 19623 Sln
/Slw 0.576 def
/Slrgb {0.000 0.000 0.000} def
/Ssrgb {0.282 0.424 0.549} def
/Slw 0.864 def
/Slrgb {0.102 0.278 0.435} def
3311 12392 3311 18419 Sln
6194 12835 6194 17418 Sln
9078 12450 9078 17365 Sln
11961 13438 11961 17255 Sln
14845 12759 14845 17378 Sln
17728 11754 17728 16572 Sln
20612 10719 20612 17081 Sln
23495 10275 23495 16450 Sln
26379 11663 26379 16512 Sln
29262 7990 29262 18744 Sln
3310 15405 Sm
6194 15126 Sl
6194 15126 Sm
9077 14907 Sl
9077 14907 Sm
11961 15346 Sl
11961 15346 Sm
14844 15068 Sl
14844 15068 Sm
17728 14162 Sl
17728 14162 Sm
20611 13900 Sl
20611 13900 Sm
23495 13362 Sl
23495 13362 Sm
26378 14087 Sl
26378 14087 Sm
29262 13366 Sl
/Ssrgb {0.651 0.365 0.384} def
/Slrgb {0.565 0.208 0.231} def
4272 10527 4272 18550 Sln
7156 11677 7156 14818 Sln
10039 12362 10039 16227 Sln
12922 12642 12922 17361 Sln
15806 11351 15806 17347 Sln
18689 10026 18689 16812 Sln
21573 8195 21573 16897 Sln
24456 7409 24456 16017 Sln
27340 8954 27340 16806 Sln
30223 4926 30223 20535 Sln
4272 14538 Sm
7155 13247 Sl
7155 13247 Sm
10039 14294 Sl
10039 14294 Sm
12922 15001 Sl
12922 15001 Sm
15805 14348 Sl
15805 14348 Sm
18689 13418 Sl
18689 13418 Sm
21572 12545 Sl
21572 12545 Sm
24456 11712 Sl
24456 11712 Sm
27339 12880 Sl
27339 12880 Sm
30223 12730 Sl
/Slw 0.576 def
/Slrgb {0.000 0.000 0.000} def
2350 4415 2350 21047 Sln
2350 6646 2027 6646 Sln
1623 6646 0
/Helvetica-0 findfont 808 yratio mul scalefont setfont
(-1000) stringwidth pop add
2 div xratio div
dup 4 3 roll exch 90.000 cos mul sub 3 1 roll 90.000 sin mul sub 2 copy
/fntsize {/Helvetica-0 findfont exch scalefont setfont } def
90.000 808
(-1000) Stxtl
(-1000) stringwidth pop xratio div
dup 4 3 roll exch 90.000 cos mul add 3 1 roll 90.000 sin mul add 2 copy
pop pop pop pop
2350 10972 2027 10972 Sln
1623 10972 0
/Helvetica-0 findfont 808 yratio mul scalefont setfont
(-500) stringwidth pop add
2 div xratio div
dup 4 3 roll exch 90.000 cos mul sub 3 1 roll 90.000 sin mul sub 2 copy
/fntsize {/Helvetica-0 findfont exch scalefont setfont } def
90.000 808
(-500) Stxtl
(-500) stringwidth pop xratio div
dup 4 3 roll exch 90.000 cos mul add 3 1 roll 90.000 sin mul add 2 copy
pop pop pop pop
2350 15297 2027 15297 Sln
1623 15297 0
/Helvetica-0 findfont 808 yratio mul scalefont setfont
(0) stringwidth pop add
2 div xratio div
dup 4 3 roll exch 90.000 cos mul sub 3 1 roll 90.000 sin mul sub 2 copy
/fntsize {/Helvetica-0 findfont exch scalefont setfont } def
90.000 808
(0) Stxtl
(0) stringwidth pop xratio div
dup 4 3 roll exch 90.000 cos mul add 3 1 roll 90.000 sin mul add 2 copy
pop pop pop pop
2350 19623 2027 19623 Sln
1623 19623 0
/Helvetica-0 findfont 808 yratio mul scalefont setfont
(500) stringwidth pop add
2 div xratio div
dup 4 3 roll exch 90.000 cos mul sub 3 1 roll 90.000 sin mul sub 2 copy
/fntsize {/Helvetica-0 findfont exch scalefont setfont } def
90.000 808
(500) Stxtl
(500) stringwidth pop xratio div
dup 4 3 roll exch 90.000 cos mul add 3 1 roll 90.000 sin mul add 2 copy
pop pop pop pop
2350 4415 31184 4415 Sln
3792 4415 3792 4091 Sln
3792 3364 0
/Helvetica-0 findfont 808 yratio mul scalefont setfont
(1.yearsdiagall_g) stringwidth pop add
2 div xratio div
dup 4 3 roll exch 0.000 cos mul sub 3 1 roll 0.000 sin mul sub 2 copy
/fntsize {/Helvetica-0 findfont exch scalefont setfont } def
0.000 808
(1.yearsdiagall_g) Stxtl
(1.yearsdiagall_g) stringwidth pop xratio div
dup 4 3 roll exch 0.000 cos mul add 3 1 roll 0.000 sin mul add 2 copy
pop pop pop pop
6675 4415 6675 4091 Sln
6675 3364 0
/Helvetica-0 findfont 808 yratio mul scalefont setfont
(2.yearsdiagall_g) stringwidth pop add
2 div xratio div
dup 4 3 roll exch 0.000 cos mul sub 3 1 roll 0.000 sin mul sub 2 copy
/fntsize {/Helvetica-0 findfont exch scalefont setfont } def
0.000 808
(2.yearsdiagall_g) Stxtl
(2.yearsdiagall_g) stringwidth pop xratio div
dup 4 3 roll exch 0.000 cos mul add 3 1 roll 0.000 sin mul add 2 copy
pop pop pop pop
9558 4415 9558 4091 Sln
9558 3364 0
/Helvetica-0 findfont 808 yratio mul scalefont setfont
(3.yearsdiagall_g) stringwidth pop add
2 div xratio div
dup 4 3 roll exch 0.000 cos mul sub 3 1 roll 0.000 sin mul sub 2 copy
/fntsize {/Helvetica-0 findfont exch scalefont setfont } def
0.000 808
(3.yearsdiagall_g) Stxtl
(3.yearsdiagall_g) stringwidth pop xratio div
dup 4 3 roll exch 0.000 cos mul add 3 1 roll 0.000 sin mul add 2 copy
pop pop pop pop
12442 4415 12442 4091 Sln
12442 3364 0
/Helvetica-0 findfont 808 yratio mul scalefont setfont
(4.yearsdiagall_g) stringwidth pop add
2 div xratio div
dup 4 3 roll exch 0.000 cos mul sub 3 1 roll 0.000 sin mul sub 2 copy
/fntsize {/Helvetica-0 findfont exch scalefont setfont } def
0.000 808
(4.yearsdiagall_g) Stxtl
(4.yearsdiagall_g) stringwidth pop xratio div
dup 4 3 roll exch 0.000 cos mul add 3 1 roll 0.000 sin mul add 2 copy
pop pop pop pop
15325 4415 15325 4091 Sln
15325 3364 0
/Helvetica-0 findfont 808 yratio mul scalefont setfont
(5.yearsdiagall_g) stringwidth pop add
2 div xratio div
dup 4 3 roll exch 0.000 cos mul sub 3 1 roll 0.000 sin mul sub 2 copy
/fntsize {/Helvetica-0 findfont exch scalefont setfont } def
0.000 808
(5.yearsdiagall_g) Stxtl
(5.yearsdiagall_g) stringwidth pop xratio div
dup 4 3 roll exch 0.000 cos mul add 3 1 roll 0.000 sin mul add 2 copy
pop pop pop pop
18209 4415 18209 4091 Sln
18209 3364 0
/Helvetica-0 findfont 808 yratio mul scalefont setfont
(6.yearsdiagall_g) stringwidth pop add
2 div xratio div
dup 4 3 roll exch 0.000 cos mul sub 3 1 roll 0.000 sin mul sub 2 copy
/fntsize {/Helvetica-0 findfont exch scalefont setfont } def
0.000 808
(6.yearsdiagall_g) Stxtl
(6.yearsdiagall_g) stringwidth pop xratio div
dup 4 3 roll exch 0.000 cos mul add 3 1 roll 0.000 sin mul add 2 copy
pop pop pop pop
21092 4415 21092 4091 Sln
21092 3364 0
/Helvetica-0 findfont 808 yratio mul scalefont setfont
(7.yearsdiagall_g) stringwidth pop add
2 div xratio div
dup 4 3 roll exch 0.000 cos mul sub 3 1 roll 0.000 sin mul sub 2 copy
/fntsize {/Helvetica-0 findfont exch scalefont setfont } def
0.000 808
(7.yearsdiagall_g) Stxtl
(7.yearsdiagall_g) stringwidth pop xratio div
dup 4 3 roll exch 0.000 cos mul add 3 1 roll 0.000 sin mul add 2 copy
pop pop pop pop
23976 4415 23976 4091 Sln
23976 3364 0
/Helvetica-0 findfont 808 yratio mul scalefont setfont
(8.yearsdiagall_g) stringwidth pop add
2 div xratio div
dup 4 3 roll exch 0.000 cos mul sub 3 1 roll 0.000 sin mul sub 2 copy
/fntsize {/Helvetica-0 findfont exch scalefont setfont } def
0.000 808
(8.yearsdiagall_g) Stxtl
(8.yearsdiagall_g) stringwidth pop xratio div
dup 4 3 roll exch 0.000 cos mul add 3 1 roll 0.000 sin mul add 2 copy
pop pop pop pop
26859 4415 26859 4091 Sln
26859 3364 0
/Helvetica-0 findfont 808 yratio mul scalefont setfont
(9.yearsdiagall_g) stringwidth pop add
2 div xratio div
dup 4 3 roll exch 0.000 cos mul sub 3 1 roll 0.000 sin mul sub 2 copy
/fntsize {/Helvetica-0 findfont exch scalefont setfont } def
0.000 808
(9.yearsdiagall_g) Stxtl
(9.yearsdiagall_g) stringwidth pop xratio div
dup 4 3 roll exch 0.000 cos mul add 3 1 roll 0.000 sin mul add 2 copy
pop pop pop pop
29743 4415 29743 4091 Sln
29743 3364 0
/Helvetica-0 findfont 808 yratio mul scalefont setfont
(10.yearsdiagall_g) stringwidth pop add
2 div xratio div
dup 4 3 roll exch 0.000 cos mul sub 3 1 roll 0.000 sin mul sub 2 copy
/fntsize {/Helvetica-0 findfont exch scalefont setfont } def
0.000 808
(10.yearsdiagall_g) Stxtl
(10.yearsdiagall_g) stringwidth pop xratio div
dup 4 3 roll exch 0.000 cos mul add 3 1 roll 0.000 sin mul add 2 copy
pop pop pop pop
/Ssrgb {1.000 1.000 1.000} def
5920 1094 27614 2600 1 Srect
/Slw 0.864 def
/Slrgb {0.102 0.278 0.435} def
6269 1847 9294 1847 Sln
/Slrgb {0.565 0.208 0.231} def
18311 1847 21336 1847 Sln
9779 1564 2 copy
/fntsize {/Helvetica-0 findfont exch scalefont setfont } def
0.000 808
(mi_d3kcal_0_dur_g) Stxtl
(mi_d3kcal_0_dur_g) stringwidth pop xratio div
dup 4 3 roll exch 0.000 cos mul add 3 1 roll 0.000 sin mul add 2 copy
pop pop pop pop
21821 1564 2 copy
/fntsize {/Helvetica-0 findfont exch scalefont setfont } def
0.000 808
(mi_kcal_fe_g0) Stxtl
(mi_kcal_fe_g0) stringwidth pop xratio div
dup 4 3 roll exch 0.000 cos mul add 3 1 roll 0.000 sin mul add 2 copy
pop pop pop pop
/Strgb {0.118 0.176 0.325} def
16767 21526 0
/Helvetica-0 findfont 1131 yratio mul scalefont setfont
(Daily calorie consumption) stringwidth pop add
2 div xratio div
dup 4 3 roll exch 0.000 cos mul sub 3 1 roll 0.000 sin mul sub 2 copy
/fntsize {/Helvetica-0 findfont exch scalefont setfont } def
0.000 1131
(Daily calorie consumption) Stxtl
(Daily calorie consumption) stringwidth pop xratio div
dup 4 3 roll exch 0.000 cos mul add 3 1 roll 0.000 sin mul add 2 copy
pop pop pop pop
S showpage
%%EOF
