%!PS-Adobe-2.0 EPSF-2.0
%% This is a Stata generated postscript file
%%BoundingBox: 0 0 576 288
%%HiResBoundingBox: 0.000 0.000 576.000 288.000
%%DocumentNeededResources: font Helvetica
/xratio 0.018000 def
/yratio 0.018000 def
/Sbgfill {
	/y1 exch def
	/x1 exch def
	/y0 exch def
	/x0 exch def
	x0 y0 moveto
	x0 y1 lineto x1 y1 lineto x1 y0 lineto x0 y0 lineto
	fill
} def
/Spt {
	yratio mul
	/yp exch def
	xratio mul
	/xp exch def
	Slrgb setrgbcolor
	xp yp .5 0 360 arc fill
} def
/Sln {
	yratio mul
	/y1p exch def
	xratio mul
	/x1p exch def
	yratio mul
	/y0p exch def
	xratio mul
	/x0p exch def
	Slw setlinewidth
	Slrgb setrgbcolor
	x0p y0p M x1p y1p lineto S
} def
/Scrv {
	yratio mul
	/y3p exch def
	xratio mul
	/x3p exch def
	yratio mul
	/y2p exch def
	xratio mul
	/x2p exch def
	yratio mul
	/y1p exch def
	xratio mul
	/x1p exch def
	Slw setlinewidth
	Slrgb setrgbcolor
	x1p y1p x2p y2p x3p y3p curveto
	stroke
} def
/Stxtl {
	/sp exch def
	yratio mul
	/sizep exch def
	dup
	/anglep exch def
	0 exch sub
	/angle2p exch def
	yratio mul
	/y0p exch def
	xratio mul
	/x0p exch def
	Strgb setrgbcolor
	x0p y0p M anglep rotate sizep fntsize sp show stroke angle2p rotate
} def
/Stxtc {
	/sp exch def
	yratio mul
	/sizep exch def
	dup
	/anglep exch def
	0 exch sub
	/angle2p exch def
	yratio mul
	/y0p exch def
	xratio mul
	/x0p exch def
	Strgb setrgbcolor
	x0p y0p M anglep rotate sizep fntsize sp stringwidth exch -2 div exch rm sp show stroke angle2p rotate
} def
/Stxtr {
	/sp exch def
	yratio mul
	/sizep exch def
	dup
	/anglep exch def
	0 exch sub
	/angle2p exch def
	yratio mul
	/y0p exch def
	xratio mul
	/x0p exch def
	Strgb setrgbcolor
	x0p y0p M anglep rotate sizep fntsize sp stringwidth 1 index -1 mul exch rm pop sp show stroke angle2p rotate
} def
/Srect {
	/sfill exch def
	yratio mul
	/y1 exch def
	xratio mul
	/x1 exch def
	yratio mul
	/y0 exch def
	xratio mul
	/x0 exch def
	newpath x0 y0 moveto x0 y1 lineto x1 y1 lineto x1 y0 lineto x0 y0 lineto closepath
	sfill 1 eq {
		Ssrgb setrgbcolor
		gsave
		fill
		grestore
	} if
	Slw setlinewidth
	Slrgb setrgbcolor
	stroke
} def
/Sellipse {
	/sfill exch def
	yratio mul
	/yrad exch def
	xratio mul
	/xrad exch def
	yratio mul
	/y exch def
	xratio mul
	/x exch def
	/savematrix matrix currentmatrix def
	x y translate
	xrad yrad scale
	0 0 1 0 360 arc
	savematrix setmatrix
	sfill 1 eq {
		Ssrgb setrgbcolor
		gsave
		fill
		grestore
	} if
	Slw setlinewidth
	Slrgb setrgbcolor
	stroke
} def
/Stri {
	/sfill exch def
	xratio mul
	/r exch def
	yratio mul
	/y0 exch def
	xratio mul
	/x0 exch def
	/xcen x0 def
	y0 r add
	/ytop exch def
	r 2 div
	y0 exch sub
	/ybot exch def
	r 3 sqrt 2 div mul dup
	xcen exch sub
	/xleft exch def
	xcen add
	/xright exch def
	newpath xcen ytop moveto xright ybot lineto xleft ybot lineto xcen ytop lineto closepath
	sfill 1 eq {
		Ssrgb setrgbcolor
		gsave
		fill
		grestore
	} if
	Slw setlinewidth
	Slrgb setrgbcolor
	stroke
} def
/Soldtri {
	/sfill exch def
	xratio mul
	/r exch def
	yratio mul
	/y0 exch def
	xratio mul
	/x0 exch def
	x0 r sub
	/x1 exch def
	y0 r sub
	/y1 exch def
	x0 r add
	/x2 exch def
	y0 r sub
	/y2 exch def
	/x3 x0 def
	y0 r add
	/y3 exch def
	newpath x1 y1 moveto x2 y2 lineto x3 y3 lineto x1 y1 lineto closepath
	sfill 1 eq {
		Ssrgb setrgbcolor
		gsave
		fill
		grestore
	} if
	Slw setlinewidth
	Slrgb setrgbcolor
	stroke
} def
/Sdia {
	/sfill exch def
	xratio mul
	/r exch def
	yratio mul
	/y exch def
	xratio mul
	/x exch def
	x r sub
	/x0 exch def
	/y0 y def
	/x1 x def
	y r sub
	/y1 exch def
	x r add
	/x2 exch def
	/y2 y def
	/x3 x def
	y r add
	/y3 exch def
	newpath x0 y0 moveto x1 y1 lineto x2 y2 lineto x3 y3 lineto x0 y0 lineto closepath
	sfill 1 eq {
		Ssrgb setrgbcolor
		gsave
		fill
		grestore
	} if
	Slw setlinewidth
	Slrgb setrgbcolor
	stroke
} def
/Scc {
	/sfill exch def
	xratio mul
	/r0 exch def
	yratio mul
	/y0 exch def
	xratio mul
	/x0 exch def
	x0 y0 r0 0 360 arc closepath
	sfill 1 eq {
		Ssrgb setrgbcolor
		gsave
		fill
		grestore
	} if
	Slw setlinewidth
	Slrgb setrgbcolor
	stroke
} def
/Spie {
	/sfill exch def
	/a1 exch def
	/a0 exch def
	xratio mul
	/r exch def
	yratio mul
	/y exch def
	xratio mul
	/x exch def
	newpath x y moveto x y r a0 a1 arc closepath
	sfill 1 eq {
		Ssrgb setrgbcolor
		gsave
		fill
		grestore
	} if
	Slw setlinewidth
	Slrgb setrgbcolor
	stroke
} def
/Splu {
	xratio mul
	/r exch def
	yratio mul
	/y exch def
	xratio mul
	/x exch def
	x r sub
	/x0 exch def
	x r add
	/x1 exch def
	x0 y M x1 y L
	y r sub
	/y0 exch def
	y r add
	/y1 exch def
	x y0 M x y1 L
} def
/Scro {
	xratio mul
	/r exch def
	yratio mul
	/y exch def
	xratio mul
	/x exch def
	x r sub
	/x0 exch def
	y r sub
	/y0 exch def
	x r add
	/x1 exch def
	y r add
	/y1 exch def
	x0 y0 M x1 y1 L
	x r add
	/x0 exch def
	y r sub
	/y0 exch def
	x r sub
	/x1 exch def
	y r add
	/y1 exch def
	x0 y0 M x1 y1 L
} def
/Sm {
	yratio mul
	/y exch def
	xratio mul
	/x exch def
	x y M
} def
/Sl {
	yratio mul
	/y exch def
	xratio mul
	/x exch def
	x y L
} def
/SPl {
	yratio mul
	/y exch def
	xratio mul
	/x exch def
	x y PL
} def
/Lcs {
	currentlinecap
	1 setlinecap
} def
/Lcr {
	setlinecap
} def
/Sbp {
	newpath
} def
/Sep {
	/sfill exch def
	closepath
	sfill 1 eq  {
		Ssrgb setrgbcolor
		gsave
		fill
		grestore
	} if
	Slw setlinewidth
	Slrgb setrgbcolor
	Lcs
	stroke
	Lcr
} def
/cp {currentpoint} def 
/M {moveto} def 
/rm {rmoveto} def 
/S {stroke} def 
/L {Slw setlinewidth Slrgb setrgbcolor lineto Lcs S Lcr} def 
/PL {Slw setlinewidth Slrgb setrgbcolor lineto} def 
/MF-Helvetica {
  /newfontname exch def
  /fontname exch def
  /fontdict fontname findfont def
  /newfont fontdict maxlength dict def
  fontdict {
  exch dup /FID eq {pop pop} {exch newfont 3 1 roll put} ifelse
  } forall
  newfont /FontName newfontname put
  newfont /Encoding ISOLatin1Encoding put
  newfontname newfont definefont pop
} def
/Helvetica /Helvetica-0 MF-Helvetica
/Slw 0.120 def
1.000 1.000 1.000 setrgbcolor
0 0 576.000 288.000 Sbgfill
/Slrgb {1.000 1.000 1.000} def
/Strgb {1.000 1.000 1.000} def
/Ssrgb {1.000 1.000 1.000} def
/Slw 0.576 def
0 0 32000 16000 1 Srect
/Slw 0.461 def
/Slrgb {0.000 0.000 0.000} def
2208 10018 9977 14606 0 Srect
/Strgb {0.000 0.000 0.000} def
/Slw 0.691 def
/Slrgb {0.188 0.188 0.188} def
2208 12628 9977 12628 Sln
/Slw 0.461 def
/Slrgb {0.000 0.000 0.000} def
12843 10018 20613 14606 0 Srect
/Slw 0.691 def
/Slrgb {0.188 0.188 0.188} def
12843 12983 20613 12983 Sln
/Slw 0.461 def
/Slrgb {0.000 0.000 0.000} def
23478 10018 31248 14606 0 Srect
/Slw 0.691 def
/Slrgb {0.188 0.188 0.188} def
23478 12656 31248 12656 Sln
/Slw 0.461 def
/Slrgb {0.000 0.000 0.000} def
2208 4405 9977 8992 0 Srect
/Slw 0.691 def
/Slrgb {0.188 0.188 0.188} def
2208 7148 9977 7148 Sln
/Slw 0.461 def
/Slrgb {0.000 0.000 0.000} def
12843 4405 20613 8992 0 Srect
/Slw 0.691 def
/Slrgb {0.188 0.188 0.188} def
12843 7464 20613 7464 Sln
/Slw 0.461 def
/Slrgb {0.000 0.000 0.000} def
23478 4405 31248 8992 0 Srect
/Slw 0.691 def
/Slrgb {0.188 0.188 0.188} def
23478 7234 31248 7234 Sln
/Ssrgb {0.502 0.502 0.502} def
/Slw 0.461 def
/Slrgb {0.376 0.376 0.376} def
2531 12597 2531 12790 Sln
3503 12605 3503 12712 Sln
4474 12568 4474 12684 Sln
5445 12442 5445 12642 Sln
6416 12309 6416 12885 Sln
7387 12534 7387 12787 Sln
8359 12237 8359 12682 Sln
9330 12183 9330 12751 Sln
2531 12693 Sm
3502 12658 Sl
3502 12658 Sm
4473 12626 Sl
4473 12626 Sm
5444 12542 Sl
5444 12542 Sm
6416 12596 Sl
6416 12596 Sm
7387 12660 Sl
7387 12660 Sm
8358 12459 Sl
8358 12459 Sm
9329 12466 Sl
/Ssrgb {0.702 0.702 0.702} def
/Slrgb {0.627 0.627 0.627} def
2855 11602 2855 14324 Sln
3826 11936 3826 12660 Sln
4797 11636 4797 12365 Sln
5769 11384 5769 13071 Sln
6740 10714 6740 12624 Sln
7711 10449 7711 12727 Sln
8682 10300 8682 13713 Sln
2855 12963 2961 12891 Sln
3053 12827 3159 12755 Sln
3252 12691 3358 12619 Sln
3450 12555 3556 12483 Sln
3648 12419 3754 12347 Sln
3850 12290 3973 12253 Sln
4080 12220 4203 12183 Sln
4310 12150 4432 12112 Sln
4540 12079 4662 12041 Sln
4769 12008 4797 12000 Sln
4797 12000 4894 12023 Sln
5003 12048 5127 12077 Sln
5237 12103 5361 12132 Sln
5471 12158 5595 12187 Sln
5704 12212 5768 12227 Sln
5768 12227 5823 12195 Sln
5920 12139 6031 12075 Sln
6128 12019 6239 11955 Sln
6336 11899 6448 11836 Sln
6545 11780 6656 11716 Sln
6755 11667 6883 11656 Sln
6995 11647 7122 11636 Sln
7234 11626 7361 11616 Sln
7473 11607 7601 11596 Sln
7712 11587 7830 11638 Sln
7933 11682 8051 11733 Sln
8154 11777 8271 11828 Sln
8374 11873 8492 11924 Sln
8595 11968 8682 12006 Sln
/Ssrgb {0.502 0.502 0.502} def
/Slrgb {0.376 0.376 0.376} def
13167 12249 13167 13659 Sln
14138 12526 14138 13108 Sln
15109 12457 15109 13096 Sln
16080 11973 16080 13252 Sln
17052 10325 17052 13845 Sln
18023 11645 18023 13474 Sln
18994 11270 18994 13975 Sln
13166 12953 Sm
14137 12816 Sl
14137 12816 Sm
15109 12776 Sl
15109 12776 Sm
16080 12612 Sl
16080 12612 Sm
17051 12085 Sl
17051 12085 Sm
18022 12559 Sl
18022 12559 Sm
18993 12622 Sl
/Ssrgb {0.702 0.702 0.702} def
/Slrgb {0.627 0.627 0.627} def
/Ssrgb {0.502 0.502 0.502} def
/Slrgb {0.376 0.376 0.376} def
23802 11829 23802 13415 Sln
24773 12116 24773 12779 Sln
25744 11391 25744 12267 Sln
26716 11660 26716 12739 Sln
27687 10595 27687 14324 Sln
28658 11180 28658 13336 Sln
29629 10300 29629 12399 Sln
23801 12621 Sm
24773 12447 Sl
24773 12447 Sm
25744 11828 Sl
25744 11828 Sm
26715 12199 Sl
26715 12199 Sm
27686 12459 Sl
27686 12459 Sm
28658 12258 Sl
28658 12258 Sm
29629 11349 Sl
/Ssrgb {0.702 0.702 0.702} def
/Slrgb {0.627 0.627 0.627} def
/Ssrgb {0.502 0.502 0.502} def
/Slrgb {0.376 0.376 0.376} def
2531 6244 2531 7317 Sln
3503 6696 3503 7105 Sln
4474 6687 4474 7020 Sln
5445 6444 5445 7098 Sln
6416 6047 6416 7248 Sln
7387 5714 7387 6820 Sln
8359 5439 8359 8075 Sln
2531 6780 Sm
3502 6900 Sl
3502 6900 Sm
4473 6853 Sl
4473 6853 Sm
5444 6770 Sl
5444 6770 Sm
6416 6647 Sl
6416 6647 Sm
7387 6267 Sl
7387 6267 Sm
8358 6756 Sl
/Ssrgb {0.702 0.702 0.702} def
/Slrgb {0.627 0.627 0.627} def
2855 6396 2855 7961 Sln
3826 6757 3826 7350 Sln
4797 6827 4797 7302 Sln
5769 6588 5769 7182 Sln
6740 6145 6740 6840 Sln
7711 5961 7711 7460 Sln
8682 4686 8682 8366 Sln
2855 7178 2982 7162 Sln
3093 7147 3220 7131 Sln
3331 7117 3458 7101 Sln
3570 7086 3697 7070 Sln
3808 7055 3826 7053 Sln
3826 7053 3936 7054 Sln
4048 7056 4176 7057 Sln
4288 7059 4416 7060 Sln
4529 7061 4657 7063 Sln
4769 7064 4797 7064 Sln
4797 7064 4896 7046 Sln
5006 7025 5132 7002 Sln
5242 6981 5368 6958 Sln
5478 6938 5604 6914 Sln
5715 6894 5768 6884 Sln
5768 6884 5836 6856 Sln
5940 6815 6059 6767 Sln
6163 6725 6281 6677 Sln
6385 6635 6504 6588 Sln
6608 6545 6726 6497 Sln
6835 6514 6960 6542 Sln
7070 6566 7195 6594 Sln
7304 6619 7429 6647 Sln
7539 6672 7663 6699 Sln
7774 6698 7899 6675 Sln
8009 6654 8135 6630 Sln
8246 6609 8371 6585 Sln
8481 6564 8608 6540 Sln
/Ssrgb {0.502 0.502 0.502} def
/Slrgb {0.376 0.376 0.376} def
13167 7071 13167 8065 Sln
14138 7039 14138 7464 Sln
15109 7053 15109 7403 Sln
16080 6997 16080 7596 Sln
17052 6281 17052 7320 Sln
18023 5991 18023 7179 Sln
18994 4686 18994 8415 Sln
13166 7568 Sm
14137 7251 Sl
14137 7251 Sm
15109 7228 Sl
15109 7228 Sm
16080 7296 Sl
16080 7296 Sm
17051 6800 Sl
17051 6800 Sm
18022 6585 Sl
18022 6585 Sm
18993 6550 Sl
/Ssrgb {0.702 0.702 0.702} def
/Slrgb {0.627 0.627 0.627} def
13490 6361 13490 8203 Sln
14462 7257 14462 7631 Sln
15433 7298 15433 7736 Sln
16404 7134 16404 7615 Sln
17375 6850 17375 7481 Sln
18346 6724 18346 8260 Sln
19318 5537 19318 6891 Sln
13490 7281 13616 7302 Sln
13727 7321 13853 7342 Sln
13964 7360 14090 7382 Sln
14201 7400 14327 7421 Sln
14438 7439 14461 7443 Sln
14461 7443 14565 7451 Sln
14677 7459 14804 7469 Sln
14916 7477 15043 7487 Sln
15155 7495 15283 7505 Sln
15394 7513 15432 7516 Sln
15432 7516 15521 7503 Sln
15633 7487 15759 7468 Sln
15871 7452 15997 7433 Sln
16108 7417 16235 7398 Sln
16346 7382 16404 7374 Sln
16404 7374 16472 7360 Sln
16581 7336 16706 7309 Sln
16816 7285 16941 7258 Sln
17051 7234 17176 7208 Sln
17286 7184 17375 7165 Sln
17375 7165 17410 7177 Sln
17516 7213 17638 7254 Sln
17744 7289 17865 7330 Sln
17972 7365 18093 7406 Sln
18199 7442 18321 7483 Sln
18398 7423 18475 7321 Sln
18543 7232 18620 7130 Sln
18688 7041 18765 6939 Sln
18833 6850 18911 6748 Sln
18978 6659 19056 6557 Sln
19124 6468 19201 6366 Sln
19269 6277 19317 6214 Sln
/Ssrgb {0.502 0.502 0.502} def
/Slrgb {0.376 0.376 0.376} def
23802 6471 23802 8710 Sln
24773 6444 24773 7342 Sln
25744 6688 25744 7510 Sln
26716 6182 26716 7220 Sln
27687 4686 27687 8517 Sln
28658 5333 28658 7482 Sln
29629 5746 29629 8030 Sln
23801 7590 Sm
24773 6892 Sl
24773 6892 Sm
25744 7099 Sl
25744 7099 Sm
26715 6700 Sl
26715 6700 Sm
27686 6601 Sl
27686 6601 Sm
28658 6407 Sl
28658 6407 Sm
29629 6888 Sl
/Ssrgb {0.702 0.702 0.702} def
/Slrgb {0.627 0.627 0.627} def
24126 6328 24126 7778 Sln
25097 6878 25097 7430 Sln
26068 6840 26068 7303 Sln
27039 6659 27039 7260 Sln
28011 6514 28011 7693 Sln
28982 6761 28982 8071 Sln
29953 5303 29953 7781 Sln
24125 7052 24253 7065 Sln
24364 7077 24492 7090 Sln
24604 7102 24731 7115 Sln
24842 7127 24969 7141 Sln
25081 7153 25096 7154 Sln
25096 7154 25209 7144 Sln
25320 7135 25448 7124 Sln
25560 7115 25687 7104 Sln
25799 7094 25926 7083 Sln
26038 7073 26068 7071 Sln
26068 7071 26166 7060 Sln
26277 7047 26404 7032 Sln
26515 7019 26642 7005 Sln
26754 6992 26881 6977 Sln
26993 6964 27039 6959 Sln
27039 6959 27119 6971 Sln
27231 6987 27357 7006 Sln
27468 7022 27594 7041 Sln
27706 7058 27832 7076 Sln
27943 7093 28010 7103 Sln
28010 7103 28068 7122 Sln
28175 7156 28296 7196 Sln
28403 7230 28525 7269 Sln
28632 7304 28754 7343 Sln
28861 7378 28981 7416 Sln
28981 7416 28982 7415 Sln
29065 7340 29160 7254 Sln
29244 7179 29339 7093 Sln
29422 7018 29517 6933 Sln
29601 6857 29696 6772 Sln
29780 6697 29875 6611 Sln
/Slrgb {0.000 0.000 0.000} def
2208 10018 2208 14606 Sln
2208 10327 2030 10327 Sln
1941 10172 0
/Helvetica-0 findfont 444 yratio mul scalefont setfont
(-3) stringwidth pop add
xratio div
dup 4 3 roll exch 0.000 cos mul sub 3 1 roll 0.000 sin mul sub 2 copy
/fntsize {/Helvetica-0 findfont exch scalefont setfont } def
0.000 444
(-3) Stxtl
(-3) stringwidth pop xratio div
dup 4 3 roll exch 0.000 cos mul add 3 1 roll 0.000 sin mul add 2 copy
pop pop pop pop
2208 11094 2030 11094 Sln
1941 10939 0
/Helvetica-0 findfont 444 yratio mul scalefont setfont
(-2) stringwidth pop add
xratio div
dup 4 3 roll exch 0.000 cos mul sub 3 1 roll 0.000 sin mul sub 2 copy
/fntsize {/Helvetica-0 findfont exch scalefont setfont } def
0.000 444
(-2) Stxtl
(-2) stringwidth pop xratio div
dup 4 3 roll exch 0.000 cos mul add 3 1 roll 0.000 sin mul add 2 copy
pop pop pop pop
2208 11861 2030 11861 Sln
1941 11706 0
/Helvetica-0 findfont 444 yratio mul scalefont setfont
(-1) stringwidth pop add
xratio div
dup 4 3 roll exch 0.000 cos mul sub 3 1 roll 0.000 sin mul sub 2 copy
/fntsize {/Helvetica-0 findfont exch scalefont setfont } def
0.000 444
(-1) Stxtl
(-1) stringwidth pop xratio div
dup 4 3 roll exch 0.000 cos mul add 3 1 roll 0.000 sin mul add 2 copy
pop pop pop pop
2208 12628 2030 12628 Sln
1941 12473 0
/Helvetica-0 findfont 444 yratio mul scalefont setfont
(0) stringwidth pop add
xratio div
dup 4 3 roll exch 0.000 cos mul sub 3 1 roll 0.000 sin mul sub 2 copy
/fntsize {/Helvetica-0 findfont exch scalefont setfont } def
0.000 444
(0) Stxtl
(0) stringwidth pop xratio div
dup 4 3 roll exch 0.000 cos mul add 3 1 roll 0.000 sin mul add 2 copy
pop pop pop pop
2208 13395 2030 13395 Sln
1941 13240 0
/Helvetica-0 findfont 444 yratio mul scalefont setfont
(1) stringwidth pop add
xratio div
dup 4 3 roll exch 0.000 cos mul sub 3 1 roll 0.000 sin mul sub 2 copy
/fntsize {/Helvetica-0 findfont exch scalefont setfont } def
0.000 444
(1) Stxtl
(1) stringwidth pop xratio div
dup 4 3 roll exch 0.000 cos mul add 3 1 roll 0.000 sin mul add 2 copy
pop pop pop pop
2208 14162 2030 14162 Sln
1941 14007 0
/Helvetica-0 findfont 444 yratio mul scalefont setfont
(2) stringwidth pop add
xratio div
dup 4 3 roll exch 0.000 cos mul sub 3 1 roll 0.000 sin mul sub 2 copy
/fntsize {/Helvetica-0 findfont exch scalefont setfont } def
0.000 444
(2) Stxtl
(2) stringwidth pop xratio div
dup 4 3 roll exch 0.000 cos mul add 3 1 roll 0.000 sin mul add 2 copy
pop pop pop pop
12843 10018 12843 14606 Sln
12843 10300 12665 10300 Sln
12576 10145 0
/Helvetica-0 findfont 444 yratio mul scalefont setfont
(-.8) stringwidth pop add
xratio div
dup 4 3 roll exch 0.000 cos mul sub 3 1 roll 0.000 sin mul sub 2 copy
/fntsize {/Helvetica-0 findfont exch scalefont setfont } def
0.000 444
(-.8) Stxtl
(-.8) stringwidth pop xratio div
dup 4 3 roll exch 0.000 cos mul add 3 1 roll 0.000 sin mul add 2 copy
pop pop pop pop
12843 10971 12665 10971 Sln
12576 10816 0
/Helvetica-0 findfont 444 yratio mul scalefont setfont
(-.6) stringwidth pop add
xratio div
dup 4 3 roll exch 0.000 cos mul sub 3 1 roll 0.000 sin mul sub 2 copy
/fntsize {/Helvetica-0 findfont exch scalefont setfont } def
0.000 444
(-.6) Stxtl
(-.6) stringwidth pop xratio div
dup 4 3 roll exch 0.000 cos mul add 3 1 roll 0.000 sin mul add 2 copy
pop pop pop pop
12843 11641 12665 11641 Sln
12576 11486 0
/Helvetica-0 findfont 444 yratio mul scalefont setfont
(-.4) stringwidth pop add
xratio div
dup 4 3 roll exch 0.000 cos mul sub 3 1 roll 0.000 sin mul sub 2 copy
/fntsize {/Helvetica-0 findfont exch scalefont setfont } def
0.000 444
(-.4) Stxtl
(-.4) stringwidth pop xratio div
dup 4 3 roll exch 0.000 cos mul add 3 1 roll 0.000 sin mul add 2 copy
pop pop pop pop
12843 12312 12665 12312 Sln
12576 12157 0
/Helvetica-0 findfont 444 yratio mul scalefont setfont
(-.2) stringwidth pop add
xratio div
dup 4 3 roll exch 0.000 cos mul sub 3 1 roll 0.000 sin mul sub 2 copy
/fntsize {/Helvetica-0 findfont exch scalefont setfont } def
0.000 444
(-.2) Stxtl
(-.2) stringwidth pop xratio div
dup 4 3 roll exch 0.000 cos mul add 3 1 roll 0.000 sin mul add 2 copy
pop pop pop pop
12843 12983 12665 12983 Sln
12576 12828 0
/Helvetica-0 findfont 444 yratio mul scalefont setfont
(0) stringwidth pop add
xratio div
dup 4 3 roll exch 0.000 cos mul sub 3 1 roll 0.000 sin mul sub 2 copy
/fntsize {/Helvetica-0 findfont exch scalefont setfont } def
0.000 444
(0) Stxtl
(0) stringwidth pop xratio div
dup 4 3 roll exch 0.000 cos mul add 3 1 roll 0.000 sin mul add 2 copy
pop pop pop pop
12843 13653 12665 13653 Sln
12576 13498 0
/Helvetica-0 findfont 444 yratio mul scalefont setfont
(.2) stringwidth pop add
xratio div
dup 4 3 roll exch 0.000 cos mul sub 3 1 roll 0.000 sin mul sub 2 copy
/fntsize {/Helvetica-0 findfont exch scalefont setfont } def
0.000 444
(.2) Stxtl
(.2) stringwidth pop xratio div
dup 4 3 roll exch 0.000 cos mul add 3 1 roll 0.000 sin mul add 2 copy
pop pop pop pop
12843 14324 12665 14324 Sln
12576 14169 0
/Helvetica-0 findfont 444 yratio mul scalefont setfont
(.4) stringwidth pop add
xratio div
dup 4 3 roll exch 0.000 cos mul sub 3 1 roll 0.000 sin mul sub 2 copy
/fntsize {/Helvetica-0 findfont exch scalefont setfont } def
0.000 444
(.4) Stxtl
(.4) stringwidth pop xratio div
dup 4 3 roll exch 0.000 cos mul add 3 1 roll 0.000 sin mul add 2 copy
pop pop pop pop
23478 10018 23478 14606 Sln
23478 10550 23300 10550 Sln
23211 10395 0
/Helvetica-0 findfont 444 yratio mul scalefont setfont
(-.6) stringwidth pop add
xratio div
dup 4 3 roll exch 0.000 cos mul sub 3 1 roll 0.000 sin mul sub 2 copy
/fntsize {/Helvetica-0 findfont exch scalefont setfont } def
0.000 444
(-.6) Stxtl
(-.6) stringwidth pop xratio div
dup 4 3 roll exch 0.000 cos mul add 3 1 roll 0.000 sin mul add 2 copy
pop pop pop pop
23478 11252 23300 11252 Sln
23211 11097 0
/Helvetica-0 findfont 444 yratio mul scalefont setfont
(-.4) stringwidth pop add
xratio div
dup 4 3 roll exch 0.000 cos mul sub 3 1 roll 0.000 sin mul sub 2 copy
/fntsize {/Helvetica-0 findfont exch scalefont setfont } def
0.000 444
(-.4) Stxtl
(-.4) stringwidth pop xratio div
dup 4 3 roll exch 0.000 cos mul add 3 1 roll 0.000 sin mul add 2 copy
pop pop pop pop
23478 11954 23300 11954 Sln
23211 11799 0
/Helvetica-0 findfont 444 yratio mul scalefont setfont
(-.2) stringwidth pop add
xratio div
dup 4 3 roll exch 0.000 cos mul sub 3 1 roll 0.000 sin mul sub 2 copy
/fntsize {/Helvetica-0 findfont exch scalefont setfont } def
0.000 444
(-.2) Stxtl
(-.2) stringwidth pop xratio div
dup 4 3 roll exch 0.000 cos mul add 3 1 roll 0.000 sin mul add 2 copy
pop pop pop pop
23478 12656 23300 12656 Sln
23211 12501 0
/Helvetica-0 findfont 444 yratio mul scalefont setfont
(0) stringwidth pop add
xratio div
dup 4 3 roll exch 0.000 cos mul sub 3 1 roll 0.000 sin mul sub 2 copy
/fntsize {/Helvetica-0 findfont exch scalefont setfont } def
0.000 444
(0) Stxtl
(0) stringwidth pop xratio div
dup 4 3 roll exch 0.000 cos mul add 3 1 roll 0.000 sin mul add 2 copy
pop pop pop pop
23478 13358 23300 13358 Sln
23211 13203 0
/Helvetica-0 findfont 444 yratio mul scalefont setfont
(.2) stringwidth pop add
xratio div
dup 4 3 roll exch 0.000 cos mul sub 3 1 roll 0.000 sin mul sub 2 copy
/fntsize {/Helvetica-0 findfont exch scalefont setfont } def
0.000 444
(.2) Stxtl
(.2) stringwidth pop xratio div
dup 4 3 roll exch 0.000 cos mul add 3 1 roll 0.000 sin mul add 2 copy
pop pop pop pop
23478 14060 23300 14060 Sln
23211 13905 0
/Helvetica-0 findfont 444 yratio mul scalefont setfont
(.4) stringwidth pop add
xratio div
dup 4 3 roll exch 0.000 cos mul sub 3 1 roll 0.000 sin mul sub 2 copy
/fntsize {/Helvetica-0 findfont exch scalefont setfont } def
0.000 444
(.4) Stxtl
(.4) stringwidth pop xratio div
dup 4 3 roll exch 0.000 cos mul add 3 1 roll 0.000 sin mul add 2 copy
pop pop pop pop
2208 4405 2208 8992 Sln
2208 4804 2030 4804 Sln
1941 4649 0
/Helvetica-0 findfont 444 yratio mul scalefont setfont
(-6) stringwidth pop add
xratio div
dup 4 3 roll exch 0.000 cos mul sub 3 1 roll 0.000 sin mul sub 2 copy
/fntsize {/Helvetica-0 findfont exch scalefont setfont } def
0.000 444
(-6) Stxtl
(-6) stringwidth pop xratio div
dup 4 3 roll exch 0.000 cos mul add 3 1 roll 0.000 sin mul add 2 copy
pop pop pop pop
2208 5585 2030 5585 Sln
1941 5430 0
/Helvetica-0 findfont 444 yratio mul scalefont setfont
(-4) stringwidth pop add
xratio div
dup 4 3 roll exch 0.000 cos mul sub 3 1 roll 0.000 sin mul sub 2 copy
/fntsize {/Helvetica-0 findfont exch scalefont setfont } def
0.000 444
(-4) Stxtl
(-4) stringwidth pop xratio div
dup 4 3 roll exch 0.000 cos mul add 3 1 roll 0.000 sin mul add 2 copy
pop pop pop pop
2208 6366 2030 6366 Sln
1941 6211 0
/Helvetica-0 findfont 444 yratio mul scalefont setfont
(-2) stringwidth pop add
xratio div
dup 4 3 roll exch 0.000 cos mul sub 3 1 roll 0.000 sin mul sub 2 copy
/fntsize {/Helvetica-0 findfont exch scalefont setfont } def
0.000 444
(-2) Stxtl
(-2) stringwidth pop xratio div
dup 4 3 roll exch 0.000 cos mul add 3 1 roll 0.000 sin mul add 2 copy
pop pop pop pop
2208 7148 2030 7148 Sln
1941 6993 0
/Helvetica-0 findfont 444 yratio mul scalefont setfont
(0) stringwidth pop add
xratio div
dup 4 3 roll exch 0.000 cos mul sub 3 1 roll 0.000 sin mul sub 2 copy
/fntsize {/Helvetica-0 findfont exch scalefont setfont } def
0.000 444
(0) Stxtl
(0) stringwidth pop xratio div
dup 4 3 roll exch 0.000 cos mul add 3 1 roll 0.000 sin mul add 2 copy
pop pop pop pop
2208 7929 2030 7929 Sln
1941 7774 0
/Helvetica-0 findfont 444 yratio mul scalefont setfont
(2) stringwidth pop add
xratio div
dup 4 3 roll exch 0.000 cos mul sub 3 1 roll 0.000 sin mul sub 2 copy
/fntsize {/Helvetica-0 findfont exch scalefont setfont } def
0.000 444
(2) Stxtl
(2) stringwidth pop xratio div
dup 4 3 roll exch 0.000 cos mul add 3 1 roll 0.000 sin mul add 2 copy
pop pop pop pop
2208 8710 2030 8710 Sln
1941 8555 0
/Helvetica-0 findfont 444 yratio mul scalefont setfont
(4) stringwidth pop add
xratio div
dup 4 3 roll exch 0.000 cos mul sub 3 1 roll 0.000 sin mul sub 2 copy
/fntsize {/Helvetica-0 findfont exch scalefont setfont } def
0.000 444
(4) Stxtl
(4) stringwidth pop xratio div
dup 4 3 roll exch 0.000 cos mul add 3 1 roll 0.000 sin mul add 2 copy
pop pop pop pop
12843 4405 12843 8992 Sln
12843 4971 12665 4971 Sln
12576 4816 0
/Helvetica-0 findfont 444 yratio mul scalefont setfont
(-20) stringwidth pop add
xratio div
dup 4 3 roll exch 0.000 cos mul sub 3 1 roll 0.000 sin mul sub 2 copy
/fntsize {/Helvetica-0 findfont exch scalefont setfont } def
0.000 444
(-20) Stxtl
(-20) stringwidth pop xratio div
dup 4 3 roll exch 0.000 cos mul add 3 1 roll 0.000 sin mul add 2 copy
pop pop pop pop
12843 6217 12665 6217 Sln
12576 6062 0
/Helvetica-0 findfont 444 yratio mul scalefont setfont
(-10) stringwidth pop add
xratio div
dup 4 3 roll exch 0.000 cos mul sub 3 1 roll 0.000 sin mul sub 2 copy
/fntsize {/Helvetica-0 findfont exch scalefont setfont } def
0.000 444
(-10) Stxtl
(-10) stringwidth pop xratio div
dup 4 3 roll exch 0.000 cos mul add 3 1 roll 0.000 sin mul add 2 copy
pop pop pop pop
12843 7464 12665 7464 Sln
12576 7309 0
/Helvetica-0 findfont 444 yratio mul scalefont setfont
(0) stringwidth pop add
xratio div
dup 4 3 roll exch 0.000 cos mul sub 3 1 roll 0.000 sin mul sub 2 copy
/fntsize {/Helvetica-0 findfont exch scalefont setfont } def
0.000 444
(0) Stxtl
(0) stringwidth pop xratio div
dup 4 3 roll exch 0.000 cos mul add 3 1 roll 0.000 sin mul add 2 copy
pop pop pop pop
12843 8710 12665 8710 Sln
12576 8555 0
/Helvetica-0 findfont 444 yratio mul scalefont setfont
(10) stringwidth pop add
xratio div
dup 4 3 roll exch 0.000 cos mul sub 3 1 roll 0.000 sin mul sub 2 copy
/fntsize {/Helvetica-0 findfont exch scalefont setfont } def
0.000 444
(10) Stxtl
(10) stringwidth pop xratio div
dup 4 3 roll exch 0.000 cos mul add 3 1 roll 0.000 sin mul add 2 copy
pop pop pop pop
23478 4405 23478 8992 Sln
23478 4774 23300 4774 Sln
23211 4619 0
/Helvetica-0 findfont 444 yratio mul scalefont setfont
(-1000) stringwidth pop add
xratio div
dup 4 3 roll exch 0.000 cos mul sub 3 1 roll 0.000 sin mul sub 2 copy
/fntsize {/Helvetica-0 findfont exch scalefont setfont } def
0.000 444
(-1000) Stxtl
(-1000) stringwidth pop xratio div
dup 4 3 roll exch 0.000 cos mul add 3 1 roll 0.000 sin mul add 2 copy
pop pop pop pop
23478 6004 23300 6004 Sln
23211 5849 0
/Helvetica-0 findfont 444 yratio mul scalefont setfont
(-500) stringwidth pop add
xratio div
dup 4 3 roll exch 0.000 cos mul sub 3 1 roll 0.000 sin mul sub 2 copy
/fntsize {/Helvetica-0 findfont exch scalefont setfont } def
0.000 444
(-500) Stxtl
(-500) stringwidth pop xratio div
dup 4 3 roll exch 0.000 cos mul add 3 1 roll 0.000 sin mul add 2 copy
pop pop pop pop
23478 7234 23300 7234 Sln
23211 7079 0
/Helvetica-0 findfont 444 yratio mul scalefont setfont
(0) stringwidth pop add
xratio div
dup 4 3 roll exch 0.000 cos mul sub 3 1 roll 0.000 sin mul sub 2 copy
/fntsize {/Helvetica-0 findfont exch scalefont setfont } def
0.000 444
(0) Stxtl
(0) stringwidth pop xratio div
dup 4 3 roll exch 0.000 cos mul add 3 1 roll 0.000 sin mul add 2 copy
pop pop pop pop
23478 8464 23300 8464 Sln
23211 8309 0
/Helvetica-0 findfont 444 yratio mul scalefont setfont
(500) stringwidth pop add
xratio div
dup 4 3 roll exch 0.000 cos mul sub 3 1 roll 0.000 sin mul sub 2 copy
/fntsize {/Helvetica-0 findfont exch scalefont setfont } def
0.000 444
(500) Stxtl
(500) stringwidth pop xratio div
dup 4 3 roll exch 0.000 cos mul add 3 1 roll 0.000 sin mul add 2 copy
pop pop pop pop
2208 4405 9977 4405 Sln
2693 4405 2693 4227 Sln
2849 4138 0
/Helvetica-0 findfont 444 yratio mul scalefont setfont
(0) stringwidth pop add
xratio div
dup 4 3 roll exch 90.000 cos mul sub 3 1 roll 90.000 sin mul sub 2 copy
/fntsize {/Helvetica-0 findfont exch scalefont setfont } def
90.000 444
(0) Stxtl
(0) stringwidth pop xratio div
dup 4 3 roll exch 90.000 cos mul add 3 1 roll 90.000 sin mul add 2 copy
pop pop pop pop
3664 4405 3664 4227 Sln
3820 4138 0
/Helvetica-0 findfont 444 yratio mul scalefont setfont
(1-2) stringwidth pop add
xratio div
dup 4 3 roll exch 90.000 cos mul sub 3 1 roll 90.000 sin mul sub 2 copy
/fntsize {/Helvetica-0 findfont exch scalefont setfont } def
90.000 444
(1-2) Stxtl
(1-2) stringwidth pop xratio div
dup 4 3 roll exch 90.000 cos mul add 3 1 roll 90.000 sin mul add 2 copy
pop pop pop pop
4636 4405 4636 4227 Sln
4792 4138 0
/Helvetica-0 findfont 444 yratio mul scalefont setfont
(3-4) stringwidth pop add
xratio div
dup 4 3 roll exch 90.000 cos mul sub 3 1 roll 90.000 sin mul sub 2 copy
/fntsize {/Helvetica-0 findfont exch scalefont setfont } def
90.000 444
(3-4) Stxtl
(3-4) stringwidth pop xratio div
dup 4 3 roll exch 90.000 cos mul add 3 1 roll 90.000 sin mul add 2 copy
pop pop pop pop
5607 4405 5607 4227 Sln
5763 4138 0
/Helvetica-0 findfont 444 yratio mul scalefont setfont
(5-6) stringwidth pop add
xratio div
dup 4 3 roll exch 90.000 cos mul sub 3 1 roll 90.000 sin mul sub 2 copy
/fntsize {/Helvetica-0 findfont exch scalefont setfont } def
90.000 444
(5-6) Stxtl
(5-6) stringwidth pop xratio div
dup 4 3 roll exch 90.000 cos mul add 3 1 roll 90.000 sin mul add 2 copy
pop pop pop pop
6578 4405 6578 4227 Sln
6734 4138 0
/Helvetica-0 findfont 444 yratio mul scalefont setfont
(7-8) stringwidth pop add
xratio div
dup 4 3 roll exch 90.000 cos mul sub 3 1 roll 90.000 sin mul sub 2 copy
/fntsize {/Helvetica-0 findfont exch scalefont setfont } def
90.000 444
(7-8) Stxtl
(7-8) stringwidth pop xratio div
dup 4 3 roll exch 90.000 cos mul add 3 1 roll 90.000 sin mul add 2 copy
pop pop pop pop
7549 4405 7549 4227 Sln
7705 4138 0
/Helvetica-0 findfont 444 yratio mul scalefont setfont
(9-10) stringwidth pop add
xratio div
dup 4 3 roll exch 90.000 cos mul sub 3 1 roll 90.000 sin mul sub 2 copy
/fntsize {/Helvetica-0 findfont exch scalefont setfont } def
90.000 444
(9-10) Stxtl
(9-10) stringwidth pop xratio div
dup 4 3 roll exch 90.000 cos mul add 3 1 roll 90.000 sin mul add 2 copy
pop pop pop pop
8521 4405 8521 4227 Sln
8677 4138 0
/Helvetica-0 findfont 444 yratio mul scalefont setfont
(11-12) stringwidth pop add
xratio div
dup 4 3 roll exch 90.000 cos mul sub 3 1 roll 90.000 sin mul sub 2 copy
/fntsize {/Helvetica-0 findfont exch scalefont setfont } def
90.000 444
(11-12) Stxtl
(11-12) stringwidth pop xratio div
dup 4 3 roll exch 90.000 cos mul add 3 1 roll 90.000 sin mul add 2 copy
pop pop pop pop
9492 4405 9492 4227 Sln
9648 4138 0
/Helvetica-0 findfont 444 yratio mul scalefont setfont
(13-14) stringwidth pop add
xratio div
dup 4 3 roll exch 90.000 cos mul sub 3 1 roll 90.000 sin mul sub 2 copy
/fntsize {/Helvetica-0 findfont exch scalefont setfont } def
90.000 444
(13-14) Stxtl
(13-14) stringwidth pop xratio div
dup 4 3 roll exch 90.000 cos mul add 3 1 roll 90.000 sin mul add 2 copy
pop pop pop pop
12843 4405 20613 4405 Sln
13328 4405 13328 4227 Sln
13484 4138 0
/Helvetica-0 findfont 444 yratio mul scalefont setfont
(0) stringwidth pop add
xratio div
dup 4 3 roll exch 90.000 cos mul sub 3 1 roll 90.000 sin mul sub 2 copy
/fntsize {/Helvetica-0 findfont exch scalefont setfont } def
90.000 444
(0) Stxtl
(0) stringwidth pop xratio div
dup 4 3 roll exch 90.000 cos mul add 3 1 roll 90.000 sin mul add 2 copy
pop pop pop pop
14300 4405 14300 4227 Sln
14456 4138 0
/Helvetica-0 findfont 444 yratio mul scalefont setfont
(1-2) stringwidth pop add
xratio div
dup 4 3 roll exch 90.000 cos mul sub 3 1 roll 90.000 sin mul sub 2 copy
/fntsize {/Helvetica-0 findfont exch scalefont setfont } def
90.000 444
(1-2) Stxtl
(1-2) stringwidth pop xratio div
dup 4 3 roll exch 90.000 cos mul add 3 1 roll 90.000 sin mul add 2 copy
pop pop pop pop
15271 4405 15271 4227 Sln
15427 4138 0
/Helvetica-0 findfont 444 yratio mul scalefont setfont
(3-4) stringwidth pop add
xratio div
dup 4 3 roll exch 90.000 cos mul sub 3 1 roll 90.000 sin mul sub 2 copy
/fntsize {/Helvetica-0 findfont exch scalefont setfont } def
90.000 444
(3-4) Stxtl
(3-4) stringwidth pop xratio div
dup 4 3 roll exch 90.000 cos mul add 3 1 roll 90.000 sin mul add 2 copy
pop pop pop pop
16242 4405 16242 4227 Sln
16398 4138 0
/Helvetica-0 findfont 444 yratio mul scalefont setfont
(5-6) stringwidth pop add
xratio div
dup 4 3 roll exch 90.000 cos mul sub 3 1 roll 90.000 sin mul sub 2 copy
/fntsize {/Helvetica-0 findfont exch scalefont setfont } def
90.000 444
(5-6) Stxtl
(5-6) stringwidth pop xratio div
dup 4 3 roll exch 90.000 cos mul add 3 1 roll 90.000 sin mul add 2 copy
pop pop pop pop
17213 4405 17213 4227 Sln
17369 4138 0
/Helvetica-0 findfont 444 yratio mul scalefont setfont
(7-8) stringwidth pop add
xratio div
dup 4 3 roll exch 90.000 cos mul sub 3 1 roll 90.000 sin mul sub 2 copy
/fntsize {/Helvetica-0 findfont exch scalefont setfont } def
90.000 444
(7-8) Stxtl
(7-8) stringwidth pop xratio div
dup 4 3 roll exch 90.000 cos mul add 3 1 roll 90.000 sin mul add 2 copy
pop pop pop pop
18185 4405 18185 4227 Sln
18341 4138 0
/Helvetica-0 findfont 444 yratio mul scalefont setfont
(9-10) stringwidth pop add
xratio div
dup 4 3 roll exch 90.000 cos mul sub 3 1 roll 90.000 sin mul sub 2 copy
/fntsize {/Helvetica-0 findfont exch scalefont setfont } def
90.000 444
(9-10) Stxtl
(9-10) stringwidth pop xratio div
dup 4 3 roll exch 90.000 cos mul add 3 1 roll 90.000 sin mul add 2 copy
pop pop pop pop
19156 4405 19156 4227 Sln
19312 4138 0
/Helvetica-0 findfont 444 yratio mul scalefont setfont
(11-12) stringwidth pop add
xratio div
dup 4 3 roll exch 90.000 cos mul sub 3 1 roll 90.000 sin mul sub 2 copy
/fntsize {/Helvetica-0 findfont exch scalefont setfont } def
90.000 444
(11-12) Stxtl
(11-12) stringwidth pop xratio div
dup 4 3 roll exch 90.000 cos mul add 3 1 roll 90.000 sin mul add 2 copy
pop pop pop pop
20127 4405 20127 4227 Sln
20283 4138 0
/Helvetica-0 findfont 444 yratio mul scalefont setfont
(13-14) stringwidth pop add
xratio div
dup 4 3 roll exch 90.000 cos mul sub 3 1 roll 90.000 sin mul sub 2 copy
/fntsize {/Helvetica-0 findfont exch scalefont setfont } def
90.000 444
(13-14) Stxtl
(13-14) stringwidth pop xratio div
dup 4 3 roll exch 90.000 cos mul add 3 1 roll 90.000 sin mul add 2 copy
pop pop pop pop
23478 4405 31248 4405 Sln
23964 4405 23964 4227 Sln
24120 4138 0
/Helvetica-0 findfont 444 yratio mul scalefont setfont
(0) stringwidth pop add
xratio div
dup 4 3 roll exch 90.000 cos mul sub 3 1 roll 90.000 sin mul sub 2 copy
/fntsize {/Helvetica-0 findfont exch scalefont setfont } def
90.000 444
(0) Stxtl
(0) stringwidth pop xratio div
dup 4 3 roll exch 90.000 cos mul add 3 1 roll 90.000 sin mul add 2 copy
pop pop pop pop
24935 4405 24935 4227 Sln
25091 4138 0
/Helvetica-0 findfont 444 yratio mul scalefont setfont
(1-2) stringwidth pop add
xratio div
dup 4 3 roll exch 90.000 cos mul sub 3 1 roll 90.000 sin mul sub 2 copy
/fntsize {/Helvetica-0 findfont exch scalefont setfont } def
90.000 444
(1-2) Stxtl
(1-2) stringwidth pop xratio div
dup 4 3 roll exch 90.000 cos mul add 3 1 roll 90.000 sin mul add 2 copy
pop pop pop pop
25906 4405 25906 4227 Sln
26062 4138 0
/Helvetica-0 findfont 444 yratio mul scalefont setfont
(3-4) stringwidth pop add
xratio div
dup 4 3 roll exch 90.000 cos mul sub 3 1 roll 90.000 sin mul sub 2 copy
/fntsize {/Helvetica-0 findfont exch scalefont setfont } def
90.000 444
(3-4) Stxtl
(3-4) stringwidth pop xratio div
dup 4 3 roll exch 90.000 cos mul add 3 1 roll 90.000 sin mul add 2 copy
pop pop pop pop
26877 4405 26877 4227 Sln
27033 4138 0
/Helvetica-0 findfont 444 yratio mul scalefont setfont
(5-6) stringwidth pop add
xratio div
dup 4 3 roll exch 90.000 cos mul sub 3 1 roll 90.000 sin mul sub 2 copy
/fntsize {/Helvetica-0 findfont exch scalefont setfont } def
90.000 444
(5-6) Stxtl
(5-6) stringwidth pop xratio div
dup 4 3 roll exch 90.000 cos mul add 3 1 roll 90.000 sin mul add 2 copy
pop pop pop pop
27849 4405 27849 4227 Sln
28005 4138 0
/Helvetica-0 findfont 444 yratio mul scalefont setfont
(7-8) stringwidth pop add
xratio div
dup 4 3 roll exch 90.000 cos mul sub 3 1 roll 90.000 sin mul sub 2 copy
/fntsize {/Helvetica-0 findfont exch scalefont setfont } def
90.000 444
(7-8) Stxtl
(7-8) stringwidth pop xratio div
dup 4 3 roll exch 90.000 cos mul add 3 1 roll 90.000 sin mul add 2 copy
pop pop pop pop
28820 4405 28820 4227 Sln
28976 4138 0
/Helvetica-0 findfont 444 yratio mul scalefont setfont
(9-10) stringwidth pop add
xratio div
dup 4 3 roll exch 90.000 cos mul sub 3 1 roll 90.000 sin mul sub 2 copy
/fntsize {/Helvetica-0 findfont exch scalefont setfont } def
90.000 444
(9-10) Stxtl
(9-10) stringwidth pop xratio div
dup 4 3 roll exch 90.000 cos mul add 3 1 roll 90.000 sin mul add 2 copy
pop pop pop pop
29791 4405 29791 4227 Sln
29947 4138 0
/Helvetica-0 findfont 444 yratio mul scalefont setfont
(11-12) stringwidth pop add
xratio div
dup 4 3 roll exch 90.000 cos mul sub 3 1 roll 90.000 sin mul sub 2 copy
/fntsize {/Helvetica-0 findfont exch scalefont setfont } def
90.000 444
(11-12) Stxtl
(11-12) stringwidth pop xratio div
dup 4 3 roll exch 90.000 cos mul add 3 1 roll 90.000 sin mul add 2 copy
pop pop pop pop
30762 4405 30762 4227 Sln
30918 4138 0
/Helvetica-0 findfont 444 yratio mul scalefont setfont
(13-14) stringwidth pop add
xratio div
dup 4 3 roll exch 90.000 cos mul sub 3 1 roll 90.000 sin mul sub 2 copy
/fntsize {/Helvetica-0 findfont exch scalefont setfont } def
90.000 444
(13-14) Stxtl
(13-14) stringwidth pop xratio div
dup 4 3 roll exch 90.000 cos mul add 3 1 roll 90.000 sin mul add 2 copy
pop pop pop pop
/Ssrgb {0.816 0.816 0.816} def
2208 14606 9977 15248 1 Srect
6092 14829 0
/Helvetica-0 findfont 489 yratio mul scalefont setfont
(Employed) stringwidth pop add
2 div xratio div
dup 4 3 roll exch 0.000 cos mul sub 3 1 roll 0.000 sin mul sub 2 copy
/fntsize {/Helvetica-0 findfont exch scalefont setfont } def
0.000 489
(Employed) Stxtl
(Employed) stringwidth pop xratio div
dup 4 3 roll exch 0.000 cos mul add 3 1 roll 0.000 sin mul add 2 copy
pop pop pop pop
12843 14606 20613 15248 1 Srect
16728 14829 0
/Helvetica-0 findfont 489 yratio mul scalefont setfont
(Smoking) stringwidth pop add
2 div xratio div
dup 4 3 roll exch 0.000 cos mul sub 3 1 roll 0.000 sin mul sub 2 copy
/fntsize {/Helvetica-0 findfont exch scalefont setfont } def
0.000 489
(Smoking) Stxtl
(Smoking) stringwidth pop xratio div
dup 4 3 roll exch 0.000 cos mul add 3 1 roll 0.000 sin mul add 2 copy
pop pop pop pop
23478 14606 31248 15248 1 Srect
27363 14829 0
/Helvetica-0 findfont 489 yratio mul scalefont setfont
(Alcohol) stringwidth pop add
2 div xratio div
dup 4 3 roll exch 0.000 cos mul sub 3 1 roll 0.000 sin mul sub 2 copy
/fntsize {/Helvetica-0 findfont exch scalefont setfont } def
0.000 489
(Alcohol) Stxtl
(Alcohol) stringwidth pop xratio div
dup 4 3 roll exch 0.000 cos mul add 3 1 roll 0.000 sin mul add 2 copy
pop pop pop pop
2208 8992 9977 9634 1 Srect
6092 9216 0
/Helvetica-0 findfont 489 yratio mul scalefont setfont
(BMI) stringwidth pop add
2 div xratio div
dup 4 3 roll exch 0.000 cos mul sub 3 1 roll 0.000 sin mul sub 2 copy
/fntsize {/Helvetica-0 findfont exch scalefont setfont } def
0.000 489
(BMI) Stxtl
(BMI) stringwidth pop xratio div
dup 4 3 roll exch 0.000 cos mul add 3 1 roll 0.000 sin mul add 2 copy
pop pop pop pop
12843 8992 20613 9634 1 Srect
16728 9216 0
/Helvetica-0 findfont 489 yratio mul scalefont setfont
(Waist \(cm\)) stringwidth pop add
2 div xratio div
dup 4 3 roll exch 0.000 cos mul sub 3 1 roll 0.000 sin mul sub 2 copy
/fntsize {/Helvetica-0 findfont exch scalefont setfont } def
0.000 489
(Waist \(cm\)) Stxtl
(Waist \(cm\)) stringwidth pop xratio div
dup 4 3 roll exch 0.000 cos mul add 3 1 roll 0.000 sin mul add 2 copy
pop pop pop pop
23478 8992 31248 9634 1 Srect
27363 9216 0
/Helvetica-0 findfont 489 yratio mul scalefont setfont
(Kcal) stringwidth pop add
2 div xratio div
dup 4 3 roll exch 0.000 cos mul sub 3 1 roll 0.000 sin mul sub 2 copy
/fntsize {/Helvetica-0 findfont exch scalefont setfont } def
0.000 489
(Kcal) Stxtl
(Kcal) stringwidth pop xratio div
dup 4 3 roll exch 0.000 cos mul add 3 1 roll 0.000 sin mul add 2 copy
pop pop pop pop
/Ssrgb {1.000 1.000 1.000} def
/Slw 0.576 def
11729 752 20827 1788 1 Srect
/Slrgb {0.376 0.376 0.376} def
11969 1270 14049 1270 Sln
/Slrgb {0.627 0.627 0.627} def
16294 1270 16422 1270 Sln
16534 1270 16662 1270 Sln
16774 1270 16902 1270 Sln
17015 1270 17143 1270 Sln
17255 1270 17383 1270 Sln
17495 1270 17623 1270 Sln
17735 1270 17863 1270 Sln
17976 1270 18104 1270 Sln
18216 1270 18344 1270 Sln
14382 1076 2 copy
/fntsize {/Helvetica-0 findfont exch scalefont setfont } def
0.000 556
(men) Stxtl
(men) stringwidth pop xratio div
dup 4 3 roll exch 0.000 cos mul add 3 1 roll 0.000 sin mul add 2 copy
pop pop pop pop
18707 1076 2 copy
/fntsize {/Helvetica-0 findfont exch scalefont setfont } def
0.000 556
(women) Stxtl
(women) stringwidth pop xratio div
dup 4 3 roll exch 0.000 cos mul add 3 1 roll 0.000 sin mul add 2 copy
pop pop pop pop
949 8988 0
/Helvetica-0 findfont 556 yratio mul scalefont setfont
(Marginal effect) stringwidth pop add
2 div xratio div
dup 4 3 roll exch 90.000 cos mul sub 3 1 roll 90.000 sin mul sub 2 copy
/fntsize {/Helvetica-0 findfont exch scalefont setfont } def
90.000 556
(Marginal effect) Stxtl
(Marginal effect) stringwidth pop xratio div
dup 4 3 roll exch 90.000 cos mul add 3 1 roll 90.000 sin mul add 2 copy
pop pop pop pop
16278 2147 0
/Helvetica-0 findfont 556 yratio mul scalefont setfont
(Years after diagnosis) stringwidth pop add
2 div xratio div
dup 4 3 roll exch 0.000 cos mul sub 3 1 roll 0.000 sin mul sub 2 copy
/fntsize {/Helvetica-0 findfont exch scalefont setfont } def
0.000 556
(Years after diagnosis) Stxtl
(Years after diagnosis) stringwidth pop xratio div
dup 4 3 roll exch 0.000 cos mul add 3 1 roll 0.000 sin mul add 2 copy
pop pop pop pop
S showpage
%%EOF
