%!PS-Adobe-2.0 EPSF-2.0
%% This is a Stata generated postscript file
%%BoundingBox: 0 0 576 288
%%HiResBoundingBox: 0.000 0.000 576.000 288.000
%%DocumentNeededResources: font Helvetica
/xratio 0.018000 def
/yratio 0.018000 def
/Sbgfill {
	/y1 exch def
	/x1 exch def
	/y0 exch def
	/x0 exch def
	x0 y0 moveto
	x0 y1 lineto x1 y1 lineto x1 y0 lineto x0 y0 lineto
	fill
} def
/Spt {
	yratio mul
	/yp exch def
	xratio mul
	/xp exch def
	Slrgb setrgbcolor
	xp yp .5 0 360 arc fill
} def
/Sln {
	yratio mul
	/y1p exch def
	xratio mul
	/x1p exch def
	yratio mul
	/y0p exch def
	xratio mul
	/x0p exch def
	Slw setlinewidth
	Slrgb setrgbcolor
	x0p y0p M x1p y1p lineto S
} def
/Scrv {
	yratio mul
	/y3p exch def
	xratio mul
	/x3p exch def
	yratio mul
	/y2p exch def
	xratio mul
	/x2p exch def
	yratio mul
	/y1p exch def
	xratio mul
	/x1p exch def
	Slw setlinewidth
	Slrgb setrgbcolor
	x1p y1p x2p y2p x3p y3p curveto
	stroke
} def
/Stxtl {
	/sp exch def
	yratio mul
	/sizep exch def
	dup
	/anglep exch def
	0 exch sub
	/angle2p exch def
	yratio mul
	/y0p exch def
	xratio mul
	/x0p exch def
	Strgb setrgbcolor
	x0p y0p M anglep rotate sizep fntsize sp show stroke angle2p rotate
} def
/Stxtc {
	/sp exch def
	yratio mul
	/sizep exch def
	dup
	/anglep exch def
	0 exch sub
	/angle2p exch def
	yratio mul
	/y0p exch def
	xratio mul
	/x0p exch def
	Strgb setrgbcolor
	x0p y0p M anglep rotate sizep fntsize sp stringwidth exch -2 div exch rm sp show stroke angle2p rotate
} def
/Stxtr {
	/sp exch def
	yratio mul
	/sizep exch def
	dup
	/anglep exch def
	0 exch sub
	/angle2p exch def
	yratio mul
	/y0p exch def
	xratio mul
	/x0p exch def
	Strgb setrgbcolor
	x0p y0p M anglep rotate sizep fntsize sp stringwidth 1 index -1 mul exch rm pop sp show stroke angle2p rotate
} def
/Srect {
	/sfill exch def
	yratio mul
	/y1 exch def
	xratio mul
	/x1 exch def
	yratio mul
	/y0 exch def
	xratio mul
	/x0 exch def
	newpath x0 y0 moveto x0 y1 lineto x1 y1 lineto x1 y0 lineto x0 y0 lineto closepath
	sfill 1 eq {
		Ssrgb setrgbcolor
		gsave
		fill
		grestore
	} if
	Slw setlinewidth
	Slrgb setrgbcolor
	stroke
} def
/Sellipse {
	/sfill exch def
	yratio mul
	/yrad exch def
	xratio mul
	/xrad exch def
	yratio mul
	/y exch def
	xratio mul
	/x exch def
	/savematrix matrix currentmatrix def
	x y translate
	xrad yrad scale
	0 0 1 0 360 arc
	savematrix setmatrix
	sfill 1 eq {
		Ssrgb setrgbcolor
		gsave
		fill
		grestore
	} if
	Slw setlinewidth
	Slrgb setrgbcolor
	stroke
} def
/Stri {
	/sfill exch def
	xratio mul
	/r exch def
	yratio mul
	/y0 exch def
	xratio mul
	/x0 exch def
	/xcen x0 def
	y0 r add
	/ytop exch def
	r 2 div
	y0 exch sub
	/ybot exch def
	r 3 sqrt 2 div mul dup
	xcen exch sub
	/xleft exch def
	xcen add
	/xright exch def
	newpath xcen ytop moveto xright ybot lineto xleft ybot lineto xcen ytop lineto closepath
	sfill 1 eq {
		Ssrgb setrgbcolor
		gsave
		fill
		grestore
	} if
	Slw setlinewidth
	Slrgb setrgbcolor
	stroke
} def
/Soldtri {
	/sfill exch def
	xratio mul
	/r exch def
	yratio mul
	/y0 exch def
	xratio mul
	/x0 exch def
	x0 r sub
	/x1 exch def
	y0 r sub
	/y1 exch def
	x0 r add
	/x2 exch def
	y0 r sub
	/y2 exch def
	/x3 x0 def
	y0 r add
	/y3 exch def
	newpath x1 y1 moveto x2 y2 lineto x3 y3 lineto x1 y1 lineto closepath
	sfill 1 eq {
		Ssrgb setrgbcolor
		gsave
		fill
		grestore
	} if
	Slw setlinewidth
	Slrgb setrgbcolor
	stroke
} def
/Sdia {
	/sfill exch def
	xratio mul
	/r exch def
	yratio mul
	/y exch def
	xratio mul
	/x exch def
	x r sub
	/x0 exch def
	/y0 y def
	/x1 x def
	y r sub
	/y1 exch def
	x r add
	/x2 exch def
	/y2 y def
	/x3 x def
	y r add
	/y3 exch def
	newpath x0 y0 moveto x1 y1 lineto x2 y2 lineto x3 y3 lineto x0 y0 lineto closepath
	sfill 1 eq {
		Ssrgb setrgbcolor
		gsave
		fill
		grestore
	} if
	Slw setlinewidth
	Slrgb setrgbcolor
	stroke
} def
/Scc {
	/sfill exch def
	xratio mul
	/r0 exch def
	yratio mul
	/y0 exch def
	xratio mul
	/x0 exch def
	x0 y0 r0 0 360 arc closepath
	sfill 1 eq {
		Ssrgb setrgbcolor
		gsave
		fill
		grestore
	} if
	Slw setlinewidth
	Slrgb setrgbcolor
	stroke
} def
/Spie {
	/sfill exch def
	/a1 exch def
	/a0 exch def
	xratio mul
	/r exch def
	yratio mul
	/y exch def
	xratio mul
	/x exch def
	newpath x y moveto x y r a0 a1 arc closepath
	sfill 1 eq {
		Ssrgb setrgbcolor
		gsave
		fill
		grestore
	} if
	Slw setlinewidth
	Slrgb setrgbcolor
	stroke
} def
/Splu {
	xratio mul
	/r exch def
	yratio mul
	/y exch def
	xratio mul
	/x exch def
	x r sub
	/x0 exch def
	x r add
	/x1 exch def
	x0 y M x1 y L
	y r sub
	/y0 exch def
	y r add
	/y1 exch def
	x y0 M x y1 L
} def
/Scro {
	xratio mul
	/r exch def
	yratio mul
	/y exch def
	xratio mul
	/x exch def
	x r sub
	/x0 exch def
	y r sub
	/y0 exch def
	x r add
	/x1 exch def
	y r add
	/y1 exch def
	x0 y0 M x1 y1 L
	x r add
	/x0 exch def
	y r sub
	/y0 exch def
	x r sub
	/x1 exch def
	y r add
	/y1 exch def
	x0 y0 M x1 y1 L
} def
/Sm {
	yratio mul
	/y exch def
	xratio mul
	/x exch def
	x y M
} def
/Sl {
	yratio mul
	/y exch def
	xratio mul
	/x exch def
	x y L
} def
/SPl {
	yratio mul
	/y exch def
	xratio mul
	/x exch def
	x y PL
} def
/Lcs {
	currentlinecap
	1 setlinecap
} def
/Lcr {
	setlinecap
} def
/Sbp {
	newpath
} def
/Sep {
	/sfill exch def
	closepath
	sfill 1 eq  {
		Ssrgb setrgbcolor
		gsave
		fill
		grestore
	} if
	Slw setlinewidth
	Slrgb setrgbcolor
	Lcs
	stroke
	Lcr
} def
/cp {currentpoint} def 
/M {moveto} def 
/rm {rmoveto} def 
/S {stroke} def 
/L {Slw setlinewidth Slrgb setrgbcolor lineto Lcs S Lcr} def 
/PL {Slw setlinewidth Slrgb setrgbcolor lineto} def 
/MF-Helvetica {
  /newfontname exch def
  /fontname exch def
  /fontdict fontname findfont def
  /newfont fontdict maxlength dict def
  fontdict {
  exch dup /FID eq {pop pop} {exch newfont 3 1 roll put} ifelse
  } forall
  newfont /FontName newfontname put
  newfont /Encoding ISOLatin1Encoding put
  newfontname newfont definefont pop
} def
/Helvetica /Helvetica-0 MF-Helvetica
/Slw 0.120 def
1.000 1.000 1.000 setrgbcolor
0 0 576.000 288.000 Sbgfill
/Slrgb {1.000 1.000 1.000} def
/Strgb {1.000 1.000 1.000} def
/Ssrgb {1.000 1.000 1.000} def
/Slw 0.576 def
0 0 32000 16000 1 Srect
/Slw 0.461 def
/Slrgb {0.000 0.000 0.000} def
2208 10018 9977 14606 0 Srect
/Strgb {0.000 0.000 0.000} def
/Slw 0.691 def
/Slrgb {0.188 0.188 0.188} def
2208 12737 9977 12737 Sln
/Slw 0.461 def
/Slrgb {0.000 0.000 0.000} def
12843 10018 20613 14606 0 Srect
/Slw 0.691 def
/Slrgb {0.188 0.188 0.188} def
12843 12983 20613 12983 Sln
/Slw 0.461 def
/Slrgb {0.000 0.000 0.000} def
23478 10018 31248 14606 0 Srect
/Slw 0.691 def
/Slrgb {0.188 0.188 0.188} def
23478 12656 31248 12656 Sln
/Slw 0.461 def
/Slrgb {0.000 0.000 0.000} def
2208 4405 9977 8992 0 Srect
/Slw 0.691 def
/Slrgb {0.188 0.188 0.188} def
2208 7187 9977 7187 Sln
/Slw 0.461 def
/Slrgb {0.000 0.000 0.000} def
12843 4405 20613 8992 0 Srect
/Slw 0.691 def
/Slrgb {0.188 0.188 0.188} def
12843 7149 20613 7149 Sln
/Slw 0.461 def
/Slrgb {0.000 0.000 0.000} def
23478 4405 31248 8992 0 Srect
/Slw 0.691 def
/Slrgb {0.188 0.188 0.188} def
23478 7280 31248 7280 Sln
/Ssrgb {0.502 0.502 0.502} def
/Slw 0.461 def
/Slrgb {0.376 0.376 0.376} def
2531 12721 2531 12901 Sln
3503 12696 3503 12796 Sln
4474 12652 4474 12768 Sln
5445 12552 5445 12746 Sln
6416 12539 6416 12916 Sln
7387 12596 7387 12891 Sln
8359 12281 8359 12818 Sln
9330 12232 9330 12796 Sln
2531 12811 Sm
3502 12746 Sl
3502 12746 Sm
4473 12710 Sl
4473 12710 Sm
5444 12648 Sl
5444 12648 Sm
6416 12727 Sl
6416 12727 Sm
7387 12743 Sl
7387 12743 Sm
8358 12549 Sl
8358 12549 Sm
9329 12513 Sl
/Ssrgb {0.702 0.702 0.702} def
/Slrgb {0.627 0.627 0.627} def
2855 11812 2855 14324 Sln
3826 11895 3826 12600 Sln
4797 11756 4797 12455 Sln
5769 11219 5769 12953 Sln
6740 10761 6740 12621 Sln
7711 10375 7711 12800 Sln
8682 10300 8682 13719 Sln
2855 13067 2953 12984 Sln
3039 12912 3136 12829 Sln
3222 12757 3320 12674 Sln
3406 12602 3504 12519 Sln
3589 12447 3687 12364 Sln
3773 12292 3826 12247 Sln
3826 12247 3884 12239 Sln
3996 12223 4122 12204 Sln
4233 12188 4360 12169 Sln
4471 12153 4598 12134 Sln
4709 12118 4797 12105 Sln
4797 12105 4836 12104 Sln
4948 12101 5076 12099 Sln
5188 12096 5316 12094 Sln
5429 12092 5557 12090 Sln
5669 12087 5768 12085 Sln
5768 12085 5795 12074 Sln
5899 12032 6017 11984 Sln
6121 11941 6240 11893 Sln
6344 11851 6463 11803 Sln
6566 11760 6685 11712 Sln
6792 11684 6920 11671 Sln
7032 11659 7159 11646 Sln
7271 11634 7398 11620 Sln
7510 11609 7638 11595 Sln
7746 11602 7864 11653 Sln
7967 11698 8084 11749 Sln
8187 11794 8304 11845 Sln
8407 11890 8525 11940 Sln
8628 11985 8682 12009 Sln
/Ssrgb {0.502 0.502 0.502} def
/Slrgb {0.376 0.376 0.376} def
13167 12249 13167 13659 Sln
14138 12526 14138 13108 Sln
15109 12457 15109 13096 Sln
16080 11973 16080 13252 Sln
17052 10325 17052 13845 Sln
18023 11645 18023 13474 Sln
18994 11270 18994 13975 Sln
13166 12953 Sm
14137 12816 Sl
14137 12816 Sm
15109 12776 Sl
15109 12776 Sm
16080 12612 Sl
16080 12612 Sm
17051 12085 Sl
17051 12085 Sm
18022 12559 Sl
18022 12559 Sm
18993 12622 Sl
/Ssrgb {0.702 0.702 0.702} def
/Slrgb {0.627 0.627 0.627} def
/Ssrgb {0.502 0.502 0.502} def
/Slrgb {0.376 0.376 0.376} def
23802 11829 23802 13415 Sln
24773 12116 24773 12779 Sln
25744 11391 25744 12267 Sln
26716 11660 26716 12739 Sln
27687 10595 27687 14324 Sln
28658 11180 28658 13336 Sln
29629 10300 29629 12399 Sln
23801 12621 Sm
24773 12447 Sl
24773 12447 Sm
25744 11828 Sl
25744 11828 Sm
26715 12199 Sl
26715 12199 Sm
27686 12459 Sl
27686 12459 Sm
28658 12258 Sl
28658 12258 Sm
29629 11349 Sl
/Ssrgb {0.702 0.702 0.702} def
/Slrgb {0.627 0.627 0.627} def
/Ssrgb {0.502 0.502 0.502} def
/Slrgb {0.376 0.376 0.376} def
2531 6353 2531 7558 Sln
3503 6835 3503 7229 Sln
4474 6741 4474 7099 Sln
5445 6499 5445 7083 Sln
6416 6270 6416 7201 Sln
7387 5752 7387 6748 Sln
8359 6158 8359 7681 Sln
2531 6955 Sm
3502 7032 Sl
3502 7032 Sm
4473 6919 Sl
4473 6919 Sm
5444 6790 Sl
5444 6790 Sm
6416 6735 Sl
6416 6735 Sm
7387 6250 Sl
7387 6250 Sm
8358 6919 Sl
/Ssrgb {0.702 0.702 0.702} def
/Slrgb {0.627 0.627 0.627} def
2855 6537 2855 8229 Sln
3826 6941 3826 7553 Sln
4797 6922 4797 7420 Sln
5769 6706 5769 7279 Sln
6740 6186 6740 6927 Sln
7711 6100 7711 7486 Sln
8682 4686 8682 8374 Sln
2855 7382 2982 7364 Sln
3093 7349 3220 7331 Sln
3331 7315 3457 7297 Sln
3569 7282 3696 7264 Sln
3807 7249 3826 7246 Sln
3826 7246 3934 7237 Sln
4046 7229 4173 7219 Sln
4285 7210 4413 7200 Sln
4524 7191 4652 7181 Sln
4764 7172 4797 7170 Sln
4797 7170 4890 7153 Sln
5000 7133 5126 7109 Sln
5237 7089 5363 7066 Sln
5473 7046 5599 7023 Sln
5709 7003 5768 6992 Sln
5768 6992 5830 6964 Sln
5933 6918 6049 6866 Sln
6152 6820 6269 6767 Sln
6371 6721 6488 6669 Sln
6590 6623 6707 6570 Sln
6814 6574 6939 6604 Sln
7048 6631 7172 6661 Sln
7282 6688 7406 6718 Sln
7516 6744 7640 6775 Sln
7748 6782 7872 6748 Sln
7980 6719 8104 6686 Sln
8212 6656 8336 6623 Sln
8444 6594 8568 6560 Sln
8676 6531 8682 6530 Sln
/Ssrgb {0.502 0.502 0.502} def
/Slrgb {0.376 0.376 0.376} def
13167 6717 13167 8152 Sln
14138 6757 14138 7286 Sln
15109 6701 15109 7105 Sln
16080 6613 16080 7306 Sln
17052 5789 17052 6911 Sln
18023 5321 18023 6802 Sln
18994 5230 18994 7558 Sln
13166 7434 Sm
14137 7021 Sl
14137 7021 Sm
15109 6903 Sl
15109 6903 Sm
16080 6959 Sl
16080 6959 Sm
17051 6350 Sl
17051 6350 Sm
18022 6061 Sl
18022 6061 Sm
18993 6393 Sl
/Ssrgb {0.702 0.702 0.702} def
/Slrgb {0.627 0.627 0.627} def
13490 5843 13490 8498 Sln
14462 7036 14462 7509 Sln
15433 6979 15433 7537 Sln
16404 6761 16404 7386 Sln
17375 6438 17375 7229 Sln
18346 6342 18346 8131 Sln
19318 4686 19318 6349 Sln
13490 7170 13618 7183 Sln
13729 7195 13857 7208 Sln
13969 7220 14096 7233 Sln
14208 7245 14335 7259 Sln
14447 7270 14461 7272 Sln
14461 7272 14575 7270 Sln
14687 7269 14815 7267 Sln
14927 7265 15055 7264 Sln
15168 7262 15296 7260 Sln
15408 7259 15432 7258 Sln
15432 7258 15534 7239 Sln
15644 7218 15770 7194 Sln
15880 7172 16005 7149 Sln
16116 7128 16242 7104 Sln
16352 7083 16404 7073 Sln
16404 7073 16477 7055 Sln
16586 7028 16710 6998 Sln
16819 6971 16943 6940 Sln
17052 6913 17176 6882 Sln
17284 6855 17375 6833 Sln
17375 6833 17408 6847 Sln
17511 6889 17630 6939 Sln
17733 6981 17852 7031 Sln
17955 7073 18074 7123 Sln
18177 7166 18295 7215 Sln
18374 7186 18437 7074 Sln
18493 6976 18556 6865 Sln
18611 6767 18674 6656 Sln
18729 6559 18792 6447 Sln
18847 6349 18910 6238 Sln
18965 6140 19028 6029 Sln
19083 5931 19146 5820 Sln
19201 5722 19264 5610 Sln
/Ssrgb {0.502 0.502 0.502} def
/Slrgb {0.376 0.376 0.376} def
23802 6129 23802 8710 Sln
24773 6082 24773 7090 Sln
25744 6326 25744 7302 Sln
26716 6036 26716 7327 Sln
27687 5078 27687 7613 Sln
28658 5422 28658 7721 Sln
29629 5452 29629 7837 Sln
23801 7419 Sm
24773 6586 Sl
24773 6586 Sm
25744 6813 Sl
25744 6813 Sm
26715 6681 Sl
26715 6681 Sm
27686 6345 Sl
27686 6345 Sm
28658 6571 Sl
28658 6571 Sm
29629 6644 Sl
/Ssrgb {0.702 0.702 0.702} def
/Slrgb {0.627 0.627 0.627} def
24126 6063 24126 7827 Sln
25097 6804 25097 7554 Sln
26068 6733 26068 7358 Sln
27039 6500 27039 7302 Sln
28011 6464 28011 8017 Sln
28982 6614 28982 8404 Sln
29953 4989 29953 7969 Sln
24125 6944 24250 6974 Sln
24359 7001 24483 7031 Sln
24593 7057 24717 7087 Sln
24827 7114 24951 7144 Sln
25060 7170 25096 7179 Sln
25096 7179 25186 7167 Sln
25298 7151 25425 7134 Sln
25536 7118 25663 7101 Sln
25774 7085 25901 7068 Sln
26012 7053 26068 7045 Sln
26068 7045 26139 7035 Sln
26250 7018 26376 7000 Sln
26487 6983 26614 6964 Sln
26725 6948 26851 6929 Sln
26963 6912 27039 6901 Sln
27039 6901 27087 6918 Sln
27193 6955 27314 6997 Sln
27420 7034 27540 7076 Sln
27646 7113 27767 7155 Sln
27873 7192 27994 7234 Sln
28102 7265 28225 7299 Sln
28334 7329 28457 7363 Sln
28566 7393 28689 7427 Sln
28798 7457 28921 7491 Sln
29015 7472 29103 7379 Sln
29180 7297 29267 7204 Sln
29344 7123 29432 7030 Sln
29509 6948 29597 6855 Sln
29674 6773 29761 6680 Sln
29839 6598 29927 6505 Sln
/Slrgb {0.000 0.000 0.000} def
2208 10018 2208 14606 Sln
2208 10426 2030 10426 Sln
1941 10271 0
/Helvetica-0 findfont 444 yratio mul scalefont setfont
(-3) stringwidth pop add
xratio div
dup 4 3 roll exch 0.000 cos mul sub 3 1 roll 0.000 sin mul sub 2 copy
/fntsize {/Helvetica-0 findfont exch scalefont setfont } def
0.000 444
(-3) Stxtl
(-3) stringwidth pop xratio div
dup 4 3 roll exch 0.000 cos mul add 3 1 roll 0.000 sin mul add 2 copy
pop pop pop pop
2208 11197 2030 11197 Sln
1941 11042 0
/Helvetica-0 findfont 444 yratio mul scalefont setfont
(-2) stringwidth pop add
xratio div
dup 4 3 roll exch 0.000 cos mul sub 3 1 roll 0.000 sin mul sub 2 copy
/fntsize {/Helvetica-0 findfont exch scalefont setfont } def
0.000 444
(-2) Stxtl
(-2) stringwidth pop xratio div
dup 4 3 roll exch 0.000 cos mul add 3 1 roll 0.000 sin mul add 2 copy
pop pop pop pop
2208 11967 2030 11967 Sln
1941 11812 0
/Helvetica-0 findfont 444 yratio mul scalefont setfont
(-1) stringwidth pop add
xratio div
dup 4 3 roll exch 0.000 cos mul sub 3 1 roll 0.000 sin mul sub 2 copy
/fntsize {/Helvetica-0 findfont exch scalefont setfont } def
0.000 444
(-1) Stxtl
(-1) stringwidth pop xratio div
dup 4 3 roll exch 0.000 cos mul add 3 1 roll 0.000 sin mul add 2 copy
pop pop pop pop
2208 12737 2030 12737 Sln
1941 12582 0
/Helvetica-0 findfont 444 yratio mul scalefont setfont
(0) stringwidth pop add
xratio div
dup 4 3 roll exch 0.000 cos mul sub 3 1 roll 0.000 sin mul sub 2 copy
/fntsize {/Helvetica-0 findfont exch scalefont setfont } def
0.000 444
(0) Stxtl
(0) stringwidth pop xratio div
dup 4 3 roll exch 0.000 cos mul add 3 1 roll 0.000 sin mul add 2 copy
pop pop pop pop
2208 13507 2030 13507 Sln
1941 13352 0
/Helvetica-0 findfont 444 yratio mul scalefont setfont
(1) stringwidth pop add
xratio div
dup 4 3 roll exch 0.000 cos mul sub 3 1 roll 0.000 sin mul sub 2 copy
/fntsize {/Helvetica-0 findfont exch scalefont setfont } def
0.000 444
(1) Stxtl
(1) stringwidth pop xratio div
dup 4 3 roll exch 0.000 cos mul add 3 1 roll 0.000 sin mul add 2 copy
pop pop pop pop
2208 14278 2030 14278 Sln
1941 14123 0
/Helvetica-0 findfont 444 yratio mul scalefont setfont
(2) stringwidth pop add
xratio div
dup 4 3 roll exch 0.000 cos mul sub 3 1 roll 0.000 sin mul sub 2 copy
/fntsize {/Helvetica-0 findfont exch scalefont setfont } def
0.000 444
(2) Stxtl
(2) stringwidth pop xratio div
dup 4 3 roll exch 0.000 cos mul add 3 1 roll 0.000 sin mul add 2 copy
pop pop pop pop
12843 10018 12843 14606 Sln
12843 10300 12665 10300 Sln
12576 10145 0
/Helvetica-0 findfont 444 yratio mul scalefont setfont
(-.8) stringwidth pop add
xratio div
dup 4 3 roll exch 0.000 cos mul sub 3 1 roll 0.000 sin mul sub 2 copy
/fntsize {/Helvetica-0 findfont exch scalefont setfont } def
0.000 444
(-.8) Stxtl
(-.8) stringwidth pop xratio div
dup 4 3 roll exch 0.000 cos mul add 3 1 roll 0.000 sin mul add 2 copy
pop pop pop pop
12843 10971 12665 10971 Sln
12576 10816 0
/Helvetica-0 findfont 444 yratio mul scalefont setfont
(-.6) stringwidth pop add
xratio div
dup 4 3 roll exch 0.000 cos mul sub 3 1 roll 0.000 sin mul sub 2 copy
/fntsize {/Helvetica-0 findfont exch scalefont setfont } def
0.000 444
(-.6) Stxtl
(-.6) stringwidth pop xratio div
dup 4 3 roll exch 0.000 cos mul add 3 1 roll 0.000 sin mul add 2 copy
pop pop pop pop
12843 11641 12665 11641 Sln
12576 11486 0
/Helvetica-0 findfont 444 yratio mul scalefont setfont
(-.4) stringwidth pop add
xratio div
dup 4 3 roll exch 0.000 cos mul sub 3 1 roll 0.000 sin mul sub 2 copy
/fntsize {/Helvetica-0 findfont exch scalefont setfont } def
0.000 444
(-.4) Stxtl
(-.4) stringwidth pop xratio div
dup 4 3 roll exch 0.000 cos mul add 3 1 roll 0.000 sin mul add 2 copy
pop pop pop pop
12843 12312 12665 12312 Sln
12576 12157 0
/Helvetica-0 findfont 444 yratio mul scalefont setfont
(-.2) stringwidth pop add
xratio div
dup 4 3 roll exch 0.000 cos mul sub 3 1 roll 0.000 sin mul sub 2 copy
/fntsize {/Helvetica-0 findfont exch scalefont setfont } def
0.000 444
(-.2) Stxtl
(-.2) stringwidth pop xratio div
dup 4 3 roll exch 0.000 cos mul add 3 1 roll 0.000 sin mul add 2 copy
pop pop pop pop
12843 12983 12665 12983 Sln
12576 12828 0
/Helvetica-0 findfont 444 yratio mul scalefont setfont
(0) stringwidth pop add
xratio div
dup 4 3 roll exch 0.000 cos mul sub 3 1 roll 0.000 sin mul sub 2 copy
/fntsize {/Helvetica-0 findfont exch scalefont setfont } def
0.000 444
(0) Stxtl
(0) stringwidth pop xratio div
dup 4 3 roll exch 0.000 cos mul add 3 1 roll 0.000 sin mul add 2 copy
pop pop pop pop
12843 13653 12665 13653 Sln
12576 13498 0
/Helvetica-0 findfont 444 yratio mul scalefont setfont
(.2) stringwidth pop add
xratio div
dup 4 3 roll exch 0.000 cos mul sub 3 1 roll 0.000 sin mul sub 2 copy
/fntsize {/Helvetica-0 findfont exch scalefont setfont } def
0.000 444
(.2) Stxtl
(.2) stringwidth pop xratio div
dup 4 3 roll exch 0.000 cos mul add 3 1 roll 0.000 sin mul add 2 copy
pop pop pop pop
12843 14324 12665 14324 Sln
12576 14169 0
/Helvetica-0 findfont 444 yratio mul scalefont setfont
(.4) stringwidth pop add
xratio div
dup 4 3 roll exch 0.000 cos mul sub 3 1 roll 0.000 sin mul sub 2 copy
/fntsize {/Helvetica-0 findfont exch scalefont setfont } def
0.000 444
(.4) Stxtl
(.4) stringwidth pop xratio div
dup 4 3 roll exch 0.000 cos mul add 3 1 roll 0.000 sin mul add 2 copy
pop pop pop pop
23478 10018 23478 14606 Sln
23478 10550 23300 10550 Sln
23211 10395 0
/Helvetica-0 findfont 444 yratio mul scalefont setfont
(-.6) stringwidth pop add
xratio div
dup 4 3 roll exch 0.000 cos mul sub 3 1 roll 0.000 sin mul sub 2 copy
/fntsize {/Helvetica-0 findfont exch scalefont setfont } def
0.000 444
(-.6) Stxtl
(-.6) stringwidth pop xratio div
dup 4 3 roll exch 0.000 cos mul add 3 1 roll 0.000 sin mul add 2 copy
pop pop pop pop
23478 11252 23300 11252 Sln
23211 11097 0
/Helvetica-0 findfont 444 yratio mul scalefont setfont
(-.4) stringwidth pop add
xratio div
dup 4 3 roll exch 0.000 cos mul sub 3 1 roll 0.000 sin mul sub 2 copy
/fntsize {/Helvetica-0 findfont exch scalefont setfont } def
0.000 444
(-.4) Stxtl
(-.4) stringwidth pop xratio div
dup 4 3 roll exch 0.000 cos mul add 3 1 roll 0.000 sin mul add 2 copy
pop pop pop pop
23478 11954 23300 11954 Sln
23211 11799 0
/Helvetica-0 findfont 444 yratio mul scalefont setfont
(-.2) stringwidth pop add
xratio div
dup 4 3 roll exch 0.000 cos mul sub 3 1 roll 0.000 sin mul sub 2 copy
/fntsize {/Helvetica-0 findfont exch scalefont setfont } def
0.000 444
(-.2) Stxtl
(-.2) stringwidth pop xratio div
dup 4 3 roll exch 0.000 cos mul add 3 1 roll 0.000 sin mul add 2 copy
pop pop pop pop
23478 12656 23300 12656 Sln
23211 12501 0
/Helvetica-0 findfont 444 yratio mul scalefont setfont
(0) stringwidth pop add
xratio div
dup 4 3 roll exch 0.000 cos mul sub 3 1 roll 0.000 sin mul sub 2 copy
/fntsize {/Helvetica-0 findfont exch scalefont setfont } def
0.000 444
(0) Stxtl
(0) stringwidth pop xratio div
dup 4 3 roll exch 0.000 cos mul add 3 1 roll 0.000 sin mul add 2 copy
pop pop pop pop
23478 13358 23300 13358 Sln
23211 13203 0
/Helvetica-0 findfont 444 yratio mul scalefont setfont
(.2) stringwidth pop add
xratio div
dup 4 3 roll exch 0.000 cos mul sub 3 1 roll 0.000 sin mul sub 2 copy
/fntsize {/Helvetica-0 findfont exch scalefont setfont } def
0.000 444
(.2) Stxtl
(.2) stringwidth pop xratio div
dup 4 3 roll exch 0.000 cos mul add 3 1 roll 0.000 sin mul add 2 copy
pop pop pop pop
23478 14060 23300 14060 Sln
23211 13905 0
/Helvetica-0 findfont 444 yratio mul scalefont setfont
(.4) stringwidth pop add
xratio div
dup 4 3 roll exch 0.000 cos mul sub 3 1 roll 0.000 sin mul sub 2 copy
/fntsize {/Helvetica-0 findfont exch scalefont setfont } def
0.000 444
(.4) Stxtl
(.4) stringwidth pop xratio div
dup 4 3 roll exch 0.000 cos mul add 3 1 roll 0.000 sin mul add 2 copy
pop pop pop pop
2208 4405 2208 8992 Sln
2208 4901 2030 4901 Sln
1941 4746 0
/Helvetica-0 findfont 444 yratio mul scalefont setfont
(-6) stringwidth pop add
xratio div
dup 4 3 roll exch 0.000 cos mul sub 3 1 roll 0.000 sin mul sub 2 copy
/fntsize {/Helvetica-0 findfont exch scalefont setfont } def
0.000 444
(-6) Stxtl
(-6) stringwidth pop xratio div
dup 4 3 roll exch 0.000 cos mul add 3 1 roll 0.000 sin mul add 2 copy
pop pop pop pop
2208 5663 2030 5663 Sln
1941 5508 0
/Helvetica-0 findfont 444 yratio mul scalefont setfont
(-4) stringwidth pop add
xratio div
dup 4 3 roll exch 0.000 cos mul sub 3 1 roll 0.000 sin mul sub 2 copy
/fntsize {/Helvetica-0 findfont exch scalefont setfont } def
0.000 444
(-4) Stxtl
(-4) stringwidth pop xratio div
dup 4 3 roll exch 0.000 cos mul add 3 1 roll 0.000 sin mul add 2 copy
pop pop pop pop
2208 6425 2030 6425 Sln
1941 6270 0
/Helvetica-0 findfont 444 yratio mul scalefont setfont
(-2) stringwidth pop add
xratio div
dup 4 3 roll exch 0.000 cos mul sub 3 1 roll 0.000 sin mul sub 2 copy
/fntsize {/Helvetica-0 findfont exch scalefont setfont } def
0.000 444
(-2) Stxtl
(-2) stringwidth pop xratio div
dup 4 3 roll exch 0.000 cos mul add 3 1 roll 0.000 sin mul add 2 copy
pop pop pop pop
2208 7187 2030 7187 Sln
1941 7032 0
/Helvetica-0 findfont 444 yratio mul scalefont setfont
(0) stringwidth pop add
xratio div
dup 4 3 roll exch 0.000 cos mul sub 3 1 roll 0.000 sin mul sub 2 copy
/fntsize {/Helvetica-0 findfont exch scalefont setfont } def
0.000 444
(0) Stxtl
(0) stringwidth pop xratio div
dup 4 3 roll exch 0.000 cos mul add 3 1 roll 0.000 sin mul add 2 copy
pop pop pop pop
2208 7948 2030 7948 Sln
1941 7793 0
/Helvetica-0 findfont 444 yratio mul scalefont setfont
(2) stringwidth pop add
xratio div
dup 4 3 roll exch 0.000 cos mul sub 3 1 roll 0.000 sin mul sub 2 copy
/fntsize {/Helvetica-0 findfont exch scalefont setfont } def
0.000 444
(2) Stxtl
(2) stringwidth pop xratio div
dup 4 3 roll exch 0.000 cos mul add 3 1 roll 0.000 sin mul add 2 copy
pop pop pop pop
2208 8710 2030 8710 Sln
1941 8555 0
/Helvetica-0 findfont 444 yratio mul scalefont setfont
(4) stringwidth pop add
xratio div
dup 4 3 roll exch 0.000 cos mul sub 3 1 roll 0.000 sin mul sub 2 copy
/fntsize {/Helvetica-0 findfont exch scalefont setfont } def
0.000 444
(4) Stxtl
(4) stringwidth pop xratio div
dup 4 3 roll exch 0.000 cos mul add 3 1 roll 0.000 sin mul add 2 copy
pop pop pop pop
12843 4405 12843 8992 Sln
12843 4807 12665 4807 Sln
12576 4652 0
/Helvetica-0 findfont 444 yratio mul scalefont setfont
(-15) stringwidth pop add
xratio div
dup 4 3 roll exch 0.000 cos mul sub 3 1 roll 0.000 sin mul sub 2 copy
/fntsize {/Helvetica-0 findfont exch scalefont setfont } def
0.000 444
(-15) Stxtl
(-15) stringwidth pop xratio div
dup 4 3 roll exch 0.000 cos mul add 3 1 roll 0.000 sin mul add 2 copy
pop pop pop pop
12843 5588 12665 5588 Sln
12576 5433 0
/Helvetica-0 findfont 444 yratio mul scalefont setfont
(-10) stringwidth pop add
xratio div
dup 4 3 roll exch 0.000 cos mul sub 3 1 roll 0.000 sin mul sub 2 copy
/fntsize {/Helvetica-0 findfont exch scalefont setfont } def
0.000 444
(-10) Stxtl
(-10) stringwidth pop xratio div
dup 4 3 roll exch 0.000 cos mul add 3 1 roll 0.000 sin mul add 2 copy
pop pop pop pop
12843 6368 12665 6368 Sln
12576 6213 0
/Helvetica-0 findfont 444 yratio mul scalefont setfont
(-5) stringwidth pop add
xratio div
dup 4 3 roll exch 0.000 cos mul sub 3 1 roll 0.000 sin mul sub 2 copy
/fntsize {/Helvetica-0 findfont exch scalefont setfont } def
0.000 444
(-5) Stxtl
(-5) stringwidth pop xratio div
dup 4 3 roll exch 0.000 cos mul add 3 1 roll 0.000 sin mul add 2 copy
pop pop pop pop
12843 7149 12665 7149 Sln
12576 6994 0
/Helvetica-0 findfont 444 yratio mul scalefont setfont
(0) stringwidth pop add
xratio div
dup 4 3 roll exch 0.000 cos mul sub 3 1 roll 0.000 sin mul sub 2 copy
/fntsize {/Helvetica-0 findfont exch scalefont setfont } def
0.000 444
(0) Stxtl
(0) stringwidth pop xratio div
dup 4 3 roll exch 0.000 cos mul add 3 1 roll 0.000 sin mul add 2 copy
pop pop pop pop
12843 7930 12665 7930 Sln
12576 7775 0
/Helvetica-0 findfont 444 yratio mul scalefont setfont
(5) stringwidth pop add
xratio div
dup 4 3 roll exch 0.000 cos mul sub 3 1 roll 0.000 sin mul sub 2 copy
/fntsize {/Helvetica-0 findfont exch scalefont setfont } def
0.000 444
(5) Stxtl
(5) stringwidth pop xratio div
dup 4 3 roll exch 0.000 cos mul add 3 1 roll 0.000 sin mul add 2 copy
pop pop pop pop
12843 8710 12665 8710 Sln
12576 8555 0
/Helvetica-0 findfont 444 yratio mul scalefont setfont
(10) stringwidth pop add
xratio div
dup 4 3 roll exch 0.000 cos mul sub 3 1 roll 0.000 sin mul sub 2 copy
/fntsize {/Helvetica-0 findfont exch scalefont setfont } def
0.000 444
(10) Stxtl
(10) stringwidth pop xratio div
dup 4 3 roll exch 0.000 cos mul add 3 1 roll 0.000 sin mul add 2 copy
pop pop pop pop
23478 4405 23478 8992 Sln
23478 4686 23300 4686 Sln
23211 4531 0
/Helvetica-0 findfont 444 yratio mul scalefont setfont
(-800) stringwidth pop add
xratio div
dup 4 3 roll exch 0.000 cos mul sub 3 1 roll 0.000 sin mul sub 2 copy
/fntsize {/Helvetica-0 findfont exch scalefont setfont } def
0.000 444
(-800) Stxtl
(-800) stringwidth pop xratio div
dup 4 3 roll exch 0.000 cos mul add 3 1 roll 0.000 sin mul add 2 copy
pop pop pop pop
23478 5335 23300 5335 Sln
23211 5180 0
/Helvetica-0 findfont 444 yratio mul scalefont setfont
(-600) stringwidth pop add
xratio div
dup 4 3 roll exch 0.000 cos mul sub 3 1 roll 0.000 sin mul sub 2 copy
/fntsize {/Helvetica-0 findfont exch scalefont setfont } def
0.000 444
(-600) Stxtl
(-600) stringwidth pop xratio div
dup 4 3 roll exch 0.000 cos mul add 3 1 roll 0.000 sin mul add 2 copy
pop pop pop pop
23478 5983 23300 5983 Sln
23211 5828 0
/Helvetica-0 findfont 444 yratio mul scalefont setfont
(-400) stringwidth pop add
xratio div
dup 4 3 roll exch 0.000 cos mul sub 3 1 roll 0.000 sin mul sub 2 copy
/fntsize {/Helvetica-0 findfont exch scalefont setfont } def
0.000 444
(-400) Stxtl
(-400) stringwidth pop xratio div
dup 4 3 roll exch 0.000 cos mul add 3 1 roll 0.000 sin mul add 2 copy
pop pop pop pop
23478 6631 23300 6631 Sln
23211 6476 0
/Helvetica-0 findfont 444 yratio mul scalefont setfont
(-200) stringwidth pop add
xratio div
dup 4 3 roll exch 0.000 cos mul sub 3 1 roll 0.000 sin mul sub 2 copy
/fntsize {/Helvetica-0 findfont exch scalefont setfont } def
0.000 444
(-200) Stxtl
(-200) stringwidth pop xratio div
dup 4 3 roll exch 0.000 cos mul add 3 1 roll 0.000 sin mul add 2 copy
pop pop pop pop
23478 7280 23300 7280 Sln
23211 7125 0
/Helvetica-0 findfont 444 yratio mul scalefont setfont
(0) stringwidth pop add
xratio div
dup 4 3 roll exch 0.000 cos mul sub 3 1 roll 0.000 sin mul sub 2 copy
/fntsize {/Helvetica-0 findfont exch scalefont setfont } def
0.000 444
(0) Stxtl
(0) stringwidth pop xratio div
dup 4 3 roll exch 0.000 cos mul add 3 1 roll 0.000 sin mul add 2 copy
pop pop pop pop
23478 7928 23300 7928 Sln
23211 7773 0
/Helvetica-0 findfont 444 yratio mul scalefont setfont
(200) stringwidth pop add
xratio div
dup 4 3 roll exch 0.000 cos mul sub 3 1 roll 0.000 sin mul sub 2 copy
/fntsize {/Helvetica-0 findfont exch scalefont setfont } def
0.000 444
(200) Stxtl
(200) stringwidth pop xratio div
dup 4 3 roll exch 0.000 cos mul add 3 1 roll 0.000 sin mul add 2 copy
pop pop pop pop
23478 8576 23300 8576 Sln
23211 8421 0
/Helvetica-0 findfont 444 yratio mul scalefont setfont
(400) stringwidth pop add
xratio div
dup 4 3 roll exch 0.000 cos mul sub 3 1 roll 0.000 sin mul sub 2 copy
/fntsize {/Helvetica-0 findfont exch scalefont setfont } def
0.000 444
(400) Stxtl
(400) stringwidth pop xratio div
dup 4 3 roll exch 0.000 cos mul add 3 1 roll 0.000 sin mul add 2 copy
pop pop pop pop
2208 4405 9977 4405 Sln
2693 4405 2693 4227 Sln
2849 4138 0
/Helvetica-0 findfont 444 yratio mul scalefont setfont
(0) stringwidth pop add
xratio div
dup 4 3 roll exch 90.000 cos mul sub 3 1 roll 90.000 sin mul sub 2 copy
/fntsize {/Helvetica-0 findfont exch scalefont setfont } def
90.000 444
(0) Stxtl
(0) stringwidth pop xratio div
dup 4 3 roll exch 90.000 cos mul add 3 1 roll 90.000 sin mul add 2 copy
pop pop pop pop
3664 4405 3664 4227 Sln
3820 4138 0
/Helvetica-0 findfont 444 yratio mul scalefont setfont
(1-2) stringwidth pop add
xratio div
dup 4 3 roll exch 90.000 cos mul sub 3 1 roll 90.000 sin mul sub 2 copy
/fntsize {/Helvetica-0 findfont exch scalefont setfont } def
90.000 444
(1-2) Stxtl
(1-2) stringwidth pop xratio div
dup 4 3 roll exch 90.000 cos mul add 3 1 roll 90.000 sin mul add 2 copy
pop pop pop pop
4636 4405 4636 4227 Sln
4792 4138 0
/Helvetica-0 findfont 444 yratio mul scalefont setfont
(3-4) stringwidth pop add
xratio div
dup 4 3 roll exch 90.000 cos mul sub 3 1 roll 90.000 sin mul sub 2 copy
/fntsize {/Helvetica-0 findfont exch scalefont setfont } def
90.000 444
(3-4) Stxtl
(3-4) stringwidth pop xratio div
dup 4 3 roll exch 90.000 cos mul add 3 1 roll 90.000 sin mul add 2 copy
pop pop pop pop
5607 4405 5607 4227 Sln
5763 4138 0
/Helvetica-0 findfont 444 yratio mul scalefont setfont
(5-6) stringwidth pop add
xratio div
dup 4 3 roll exch 90.000 cos mul sub 3 1 roll 90.000 sin mul sub 2 copy
/fntsize {/Helvetica-0 findfont exch scalefont setfont } def
90.000 444
(5-6) Stxtl
(5-6) stringwidth pop xratio div
dup 4 3 roll exch 90.000 cos mul add 3 1 roll 90.000 sin mul add 2 copy
pop pop pop pop
6578 4405 6578 4227 Sln
6734 4138 0
/Helvetica-0 findfont 444 yratio mul scalefont setfont
(7-8) stringwidth pop add
xratio div
dup 4 3 roll exch 90.000 cos mul sub 3 1 roll 90.000 sin mul sub 2 copy
/fntsize {/Helvetica-0 findfont exch scalefont setfont } def
90.000 444
(7-8) Stxtl
(7-8) stringwidth pop xratio div
dup 4 3 roll exch 90.000 cos mul add 3 1 roll 90.000 sin mul add 2 copy
pop pop pop pop
7549 4405 7549 4227 Sln
7705 4138 0
/Helvetica-0 findfont 444 yratio mul scalefont setfont
(9-10) stringwidth pop add
xratio div
dup 4 3 roll exch 90.000 cos mul sub 3 1 roll 90.000 sin mul sub 2 copy
/fntsize {/Helvetica-0 findfont exch scalefont setfont } def
90.000 444
(9-10) Stxtl
(9-10) stringwidth pop xratio div
dup 4 3 roll exch 90.000 cos mul add 3 1 roll 90.000 sin mul add 2 copy
pop pop pop pop
8521 4405 8521 4227 Sln
8677 4138 0
/Helvetica-0 findfont 444 yratio mul scalefont setfont
(11-12) stringwidth pop add
xratio div
dup 4 3 roll exch 90.000 cos mul sub 3 1 roll 90.000 sin mul sub 2 copy
/fntsize {/Helvetica-0 findfont exch scalefont setfont } def
90.000 444
(11-12) Stxtl
(11-12) stringwidth pop xratio div
dup 4 3 roll exch 90.000 cos mul add 3 1 roll 90.000 sin mul add 2 copy
pop pop pop pop
9492 4405 9492 4227 Sln
9648 4138 0
/Helvetica-0 findfont 444 yratio mul scalefont setfont
(13-14) stringwidth pop add
xratio div
dup 4 3 roll exch 90.000 cos mul sub 3 1 roll 90.000 sin mul sub 2 copy
/fntsize {/Helvetica-0 findfont exch scalefont setfont } def
90.000 444
(13-14) Stxtl
(13-14) stringwidth pop xratio div
dup 4 3 roll exch 90.000 cos mul add 3 1 roll 90.000 sin mul add 2 copy
pop pop pop pop
12843 4405 20613 4405 Sln
13328 4405 13328 4227 Sln
13484 4138 0
/Helvetica-0 findfont 444 yratio mul scalefont setfont
(0) stringwidth pop add
xratio div
dup 4 3 roll exch 90.000 cos mul sub 3 1 roll 90.000 sin mul sub 2 copy
/fntsize {/Helvetica-0 findfont exch scalefont setfont } def
90.000 444
(0) Stxtl
(0) stringwidth pop xratio div
dup 4 3 roll exch 90.000 cos mul add 3 1 roll 90.000 sin mul add 2 copy
pop pop pop pop
14300 4405 14300 4227 Sln
14456 4138 0
/Helvetica-0 findfont 444 yratio mul scalefont setfont
(1-2) stringwidth pop add
xratio div
dup 4 3 roll exch 90.000 cos mul sub 3 1 roll 90.000 sin mul sub 2 copy
/fntsize {/Helvetica-0 findfont exch scalefont setfont } def
90.000 444
(1-2) Stxtl
(1-2) stringwidth pop xratio div
dup 4 3 roll exch 90.000 cos mul add 3 1 roll 90.000 sin mul add 2 copy
pop pop pop pop
15271 4405 15271 4227 Sln
15427 4138 0
/Helvetica-0 findfont 444 yratio mul scalefont setfont
(3-4) stringwidth pop add
xratio div
dup 4 3 roll exch 90.000 cos mul sub 3 1 roll 90.000 sin mul sub 2 copy
/fntsize {/Helvetica-0 findfont exch scalefont setfont } def
90.000 444
(3-4) Stxtl
(3-4) stringwidth pop xratio div
dup 4 3 roll exch 90.000 cos mul add 3 1 roll 90.000 sin mul add 2 copy
pop pop pop pop
16242 4405 16242 4227 Sln
16398 4138 0
/Helvetica-0 findfont 444 yratio mul scalefont setfont
(5-6) stringwidth pop add
xratio div
dup 4 3 roll exch 90.000 cos mul sub 3 1 roll 90.000 sin mul sub 2 copy
/fntsize {/Helvetica-0 findfont exch scalefont setfont } def
90.000 444
(5-6) Stxtl
(5-6) stringwidth pop xratio div
dup 4 3 roll exch 90.000 cos mul add 3 1 roll 90.000 sin mul add 2 copy
pop pop pop pop
17213 4405 17213 4227 Sln
17369 4138 0
/Helvetica-0 findfont 444 yratio mul scalefont setfont
(7-8) stringwidth pop add
xratio div
dup 4 3 roll exch 90.000 cos mul sub 3 1 roll 90.000 sin mul sub 2 copy
/fntsize {/Helvetica-0 findfont exch scalefont setfont } def
90.000 444
(7-8) Stxtl
(7-8) stringwidth pop xratio div
dup 4 3 roll exch 90.000 cos mul add 3 1 roll 90.000 sin mul add 2 copy
pop pop pop pop
18185 4405 18185 4227 Sln
18341 4138 0
/Helvetica-0 findfont 444 yratio mul scalefont setfont
(9-10) stringwidth pop add
xratio div
dup 4 3 roll exch 90.000 cos mul sub 3 1 roll 90.000 sin mul sub 2 copy
/fntsize {/Helvetica-0 findfont exch scalefont setfont } def
90.000 444
(9-10) Stxtl
(9-10) stringwidth pop xratio div
dup 4 3 roll exch 90.000 cos mul add 3 1 roll 90.000 sin mul add 2 copy
pop pop pop pop
19156 4405 19156 4227 Sln
19312 4138 0
/Helvetica-0 findfont 444 yratio mul scalefont setfont
(11-12) stringwidth pop add
xratio div
dup 4 3 roll exch 90.000 cos mul sub 3 1 roll 90.000 sin mul sub 2 copy
/fntsize {/Helvetica-0 findfont exch scalefont setfont } def
90.000 444
(11-12) Stxtl
(11-12) stringwidth pop xratio div
dup 4 3 roll exch 90.000 cos mul add 3 1 roll 90.000 sin mul add 2 copy
pop pop pop pop
20127 4405 20127 4227 Sln
20283 4138 0
/Helvetica-0 findfont 444 yratio mul scalefont setfont
(13-14) stringwidth pop add
xratio div
dup 4 3 roll exch 90.000 cos mul sub 3 1 roll 90.000 sin mul sub 2 copy
/fntsize {/Helvetica-0 findfont exch scalefont setfont } def
90.000 444
(13-14) Stxtl
(13-14) stringwidth pop xratio div
dup 4 3 roll exch 90.000 cos mul add 3 1 roll 90.000 sin mul add 2 copy
pop pop pop pop
23478 4405 31248 4405 Sln
23964 4405 23964 4227 Sln
24120 4138 0
/Helvetica-0 findfont 444 yratio mul scalefont setfont
(0) stringwidth pop add
xratio div
dup 4 3 roll exch 90.000 cos mul sub 3 1 roll 90.000 sin mul sub 2 copy
/fntsize {/Helvetica-0 findfont exch scalefont setfont } def
90.000 444
(0) Stxtl
(0) stringwidth pop xratio div
dup 4 3 roll exch 90.000 cos mul add 3 1 roll 90.000 sin mul add 2 copy
pop pop pop pop
24935 4405 24935 4227 Sln
25091 4138 0
/Helvetica-0 findfont 444 yratio mul scalefont setfont
(1-2) stringwidth pop add
xratio div
dup 4 3 roll exch 90.000 cos mul sub 3 1 roll 90.000 sin mul sub 2 copy
/fntsize {/Helvetica-0 findfont exch scalefont setfont } def
90.000 444
(1-2) Stxtl
(1-2) stringwidth pop xratio div
dup 4 3 roll exch 90.000 cos mul add 3 1 roll 90.000 sin mul add 2 copy
pop pop pop pop
25906 4405 25906 4227 Sln
26062 4138 0
/Helvetica-0 findfont 444 yratio mul scalefont setfont
(3-4) stringwidth pop add
xratio div
dup 4 3 roll exch 90.000 cos mul sub 3 1 roll 90.000 sin mul sub 2 copy
/fntsize {/Helvetica-0 findfont exch scalefont setfont } def
90.000 444
(3-4) Stxtl
(3-4) stringwidth pop xratio div
dup 4 3 roll exch 90.000 cos mul add 3 1 roll 90.000 sin mul add 2 copy
pop pop pop pop
26877 4405 26877 4227 Sln
27033 4138 0
/Helvetica-0 findfont 444 yratio mul scalefont setfont
(5-6) stringwidth pop add
xratio div
dup 4 3 roll exch 90.000 cos mul sub 3 1 roll 90.000 sin mul sub 2 copy
/fntsize {/Helvetica-0 findfont exch scalefont setfont } def
90.000 444
(5-6) Stxtl
(5-6) stringwidth pop xratio div
dup 4 3 roll exch 90.000 cos mul add 3 1 roll 90.000 sin mul add 2 copy
pop pop pop pop
27849 4405 27849 4227 Sln
28005 4138 0
/Helvetica-0 findfont 444 yratio mul scalefont setfont
(7-8) stringwidth pop add
xratio div
dup 4 3 roll exch 90.000 cos mul sub 3 1 roll 90.000 sin mul sub 2 copy
/fntsize {/Helvetica-0 findfont exch scalefont setfont } def
90.000 444
(7-8) Stxtl
(7-8) stringwidth pop xratio div
dup 4 3 roll exch 90.000 cos mul add 3 1 roll 90.000 sin mul add 2 copy
pop pop pop pop
28820 4405 28820 4227 Sln
28976 4138 0
/Helvetica-0 findfont 444 yratio mul scalefont setfont
(9-10) stringwidth pop add
xratio div
dup 4 3 roll exch 90.000 cos mul sub 3 1 roll 90.000 sin mul sub 2 copy
/fntsize {/Helvetica-0 findfont exch scalefont setfont } def
90.000 444
(9-10) Stxtl
(9-10) stringwidth pop xratio div
dup 4 3 roll exch 90.000 cos mul add 3 1 roll 90.000 sin mul add 2 copy
pop pop pop pop
29791 4405 29791 4227 Sln
29947 4138 0
/Helvetica-0 findfont 444 yratio mul scalefont setfont
(11-12) stringwidth pop add
xratio div
dup 4 3 roll exch 90.000 cos mul sub 3 1 roll 90.000 sin mul sub 2 copy
/fntsize {/Helvetica-0 findfont exch scalefont setfont } def
90.000 444
(11-12) Stxtl
(11-12) stringwidth pop xratio div
dup 4 3 roll exch 90.000 cos mul add 3 1 roll 90.000 sin mul add 2 copy
pop pop pop pop
30762 4405 30762 4227 Sln
30918 4138 0
/Helvetica-0 findfont 444 yratio mul scalefont setfont
(13-14) stringwidth pop add
xratio div
dup 4 3 roll exch 90.000 cos mul sub 3 1 roll 90.000 sin mul sub 2 copy
/fntsize {/Helvetica-0 findfont exch scalefont setfont } def
90.000 444
(13-14) Stxtl
(13-14) stringwidth pop xratio div
dup 4 3 roll exch 90.000 cos mul add 3 1 roll 90.000 sin mul add 2 copy
pop pop pop pop
/Ssrgb {0.816 0.816 0.816} def
2208 14606 9977 15248 1 Srect
6092 14829 0
/Helvetica-0 findfont 489 yratio mul scalefont setfont
(Employed) stringwidth pop add
2 div xratio div
dup 4 3 roll exch 0.000 cos mul sub 3 1 roll 0.000 sin mul sub 2 copy
/fntsize {/Helvetica-0 findfont exch scalefont setfont } def
0.000 489
(Employed) Stxtl
(Employed) stringwidth pop xratio div
dup 4 3 roll exch 0.000 cos mul add 3 1 roll 0.000 sin mul add 2 copy
pop pop pop pop
12843 14606 20613 15248 1 Srect
16728 14829 0
/Helvetica-0 findfont 489 yratio mul scalefont setfont
(Smoking) stringwidth pop add
2 div xratio div
dup 4 3 roll exch 0.000 cos mul sub 3 1 roll 0.000 sin mul sub 2 copy
/fntsize {/Helvetica-0 findfont exch scalefont setfont } def
0.000 489
(Smoking) Stxtl
(Smoking) stringwidth pop xratio div
dup 4 3 roll exch 0.000 cos mul add 3 1 roll 0.000 sin mul add 2 copy
pop pop pop pop
23478 14606 31248 15248 1 Srect
27363 14829 0
/Helvetica-0 findfont 489 yratio mul scalefont setfont
(Alcohol) stringwidth pop add
2 div xratio div
dup 4 3 roll exch 0.000 cos mul sub 3 1 roll 0.000 sin mul sub 2 copy
/fntsize {/Helvetica-0 findfont exch scalefont setfont } def
0.000 489
(Alcohol) Stxtl
(Alcohol) stringwidth pop xratio div
dup 4 3 roll exch 0.000 cos mul add 3 1 roll 0.000 sin mul add 2 copy
pop pop pop pop
2208 8992 9977 9634 1 Srect
6092 9216 0
/Helvetica-0 findfont 489 yratio mul scalefont setfont
(BMI) stringwidth pop add
2 div xratio div
dup 4 3 roll exch 0.000 cos mul sub 3 1 roll 0.000 sin mul sub 2 copy
/fntsize {/Helvetica-0 findfont exch scalefont setfont } def
0.000 489
(BMI) Stxtl
(BMI) stringwidth pop xratio div
dup 4 3 roll exch 0.000 cos mul add 3 1 roll 0.000 sin mul add 2 copy
pop pop pop pop
12843 8992 20613 9634 1 Srect
16728 9216 0
/Helvetica-0 findfont 489 yratio mul scalefont setfont
(Waist \(cm\)) stringwidth pop add
2 div xratio div
dup 4 3 roll exch 0.000 cos mul sub 3 1 roll 0.000 sin mul sub 2 copy
/fntsize {/Helvetica-0 findfont exch scalefont setfont } def
0.000 489
(Waist \(cm\)) Stxtl
(Waist \(cm\)) stringwidth pop xratio div
dup 4 3 roll exch 0.000 cos mul add 3 1 roll 0.000 sin mul add 2 copy
pop pop pop pop
23478 8992 31248 9634 1 Srect
27363 9216 0
/Helvetica-0 findfont 489 yratio mul scalefont setfont
(Kcal) stringwidth pop add
2 div xratio div
dup 4 3 roll exch 0.000 cos mul sub 3 1 roll 0.000 sin mul sub 2 copy
/fntsize {/Helvetica-0 findfont exch scalefont setfont } def
0.000 489
(Kcal) Stxtl
(Kcal) stringwidth pop xratio div
dup 4 3 roll exch 0.000 cos mul add 3 1 roll 0.000 sin mul add 2 copy
pop pop pop pop
/Ssrgb {1.000 1.000 1.000} def
/Slw 0.576 def
11729 752 20827 1788 1 Srect
/Slrgb {0.376 0.376 0.376} def
11969 1270 14049 1270 Sln
/Slrgb {0.627 0.627 0.627} def
16294 1270 16422 1270 Sln
16534 1270 16662 1270 Sln
16774 1270 16902 1270 Sln
17015 1270 17143 1270 Sln
17255 1270 17383 1270 Sln
17495 1270 17623 1270 Sln
17735 1270 17863 1270 Sln
17976 1270 18104 1270 Sln
18216 1270 18344 1270 Sln
14382 1076 2 copy
/fntsize {/Helvetica-0 findfont exch scalefont setfont } def
0.000 556
(men) Stxtl
(men) stringwidth pop xratio div
dup 4 3 roll exch 0.000 cos mul add 3 1 roll 0.000 sin mul add 2 copy
pop pop pop pop
18707 1076 2 copy
/fntsize {/Helvetica-0 findfont exch scalefont setfont } def
0.000 556
(women) Stxtl
(women) stringwidth pop xratio div
dup 4 3 roll exch 0.000 cos mul add 3 1 roll 0.000 sin mul add 2 copy
pop pop pop pop
949 8988 0
/Helvetica-0 findfont 556 yratio mul scalefont setfont
(Marginal effect) stringwidth pop add
2 div xratio div
dup 4 3 roll exch 90.000 cos mul sub 3 1 roll 90.000 sin mul sub 2 copy
/fntsize {/Helvetica-0 findfont exch scalefont setfont } def
90.000 556
(Marginal effect) Stxtl
(Marginal effect) stringwidth pop xratio div
dup 4 3 roll exch 90.000 cos mul add 3 1 roll 90.000 sin mul add 2 copy
pop pop pop pop
16278 2147 0
/Helvetica-0 findfont 556 yratio mul scalefont setfont
(Years after diagnosis) stringwidth pop add
2 div xratio div
dup 4 3 roll exch 0.000 cos mul sub 3 1 roll 0.000 sin mul sub 2 copy
/fntsize {/Helvetica-0 findfont exch scalefont setfont } def
0.000 556
(Years after diagnosis) Stxtl
(Years after diagnosis) stringwidth pop xratio div
dup 4 3 roll exch 0.000 cos mul add 3 1 roll 0.000 sin mul add 2 copy
pop pop pop pop
S showpage
%%EOF
