%!PS-Adobe-2.0 EPSF-2.0
%% This is a Stata generated postscript file
%%BoundingBox: 0 0 396 288
%%HiResBoundingBox: 0.000 0.000 396.000 288.000
%%DocumentNeededResources: font Helvetica
/xratio 0.012375 def
/yratio 0.012375 def
/Sbgfill {
	/y1 exch def
	/x1 exch def
	/y0 exch def
	/x0 exch def
	x0 y0 moveto
	x0 y1 lineto x1 y1 lineto x1 y0 lineto x0 y0 lineto
	fill
} def
/Spt {
	yratio mul
	/yp exch def
	xratio mul
	/xp exch def
	Slrgb setrgbcolor
	xp yp .5 0 360 arc fill
} def
/Sln {
	yratio mul
	/y1p exch def
	xratio mul
	/x1p exch def
	yratio mul
	/y0p exch def
	xratio mul
	/x0p exch def
	Slw setlinewidth
	Slrgb setrgbcolor
	x0p y0p M x1p y1p lineto S
} def
/Scrv {
	yratio mul
	/y3p exch def
	xratio mul
	/x3p exch def
	yratio mul
	/y2p exch def
	xratio mul
	/x2p exch def
	yratio mul
	/y1p exch def
	xratio mul
	/x1p exch def
	Slw setlinewidth
	Slrgb setrgbcolor
	x1p y1p x2p y2p x3p y3p curveto
	stroke
} def
/Stxtl {
	/sp exch def
	yratio mul
	/sizep exch def
	dup
	/anglep exch def
	0 exch sub
	/angle2p exch def
	yratio mul
	/y0p exch def
	xratio mul
	/x0p exch def
	Strgb setrgbcolor
	x0p y0p M anglep rotate sizep fntsize sp show stroke angle2p rotate
} def
/Stxtc {
	/sp exch def
	yratio mul
	/sizep exch def
	dup
	/anglep exch def
	0 exch sub
	/angle2p exch def
	yratio mul
	/y0p exch def
	xratio mul
	/x0p exch def
	Strgb setrgbcolor
	x0p y0p M anglep rotate sizep fntsize sp stringwidth exch -2 div exch rm sp show stroke angle2p rotate
} def
/Stxtr {
	/sp exch def
	yratio mul
	/sizep exch def
	dup
	/anglep exch def
	0 exch sub
	/angle2p exch def
	yratio mul
	/y0p exch def
	xratio mul
	/x0p exch def
	Strgb setrgbcolor
	x0p y0p M anglep rotate sizep fntsize sp stringwidth 1 index -1 mul exch rm pop sp show stroke angle2p rotate
} def
/Srect {
	/sfill exch def
	yratio mul
	/y1 exch def
	xratio mul
	/x1 exch def
	yratio mul
	/y0 exch def
	xratio mul
	/x0 exch def
	newpath x0 y0 moveto x0 y1 lineto x1 y1 lineto x1 y0 lineto x0 y0 lineto closepath
	sfill 1 eq {
		Ssrgb setrgbcolor
		gsave
		fill
		grestore
	} if
	Slw setlinewidth
	Slrgb setrgbcolor
	stroke
} def
/Sellipse {
	/sfill exch def
	yratio mul
	/yrad exch def
	xratio mul
	/xrad exch def
	yratio mul
	/y exch def
	xratio mul
	/x exch def
	/savematrix matrix currentmatrix def
	x y translate
	xrad yrad scale
	0 0 1 0 360 arc
	savematrix setmatrix
	sfill 1 eq {
		Ssrgb setrgbcolor
		gsave
		fill
		grestore
	} if
	Slw setlinewidth
	Slrgb setrgbcolor
	stroke
} def
/Stri {
	/sfill exch def
	xratio mul
	/r exch def
	yratio mul
	/y0 exch def
	xratio mul
	/x0 exch def
	/xcen x0 def
	y0 r add
	/ytop exch def
	r 2 div
	y0 exch sub
	/ybot exch def
	r 3 sqrt 2 div mul dup
	xcen exch sub
	/xleft exch def
	xcen add
	/xright exch def
	newpath xcen ytop moveto xright ybot lineto xleft ybot lineto xcen ytop lineto closepath
	sfill 1 eq {
		Ssrgb setrgbcolor
		gsave
		fill
		grestore
	} if
	Slw setlinewidth
	Slrgb setrgbcolor
	stroke
} def
/Soldtri {
	/sfill exch def
	xratio mul
	/r exch def
	yratio mul
	/y0 exch def
	xratio mul
	/x0 exch def
	x0 r sub
	/x1 exch def
	y0 r sub
	/y1 exch def
	x0 r add
	/x2 exch def
	y0 r sub
	/y2 exch def
	/x3 x0 def
	y0 r add
	/y3 exch def
	newpath x1 y1 moveto x2 y2 lineto x3 y3 lineto x1 y1 lineto closepath
	sfill 1 eq {
		Ssrgb setrgbcolor
		gsave
		fill
		grestore
	} if
	Slw setlinewidth
	Slrgb setrgbcolor
	stroke
} def
/Sdia {
	/sfill exch def
	xratio mul
	/r exch def
	yratio mul
	/y exch def
	xratio mul
	/x exch def
	x r sub
	/x0 exch def
	/y0 y def
	/x1 x def
	y r sub
	/y1 exch def
	x r add
	/x2 exch def
	/y2 y def
	/x3 x def
	y r add
	/y3 exch def
	newpath x0 y0 moveto x1 y1 lineto x2 y2 lineto x3 y3 lineto x0 y0 lineto closepath
	sfill 1 eq {
		Ssrgb setrgbcolor
		gsave
		fill
		grestore
	} if
	Slw setlinewidth
	Slrgb setrgbcolor
	stroke
} def
/Scc {
	/sfill exch def
	xratio mul
	/r0 exch def
	yratio mul
	/y0 exch def
	xratio mul
	/x0 exch def
	x0 y0 r0 0 360 arc closepath
	sfill 1 eq {
		Ssrgb setrgbcolor
		gsave
		fill
		grestore
	} if
	Slw setlinewidth
	Slrgb setrgbcolor
	stroke
} def
/Spie {
	/sfill exch def
	/a1 exch def
	/a0 exch def
	xratio mul
	/r exch def
	yratio mul
	/y exch def
	xratio mul
	/x exch def
	newpath x y moveto x y r a0 a1 arc closepath
	sfill 1 eq {
		Ssrgb setrgbcolor
		gsave
		fill
		grestore
	} if
	Slw setlinewidth
	Slrgb setrgbcolor
	stroke
} def
/Splu {
	xratio mul
	/r exch def
	yratio mul
	/y exch def
	xratio mul
	/x exch def
	x r sub
	/x0 exch def
	x r add
	/x1 exch def
	x0 y M x1 y L
	y r sub
	/y0 exch def
	y r add
	/y1 exch def
	x y0 M x y1 L
} def
/Scro {
	xratio mul
	/r exch def
	yratio mul
	/y exch def
	xratio mul
	/x exch def
	x r sub
	/x0 exch def
	y r sub
	/y0 exch def
	x r add
	/x1 exch def
	y r add
	/y1 exch def
	x0 y0 M x1 y1 L
	x r add
	/x0 exch def
	y r sub
	/y0 exch def
	x r sub
	/x1 exch def
	y r add
	/y1 exch def
	x0 y0 M x1 y1 L
} def
/Sm {
	yratio mul
	/y exch def
	xratio mul
	/x exch def
	x y M
} def
/Sl {
	yratio mul
	/y exch def
	xratio mul
	/x exch def
	x y L
} def
/SPl {
	yratio mul
	/y exch def
	xratio mul
	/x exch def
	x y PL
} def
/Lcs {
	currentlinecap
	1 setlinecap
} def
/Lcr {
	setlinecap
} def
/Sbp {
	newpath
} def
/Sep {
	/sfill exch def
	closepath
	sfill 1 eq  {
		Ssrgb setrgbcolor
		gsave
		fill
		grestore
	} if
	Slw setlinewidth
	Slrgb setrgbcolor
	Lcs
	stroke
	Lcr
} def
/cp {currentpoint} def 
/M {moveto} def 
/rm {rmoveto} def 
/S {stroke} def 
/L {Slw setlinewidth Slrgb setrgbcolor lineto Lcs S Lcr} def 
/PL {Slw setlinewidth Slrgb setrgbcolor lineto} def 
/MF-Helvetica {
  /newfontname exch def
  /fontname exch def
  /fontdict fontname findfont def
  /newfont fontdict maxlength dict def
  fontdict {
  exch dup /FID eq {pop pop} {exch newfont 3 1 roll put} ifelse
  } forall
  newfont /FontName newfontname put
  newfont /Encoding ISOLatin1Encoding put
  newfontname newfont definefont pop
} def
/Helvetica /Helvetica-0 MF-Helvetica
/Slw 0.120 def
0.918 0.949 0.953 setrgbcolor
0 0 396.000 288.000 Sbgfill
/Slrgb {1.000 1.000 1.000} def
/Strgb {1.000 1.000 1.000} def
/Ssrgb {1.000 1.000 1.000} def
/Ssrgb {0.918 0.949 0.953} def
/Slw 0.576 def
/Slrgb {0.918 0.949 0.953} def
0 0 31999 23272 1 Srect
/Ssrgb {1.000 1.000 1.000} def
/Slw 0.184 def
/Slrgb {1.000 1.000 1.000} def
512 15344 31487 22760 1 Srect
/Slw 0.156 def
/Slrgb {0.000 0.000 0.000} def
1561 16519 15650 22095 0 Srect
/Strgb {0.000 0.000 0.000} def
/Slw 0.234 def
/Slrgb {0.188 0.188 0.188} def
1561 20094 15650 20094 Sln
/Slw 0.156 def
/Slrgb {0.000 0.000 0.000} def
17050 16519 31138 22095 0 Srect
/Slw 0.234 def
/Slrgb {0.188 0.188 0.188} def
17050 19798 31138 19798 Sln
/Ssrgb {0.502 0.502 0.502} def
/Slw 0.156 def
/Slrgb {0.376 0.376 0.376} def
2148 20069 2148 20276 Sln
3909 20056 3909 20175 Sln
5670 19992 5670 20137 Sln
7431 19877 7431 20115 Sln
9193 20000 9193 20267 Sln
10954 19843 10954 20254 Sln
12715 19895 12715 20318 Sln
14476 19882 14476 20315 Sln
2148 20172 Sm
3909 20115 Sl
3909 20115 Sm
5670 20064 Sl
5670 20064 Sm
7431 19995 Sl
7431 19995 Sm
9192 20133 Sl
9192 20133 Sm
10953 20048 Sl
10953 20048 Sm
12714 20106 Sl
12714 20106 Sm
14475 20098 Sl
/Ssrgb {0.702 0.702 0.702} def
/Slrgb {0.627 0.627 0.627} def
2735 18935 2735 22095 Sln
4496 19307 4496 20048 Sln
6257 18527 6257 19745 Sln
8019 19138 8019 20362 Sln
9780 18440 9780 20034 Sln
11541 16713 11541 20293 Sln
13302 18427 13302 20614 Sln
15063 18124 15063 20938 Sln
2735 20515 2788 20489 Sln
2835 20467 2889 20442 Sln
2936 20419 2989 20394 Sln
3036 20372 3090 20346 Sln
3136 20324 3190 20298 Sln
3237 20276 3291 20251 Sln
3337 20228 3391 20203 Sln
3438 20181 3491 20155 Sln
3538 20133 3592 20107 Sln
3639 20085 3692 20060 Sln
3739 20037 3793 20012 Sln
3840 19990 3893 19964 Sln
3940 19942 3994 19916 Sln
4040 19894 4094 19869 Sln
4141 19846 4194 19821 Sln
4241 19799 4295 19773 Sln
4342 19751 4395 19725 Sln
4442 19703 4496 19677 Sln
4545 19662 4602 19644 Sln
4651 19629 4708 19612 Sln
4758 19596 4815 19579 Sln
4864 19563 4921 19546 Sln
4970 19531 5027 19514 Sln
5077 19498 5134 19481 Sln
5183 19465 5240 19448 Sln
5289 19433 5346 19416 Sln
5396 19400 5453 19383 Sln
5502 19368 5559 19350 Sln
5608 19335 5665 19318 Sln
5715 19302 5772 19285 Sln
5821 19270 5878 19252 Sln
5927 19237 5984 19220 Sln
6034 19204 6091 19187 Sln
6140 19172 6197 19155 Sln
6246 19139 6257 19136 Sln
6257 19136 6303 19152 Sln
6352 19169 6408 19189 Sln
6457 19206 6513 19226 Sln
6561 19243 6618 19263 Sln
6666 19280 6722 19299 Sln
6771 19316 6827 19336 Sln
6876 19353 6932 19372 Sln
6981 19389 7037 19409 Sln
7086 19425 7142 19445 Sln
7191 19462 7247 19482 Sln
7296 19498 7352 19518 Sln
7400 19535 7456 19554 Sln
7505 19572 7561 19591 Sln
7610 19608 7666 19628 Sln
7715 19645 7771 19664 Sln
7820 19681 7876 19701 Sln
7925 19717 7981 19737 Sln
8030 19746 8087 19730 Sln
8137 19715 8194 19699 Sln
8244 19684 8301 19668 Sln
8351 19653 8408 19637 Sln
8457 19622 8514 19606 Sln
8564 19591 8621 19575 Sln
8671 19560 8728 19544 Sln
8778 19529 8835 19513 Sln
8885 19498 8942 19482 Sln
8992 19467 9049 19451 Sln
9098 19436 9155 19420 Sln
9205 19405 9262 19388 Sln
9312 19374 9369 19357 Sln
9419 19342 9476 19326 Sln
9526 19311 9583 19295 Sln
9632 19280 9690 19263 Sln
9739 19249 9779 19237 Sln
9779 19237 9796 19230 Sln
9844 19210 9899 19187 Sln
9947 19168 10002 19144 Sln
10049 19125 10105 19102 Sln
10152 19082 10208 19059 Sln
10255 19039 10310 19016 Sln
10358 18996 10413 18973 Sln
10461 18953 10516 18930 Sln
10564 18911 10619 18887 Sln
10667 18868 10722 18845 Sln
10770 18825 10825 18802 Sln
10873 18782 10928 18759 Sln
10976 18739 11031 18716 Sln
11078 18696 11134 18673 Sln
11181 18653 11236 18630 Sln
11284 18610 11339 18587 Sln
11387 18567 11442 18544 Sln
11490 18524 11540 18503 Sln
11540 18503 11545 18505 Sln
11589 18531 11641 18561 Sln
11686 18588 11738 18618 Sln
11782 18643 11834 18673 Sln
11879 18699 11931 18728 Sln
11975 18754 12027 18784 Sln
12072 18811 12124 18840 Sln
12168 18866 12220 18896 Sln
12265 18922 12317 18952 Sln
12361 18977 12413 19008 Sln
12458 19033 12510 19063 Sln
12554 19089 12606 19119 Sln
12651 19145 12703 19174 Sln
12747 19200 12799 19230 Sln
12844 19256 12896 19286 Sln
12940 19312 12992 19342 Sln
13037 19367 13088 19397 Sln
13133 19423 13185 19453 Sln
13230 19479 13281 19509 Sln
13330 19520 13389 19520 Sln
13441 19521 13501 19521 Sln
13552 19522 13612 19522 Sln
13664 19523 13723 19523 Sln
13775 19524 13834 19524 Sln
13886 19524 13946 19525 Sln
13997 19525 14057 19525 Sln
14109 19525 14168 19526 Sln
14220 19526 14279 19526 Sln
14331 19526 14391 19527 Sln
14442 19527 14502 19527 Sln
14554 19527 14613 19528 Sln
14665 19528 14724 19528 Sln
14776 19528 14836 19529 Sln
14887 19529 14947 19529 Sln
14999 19529 15058 19530 Sln
/Ssrgb {0.502 0.502 0.502} def
/Slrgb {0.376 0.376 0.376} def
17637 19856 17637 21396 Sln
19398 19606 19398 20425 Sln
21159 19379 21159 20326 Sln
22920 18303 22920 20007 Sln
24681 19652 24681 21320 Sln
26442 18482 26442 21506 Sln
28203 18224 28203 22095 Sln
29964 18070 29964 21989 Sln
17636 20626 Sm
19397 20015 Sl
19397 20015 Sm
21159 19852 Sl
21159 19852 Sm
22920 19155 Sl
22920 19155 Sm
24681 20486 Sl
24681 20486 Sm
26442 19994 Sl
26442 19994 Sm
28203 20159 Sl
28203 20159 Sm
29964 20029 Sl
/Ssrgb {0.702 0.702 0.702} def
/Slrgb {0.627 0.627 0.627} def
18224 18678 18224 22038 Sln
19985 18872 19985 19592 Sln
21746 18596 21746 19796 Sln
23507 18511 23507 20051 Sln
25268 17636 25268 19563 Sln
27029 17041 27029 19699 Sln
28790 17460 28790 19848 Sln
30551 17073 30551 20582 Sln
18223 20357 18273 20325 Sln
18317 20297 18367 20265 Sln
18410 20237 18461 20205 Sln
18504 20177 18555 20145 Sln
18598 20117 18649 20085 Sln
18692 20057 18742 20025 Sln
18786 19997 18836 19965 Sln
18880 19937 18930 19905 Sln
18974 19877 19024 19845 Sln
19067 19817 19117 19785 Sln
19161 19758 19211 19726 Sln
19255 19698 19305 19666 Sln
19349 19638 19399 19606 Sln
19442 19578 19492 19546 Sln
19536 19518 19586 19486 Sln
19630 19458 19680 19426 Sln
19724 19398 19774 19366 Sln
19817 19338 19868 19306 Sln
19911 19279 19962 19247 Sln
20009 19232 20068 19230 Sln
20120 19229 20180 19228 Sln
20231 19227 20291 19225 Sln
20343 19224 20402 19223 Sln
20454 19222 20513 19221 Sln
20565 19220 20625 19218 Sln
20676 19217 20736 19216 Sln
20788 19215 20847 19214 Sln
20899 19213 20959 19211 Sln
21010 19210 21070 19209 Sln
21121 19208 21181 19207 Sln
21233 19206 21292 19204 Sln
21344 19203 21404 19202 Sln
21455 19201 21515 19200 Sln
21567 19199 21626 19198 Sln
21678 19197 21737 19195 Sln
21789 19197 21849 19200 Sln
21900 19202 21960 19205 Sln
22012 19208 22071 19211 Sln
22123 19213 22182 19216 Sln
22234 19219 22294 19222 Sln
22345 19224 22405 19227 Sln
22457 19230 22516 19232 Sln
22568 19235 22627 19238 Sln
22679 19240 22739 19243 Sln
22790 19246 22850 19249 Sln
22902 19251 22961 19254 Sln
23013 19257 23072 19260 Sln
23124 19262 23184 19265 Sln
23235 19267 23295 19270 Sln
23347 19273 23406 19276 Sln
23458 19278 23507 19280 Sln
23507 19280 23517 19276 Sln
23565 19258 23621 19236 Sln
23669 19217 23725 19196 Sln
23773 19177 23829 19155 Sln
23877 19136 23933 19115 Sln
23981 19096 24036 19074 Sln
24085 19056 24140 19034 Sln
24189 19015 24244 18994 Sln
24292 18975 24348 18953 Sln
24396 18935 24452 18913 Sln
24500 18895 24556 18874 Sln
24604 18855 24660 18833 Sln
24708 18815 24764 18793 Sln
24812 18775 24867 18753 Sln
24916 18734 24971 18713 Sln
25020 18694 25075 18673 Sln
25123 18655 25179 18633 Sln
25227 18615 25268 18599 Sln
25268 18599 25284 18597 Sln
25335 18590 25394 18582 Sln
25445 18575 25504 18567 Sln
25556 18561 25615 18553 Sln
25666 18547 25725 18539 Sln
25776 18532 25835 18525 Sln
25887 18518 25946 18510 Sln
25997 18504 26056 18496 Sln
26107 18490 26166 18482 Sln
26217 18475 26276 18467 Sln
26328 18461 26387 18453 Sln
26438 18447 26497 18439 Sln
26548 18432 26607 18425 Sln
26658 18418 26718 18410 Sln
26769 18404 26828 18396 Sln
26879 18389 26938 18382 Sln
26989 18375 27029 18370 Sln
27029 18370 27048 18373 Sln
27100 18381 27158 18391 Sln
27209 18399 27268 18408 Sln
27319 18417 27378 18426 Sln
27429 18434 27488 18444 Sln
27539 18452 27597 18462 Sln
27648 18470 27707 18479 Sln
27758 18488 27817 18497 Sln
27868 18505 27927 18515 Sln
27978 18523 28036 18532 Sln
28088 18541 28146 18550 Sln
28197 18559 28256 18568 Sln
28307 18576 28366 18586 Sln
28417 18594 28476 18603 Sln
28527 18612 28585 18621 Sln
28637 18629 28695 18639 Sln
28746 18647 28790 18654 Sln
28790 18654 28805 18656 Sln
28857 18660 28916 18666 Sln
28967 18671 29026 18677 Sln
29077 18682 29136 18688 Sln
29187 18693 29247 18699 Sln
29298 18704 29357 18710 Sln
29408 18715 29467 18720 Sln
29518 18725 29577 18731 Sln
29629 18736 29688 18742 Sln
29740 18747 29799 18753 Sln
29851 18758 29910 18764 Sln
29961 18769 30020 18775 Sln
30072 18780 30131 18785 Sln
30183 18790 30242 18796 Sln
30294 18801 30353 18807 Sln
30404 18812 30463 18818 Sln
30514 18823 30551 18827 Sln
/Slrgb {0.000 0.000 0.000} def
1561 16519 1561 22095 Sln
1561 16519 1474 16519 Sln
1430 16443 0
/Helvetica-0 findfont 219 yratio mul scalefont setfont
(-4) stringwidth pop add
xratio div
dup 4 3 roll exch 0.000 cos mul sub 3 1 roll 0.000 sin mul sub 2 copy
/fntsize {/Helvetica-0 findfont exch scalefont setfont } def
0.000 219
(-4) Stxtl
(-4) stringwidth pop xratio div
dup 4 3 roll exch 0.000 cos mul add 3 1 roll 0.000 sin mul add 2 copy
pop pop pop pop
1561 17413 1474 17413 Sln
1430 17337 0
/Helvetica-0 findfont 219 yratio mul scalefont setfont
(-3) stringwidth pop add
xratio div
dup 4 3 roll exch 0.000 cos mul sub 3 1 roll 0.000 sin mul sub 2 copy
/fntsize {/Helvetica-0 findfont exch scalefont setfont } def
0.000 219
(-3) Stxtl
(-3) stringwidth pop xratio div
dup 4 3 roll exch 0.000 cos mul add 3 1 roll 0.000 sin mul add 2 copy
pop pop pop pop
1561 18307 1474 18307 Sln
1430 18231 0
/Helvetica-0 findfont 219 yratio mul scalefont setfont
(-2) stringwidth pop add
xratio div
dup 4 3 roll exch 0.000 cos mul sub 3 1 roll 0.000 sin mul sub 2 copy
/fntsize {/Helvetica-0 findfont exch scalefont setfont } def
0.000 219
(-2) Stxtl
(-2) stringwidth pop xratio div
dup 4 3 roll exch 0.000 cos mul add 3 1 roll 0.000 sin mul add 2 copy
pop pop pop pop
1561 19200 1474 19200 Sln
1430 19124 0
/Helvetica-0 findfont 219 yratio mul scalefont setfont
(-1) stringwidth pop add
xratio div
dup 4 3 roll exch 0.000 cos mul sub 3 1 roll 0.000 sin mul sub 2 copy
/fntsize {/Helvetica-0 findfont exch scalefont setfont } def
0.000 219
(-1) Stxtl
(-1) stringwidth pop xratio div
dup 4 3 roll exch 0.000 cos mul add 3 1 roll 0.000 sin mul add 2 copy
pop pop pop pop
1561 20094 1474 20094 Sln
1430 20018 0
/Helvetica-0 findfont 219 yratio mul scalefont setfont
(0) stringwidth pop add
xratio div
dup 4 3 roll exch 0.000 cos mul sub 3 1 roll 0.000 sin mul sub 2 copy
/fntsize {/Helvetica-0 findfont exch scalefont setfont } def
0.000 219
(0) Stxtl
(0) stringwidth pop xratio div
dup 4 3 roll exch 0.000 cos mul add 3 1 roll 0.000 sin mul add 2 copy
pop pop pop pop
1561 20988 1474 20988 Sln
1430 20912 0
/Helvetica-0 findfont 219 yratio mul scalefont setfont
(1) stringwidth pop add
xratio div
dup 4 3 roll exch 0.000 cos mul sub 3 1 roll 0.000 sin mul sub 2 copy
/fntsize {/Helvetica-0 findfont exch scalefont setfont } def
0.000 219
(1) Stxtl
(1) stringwidth pop xratio div
dup 4 3 roll exch 0.000 cos mul add 3 1 roll 0.000 sin mul add 2 copy
pop pop pop pop
1561 21882 1474 21882 Sln
1430 21806 0
/Helvetica-0 findfont 219 yratio mul scalefont setfont
(2) stringwidth pop add
xratio div
dup 4 3 roll exch 0.000 cos mul sub 3 1 roll 0.000 sin mul sub 2 copy
/fntsize {/Helvetica-0 findfont exch scalefont setfont } def
0.000 219
(2) Stxtl
(2) stringwidth pop xratio div
dup 4 3 roll exch 0.000 cos mul add 3 1 roll 0.000 sin mul add 2 copy
pop pop pop pop
17050 16519 17050 22095 Sln
17050 16519 16962 16519 Sln
16919 16443 0
/Helvetica-0 findfont 219 yratio mul scalefont setfont
(-.6) stringwidth pop add
xratio div
dup 4 3 roll exch 0.000 cos mul sub 3 1 roll 0.000 sin mul sub 2 copy
/fntsize {/Helvetica-0 findfont exch scalefont setfont } def
0.000 219
(-.6) Stxtl
(-.6) stringwidth pop xratio div
dup 4 3 roll exch 0.000 cos mul add 3 1 roll 0.000 sin mul add 2 copy
pop pop pop pop
17050 17612 16962 17612 Sln
16919 17536 0
/Helvetica-0 findfont 219 yratio mul scalefont setfont
(-.4) stringwidth pop add
xratio div
dup 4 3 roll exch 0.000 cos mul sub 3 1 roll 0.000 sin mul sub 2 copy
/fntsize {/Helvetica-0 findfont exch scalefont setfont } def
0.000 219
(-.4) Stxtl
(-.4) stringwidth pop xratio div
dup 4 3 roll exch 0.000 cos mul add 3 1 roll 0.000 sin mul add 2 copy
pop pop pop pop
17050 18705 16962 18705 Sln
16919 18629 0
/Helvetica-0 findfont 219 yratio mul scalefont setfont
(-.2) stringwidth pop add
xratio div
dup 4 3 roll exch 0.000 cos mul sub 3 1 roll 0.000 sin mul sub 2 copy
/fntsize {/Helvetica-0 findfont exch scalefont setfont } def
0.000 219
(-.2) Stxtl
(-.2) stringwidth pop xratio div
dup 4 3 roll exch 0.000 cos mul add 3 1 roll 0.000 sin mul add 2 copy
pop pop pop pop
17050 19798 16962 19798 Sln
16919 19722 0
/Helvetica-0 findfont 219 yratio mul scalefont setfont
(0) stringwidth pop add
xratio div
dup 4 3 roll exch 0.000 cos mul sub 3 1 roll 0.000 sin mul sub 2 copy
/fntsize {/Helvetica-0 findfont exch scalefont setfont } def
0.000 219
(0) Stxtl
(0) stringwidth pop xratio div
dup 4 3 roll exch 0.000 cos mul add 3 1 roll 0.000 sin mul add 2 copy
pop pop pop pop
17050 20891 16962 20891 Sln
16919 20815 0
/Helvetica-0 findfont 219 yratio mul scalefont setfont
(.2) stringwidth pop add
xratio div
dup 4 3 roll exch 0.000 cos mul sub 3 1 roll 0.000 sin mul sub 2 copy
/fntsize {/Helvetica-0 findfont exch scalefont setfont } def
0.000 219
(.2) Stxtl
(.2) stringwidth pop xratio div
dup 4 3 roll exch 0.000 cos mul add 3 1 roll 0.000 sin mul add 2 copy
pop pop pop pop
17050 21984 16962 21984 Sln
16919 21908 0
/Helvetica-0 findfont 219 yratio mul scalefont setfont
(.4) stringwidth pop add
xratio div
dup 4 3 roll exch 0.000 cos mul sub 3 1 roll 0.000 sin mul sub 2 copy
/fntsize {/Helvetica-0 findfont exch scalefont setfont } def
0.000 219
(.4) Stxtl
(.4) stringwidth pop xratio div
dup 4 3 roll exch 0.000 cos mul add 3 1 roll 0.000 sin mul add 2 copy
pop pop pop pop
1561 16519 15650 16519 Sln
2442 16519 2442 16431 Sln
2519 16387 0
/Helvetica-0 findfont 219 yratio mul scalefont setfont
(0) stringwidth pop add
xratio div
dup 4 3 roll exch 90.000 cos mul sub 3 1 roll 90.000 sin mul sub 2 copy
/fntsize {/Helvetica-0 findfont exch scalefont setfont } def
90.000 219
(0) Stxtl
(0) stringwidth pop xratio div
dup 4 3 roll exch 90.000 cos mul add 3 1 roll 90.000 sin mul add 2 copy
pop pop pop pop
4203 16519 4203 16431 Sln
4280 16387 0
/Helvetica-0 findfont 219 yratio mul scalefont setfont
(1-2) stringwidth pop add
xratio div
dup 4 3 roll exch 90.000 cos mul sub 3 1 roll 90.000 sin mul sub 2 copy
/fntsize {/Helvetica-0 findfont exch scalefont setfont } def
90.000 219
(1-2) Stxtl
(1-2) stringwidth pop xratio div
dup 4 3 roll exch 90.000 cos mul add 3 1 roll 90.000 sin mul add 2 copy
pop pop pop pop
5964 16519 5964 16431 Sln
6041 16387 0
/Helvetica-0 findfont 219 yratio mul scalefont setfont
(3-4) stringwidth pop add
xratio div
dup 4 3 roll exch 90.000 cos mul sub 3 1 roll 90.000 sin mul sub 2 copy
/fntsize {/Helvetica-0 findfont exch scalefont setfont } def
90.000 219
(3-4) Stxtl
(3-4) stringwidth pop xratio div
dup 4 3 roll exch 90.000 cos mul add 3 1 roll 90.000 sin mul add 2 copy
pop pop pop pop
7725 16519 7725 16431 Sln
7802 16387 0
/Helvetica-0 findfont 219 yratio mul scalefont setfont
(5-6) stringwidth pop add
xratio div
dup 4 3 roll exch 90.000 cos mul sub 3 1 roll 90.000 sin mul sub 2 copy
/fntsize {/Helvetica-0 findfont exch scalefont setfont } def
90.000 219
(5-6) Stxtl
(5-6) stringwidth pop xratio div
dup 4 3 roll exch 90.000 cos mul add 3 1 roll 90.000 sin mul add 2 copy
pop pop pop pop
9486 16519 9486 16431 Sln
9563 16387 0
/Helvetica-0 findfont 219 yratio mul scalefont setfont
(7-8) stringwidth pop add
xratio div
dup 4 3 roll exch 90.000 cos mul sub 3 1 roll 90.000 sin mul sub 2 copy
/fntsize {/Helvetica-0 findfont exch scalefont setfont } def
90.000 219
(7-8) Stxtl
(7-8) stringwidth pop xratio div
dup 4 3 roll exch 90.000 cos mul add 3 1 roll 90.000 sin mul add 2 copy
pop pop pop pop
11247 16519 11247 16431 Sln
11324 16387 0
/Helvetica-0 findfont 219 yratio mul scalefont setfont
(9-10) stringwidth pop add
xratio div
dup 4 3 roll exch 90.000 cos mul sub 3 1 roll 90.000 sin mul sub 2 copy
/fntsize {/Helvetica-0 findfont exch scalefont setfont } def
90.000 219
(9-10) Stxtl
(9-10) stringwidth pop xratio div
dup 4 3 roll exch 90.000 cos mul add 3 1 roll 90.000 sin mul add 2 copy
pop pop pop pop
13008 16519 13008 16431 Sln
13085 16387 0
/Helvetica-0 findfont 219 yratio mul scalefont setfont
(11-12) stringwidth pop add
xratio div
dup 4 3 roll exch 90.000 cos mul sub 3 1 roll 90.000 sin mul sub 2 copy
/fntsize {/Helvetica-0 findfont exch scalefont setfont } def
90.000 219
(11-12) Stxtl
(11-12) stringwidth pop xratio div
dup 4 3 roll exch 90.000 cos mul add 3 1 roll 90.000 sin mul add 2 copy
pop pop pop pop
14769 16519 14769 16431 Sln
14846 16387 0
/Helvetica-0 findfont 219 yratio mul scalefont setfont
(13-14) stringwidth pop add
xratio div
dup 4 3 roll exch 90.000 cos mul sub 3 1 roll 90.000 sin mul sub 2 copy
/fntsize {/Helvetica-0 findfont exch scalefont setfont } def
90.000 219
(13-14) Stxtl
(13-14) stringwidth pop xratio div
dup 4 3 roll exch 90.000 cos mul add 3 1 roll 90.000 sin mul add 2 copy
pop pop pop pop
17050 16519 31138 16519 Sln
17930 16519 17930 16431 Sln
18007 16387 0
/Helvetica-0 findfont 219 yratio mul scalefont setfont
(0) stringwidth pop add
xratio div
dup 4 3 roll exch 90.000 cos mul sub 3 1 roll 90.000 sin mul sub 2 copy
/fntsize {/Helvetica-0 findfont exch scalefont setfont } def
90.000 219
(0) Stxtl
(0) stringwidth pop xratio div
dup 4 3 roll exch 90.000 cos mul add 3 1 roll 90.000 sin mul add 2 copy
pop pop pop pop
19691 16519 19691 16431 Sln
19768 16387 0
/Helvetica-0 findfont 219 yratio mul scalefont setfont
(1-2) stringwidth pop add
xratio div
dup 4 3 roll exch 90.000 cos mul sub 3 1 roll 90.000 sin mul sub 2 copy
/fntsize {/Helvetica-0 findfont exch scalefont setfont } def
90.000 219
(1-2) Stxtl
(1-2) stringwidth pop xratio div
dup 4 3 roll exch 90.000 cos mul add 3 1 roll 90.000 sin mul add 2 copy
pop pop pop pop
21453 16519 21453 16431 Sln
21530 16387 0
/Helvetica-0 findfont 219 yratio mul scalefont setfont
(3-4) stringwidth pop add
xratio div
dup 4 3 roll exch 90.000 cos mul sub 3 1 roll 90.000 sin mul sub 2 copy
/fntsize {/Helvetica-0 findfont exch scalefont setfont } def
90.000 219
(3-4) Stxtl
(3-4) stringwidth pop xratio div
dup 4 3 roll exch 90.000 cos mul add 3 1 roll 90.000 sin mul add 2 copy
pop pop pop pop
23214 16519 23214 16431 Sln
23291 16387 0
/Helvetica-0 findfont 219 yratio mul scalefont setfont
(5-6) stringwidth pop add
xratio div
dup 4 3 roll exch 90.000 cos mul sub 3 1 roll 90.000 sin mul sub 2 copy
/fntsize {/Helvetica-0 findfont exch scalefont setfont } def
90.000 219
(5-6) Stxtl
(5-6) stringwidth pop xratio div
dup 4 3 roll exch 90.000 cos mul add 3 1 roll 90.000 sin mul add 2 copy
pop pop pop pop
24975 16519 24975 16431 Sln
25052 16387 0
/Helvetica-0 findfont 219 yratio mul scalefont setfont
(7-8) stringwidth pop add
xratio div
dup 4 3 roll exch 90.000 cos mul sub 3 1 roll 90.000 sin mul sub 2 copy
/fntsize {/Helvetica-0 findfont exch scalefont setfont } def
90.000 219
(7-8) Stxtl
(7-8) stringwidth pop xratio div
dup 4 3 roll exch 90.000 cos mul add 3 1 roll 90.000 sin mul add 2 copy
pop pop pop pop
26736 16519 26736 16431 Sln
26813 16387 0
/Helvetica-0 findfont 219 yratio mul scalefont setfont
(9-10) stringwidth pop add
xratio div
dup 4 3 roll exch 90.000 cos mul sub 3 1 roll 90.000 sin mul sub 2 copy
/fntsize {/Helvetica-0 findfont exch scalefont setfont } def
90.000 219
(9-10) Stxtl
(9-10) stringwidth pop xratio div
dup 4 3 roll exch 90.000 cos mul add 3 1 roll 90.000 sin mul add 2 copy
pop pop pop pop
28497 16519 28497 16431 Sln
28574 16387 0
/Helvetica-0 findfont 219 yratio mul scalefont setfont
(11-12) stringwidth pop add
xratio div
dup 4 3 roll exch 90.000 cos mul sub 3 1 roll 90.000 sin mul sub 2 copy
/fntsize {/Helvetica-0 findfont exch scalefont setfont } def
90.000 219
(11-12) Stxtl
(11-12) stringwidth pop xratio div
dup 4 3 roll exch 90.000 cos mul add 3 1 roll 90.000 sin mul add 2 copy
pop pop pop pop
30258 16519 30258 16431 Sln
30335 16387 0
/Helvetica-0 findfont 219 yratio mul scalefont setfont
(13-14) stringwidth pop add
xratio div
dup 4 3 roll exch 90.000 cos mul sub 3 1 roll 90.000 sin mul sub 2 copy
/fntsize {/Helvetica-0 findfont exch scalefont setfont } def
90.000 219
(13-14) Stxtl
(13-14) stringwidth pop xratio div
dup 4 3 roll exch 90.000 cos mul add 3 1 roll 90.000 sin mul add 2 copy
pop pop pop pop
/Ssrgb {0.816 0.816 0.816} def
1561 22095 15650 22411 1 Srect
8606 22205 0
/Helvetica-0 findfont 241 yratio mul scalefont setfont
(Employed \(MSM\)) stringwidth pop add
2 div xratio div
dup 4 3 roll exch 0.000 cos mul sub 3 1 roll 0.000 sin mul sub 2 copy
/fntsize {/Helvetica-0 findfont exch scalefont setfont } def
0.000 241
(Employed \(MSM\)) Stxtl
(Employed \(MSM\)) stringwidth pop xratio div
dup 4 3 roll exch 0.000 cos mul add 3 1 roll 0.000 sin mul add 2 copy
pop pop pop pop
17050 22095 31138 22411 1 Srect
24094 22205 0
/Helvetica-0 findfont 241 yratio mul scalefont setfont
(Employed \(FE\)) stringwidth pop add
2 div xratio div
dup 4 3 roll exch 0.000 cos mul sub 3 1 roll 0.000 sin mul sub 2 copy
/fntsize {/Helvetica-0 findfont exch scalefont setfont } def
0.000 241
(Employed \(FE\)) Stxtl
(Employed \(FE\)) stringwidth pop xratio div
dup 4 3 roll exch 0.000 cos mul add 3 1 roll 0.000 sin mul add 2 copy
pop pop pop pop
952 19052 0
/Helvetica-0 findfont 257 yratio mul scalefont setfont
(Marginal effect) stringwidth pop add
2 div xratio div
dup 4 3 roll exch 90.000 cos mul sub 3 1 roll 90.000 sin mul sub 2 copy
/fntsize {/Helvetica-0 findfont exch scalefont setfont } def
90.000 257
(Marginal effect) Stxtl
(Marginal effect) stringwidth pop xratio div
dup 4 3 roll exch 90.000 cos mul add 3 1 roll 90.000 sin mul add 2 copy
pop pop pop pop
/Ssrgb {1.000 1.000 1.000} def
/Slw 0.184 def
/Slrgb {1.000 1.000 1.000} def
512 7928 31487 15344 1 Srect
/Slw 0.156 def
/Slrgb {0.000 0.000 0.000} def
2340 9103 16039 14679 0 Srect
/Slw 0.234 def
/Slrgb {0.188 0.188 0.188} def
2340 12421 16039 12421 Sln
/Slw 0.156 def
/Slrgb {0.000 0.000 0.000} def
17439 9103 31138 14679 0 Srect
/Slw 0.234 def
/Slrgb {0.188 0.188 0.188} def
17439 11787 31138 11787 Sln
/Ssrgb {0.502 0.502 0.502} def
/Slw 0.156 def
/Slrgb {0.376 0.376 0.376} def
2911 10992 2911 13523 Sln
4623 11725 4623 12602 Sln
6336 11354 6336 12522 Sln
8048 10975 8048 12641 Sln
9760 10014 9760 12801 Sln
11473 10752 11473 13666 Sln
13185 11038 13185 13794 Sln
2910 12257 Sm
4623 12163 Sl
4623 12163 Sm
6335 11938 Sl
6335 11938 Sm
8048 11807 Sl
8048 11807 Sm
9760 11407 Sl
9760 11407 Sm
11472 12209 Sl
11472 12209 Sm
13185 12415 Sl
/Ssrgb {0.702 0.702 0.702} def
/Slrgb {0.627 0.627 0.627} def
/Ssrgb {0.502 0.502 0.502} def
/Slrgb {0.376 0.376 0.376} def
18010 10542 18010 12972 Sln
19722 11122 19722 12079 Sln
21435 11112 21435 12377 Sln
23147 10723 23147 12521 Sln
24860 9352 24860 12350 Sln
26572 10096 26572 13529 Sln
28284 9579 28284 13465 Sln
29997 11398 29997 14540 Sln
18010 11756 Sm
19722 11600 Sl
19722 11600 Sm
21434 11744 Sl
21434 11744 Sm
23147 11621 Sl
23147 11621 Sm
24859 10850 Sl
24859 10850 Sm
26572 11812 Sl
26572 11812 Sm
28284 11522 Sl
28284 11522 Sm
29996 12969 Sl
/Ssrgb {0.702 0.702 0.702} def
/Slrgb {0.627 0.627 0.627} def
18581 11607 18581 11776 Sln
20293 11428 20293 11749 Sln
22006 11453 22006 11838 Sln
23718 10997 23718 11949 Sln
25430 11484 25430 12272 Sln
27143 11508 27143 12375 Sln
28855 10677 28855 12001 Sln
30568 11393 30568 11844 Sln
18580 11691 18640 11687 Sln
18691 11684 18751 11681 Sln
18803 11678 18862 11675 Sln
18914 11672 18974 11668 Sln
19025 11665 19085 11662 Sln
19136 11659 19196 11655 Sln
19248 11652 19307 11649 Sln
19359 11646 19419 11642 Sln
19470 11639 19530 11635 Sln
19582 11632 19641 11628 Sln
19693 11625 19752 11621 Sln
19804 11618 19864 11615 Sln
19915 11612 19975 11608 Sln
20027 11605 20086 11601 Sln
20138 11598 20197 11594 Sln
20249 11591 20293 11588 Sln
20293 11588 20309 11588 Sln
20360 11590 20420 11592 Sln
20472 11594 20531 11596 Sln
20583 11598 20642 11600 Sln
20694 11601 20754 11603 Sln
20805 11605 20865 11607 Sln
20917 11609 20976 11611 Sln
21028 11613 21088 11615 Sln
21139 11616 21199 11618 Sln
21250 11620 21310 11622 Sln
21362 11623 21421 11625 Sln
21473 11627 21533 11629 Sln
21584 11631 21644 11633 Sln
21696 11635 21755 11637 Sln
21807 11639 21866 11641 Sln
21918 11642 21978 11644 Sln
22029 11643 22088 11637 Sln
22140 11631 22199 11625 Sln
22250 11620 22309 11614 Sln
22360 11609 22419 11603 Sln
22470 11598 22529 11592 Sln
22581 11586 22640 11581 Sln
22691 11576 22750 11570 Sln
22801 11564 22860 11558 Sln
22912 11553 22971 11548 Sln
23022 11542 23081 11536 Sln
23132 11531 23191 11525 Sln
23243 11520 23302 11514 Sln
23354 11509 23413 11503 Sln
23464 11498 23523 11492 Sln
23574 11487 23634 11481 Sln
23685 11476 23718 11472 Sln
23718 11472 23744 11478 Sln
23794 11490 23852 11504 Sln
23903 11516 23961 11529 Sln
24011 11541 24069 11555 Sln
24119 11567 24177 11581 Sln
24227 11592 24286 11606 Sln
24336 11618 24394 11632 Sln
24444 11644 24502 11657 Sln
24552 11669 24610 11683 Sln
24661 11695 24719 11709 Sln
24769 11720 24827 11734 Sln
24877 11746 24935 11760 Sln
24986 11772 25044 11785 Sln
25094 11797 25152 11811 Sln
25202 11823 25260 11837 Sln
25311 11848 25369 11862 Sln
25419 11874 25430 11877 Sln
25430 11877 25478 11879 Sln
25530 11881 25589 11883 Sln
25641 11885 25700 11887 Sln
25752 11889 25812 11891 Sln
25863 11893 25923 11896 Sln
25975 11898 26034 11900 Sln
26086 11902 26145 11904 Sln
26197 11906 26257 11908 Sln
26308 11910 26368 11912 Sln
26420 11914 26479 11916 Sln
26531 11918 26591 11920 Sln
26642 11922 26702 11925 Sln
26753 11927 26813 11929 Sln
26865 11931 26924 11933 Sln
26976 11935 27036 11937 Sln
27087 11939 27142 11941 Sln
27142 11941 27146 11939 Sln
27195 11922 27251 11903 Sln
27300 11885 27356 11866 Sln
27405 11848 27461 11829 Sln
27510 11811 27566 11792 Sln
27615 11775 27671 11755 Sln
27719 11738 27776 11718 Sln
27824 11701 27880 11681 Sln
27929 11664 27985 11644 Sln
28034 11627 28090 11607 Sln
28139 11590 28195 11570 Sln
28244 11553 28300 11533 Sln
28349 11516 28405 11496 Sln
28453 11479 28510 11459 Sln
28558 11442 28614 11423 Sln
28663 11406 28719 11386 Sln
28768 11369 28825 11350 Sln
28874 11342 28932 11351 Sln
28984 11360 29042 11369 Sln
29093 11377 29152 11387 Sln
29203 11395 29262 11405 Sln
29313 11413 29372 11423 Sln
29423 11431 29481 11441 Sln
29533 11449 29591 11458 Sln
29642 11467 29701 11477 Sln
29752 11485 29811 11494 Sln
29862 11503 29920 11513 Sln
29972 11521 30030 11530 Sln
30081 11539 30140 11549 Sln
30191 11557 30250 11566 Sln
30301 11575 30360 11584 Sln
30411 11592 30469 11602 Sln
30520 11611 30567 11618 Sln
/Slrgb {0.000 0.000 0.000} def
2340 9103 2340 14679 Sln
2340 9241 2253 9241 Sln
2209 9165 0
/Helvetica-0 findfont 219 yratio mul scalefont setfont
(-.6) stringwidth pop add
xratio div
dup 4 3 roll exch 0.000 cos mul sub 3 1 roll 0.000 sin mul sub 2 copy
/fntsize {/Helvetica-0 findfont exch scalefont setfont } def
0.000 219
(-.6) Stxtl
(-.6) stringwidth pop xratio div
dup 4 3 roll exch 0.000 cos mul add 3 1 roll 0.000 sin mul add 2 copy
pop pop pop pop
2340 10301 2253 10301 Sln
2209 10225 0
/Helvetica-0 findfont 219 yratio mul scalefont setfont
(-.4) stringwidth pop add
xratio div
dup 4 3 roll exch 0.000 cos mul sub 3 1 roll 0.000 sin mul sub 2 copy
/fntsize {/Helvetica-0 findfont exch scalefont setfont } def
0.000 219
(-.4) Stxtl
(-.4) stringwidth pop xratio div
dup 4 3 roll exch 0.000 cos mul add 3 1 roll 0.000 sin mul add 2 copy
pop pop pop pop
2340 11361 2253 11361 Sln
2209 11285 0
/Helvetica-0 findfont 219 yratio mul scalefont setfont
(-.2) stringwidth pop add
xratio div
dup 4 3 roll exch 0.000 cos mul sub 3 1 roll 0.000 sin mul sub 2 copy
/fntsize {/Helvetica-0 findfont exch scalefont setfont } def
0.000 219
(-.2) Stxtl
(-.2) stringwidth pop xratio div
dup 4 3 roll exch 0.000 cos mul add 3 1 roll 0.000 sin mul add 2 copy
pop pop pop pop
2340 12421 2253 12421 Sln
2209 12345 0
/Helvetica-0 findfont 219 yratio mul scalefont setfont
(0) stringwidth pop add
xratio div
dup 4 3 roll exch 0.000 cos mul sub 3 1 roll 0.000 sin mul sub 2 copy
/fntsize {/Helvetica-0 findfont exch scalefont setfont } def
0.000 219
(0) Stxtl
(0) stringwidth pop xratio div
dup 4 3 roll exch 0.000 cos mul add 3 1 roll 0.000 sin mul add 2 copy
pop pop pop pop
2340 13481 2253 13481 Sln
2209 13405 0
/Helvetica-0 findfont 219 yratio mul scalefont setfont
(.2) stringwidth pop add
xratio div
dup 4 3 roll exch 0.000 cos mul sub 3 1 roll 0.000 sin mul sub 2 copy
/fntsize {/Helvetica-0 findfont exch scalefont setfont } def
0.000 219
(.2) Stxtl
(.2) stringwidth pop xratio div
dup 4 3 roll exch 0.000 cos mul add 3 1 roll 0.000 sin mul add 2 copy
pop pop pop pop
2340 14540 2253 14540 Sln
2209 14464 0
/Helvetica-0 findfont 219 yratio mul scalefont setfont
(.4) stringwidth pop add
xratio div
dup 4 3 roll exch 0.000 cos mul sub 3 1 roll 0.000 sin mul sub 2 copy
/fntsize {/Helvetica-0 findfont exch scalefont setfont } def
0.000 219
(.4) Stxtl
(.4) stringwidth pop xratio div
dup 4 3 roll exch 0.000 cos mul add 3 1 roll 0.000 sin mul add 2 copy
pop pop pop pop
17439 9103 17439 14679 Sln
17439 9241 17352 9241 Sln
17308 9165 0
/Helvetica-0 findfont 219 yratio mul scalefont setfont
(-.4) stringwidth pop add
xratio div
dup 4 3 roll exch 0.000 cos mul sub 3 1 roll 0.000 sin mul sub 2 copy
/fntsize {/Helvetica-0 findfont exch scalefont setfont } def
0.000 219
(-.4) Stxtl
(-.4) stringwidth pop xratio div
dup 4 3 roll exch 0.000 cos mul add 3 1 roll 0.000 sin mul add 2 copy
pop pop pop pop
17439 10514 17352 10514 Sln
17308 10438 0
/Helvetica-0 findfont 219 yratio mul scalefont setfont
(-.2) stringwidth pop add
xratio div
dup 4 3 roll exch 0.000 cos mul sub 3 1 roll 0.000 sin mul sub 2 copy
/fntsize {/Helvetica-0 findfont exch scalefont setfont } def
0.000 219
(-.2) Stxtl
(-.2) stringwidth pop xratio div
dup 4 3 roll exch 0.000 cos mul add 3 1 roll 0.000 sin mul add 2 copy
pop pop pop pop
17439 11787 17352 11787 Sln
17308 11711 0
/Helvetica-0 findfont 219 yratio mul scalefont setfont
(0) stringwidth pop add
xratio div
dup 4 3 roll exch 0.000 cos mul sub 3 1 roll 0.000 sin mul sub 2 copy
/fntsize {/Helvetica-0 findfont exch scalefont setfont } def
0.000 219
(0) Stxtl
(0) stringwidth pop xratio div
dup 4 3 roll exch 0.000 cos mul add 3 1 roll 0.000 sin mul add 2 copy
pop pop pop pop
17439 13060 17352 13060 Sln
17308 12984 0
/Helvetica-0 findfont 219 yratio mul scalefont setfont
(.2) stringwidth pop add
xratio div
dup 4 3 roll exch 0.000 cos mul sub 3 1 roll 0.000 sin mul sub 2 copy
/fntsize {/Helvetica-0 findfont exch scalefont setfont } def
0.000 219
(.2) Stxtl
(.2) stringwidth pop xratio div
dup 4 3 roll exch 0.000 cos mul add 3 1 roll 0.000 sin mul add 2 copy
pop pop pop pop
17439 14332 17352 14332 Sln
17308 14256 0
/Helvetica-0 findfont 219 yratio mul scalefont setfont
(.4) stringwidth pop add
xratio div
dup 4 3 roll exch 0.000 cos mul sub 3 1 roll 0.000 sin mul sub 2 copy
/fntsize {/Helvetica-0 findfont exch scalefont setfont } def
0.000 219
(.4) Stxtl
(.4) stringwidth pop xratio div
dup 4 3 roll exch 0.000 cos mul add 3 1 roll 0.000 sin mul add 2 copy
pop pop pop pop
2340 9103 16039 9103 Sln
3196 9103 3196 9015 Sln
3273 8971 0
/Helvetica-0 findfont 219 yratio mul scalefont setfont
(0) stringwidth pop add
xratio div
dup 4 3 roll exch 90.000 cos mul sub 3 1 roll 90.000 sin mul sub 2 copy
/fntsize {/Helvetica-0 findfont exch scalefont setfont } def
90.000 219
(0) Stxtl
(0) stringwidth pop xratio div
dup 4 3 roll exch 90.000 cos mul add 3 1 roll 90.000 sin mul add 2 copy
pop pop pop pop
4909 9103 4909 9015 Sln
4986 8971 0
/Helvetica-0 findfont 219 yratio mul scalefont setfont
(1-2) stringwidth pop add
xratio div
dup 4 3 roll exch 90.000 cos mul sub 3 1 roll 90.000 sin mul sub 2 copy
/fntsize {/Helvetica-0 findfont exch scalefont setfont } def
90.000 219
(1-2) Stxtl
(1-2) stringwidth pop xratio div
dup 4 3 roll exch 90.000 cos mul add 3 1 roll 90.000 sin mul add 2 copy
pop pop pop pop
6621 9103 6621 9015 Sln
6698 8971 0
/Helvetica-0 findfont 219 yratio mul scalefont setfont
(3-4) stringwidth pop add
xratio div
dup 4 3 roll exch 90.000 cos mul sub 3 1 roll 90.000 sin mul sub 2 copy
/fntsize {/Helvetica-0 findfont exch scalefont setfont } def
90.000 219
(3-4) Stxtl
(3-4) stringwidth pop xratio div
dup 4 3 roll exch 90.000 cos mul add 3 1 roll 90.000 sin mul add 2 copy
pop pop pop pop
8333 9103 8333 9015 Sln
8410 8971 0
/Helvetica-0 findfont 219 yratio mul scalefont setfont
(5-6) stringwidth pop add
xratio div
dup 4 3 roll exch 90.000 cos mul sub 3 1 roll 90.000 sin mul sub 2 copy
/fntsize {/Helvetica-0 findfont exch scalefont setfont } def
90.000 219
(5-6) Stxtl
(5-6) stringwidth pop xratio div
dup 4 3 roll exch 90.000 cos mul add 3 1 roll 90.000 sin mul add 2 copy
pop pop pop pop
10046 9103 10046 9015 Sln
10123 8971 0
/Helvetica-0 findfont 219 yratio mul scalefont setfont
(7-8) stringwidth pop add
xratio div
dup 4 3 roll exch 90.000 cos mul sub 3 1 roll 90.000 sin mul sub 2 copy
/fntsize {/Helvetica-0 findfont exch scalefont setfont } def
90.000 219
(7-8) Stxtl
(7-8) stringwidth pop xratio div
dup 4 3 roll exch 90.000 cos mul add 3 1 roll 90.000 sin mul add 2 copy
pop pop pop pop
11758 9103 11758 9015 Sln
11835 8971 0
/Helvetica-0 findfont 219 yratio mul scalefont setfont
(9-10) stringwidth pop add
xratio div
dup 4 3 roll exch 90.000 cos mul sub 3 1 roll 90.000 sin mul sub 2 copy
/fntsize {/Helvetica-0 findfont exch scalefont setfont } def
90.000 219
(9-10) Stxtl
(9-10) stringwidth pop xratio div
dup 4 3 roll exch 90.000 cos mul add 3 1 roll 90.000 sin mul add 2 copy
pop pop pop pop
13471 9103 13471 9015 Sln
13548 8971 0
/Helvetica-0 findfont 219 yratio mul scalefont setfont
(11-12) stringwidth pop add
xratio div
dup 4 3 roll exch 90.000 cos mul sub 3 1 roll 90.000 sin mul sub 2 copy
/fntsize {/Helvetica-0 findfont exch scalefont setfont } def
90.000 219
(11-12) Stxtl
(11-12) stringwidth pop xratio div
dup 4 3 roll exch 90.000 cos mul add 3 1 roll 90.000 sin mul add 2 copy
pop pop pop pop
15183 9103 15183 9015 Sln
15260 8971 0
/Helvetica-0 findfont 219 yratio mul scalefont setfont
(13-14) stringwidth pop add
xratio div
dup 4 3 roll exch 90.000 cos mul sub 3 1 roll 90.000 sin mul sub 2 copy
/fntsize {/Helvetica-0 findfont exch scalefont setfont } def
90.000 219
(13-14) Stxtl
(13-14) stringwidth pop xratio div
dup 4 3 roll exch 90.000 cos mul add 3 1 roll 90.000 sin mul add 2 copy
pop pop pop pop
17439 9103 31138 9103 Sln
18295 9103 18295 9015 Sln
18372 8971 0
/Helvetica-0 findfont 219 yratio mul scalefont setfont
(0) stringwidth pop add
xratio div
dup 4 3 roll exch 90.000 cos mul sub 3 1 roll 90.000 sin mul sub 2 copy
/fntsize {/Helvetica-0 findfont exch scalefont setfont } def
90.000 219
(0) Stxtl
(0) stringwidth pop xratio div
dup 4 3 roll exch 90.000 cos mul add 3 1 roll 90.000 sin mul add 2 copy
pop pop pop pop
20008 9103 20008 9015 Sln
20085 8971 0
/Helvetica-0 findfont 219 yratio mul scalefont setfont
(1-2) stringwidth pop add
xratio div
dup 4 3 roll exch 90.000 cos mul sub 3 1 roll 90.000 sin mul sub 2 copy
/fntsize {/Helvetica-0 findfont exch scalefont setfont } def
90.000 219
(1-2) Stxtl
(1-2) stringwidth pop xratio div
dup 4 3 roll exch 90.000 cos mul add 3 1 roll 90.000 sin mul add 2 copy
pop pop pop pop
21720 9103 21720 9015 Sln
21797 8971 0
/Helvetica-0 findfont 219 yratio mul scalefont setfont
(3-4) stringwidth pop add
xratio div
dup 4 3 roll exch 90.000 cos mul sub 3 1 roll 90.000 sin mul sub 2 copy
/fntsize {/Helvetica-0 findfont exch scalefont setfont } def
90.000 219
(3-4) Stxtl
(3-4) stringwidth pop xratio div
dup 4 3 roll exch 90.000 cos mul add 3 1 roll 90.000 sin mul add 2 copy
pop pop pop pop
23433 9103 23433 9015 Sln
23510 8971 0
/Helvetica-0 findfont 219 yratio mul scalefont setfont
(5-6) stringwidth pop add
xratio div
dup 4 3 roll exch 90.000 cos mul sub 3 1 roll 90.000 sin mul sub 2 copy
/fntsize {/Helvetica-0 findfont exch scalefont setfont } def
90.000 219
(5-6) Stxtl
(5-6) stringwidth pop xratio div
dup 4 3 roll exch 90.000 cos mul add 3 1 roll 90.000 sin mul add 2 copy
pop pop pop pop
25145 9103 25145 9015 Sln
25222 8971 0
/Helvetica-0 findfont 219 yratio mul scalefont setfont
(7-8) stringwidth pop add
xratio div
dup 4 3 roll exch 90.000 cos mul sub 3 1 roll 90.000 sin mul sub 2 copy
/fntsize {/Helvetica-0 findfont exch scalefont setfont } def
90.000 219
(7-8) Stxtl
(7-8) stringwidth pop xratio div
dup 4 3 roll exch 90.000 cos mul add 3 1 roll 90.000 sin mul add 2 copy
pop pop pop pop
26857 9103 26857 9015 Sln
26934 8971 0
/Helvetica-0 findfont 219 yratio mul scalefont setfont
(9-10) stringwidth pop add
xratio div
dup 4 3 roll exch 90.000 cos mul sub 3 1 roll 90.000 sin mul sub 2 copy
/fntsize {/Helvetica-0 findfont exch scalefont setfont } def
90.000 219
(9-10) Stxtl
(9-10) stringwidth pop xratio div
dup 4 3 roll exch 90.000 cos mul add 3 1 roll 90.000 sin mul add 2 copy
pop pop pop pop
28570 9103 28570 9015 Sln
28647 8971 0
/Helvetica-0 findfont 219 yratio mul scalefont setfont
(11-12) stringwidth pop add
xratio div
dup 4 3 roll exch 90.000 cos mul sub 3 1 roll 90.000 sin mul sub 2 copy
/fntsize {/Helvetica-0 findfont exch scalefont setfont } def
90.000 219
(11-12) Stxtl
(11-12) stringwidth pop xratio div
dup 4 3 roll exch 90.000 cos mul add 3 1 roll 90.000 sin mul add 2 copy
pop pop pop pop
30282 9103 30282 9015 Sln
30359 8971 0
/Helvetica-0 findfont 219 yratio mul scalefont setfont
(13-14) stringwidth pop add
xratio div
dup 4 3 roll exch 90.000 cos mul sub 3 1 roll 90.000 sin mul sub 2 copy
/fntsize {/Helvetica-0 findfont exch scalefont setfont } def
90.000 219
(13-14) Stxtl
(13-14) stringwidth pop xratio div
dup 4 3 roll exch 90.000 cos mul add 3 1 roll 90.000 sin mul add 2 copy
pop pop pop pop
/Ssrgb {0.816 0.816 0.816} def
2340 14679 16039 14995 1 Srect
9190 14789 0
/Helvetica-0 findfont 241 yratio mul scalefont setfont
(Smoking \(MSM\)) stringwidth pop add
2 div xratio div
dup 4 3 roll exch 0.000 cos mul sub 3 1 roll 0.000 sin mul sub 2 copy
/fntsize {/Helvetica-0 findfont exch scalefont setfont } def
0.000 241
(Smoking \(MSM\)) Stxtl
(Smoking \(MSM\)) stringwidth pop xratio div
dup 4 3 roll exch 0.000 cos mul add 3 1 roll 0.000 sin mul add 2 copy
pop pop pop pop
17439 14679 31138 14995 1 Srect
24289 14789 0
/Helvetica-0 findfont 241 yratio mul scalefont setfont
(Smoking \(FE\)) stringwidth pop add
2 div xratio div
dup 4 3 roll exch 0.000 cos mul sub 3 1 roll 0.000 sin mul sub 2 copy
/fntsize {/Helvetica-0 findfont exch scalefont setfont } def
0.000 241
(Smoking \(FE\)) Stxtl
(Smoking \(FE\)) stringwidth pop xratio div
dup 4 3 roll exch 0.000 cos mul add 3 1 roll 0.000 sin mul add 2 copy
pop pop pop pop
952 11636 0
/Helvetica-0 findfont 257 yratio mul scalefont setfont
(Marginal effect) stringwidth pop add
2 div xratio div
dup 4 3 roll exch 90.000 cos mul sub 3 1 roll 90.000 sin mul sub 2 copy
/fntsize {/Helvetica-0 findfont exch scalefont setfont } def
90.000 257
(Marginal effect) Stxtl
(Marginal effect) stringwidth pop xratio div
dup 4 3 roll exch 90.000 cos mul add 3 1 roll 90.000 sin mul add 2 copy
pop pop pop pop
/Ssrgb {1.000 1.000 1.000} def
/Slw 0.184 def
/Slrgb {1.000 1.000 1.000} def
512 512 31487 7928 1 Srect
/Slw 0.156 def
/Slrgb {0.000 0.000 0.000} def
2340 2602 16039 7263 0 Srect
/Slw 0.234 def
/Slrgb {0.188 0.188 0.188} def
2340 4521 16039 4521 Sln
/Slw 0.156 def
/Slrgb {0.000 0.000 0.000} def
17439 2602 31138 7263 0 Srect
/Slw 0.234 def
/Slrgb {0.188 0.188 0.188} def
17439 5371 31138 5371 Sln
/Ssrgb {0.502 0.502 0.502} def
/Slw 0.156 def
/Slrgb {0.376 0.376 0.376} def
2911 3481 2911 5985 Sln
4623 3740 4623 4418 Sln
6336 3786 6336 4548 Sln
8048 3650 8048 4608 Sln
9760 3214 9760 4560 Sln
11473 3840 11473 6911 Sln
13185 2741 13185 4871 Sln
2910 4733 Sm
4623 4079 Sl
4623 4079 Sm
6335 4167 Sl
6335 4167 Sm
8048 4128 Sl
8048 4128 Sm
9760 3886 Sl
9760 3886 Sm
11472 5375 Sl
11472 5375 Sm
13185 3805 Sl
/Ssrgb {0.702 0.702 0.702} def
/Slrgb {0.627 0.627 0.627} def
/Ssrgb {0.502 0.502 0.502} def
/Slrgb {0.376 0.376 0.376} def
18010 4111 18010 6871 Sln
19722 4412 19722 5131 Sln
21435 4654 21435 5513 Sln
23147 4434 23147 5492 Sln
24860 3223 24860 5218 Sln
26572 4361 26572 6853 Sln
28284 3036 28284 5459 Sln
29997 3210 29997 5618 Sln
18010 5491 Sm
19722 4771 Sl
19722 4771 Sm
21434 5083 Sl
21434 5083 Sm
23147 4963 Sl
23147 4963 Sm
24859 4220 Sl
24859 4220 Sm
26572 5607 Sl
26572 5607 Sm
28284 4247 Sl
28284 4247 Sm
29996 4413 Sl
/Ssrgb {0.702 0.702 0.702} def
/Slrgb {0.627 0.627 0.627} def
18581 4946 18581 5493 Sln
20293 5195 20293 5381 Sln
22006 5186 22006 5453 Sln
23718 5249 23718 5554 Sln
25430 5263 25430 5479 Sln
27143 5144 27143 5586 Sln
28855 5287 28855 5441 Sln
30568 5135 30568 5599 Sln
18580 5219 18640 5221 Sln
18691 5223 18751 5226 Sln
18803 5228 18862 5230 Sln
18914 5232 18974 5235 Sln
19025 5237 19085 5239 Sln
19136 5241 19196 5244 Sln
19248 5246 19307 5248 Sln
19359 5250 19419 5252 Sln
19470 5254 19530 5257 Sln
19582 5259 19641 5261 Sln
19693 5263 19752 5266 Sln
19804 5268 19864 5270 Sln
19915 5272 19975 5275 Sln
20027 5277 20086 5279 Sln
20138 5281 20197 5284 Sln
20249 5286 20293 5288 Sln
20293 5288 20309 5288 Sln
20360 5289 20420 5290 Sln
20472 5291 20531 5292 Sln
20583 5293 20642 5294 Sln
20694 5295 20754 5296 Sln
20805 5297 20865 5298 Sln
20917 5299 20976 5300 Sln
21028 5301 21088 5302 Sln
21139 5303 21199 5304 Sln
21250 5305 21310 5306 Sln
21362 5307 21421 5308 Sln
21473 5309 21533 5310 Sln
21584 5311 21644 5312 Sln
21696 5313 21755 5314 Sln
21807 5315 21866 5316 Sln
21918 5317 21978 5318 Sln
22029 5320 22089 5323 Sln
22141 5325 22200 5328 Sln
22252 5331 22311 5334 Sln
22363 5336 22423 5339 Sln
22474 5342 22534 5344 Sln
22586 5347 22645 5350 Sln
22697 5352 22756 5355 Sln
22808 5358 22868 5361 Sln
22919 5363 22979 5366 Sln
23031 5369 23090 5372 Sln
23142 5374 23201 5377 Sln
23253 5379 23313 5382 Sln
23364 5385 23424 5388 Sln
23476 5390 23535 5393 Sln
23587 5395 23647 5398 Sln
23698 5400 23718 5401 Sln
23718 5401 23758 5401 Sln
23809 5400 23869 5399 Sln
23921 5398 23980 5397 Sln
24032 5396 24092 5395 Sln
24143 5394 24203 5393 Sln
24255 5392 24314 5391 Sln
24366 5390 24425 5389 Sln
24477 5388 24537 5387 Sln
24588 5386 24648 5385 Sln
24700 5384 24759 5383 Sln
24811 5382 24870 5381 Sln
24922 5380 24982 5379 Sln
25033 5378 25093 5377 Sln
25145 5376 25204 5375 Sln
25256 5374 25315 5373 Sln
25367 5372 25427 5370 Sln
25478 5370 25538 5370 Sln
25590 5370 25649 5370 Sln
25701 5370 25760 5370 Sln
25812 5370 25872 5370 Sln
25923 5370 25983 5370 Sln
26035 5370 26094 5370 Sln
26146 5370 26206 5369 Sln
26257 5369 26317 5369 Sln
26368 5369 26428 5368 Sln
26480 5368 26539 5368 Sln
26591 5368 26651 5367 Sln
26702 5367 26762 5367 Sln
26814 5367 26873 5366 Sln
26925 5366 26984 5366 Sln
27036 5366 27096 5365 Sln
27147 5365 27207 5365 Sln
27259 5365 27318 5365 Sln
27370 5365 27429 5365 Sln
27481 5365 27541 5365 Sln
27592 5365 27652 5365 Sln
27704 5365 27763 5365 Sln
27815 5365 27874 5365 Sln
27926 5365 27986 5365 Sln
28037 5365 28097 5365 Sln
28149 5365 28208 5365 Sln
28260 5365 28320 5365 Sln
28371 5365 28431 5365 Sln
28482 5365 28542 5365 Sln
28594 5365 28653 5365 Sln
28705 5365 28765 5365 Sln
28816 5364 28855 5364 Sln
28855 5364 28876 5364 Sln
28928 5364 28987 5364 Sln
29039 5364 29098 5364 Sln
29150 5364 29210 5364 Sln
29261 5364 29321 5364 Sln
29373 5364 29432 5364 Sln
29484 5364 29543 5364 Sln
29595 5364 29655 5364 Sln
29706 5364 29766 5364 Sln
29818 5364 29877 5364 Sln
29929 5364 29988 5365 Sln
30040 5365 30100 5365 Sln
30151 5365 30211 5366 Sln
30263 5366 30322 5366 Sln
30374 5366 30433 5367 Sln
30485 5367 30545 5367 Sln
/Slrgb {0.000 0.000 0.000} def
2340 2602 2340 7263 Sln
2340 2786 2253 2786 Sln
2209 2710 0
/Helvetica-0 findfont 219 yratio mul scalefont setfont
(-.4) stringwidth pop add
xratio div
dup 4 3 roll exch 0.000 cos mul sub 3 1 roll 0.000 sin mul sub 2 copy
/fntsize {/Helvetica-0 findfont exch scalefont setfont } def
0.000 219
(-.4) Stxtl
(-.4) stringwidth pop xratio div
dup 4 3 roll exch 0.000 cos mul add 3 1 roll 0.000 sin mul add 2 copy
pop pop pop pop
2340 3653 2253 3653 Sln
2209 3577 0
/Helvetica-0 findfont 219 yratio mul scalefont setfont
(-.2) stringwidth pop add
xratio div
dup 4 3 roll exch 0.000 cos mul sub 3 1 roll 0.000 sin mul sub 2 copy
/fntsize {/Helvetica-0 findfont exch scalefont setfont } def
0.000 219
(-.2) Stxtl
(-.2) stringwidth pop xratio div
dup 4 3 roll exch 0.000 cos mul add 3 1 roll 0.000 sin mul add 2 copy
pop pop pop pop
2340 4521 2253 4521 Sln
2209 4445 0
/Helvetica-0 findfont 219 yratio mul scalefont setfont
(0) stringwidth pop add
xratio div
dup 4 3 roll exch 0.000 cos mul sub 3 1 roll 0.000 sin mul sub 2 copy
/fntsize {/Helvetica-0 findfont exch scalefont setfont } def
0.000 219
(0) Stxtl
(0) stringwidth pop xratio div
dup 4 3 roll exch 0.000 cos mul add 3 1 roll 0.000 sin mul add 2 copy
pop pop pop pop
2340 5389 2253 5389 Sln
2209 5313 0
/Helvetica-0 findfont 219 yratio mul scalefont setfont
(.2) stringwidth pop add
xratio div
dup 4 3 roll exch 0.000 cos mul sub 3 1 roll 0.000 sin mul sub 2 copy
/fntsize {/Helvetica-0 findfont exch scalefont setfont } def
0.000 219
(.2) Stxtl
(.2) stringwidth pop xratio div
dup 4 3 roll exch 0.000 cos mul add 3 1 roll 0.000 sin mul add 2 copy
pop pop pop pop
2340 6257 2253 6257 Sln
2209 6181 0
/Helvetica-0 findfont 219 yratio mul scalefont setfont
(.4) stringwidth pop add
xratio div
dup 4 3 roll exch 0.000 cos mul sub 3 1 roll 0.000 sin mul sub 2 copy
/fntsize {/Helvetica-0 findfont exch scalefont setfont } def
0.000 219
(.4) Stxtl
(.4) stringwidth pop xratio div
dup 4 3 roll exch 0.000 cos mul add 3 1 roll 0.000 sin mul add 2 copy
pop pop pop pop
2340 7124 2253 7124 Sln
2209 7048 0
/Helvetica-0 findfont 219 yratio mul scalefont setfont
(.6) stringwidth pop add
xratio div
dup 4 3 roll exch 0.000 cos mul sub 3 1 roll 0.000 sin mul sub 2 copy
/fntsize {/Helvetica-0 findfont exch scalefont setfont } def
0.000 219
(.6) Stxtl
(.6) stringwidth pop xratio div
dup 4 3 roll exch 0.000 cos mul add 3 1 roll 0.000 sin mul add 2 copy
pop pop pop pop
17439 2602 17439 7263 Sln
17439 2741 17352 2741 Sln
17308 2665 0
/Helvetica-0 findfont 219 yratio mul scalefont setfont
(-.6) stringwidth pop add
xratio div
dup 4 3 roll exch 0.000 cos mul sub 3 1 roll 0.000 sin mul sub 2 copy
/fntsize {/Helvetica-0 findfont exch scalefont setfont } def
0.000 219
(-.6) Stxtl
(-.6) stringwidth pop xratio div
dup 4 3 roll exch 0.000 cos mul add 3 1 roll 0.000 sin mul add 2 copy
pop pop pop pop
17439 3618 17352 3618 Sln
17308 3542 0
/Helvetica-0 findfont 219 yratio mul scalefont setfont
(-.4) stringwidth pop add
xratio div
dup 4 3 roll exch 0.000 cos mul sub 3 1 roll 0.000 sin mul sub 2 copy
/fntsize {/Helvetica-0 findfont exch scalefont setfont } def
0.000 219
(-.4) Stxtl
(-.4) stringwidth pop xratio div
dup 4 3 roll exch 0.000 cos mul add 3 1 roll 0.000 sin mul add 2 copy
pop pop pop pop
17439 4494 17352 4494 Sln
17308 4418 0
/Helvetica-0 findfont 219 yratio mul scalefont setfont
(-.2) stringwidth pop add
xratio div
dup 4 3 roll exch 0.000 cos mul sub 3 1 roll 0.000 sin mul sub 2 copy
/fntsize {/Helvetica-0 findfont exch scalefont setfont } def
0.000 219
(-.2) Stxtl
(-.2) stringwidth pop xratio div
dup 4 3 roll exch 0.000 cos mul add 3 1 roll 0.000 sin mul add 2 copy
pop pop pop pop
17439 5371 17352 5371 Sln
17308 5295 0
/Helvetica-0 findfont 219 yratio mul scalefont setfont
(0) stringwidth pop add
xratio div
dup 4 3 roll exch 0.000 cos mul sub 3 1 roll 0.000 sin mul sub 2 copy
/fntsize {/Helvetica-0 findfont exch scalefont setfont } def
0.000 219
(0) Stxtl
(0) stringwidth pop xratio div
dup 4 3 roll exch 0.000 cos mul add 3 1 roll 0.000 sin mul add 2 copy
pop pop pop pop
17439 6248 17352 6248 Sln
17308 6172 0
/Helvetica-0 findfont 219 yratio mul scalefont setfont
(.2) stringwidth pop add
xratio div
dup 4 3 roll exch 0.000 cos mul sub 3 1 roll 0.000 sin mul sub 2 copy
/fntsize {/Helvetica-0 findfont exch scalefont setfont } def
0.000 219
(.2) Stxtl
(.2) stringwidth pop xratio div
dup 4 3 roll exch 0.000 cos mul add 3 1 roll 0.000 sin mul add 2 copy
pop pop pop pop
17439 7124 17352 7124 Sln
17308 7048 0
/Helvetica-0 findfont 219 yratio mul scalefont setfont
(.4) stringwidth pop add
xratio div
dup 4 3 roll exch 0.000 cos mul sub 3 1 roll 0.000 sin mul sub 2 copy
/fntsize {/Helvetica-0 findfont exch scalefont setfont } def
0.000 219
(.4) Stxtl
(.4) stringwidth pop xratio div
dup 4 3 roll exch 0.000 cos mul add 3 1 roll 0.000 sin mul add 2 copy
pop pop pop pop
2340 2602 16039 2602 Sln
3196 2602 3196 2515 Sln
3273 2471 0
/Helvetica-0 findfont 219 yratio mul scalefont setfont
(0) stringwidth pop add
xratio div
dup 4 3 roll exch 90.000 cos mul sub 3 1 roll 90.000 sin mul sub 2 copy
/fntsize {/Helvetica-0 findfont exch scalefont setfont } def
90.000 219
(0) Stxtl
(0) stringwidth pop xratio div
dup 4 3 roll exch 90.000 cos mul add 3 1 roll 90.000 sin mul add 2 copy
pop pop pop pop
4909 2602 4909 2515 Sln
4986 2471 0
/Helvetica-0 findfont 219 yratio mul scalefont setfont
(1-2) stringwidth pop add
xratio div
dup 4 3 roll exch 90.000 cos mul sub 3 1 roll 90.000 sin mul sub 2 copy
/fntsize {/Helvetica-0 findfont exch scalefont setfont } def
90.000 219
(1-2) Stxtl
(1-2) stringwidth pop xratio div
dup 4 3 roll exch 90.000 cos mul add 3 1 roll 90.000 sin mul add 2 copy
pop pop pop pop
6621 2602 6621 2515 Sln
6698 2471 0
/Helvetica-0 findfont 219 yratio mul scalefont setfont
(3-4) stringwidth pop add
xratio div
dup 4 3 roll exch 90.000 cos mul sub 3 1 roll 90.000 sin mul sub 2 copy
/fntsize {/Helvetica-0 findfont exch scalefont setfont } def
90.000 219
(3-4) Stxtl
(3-4) stringwidth pop xratio div
dup 4 3 roll exch 90.000 cos mul add 3 1 roll 90.000 sin mul add 2 copy
pop pop pop pop
8333 2602 8333 2515 Sln
8410 2471 0
/Helvetica-0 findfont 219 yratio mul scalefont setfont
(5-6) stringwidth pop add
xratio div
dup 4 3 roll exch 90.000 cos mul sub 3 1 roll 90.000 sin mul sub 2 copy
/fntsize {/Helvetica-0 findfont exch scalefont setfont } def
90.000 219
(5-6) Stxtl
(5-6) stringwidth pop xratio div
dup 4 3 roll exch 90.000 cos mul add 3 1 roll 90.000 sin mul add 2 copy
pop pop pop pop
10046 2602 10046 2515 Sln
10123 2471 0
/Helvetica-0 findfont 219 yratio mul scalefont setfont
(7-8) stringwidth pop add
xratio div
dup 4 3 roll exch 90.000 cos mul sub 3 1 roll 90.000 sin mul sub 2 copy
/fntsize {/Helvetica-0 findfont exch scalefont setfont } def
90.000 219
(7-8) Stxtl
(7-8) stringwidth pop xratio div
dup 4 3 roll exch 90.000 cos mul add 3 1 roll 90.000 sin mul add 2 copy
pop pop pop pop
11758 2602 11758 2515 Sln
11835 2471 0
/Helvetica-0 findfont 219 yratio mul scalefont setfont
(9-10) stringwidth pop add
xratio div
dup 4 3 roll exch 90.000 cos mul sub 3 1 roll 90.000 sin mul sub 2 copy
/fntsize {/Helvetica-0 findfont exch scalefont setfont } def
90.000 219
(9-10) Stxtl
(9-10) stringwidth pop xratio div
dup 4 3 roll exch 90.000 cos mul add 3 1 roll 90.000 sin mul add 2 copy
pop pop pop pop
13471 2602 13471 2515 Sln
13548 2471 0
/Helvetica-0 findfont 219 yratio mul scalefont setfont
(11-12) stringwidth pop add
xratio div
dup 4 3 roll exch 90.000 cos mul sub 3 1 roll 90.000 sin mul sub 2 copy
/fntsize {/Helvetica-0 findfont exch scalefont setfont } def
90.000 219
(11-12) Stxtl
(11-12) stringwidth pop xratio div
dup 4 3 roll exch 90.000 cos mul add 3 1 roll 90.000 sin mul add 2 copy
pop pop pop pop
15183 2602 15183 2515 Sln
15260 2471 0
/Helvetica-0 findfont 219 yratio mul scalefont setfont
(13-14) stringwidth pop add
xratio div
dup 4 3 roll exch 90.000 cos mul sub 3 1 roll 90.000 sin mul sub 2 copy
/fntsize {/Helvetica-0 findfont exch scalefont setfont } def
90.000 219
(13-14) Stxtl
(13-14) stringwidth pop xratio div
dup 4 3 roll exch 90.000 cos mul add 3 1 roll 90.000 sin mul add 2 copy
pop pop pop pop
17439 2602 31138 2602 Sln
18295 2602 18295 2515 Sln
18372 2471 0
/Helvetica-0 findfont 219 yratio mul scalefont setfont
(0) stringwidth pop add
xratio div
dup 4 3 roll exch 90.000 cos mul sub 3 1 roll 90.000 sin mul sub 2 copy
/fntsize {/Helvetica-0 findfont exch scalefont setfont } def
90.000 219
(0) Stxtl
(0) stringwidth pop xratio div
dup 4 3 roll exch 90.000 cos mul add 3 1 roll 90.000 sin mul add 2 copy
pop pop pop pop
20008 2602 20008 2515 Sln
20085 2471 0
/Helvetica-0 findfont 219 yratio mul scalefont setfont
(1-2) stringwidth pop add
xratio div
dup 4 3 roll exch 90.000 cos mul sub 3 1 roll 90.000 sin mul sub 2 copy
/fntsize {/Helvetica-0 findfont exch scalefont setfont } def
90.000 219
(1-2) Stxtl
(1-2) stringwidth pop xratio div
dup 4 3 roll exch 90.000 cos mul add 3 1 roll 90.000 sin mul add 2 copy
pop pop pop pop
21720 2602 21720 2515 Sln
21797 2471 0
/Helvetica-0 findfont 219 yratio mul scalefont setfont
(3-4) stringwidth pop add
xratio div
dup 4 3 roll exch 90.000 cos mul sub 3 1 roll 90.000 sin mul sub 2 copy
/fntsize {/Helvetica-0 findfont exch scalefont setfont } def
90.000 219
(3-4) Stxtl
(3-4) stringwidth pop xratio div
dup 4 3 roll exch 90.000 cos mul add 3 1 roll 90.000 sin mul add 2 copy
pop pop pop pop
23433 2602 23433 2515 Sln
23510 2471 0
/Helvetica-0 findfont 219 yratio mul scalefont setfont
(5-6) stringwidth pop add
xratio div
dup 4 3 roll exch 90.000 cos mul sub 3 1 roll 90.000 sin mul sub 2 copy
/fntsize {/Helvetica-0 findfont exch scalefont setfont } def
90.000 219
(5-6) Stxtl
(5-6) stringwidth pop xratio div
dup 4 3 roll exch 90.000 cos mul add 3 1 roll 90.000 sin mul add 2 copy
pop pop pop pop
25145 2602 25145 2515 Sln
25222 2471 0
/Helvetica-0 findfont 219 yratio mul scalefont setfont
(7-8) stringwidth pop add
xratio div
dup 4 3 roll exch 90.000 cos mul sub 3 1 roll 90.000 sin mul sub 2 copy
/fntsize {/Helvetica-0 findfont exch scalefont setfont } def
90.000 219
(7-8) Stxtl
(7-8) stringwidth pop xratio div
dup 4 3 roll exch 90.000 cos mul add 3 1 roll 90.000 sin mul add 2 copy
pop pop pop pop
26857 2602 26857 2515 Sln
26934 2471 0
/Helvetica-0 findfont 219 yratio mul scalefont setfont
(9-10) stringwidth pop add
xratio div
dup 4 3 roll exch 90.000 cos mul sub 3 1 roll 90.000 sin mul sub 2 copy
/fntsize {/Helvetica-0 findfont exch scalefont setfont } def
90.000 219
(9-10) Stxtl
(9-10) stringwidth pop xratio div
dup 4 3 roll exch 90.000 cos mul add 3 1 roll 90.000 sin mul add 2 copy
pop pop pop pop
28570 2602 28570 2515 Sln
28647 2471 0
/Helvetica-0 findfont 219 yratio mul scalefont setfont
(11-12) stringwidth pop add
xratio div
dup 4 3 roll exch 90.000 cos mul sub 3 1 roll 90.000 sin mul sub 2 copy
/fntsize {/Helvetica-0 findfont exch scalefont setfont } def
90.000 219
(11-12) Stxtl
(11-12) stringwidth pop xratio div
dup 4 3 roll exch 90.000 cos mul add 3 1 roll 90.000 sin mul add 2 copy
pop pop pop pop
30282 2602 30282 2515 Sln
30359 2471 0
/Helvetica-0 findfont 219 yratio mul scalefont setfont
(13-14) stringwidth pop add
xratio div
dup 4 3 roll exch 90.000 cos mul sub 3 1 roll 90.000 sin mul sub 2 copy
/fntsize {/Helvetica-0 findfont exch scalefont setfont } def
90.000 219
(13-14) Stxtl
(13-14) stringwidth pop xratio div
dup 4 3 roll exch 90.000 cos mul add 3 1 roll 90.000 sin mul add 2 copy
pop pop pop pop
/Ssrgb {0.816 0.816 0.816} def
2340 7263 16039 7579 1 Srect
9190 7373 0
/Helvetica-0 findfont 241 yratio mul scalefont setfont
(Alcohol \(MSM\)) stringwidth pop add
2 div xratio div
dup 4 3 roll exch 0.000 cos mul sub 3 1 roll 0.000 sin mul sub 2 copy
/fntsize {/Helvetica-0 findfont exch scalefont setfont } def
0.000 241
(Alcohol \(MSM\)) Stxtl
(Alcohol \(MSM\)) stringwidth pop xratio div
dup 4 3 roll exch 0.000 cos mul add 3 1 roll 0.000 sin mul add 2 copy
pop pop pop pop
17439 7263 31138 7579 1 Srect
24289 7373 0
/Helvetica-0 findfont 241 yratio mul scalefont setfont
(Alcohol \(FE\)) stringwidth pop add
2 div xratio div
dup 4 3 roll exch 0.000 cos mul sub 3 1 roll 0.000 sin mul sub 2 copy
/fntsize {/Helvetica-0 findfont exch scalefont setfont } def
0.000 241
(Alcohol \(FE\)) Stxtl
(Alcohol \(FE\)) stringwidth pop xratio div
dup 4 3 roll exch 0.000 cos mul add 3 1 roll 0.000 sin mul add 2 copy
pop pop pop pop
/Ssrgb {1.000 1.000 1.000} def
/Slw 0.184 def
14020 861 18237 1341 1 Srect
/Slrgb {0.376 0.376 0.376} def
14131 1101 15095 1101 Sln
/Slrgb {0.627 0.627 0.627} def
16136 1101 16195 1101 Sln
16247 1101 16307 1101 Sln
16358 1101 16418 1101 Sln
16470 1101 16529 1101 Sln
16581 1101 16640 1101 Sln
16692 1101 16752 1101 Sln
16803 1101 16863 1101 Sln
16915 1101 16974 1101 Sln
17026 1101 17086 1101 Sln
15250 1011 2 copy
/fntsize {/Helvetica-0 findfont exch scalefont setfont } def
0.000 257
(men) Stxtl
(men) stringwidth pop xratio div
dup 4 3 roll exch 0.000 cos mul add 3 1 roll 0.000 sin mul add 2 copy
pop pop pop pop
17254 1011 2 copy
/fntsize {/Helvetica-0 findfont exch scalefont setfont } def
0.000 257
(women) Stxtl
(women) stringwidth pop xratio div
dup 4 3 roll exch 0.000 cos mul add 3 1 roll 0.000 sin mul add 2 copy
pop pop pop pop
952 4678 0
/Helvetica-0 findfont 257 yratio mul scalefont setfont
(Marginal effect) stringwidth pop add
2 div xratio div
dup 4 3 roll exch 90.000 cos mul sub 3 1 roll 90.000 sin mul sub 2 copy
/fntsize {/Helvetica-0 findfont exch scalefont setfont } def
90.000 257
(Marginal effect) Stxtl
(Marginal effect) stringwidth pop xratio div
dup 4 3 roll exch 90.000 cos mul add 3 1 roll 90.000 sin mul add 2 copy
pop pop pop pop
16128 1507 0
/Helvetica-0 findfont 257 yratio mul scalefont setfont
(Years after diagnosis) stringwidth pop add
2 div xratio div
dup 4 3 roll exch 0.000 cos mul sub 3 1 roll 0.000 sin mul sub 2 copy
/fntsize {/Helvetica-0 findfont exch scalefont setfont } def
0.000 257
(Years after diagnosis) Stxtl
(Years after diagnosis) stringwidth pop xratio div
dup 4 3 roll exch 0.000 cos mul add 3 1 roll 0.000 sin mul add 2 copy
pop pop pop pop
S showpage
%%EOF
