%!PS-Adobe-2.0 EPSF-2.0
%% This is a Stata generated postscript file
%%BoundingBox: 0 0 648 864
%%HiResBoundingBox: 0.000 0.000 648.000 864.000
%%DocumentNeededResources: font Helvetica
/xratio 0.027000 def
/yratio 0.027000 def
/Sbgfill {
	/y1 exch def
	/x1 exch def
	/y0 exch def
	/x0 exch def
	x0 y0 moveto
	x0 y1 lineto x1 y1 lineto x1 y0 lineto x0 y0 lineto
	fill
} def
/Spt {
	yratio mul
	/yp exch def
	xratio mul
	/xp exch def
	Slrgb setrgbcolor
	xp yp .5 0 360 arc fill
} def
/Sln {
	yratio mul
	/y1p exch def
	xratio mul
	/x1p exch def
	yratio mul
	/y0p exch def
	xratio mul
	/x0p exch def
	Slw setlinewidth
	Slrgb setrgbcolor
	x0p y0p M x1p y1p lineto S
} def
/Scrv {
	yratio mul
	/y3p exch def
	xratio mul
	/x3p exch def
	yratio mul
	/y2p exch def
	xratio mul
	/x2p exch def
	yratio mul
	/y1p exch def
	xratio mul
	/x1p exch def
	Slw setlinewidth
	Slrgb setrgbcolor
	x1p y1p x2p y2p x3p y3p curveto
	stroke
} def
/Stxtl {
	/sp exch def
	yratio mul
	/sizep exch def
	dup
	/anglep exch def
	0 exch sub
	/angle2p exch def
	yratio mul
	/y0p exch def
	xratio mul
	/x0p exch def
	Strgb setrgbcolor
	x0p y0p M anglep rotate sizep fntsize sp show stroke angle2p rotate
} def
/Stxtc {
	/sp exch def
	yratio mul
	/sizep exch def
	dup
	/anglep exch def
	0 exch sub
	/angle2p exch def
	yratio mul
	/y0p exch def
	xratio mul
	/x0p exch def
	Strgb setrgbcolor
	x0p y0p M anglep rotate sizep fntsize sp stringwidth exch -2 div exch rm sp show stroke angle2p rotate
} def
/Stxtr {
	/sp exch def
	yratio mul
	/sizep exch def
	dup
	/anglep exch def
	0 exch sub
	/angle2p exch def
	yratio mul
	/y0p exch def
	xratio mul
	/x0p exch def
	Strgb setrgbcolor
	x0p y0p M anglep rotate sizep fntsize sp stringwidth 1 index -1 mul exch rm pop sp show stroke angle2p rotate
} def
/Srect {
	/sfill exch def
	/sstroke exch def
	yratio mul
	/y1 exch def
	xratio mul
	/x1 exch def
	yratio mul
	/y0 exch def
	xratio mul
	/x0 exch def
	newpath x0 y0 moveto x0 y1 lineto x1 y1 lineto x1 y0 lineto x0 y0 lineto closepath
	sfill Sfill
	sstroke Sstroke
} def
/Sellipse {
	/sfill exch def
	/sstroke exch def
	yratio mul
	/yrad exch def
	xratio mul
	/xrad exch def
	yratio mul
	/y exch def
	xratio mul
	/x exch def
	/savematrix matrix currentmatrix def
	x y translate
	xrad yrad scale
	0 0 1 0 360 arc
	savematrix setmatrix
	sfill Sfill
	sstroke Sstroke
} def
/Stri {
	/sfill exch def
	/sstroke exch def
	xratio mul
	/r exch def
	yratio mul
	/y0 exch def
	xratio mul
	/x0 exch def
	/xcen x0 def
	y0 r add
	/ytop exch def
	r 2 div
	y0 exch sub
	/ybot exch def
	r 3 sqrt 2 div mul dup
	xcen exch sub
	/xleft exch def
	xcen add
	/xright exch def
	newpath xcen ytop moveto xright ybot lineto xleft ybot lineto xcen ytop lineto closepath
	sfill Sfill
	sstroke Sstroke
} def
/Soldtri {
	/sfill exch def
	xratio mul
	/r exch def
	yratio mul
	/y0 exch def
	xratio mul
	/x0 exch def
	x0 r sub
	/x1 exch def
	y0 r sub
	/y1 exch def
	x0 r add
	/x2 exch def
	y0 r sub
	/y2 exch def
	/x3 x0 def
	y0 r add
	/y3 exch def
	newpath x1 y1 moveto x2 y2 lineto x3 y3 lineto x1 y1 lineto closepath
	sfill 1 eq {
		Ssrgb setrgbcolor
		gsave
		fill
		grestore
	} if
	Slw setlinewidth
	Slrgb setrgbcolor
	stroke
} def
/Sdia {
	/sfill exch def
	/sstroke exch def
	xratio mul
	/r exch def
	yratio mul
	/y exch def
	xratio mul
	/x exch def
	x r sub
	/x0 exch def
	/y0 y def
	/x1 x def
	y r sub
	/y1 exch def
	x r add
	/x2 exch def
	/y2 y def
	/x3 x def
	y r add
	/y3 exch def
	newpath x0 y0 moveto x1 y1 lineto x2 y2 lineto x3 y3 lineto closepath
	sfill Sfill
	sstroke Sstroke
} def
/Scc {
	/sfill exch def
	/sstroke exch def
	xratio mul
	/r0 exch def
	yratio mul
	/y0 exch def
	xratio mul
	/x0 exch def
	x0 y0 r0 0 360 arc closepath
	sfill Sfill
	sstroke Sstroke
} def
/Spie {
	/sfill exch def
	/salign exch def
	/a1 exch def
	/a0 exch def
	xratio mul
	/r exch def
	yratio mul
	/y exch def
	xratio mul
	/x exch def
	/Pie {
		x y moveto x y r a0 a1 arc closepath
	} def
	newpath Pie
	sfill Sfill
	Slrgb setrgbcolor
	salign 0 eq {
		gsave
		Slw 2 mul setlinewidth
		clip
		stroke
		grestore
	} if
	salign 1 eq {
		Slw setlinewidth
		stroke
	} if
	salign 2 eq {
		gsave
		Slw 2 mul setlinewidth
		strokepath
		pathbbox
		/ury exch def
		/urx exch def
		/lly exch def
		/llx exch def
		newpath llx lly moveto llx ury lineto urx ury lineto urx lly lineto closepath
		Pie
		eoclip
		newpath Pie
		stroke
		grestore
	} if
	newpath
} def
/Splu {
	xratio mul
	/r exch def
	yratio mul
	/y exch def
	xratio mul
	/x exch def
	x r sub
	/x0 exch def
	x r add
	/x1 exch def
	x0 y M x1 y L
	y r sub
	/y0 exch def
	y r add
	/y1 exch def
	x y0 M x y1 L
} def
/Scro {
	xratio mul
	/r exch def
	yratio mul
	/y exch def
	xratio mul
	/x exch def
	x r sub
	/x0 exch def
	y r sub
	/y0 exch def
	x r add
	/x1 exch def
	y r add
	/y1 exch def
	x0 y0 M x1 y1 L
	x r add
	/x0 exch def
	y r sub
	/y0 exch def
	x r sub
	/x1 exch def
	y r add
	/y1 exch def
	x0 y0 M x1 y1 L
} def
/Sm {
	yratio mul
	/y exch def
	xratio mul
	/x exch def
	x y M
} def
/Sl {
	yratio mul
	/y exch def
	xratio mul
	/x exch def
	x y L
} def
/SPl {
	yratio mul
	/y exch def
	xratio mul
	/x exch def
	x y PL
} def
/Sarr {
	/sfill exch def
	xratio mul
	/r exch def
	yratio mul
	/y exch def
	xratio mul
	/x exch def
	y r add
	/ytop exch def
	y r sub
	/ybot exch def
	gsave
	Slrgb setrgbcolor
	sfill 0 eq {
		r 2 mul 3 div dup
		x exch sub
		/xleft exch def
		x add
		/xright exch def
		newpath xleft y moveto x ytop lineto xright y lineto x ytop moveto x ybot lineto
		Lcs
		1 setlinejoin
	} {
		r 2 div dup
		x exch sub
		/xleft exch def
		x add
		/xright exch def
		newpath xleft y moveto x ytop lineto xright y lineto x ytop closepath moveto x ybot lineto
		gsave
		fill
		grestore
	} ifelse
	Slw setlinewidth
	stroke
	grestore
} def
/Spipe {
	xratio mul
	/r exch def
	yratio mul
	/y exch def
	xratio mul
	/x exch def
	y r sub
	/y0 exch def
	y r add
	/y1 exch def
	x y0 M x y1 L
} def
/Sv {
	xratio mul
	/r exch def
	yratio mul
	/y0 exch def
	xratio mul
	/x0 exch def
	/xcen x0 def
	y0 r add
	/ytop exch def
	r 2 div
	y0 exch sub
	/ybot exch def
	r 3 sqrt 2 div mul dup
	xcen exch sub
	/xleft exch def
	xcen add
	/xright exch def
	newpath xleft ytop moveto xcen ybot lineto xright ytop lineto
	Slw setlinewidth
	Slrgb setrgbcolor
	stroke
} def
/Lcs {
	currentlinecap
	1 setlinecap
} def
/Lcr {
	setlinecap
} def
/Sbp {
	newpath
} def
/Sep {
	/sfill exch def
	closepath
	/salign exch def
	Lcs
	salign 0 eq {
		sfill Sfill
		gsave
		Slw 2 mul setlinewidth
		clip
		Slrgb setrgbcolor
		stroke
		grestore
	} if
	salign 1 eq {
		sfill Sfill
		Slw setlinewidth
		Slrgb setrgbcolor
		stroke
	} if
	salign 2 eq {
		gsave
		Slw 2 mul setlinewidth
		Slrgb setrgbcolor
		stroke
		grestore
		sfill Sfill
	} if
	newpath
	Lcr
} def
/Stransrot {
	/anglep exch def
	yratio mul
	/y exch def
	xratio mul
	/x exch def
	x y translate
	anglep rotate
	x neg y neg translate
} def
/cp {currentpoint} def 
/M {moveto} def 
/rm {rmoveto} def 
/S {stroke} def 
/L {Slw setlinewidth Slrgb setrgbcolor lineto Lcs S Lcr} def 
/PL {Slw setlinewidth Slrgb setrgbcolor lineto} def 
/MF-Helvetica {
  /newfontname exch def
  /fontname exch def
  /fontdict fontname findfont def
  /newfont fontdict maxlength dict def
  fontdict {
  exch dup /FID eq {pop pop} {exch newfont 3 1 roll put} ifelse
  } forall
  newfont /FontName newfontname put
  newfont /Encoding ISOLatin1Encoding put
  newfontname newfont definefont pop
} def
/Helvetica /Helvetica-0 MF-Helvetica
/Slw 0.120 def
1.000 1.000 1.000 setrgbcolor
0 0 648.000 864.000 Sbgfill
/Sfill {
	/sfill exch def
	sfill 1 eq {
		Ssrgb setrgbcolor
		gsave
		fill
		grestore
	} if
} def
/Sstroke {
	/sstroke exch def
	sstroke 1 eq {
		Slw setlinewidth
		Slrgb setrgbcolor
		stroke
	} if
	newpath
} def
/Slrgb {1.000 1.000 1.000} def
/Strgb {1.000 1.000 1.000} def
/Ssrgb {1.000 1.000 1.000} def
/Slw 1.296 def
0 0 24000 32000 0 1 Srect
24 24 23976 31976 1 0 Srect
/Slw 0.622 def
/Slrgb {0.000 0.000 0.000} def
3740 24605 12333 30582 0 0 Srect
3752 24617 12321 30570 1 0 Srect
/Strgb {0.000 0.000 0.000} def
/Slw 0.933 def
/Slrgb {0.188 0.188 0.188} def
3740 28081 12333 28081 Sln
/Slw 0.622 def
/Slrgb {0.000 0.000 0.000} def
14567 24605 23160 30582 0 0 Srect
14579 24617 23148 30570 1 0 Srect
/Slw 0.933 def
/Slrgb {0.188 0.188 0.188} def
14567 27636 23160 27636 Sln
/Slw 0.622 def
/Slrgb {0.000 0.000 0.000} def
3740 18049 12333 24026 0 0 Srect
3752 18061 12321 24014 1 0 Srect
/Slw 0.933 def
/Slrgb {0.188 0.188 0.188} def
3740 21064 12333 21064 Sln
/Slw 0.622 def
/Slrgb {0.000 0.000 0.000} def
14567 18049 23160 24026 0 0 Srect
14579 18061 23148 24014 1 0 Srect
/Slw 0.933 def
/Slrgb {0.188 0.188 0.188} def
14567 20883 23160 20883 Sln
/Slw 0.622 def
/Slrgb {0.000 0.000 0.000} def
3740 11494 12333 17471 0 0 Srect
3752 11506 12321 17459 1 0 Srect
/Slw 0.933 def
/Slrgb {0.188 0.188 0.188} def
3740 15030 12333 15030 Sln
/Slw 0.622 def
/Slrgb {0.000 0.000 0.000} def
14567 11494 23160 17471 0 0 Srect
14579 11506 23148 17459 1 0 Srect
/Slw 0.933 def
/Slrgb {0.188 0.188 0.188} def
14567 15764 23160 15764 Sln
/Slw 0.622 def
/Slrgb {0.000 0.000 0.000} def
3740 4939 12333 10916 0 0 Srect
3752 4951 12321 10904 1 0 Srect
/Slw 0.933 def
/Slrgb {0.188 0.188 0.188} def
3740 7958 12333 7958 Sln
/Slw 0.622 def
/Slrgb {0.000 0.000 0.000} def
14567 4939 23160 10916 0 0 Srect
14579 4951 23148 10904 1 0 Srect
/Slw 0.933 def
/Slrgb {0.188 0.188 0.188} def
14567 8074 23160 8074 Sln
/Ssrgb {0.502 0.502 0.502} def
/Slrgb {0.376 0.376 0.376} def
4313 27867 4313 29742 Sln
6031 27255 6031 28703 Sln
7750 26049 7750 28750 Sln
9469 26420 9469 29668 Sln
11187 26508 11187 30328 Sln
4312 28804 Sm
6031 27979 Sl
6031 27979 Sm
7750 27399 Sl
7750 27399 Sm
9468 28044 Sl
9468 28044 Sm
11187 28418 Sl
/Ssrgb {0.702 0.702 0.702} def
/Slrgb {0.627 0.627 0.627} def
4886 25120 4886 27752 Sln
6604 25922 6604 27678 Sln
8323 24858 8323 27131 Sln
10042 24949 10042 28775 Sln
11760 25058 11760 29576 Sln
4885 26435 5073 26475 Sln
5237 26510 5425 26550 Sln
5589 26585 5777 26624 Sln
5941 26659 6129 26699 Sln
6293 26734 6481 26774 Sln
6642 26783 6816 26701 Sln
6968 26629 7141 26548 Sln
7294 26476 7467 26395 Sln
7619 26323 7793 26241 Sln
7945 26170 8119 26089 Sln
8271 26017 8322 25994 Sln
8322 25994 8443 26055 Sln
8593 26131 8765 26217 Sln
8914 26293 9086 26379 Sln
9236 26455 9407 26541 Sln
9557 26617 9728 26703 Sln
9879 26779 10041 26861 Sln
10041 26861 10050 26863 Sln
10213 26906 10399 26955 Sln
10561 26998 10747 27047 Sln
10909 27090 11095 27139 Sln
11257 27183 11443 27232 Sln
11605 27275 11760 27316 Sln
/Ssrgb {0.502 0.502 0.502} def
/Slrgb {0.376 0.376 0.376} def
15139 27661 15139 28905 Sln
16858 27197 16858 28120 Sln
18577 26434 18577 28196 Sln
20296 26619 20296 29113 Sln
22014 26599 22014 30161 Sln
15139 28282 Sm
16858 27658 Sl
16858 27658 Sm
18576 27314 Sl
18576 27314 Sm
20295 27866 Sl
20295 27866 Sm
22014 28380 Sl
/Ssrgb {0.702 0.702 0.702} def
/Slrgb {0.627 0.627 0.627} def
15712 26055 15712 27731 Sln
17431 26007 17431 27216 Sln
19150 25046 19150 27054 Sln
20868 24858 20868 27911 Sln
22587 24910 22587 27948 Sln
15712 26893 15902 26862 Sln
16067 26835 16257 26804 Sln
16422 26777 16612 26746 Sln
16778 26719 16967 26688 Sln
17133 26660 17322 26629 Sln
17486 26593 17668 26534 Sln
17828 26482 18011 26422 Sln
18170 26370 18353 26310 Sln
18512 26258 18695 26199 Sln
18854 26146 19037 26086 Sln
19198 26059 19387 26096 Sln
19552 26128 19740 26165 Sln
19905 26197 20094 26234 Sln
20258 26266 20447 26303 Sln
20612 26335 20800 26371 Sln
20967 26387 21159 26392 Sln
21327 26396 21519 26401 Sln
21687 26405 21879 26410 Sln
22047 26415 22239 26420 Sln
22406 26424 22587 26429 Sln
/Ssrgb {0.502 0.502 0.502} def
/Slrgb {0.376 0.376 0.376} def
4313 20524 4313 22594 Sln
6031 19664 6031 21262 Sln
7750 18303 7750 21140 Sln
9469 18440 9469 23633 Sln
11187 20287 11187 23678 Sln
4312 21558 Sm
6031 20463 Sl
6031 20463 Sm
7750 19721 Sl
7750 19721 Sm
9468 21036 Sl
9468 21036 Sm
11187 21982 Sl
/Ssrgb {0.702 0.702 0.702} def
/Slrgb {0.627 0.627 0.627} def
4886 20312 4886 20980 Sln
6604 20590 6604 21022 Sln
8323 20616 8323 21636 Sln
10042 20485 10042 22318 Sln
11760 20118 11760 21245 Sln
4885 20645 5076 20663 Sln
5244 20678 5435 20696 Sln
5602 20712 5793 20730 Sln
5960 20745 6151 20763 Sln
6319 20778 6510 20796 Sln
6676 20818 6864 20853 Sln
7029 20884 7218 20919 Sln
7383 20950 7571 20985 Sln
7736 21016 7925 21051 Sln
8090 21082 8279 21117 Sln
8445 21145 8634 21175 Sln
8800 21202 8990 21232 Sln
9155 21259 9345 21289 Sln
9511 21316 9700 21346 Sln
9866 21373 10041 21401 Sln
10041 21401 10055 21395 Sln
10209 21330 10387 21256 Sln
10542 21191 10719 21117 Sln
10874 21052 11051 20977 Sln
11206 20912 11384 20838 Sln
11539 20773 11716 20700 Sln
/Ssrgb {0.502 0.502 0.502} def
/Slrgb {0.376 0.376 0.376} def
15139 20199 15139 22335 Sln
16858 20141 16858 21492 Sln
18577 19220 18577 21672 Sln
20296 18541 20296 23052 Sln
22014 19041 22014 23773 Sln
15139 21266 Sm
16858 20816 Sl
16858 20816 Sm
18576 20446 Sl
18576 20446 Sm
20295 20796 Sl
20295 20796 Sm
22014 21406 Sl
/Ssrgb {0.702 0.702 0.702} def
/Slrgb {0.627 0.627 0.627} def
15712 20247 15712 20933 Sln
17431 20535 17431 20903 Sln
19150 20616 19150 21533 Sln
20868 20460 20868 22019 Sln
22587 19889 22587 21293 Sln
15712 20589 15904 20603 Sln
16071 20616 16262 20630 Sln
16430 20642 16621 20657 Sln
16789 20670 16980 20684 Sln
17148 20697 17339 20711 Sln
17505 20733 17693 20772 Sln
17857 20806 18046 20845 Sln
18210 20879 18398 20918 Sln
18562 20952 18751 20991 Sln
18915 21025 19103 21065 Sln
19269 21086 19460 21104 Sln
19627 21120 19818 21138 Sln
19985 21154 20176 21173 Sln
20344 21189 20535 21207 Sln
20702 21223 20868 21239 Sln
20868 21239 20891 21230 Sln
21048 21171 21228 21103 Sln
21385 21044 21565 20976 Sln
21722 20917 21901 20849 Sln
22058 20790 22238 20722 Sln
22395 20662 22575 20595 Sln
/Ssrgb {0.502 0.502 0.502} def
/Slrgb {0.376 0.376 0.376} def
4313 14502 4313 16024 Sln
6031 13894 6031 14976 Sln
7750 13540 7750 15027 Sln
9469 13406 9469 16758 Sln
11187 11759 11187 15785 Sln
4312 15263 Sm
6031 14435 Sl
6031 14435 Sm
7750 14283 Sl
7750 14283 Sm
9468 15081 Sl
9468 15081 Sm
11187 13771 Sl
/Ssrgb {0.702 0.702 0.702} def
/Slrgb {0.627 0.627 0.627} def
4886 14846 4886 14968 Sln
6604 14823 6604 15029 Sln
8323 14834 8323 15168 Sln
10042 14809 10042 14997 Sln
11760 14816 11760 15043 Sln
4885 14906 5077 14908 Sln
5245 14910 5437 14912 Sln
5605 14914 5797 14916 Sln
5965 14918 6157 14920 Sln
6325 14922 6517 14924 Sln
6685 14928 6877 14937 Sln
7044 14944 7236 14952 Sln
7404 14960 7596 14968 Sln
7764 14976 7956 14984 Sln
8124 14991 8316 15000 Sln
8483 14991 8675 14980 Sln
8843 14971 9034 14960 Sln
9202 14950 9394 14940 Sln
9561 14930 9753 14919 Sln
9920 14910 10041 14903 Sln
10041 14903 10112 14904 Sln
10280 14907 10472 14910 Sln
10640 14912 10832 14915 Sln
11000 14917 11192 14920 Sln
11360 14923 11552 14926 Sln
11719 14929 11760 14929 Sln
/Ssrgb {0.502 0.502 0.502} def
/Slrgb {0.376 0.376 0.376} def
15139 14687 15139 16240 Sln
16858 14434 16858 15624 Sln
18577 13925 18577 15629 Sln
20296 13582 20296 17218 Sln
22014 12213 22014 16105 Sln
15139 15463 Sm
16858 15028 Sl
16858 15028 Sm
18576 14776 Sl
18576 14776 Sm
20295 15399 Sl
20295 15399 Sm
22014 14158 Sl
/Ssrgb {0.702 0.702 0.702} def
/Slrgb {0.627 0.627 0.627} def
15712 15468 15712 15801 Sln
17431 15337 17431 15860 Sln
19150 15508 19150 16041 Sln
20868 15379 20868 15933 Sln
22587 15299 22587 15938 Sln
15712 15634 15904 15630 Sln
16072 15627 16264 15623 Sln
16432 15619 16624 15616 Sln
16792 15612 16984 15608 Sln
17152 15604 17344 15600 Sln
17511 15606 17702 15626 Sln
17869 15643 18060 15663 Sln
18227 15680 18418 15700 Sln
18585 15716 18776 15736 Sln
18943 15753 19134 15773 Sln
19301 15764 19492 15750 Sln
19660 15739 19851 15726 Sln
20019 15714 20210 15701 Sln
20378 15690 20569 15677 Sln
20736 15665 20868 15656 Sln
20868 15656 20928 15654 Sln
21096 15651 21288 15647 Sln
21456 15643 21648 15639 Sln
21816 15635 22008 15631 Sln
22176 15627 22368 15623 Sln
22535 15619 22587 15618 Sln
/Ssrgb {0.502 0.502 0.502} def
/Slrgb {0.376 0.376 0.376} def
4313 6255 4313 8746 Sln
6031 7607 6031 9279 Sln
7750 7077 7750 9857 Sln
9469 5192 9469 10448 Sln
11187 5326 11187 10662 Sln
4312 7500 Sm
6031 8442 Sl
6031 8442 Sm
7750 8467 Sl
7750 8467 Sm
9468 7820 Sl
9468 7820 Sm
11187 7994 Sl
/Ssrgb {0.702 0.702 0.702} def
/Slrgb {0.627 0.627 0.627} def
4886 6255 4886 8746 Sln
6604 7607 6604 9279 Sln
8323 7077 8323 9857 Sln
10042 5192 10042 10448 Sln
11760 5326 11760 10662 Sln
4885 7500 5054 7592 Sln
5201 7673 5369 7765 Sln
5516 7846 5685 7938 Sln
5832 8019 6000 8111 Sln
6147 8192 6316 8284 Sln
6463 8365 6604 8442 Sln
6604 8442 6635 8443 Sln
6803 8445 6995 8448 Sln
7163 8450 7355 8453 Sln
7523 8456 7715 8459 Sln
7883 8461 8075 8464 Sln
8243 8466 8322 8467 Sln
8322 8467 8427 8427 Sln
8584 8368 8764 8301 Sln
8921 8242 9101 8174 Sln
9258 8115 9438 8047 Sln
9595 7988 9774 7920 Sln
9931 7861 10041 7820 Sln
10041 7820 10115 7827 Sln
10282 7844 10473 7863 Sln
10640 7880 10831 7900 Sln
10998 7917 11189 7936 Sln
11356 7953 11547 7972 Sln
11714 7989 11760 7994 Sln
/Ssrgb {0.502 0.502 0.502} def
/Slrgb {0.376 0.376 0.376} def
15139 6881 15139 8587 Sln
16858 7636 16858 8864 Sln
18577 7248 18577 9324 Sln
20296 5945 20296 9187 Sln
22014 6608 22014 10662 Sln
15139 7733 Sm
16858 8250 Sl
16858 8250 Sm
18576 8286 Sl
18576 8286 Sm
20295 7565 Sl
20295 7565 Sm
22014 8634 Sl
/Ssrgb {0.702 0.702 0.702} def
/Slrgb {0.627 0.627 0.627} def
15712 7991 15712 9831 Sln
17431 7938 17431 9064 Sln
19150 7376 19150 9131 Sln
20868 7315 20868 9441 Sln
22587 5192 22587 7993 Sln
15712 8910 15899 8865 Sln
16062 8827 16249 8782 Sln
16412 8743 16599 8699 Sln
16762 8660 16949 8616 Sln
17112 8577 17299 8533 Sln
17462 8497 17652 8469 Sln
17818 8445 18008 8417 Sln
18175 8393 18365 8366 Sln
18531 8342 18721 8315 Sln
18887 8290 19077 8263 Sln
19244 8260 19436 8274 Sln
19603 8286 19795 8300 Sln
19962 8312 20154 8326 Sln
20321 8338 20512 8352 Sln
20680 8364 20868 8378 Sln
20868 8378 20870 8376 Sln
20987 8255 21120 8116 Sln
21236 7995 21370 7857 Sln
21486 7736 21619 7597 Sln
21735 7476 21869 7338 Sln
21985 7217 22118 7078 Sln
22235 6957 22368 6819 Sln
22485 6698 22587 6592 Sln
/Slw 0.622 def
/Slrgb {0.000 0.000 0.000} def
3740 24605 3740 30582 Sln
3740 25228 3580 25228 Sln
3500 25088 0
/Helvetica-0 findfont 400 yratio mul scalefont setfont
(-.3) stringwidth pop add
xratio div
dup 4 3 roll exch 0.000 cos mul sub 3 1 roll 0.000 sin mul sub 2 copy
/fntsize {/Helvetica-0 findfont exch scalefont setfont } def
0.000 400
(-.3) Stxtl
(-.3) stringwidth pop xratio div
dup 4 3 roll exch 0.000 cos mul add 3 1 roll 0.000 sin mul add 2 copy
pop pop pop pop
3740 26179 3580 26179 Sln
3500 26039 0
/Helvetica-0 findfont 400 yratio mul scalefont setfont
(-.2) stringwidth pop add
xratio div
dup 4 3 roll exch 0.000 cos mul sub 3 1 roll 0.000 sin mul sub 2 copy
/fntsize {/Helvetica-0 findfont exch scalefont setfont } def
0.000 400
(-.2) Stxtl
(-.2) stringwidth pop xratio div
dup 4 3 roll exch 0.000 cos mul add 3 1 roll 0.000 sin mul add 2 copy
pop pop pop pop
3740 27130 3580 27130 Sln
3500 26990 0
/Helvetica-0 findfont 400 yratio mul scalefont setfont
(-.1) stringwidth pop add
xratio div
dup 4 3 roll exch 0.000 cos mul sub 3 1 roll 0.000 sin mul sub 2 copy
/fntsize {/Helvetica-0 findfont exch scalefont setfont } def
0.000 400
(-.1) Stxtl
(-.1) stringwidth pop xratio div
dup 4 3 roll exch 0.000 cos mul add 3 1 roll 0.000 sin mul add 2 copy
pop pop pop pop
3740 28081 3580 28081 Sln
3500 27941 0
/Helvetica-0 findfont 400 yratio mul scalefont setfont
(0) stringwidth pop add
xratio div
dup 4 3 roll exch 0.000 cos mul sub 3 1 roll 0.000 sin mul sub 2 copy
/fntsize {/Helvetica-0 findfont exch scalefont setfont } def
0.000 400
(0) Stxtl
(0) stringwidth pop xratio div
dup 4 3 roll exch 0.000 cos mul add 3 1 roll 0.000 sin mul add 2 copy
pop pop pop pop
3740 29032 3580 29032 Sln
3500 28892 0
/Helvetica-0 findfont 400 yratio mul scalefont setfont
(.1) stringwidth pop add
xratio div
dup 4 3 roll exch 0.000 cos mul sub 3 1 roll 0.000 sin mul sub 2 copy
/fntsize {/Helvetica-0 findfont exch scalefont setfont } def
0.000 400
(.1) Stxtl
(.1) stringwidth pop xratio div
dup 4 3 roll exch 0.000 cos mul add 3 1 roll 0.000 sin mul add 2 copy
pop pop pop pop
3740 29984 3580 29984 Sln
3500 29844 0
/Helvetica-0 findfont 400 yratio mul scalefont setfont
(.2) stringwidth pop add
xratio div
dup 4 3 roll exch 0.000 cos mul sub 3 1 roll 0.000 sin mul sub 2 copy
/fntsize {/Helvetica-0 findfont exch scalefont setfont } def
0.000 400
(.2) Stxtl
(.2) stringwidth pop xratio div
dup 4 3 roll exch 0.000 cos mul add 3 1 roll 0.000 sin mul add 2 copy
pop pop pop pop
14567 24605 14567 30582 Sln
14567 24943 14407 24943 Sln
14327 24803 0
/Helvetica-0 findfont 400 yratio mul scalefont setfont
(-.4) stringwidth pop add
xratio div
dup 4 3 roll exch 0.000 cos mul sub 3 1 roll 0.000 sin mul sub 2 copy
/fntsize {/Helvetica-0 findfont exch scalefont setfont } def
0.000 400
(-.4) Stxtl
(-.4) stringwidth pop xratio div
dup 4 3 roll exch 0.000 cos mul add 3 1 roll 0.000 sin mul add 2 copy
pop pop pop pop
14567 26289 14407 26289 Sln
14327 26149 0
/Helvetica-0 findfont 400 yratio mul scalefont setfont
(-.2) stringwidth pop add
xratio div
dup 4 3 roll exch 0.000 cos mul sub 3 1 roll 0.000 sin mul sub 2 copy
/fntsize {/Helvetica-0 findfont exch scalefont setfont } def
0.000 400
(-.2) Stxtl
(-.2) stringwidth pop xratio div
dup 4 3 roll exch 0.000 cos mul add 3 1 roll 0.000 sin mul add 2 copy
pop pop pop pop
14567 27636 14407 27636 Sln
14327 27496 0
/Helvetica-0 findfont 400 yratio mul scalefont setfont
(0) stringwidth pop add
xratio div
dup 4 3 roll exch 0.000 cos mul sub 3 1 roll 0.000 sin mul sub 2 copy
/fntsize {/Helvetica-0 findfont exch scalefont setfont } def
0.000 400
(0) Stxtl
(0) stringwidth pop xratio div
dup 4 3 roll exch 0.000 cos mul add 3 1 roll 0.000 sin mul add 2 copy
pop pop pop pop
14567 28982 14407 28982 Sln
14327 28842 0
/Helvetica-0 findfont 400 yratio mul scalefont setfont
(.2) stringwidth pop add
xratio div
dup 4 3 roll exch 0.000 cos mul sub 3 1 roll 0.000 sin mul sub 2 copy
/fntsize {/Helvetica-0 findfont exch scalefont setfont } def
0.000 400
(.2) Stxtl
(.2) stringwidth pop xratio div
dup 4 3 roll exch 0.000 cos mul add 3 1 roll 0.000 sin mul add 2 copy
pop pop pop pop
14567 30328 14407 30328 Sln
14327 30188 0
/Helvetica-0 findfont 400 yratio mul scalefont setfont
(.4) stringwidth pop add
xratio div
dup 4 3 roll exch 0.000 cos mul sub 3 1 roll 0.000 sin mul sub 2 copy
/fntsize {/Helvetica-0 findfont exch scalefont setfont } def
0.000 400
(.4) Stxtl
(.4) stringwidth pop xratio div
dup 4 3 roll exch 0.000 cos mul add 3 1 roll 0.000 sin mul add 2 copy
pop pop pop pop
3740 18049 3740 24026 Sln
3740 18356 3580 18356 Sln
3500 18216 0
/Helvetica-0 findfont 400 yratio mul scalefont setfont
(-.3) stringwidth pop add
xratio div
dup 4 3 roll exch 0.000 cos mul sub 3 1 roll 0.000 sin mul sub 2 copy
/fntsize {/Helvetica-0 findfont exch scalefont setfont } def
0.000 400
(-.3) Stxtl
(-.3) stringwidth pop xratio div
dup 4 3 roll exch 0.000 cos mul add 3 1 roll 0.000 sin mul add 2 copy
pop pop pop pop
3740 19258 3580 19258 Sln
3500 19118 0
/Helvetica-0 findfont 400 yratio mul scalefont setfont
(-.2) stringwidth pop add
xratio div
dup 4 3 roll exch 0.000 cos mul sub 3 1 roll 0.000 sin mul sub 2 copy
/fntsize {/Helvetica-0 findfont exch scalefont setfont } def
0.000 400
(-.2) Stxtl
(-.2) stringwidth pop xratio div
dup 4 3 roll exch 0.000 cos mul add 3 1 roll 0.000 sin mul add 2 copy
pop pop pop pop
3740 20161 3580 20161 Sln
3500 20021 0
/Helvetica-0 findfont 400 yratio mul scalefont setfont
(-.1) stringwidth pop add
xratio div
dup 4 3 roll exch 0.000 cos mul sub 3 1 roll 0.000 sin mul sub 2 copy
/fntsize {/Helvetica-0 findfont exch scalefont setfont } def
0.000 400
(-.1) Stxtl
(-.1) stringwidth pop xratio div
dup 4 3 roll exch 0.000 cos mul add 3 1 roll 0.000 sin mul add 2 copy
pop pop pop pop
3740 21064 3580 21064 Sln
3500 20924 0
/Helvetica-0 findfont 400 yratio mul scalefont setfont
(0) stringwidth pop add
xratio div
dup 4 3 roll exch 0.000 cos mul sub 3 1 roll 0.000 sin mul sub 2 copy
/fntsize {/Helvetica-0 findfont exch scalefont setfont } def
0.000 400
(0) Stxtl
(0) stringwidth pop xratio div
dup 4 3 roll exch 0.000 cos mul add 3 1 roll 0.000 sin mul add 2 copy
pop pop pop pop
3740 21967 3580 21967 Sln
3500 21827 0
/Helvetica-0 findfont 400 yratio mul scalefont setfont
(.1) stringwidth pop add
xratio div
dup 4 3 roll exch 0.000 cos mul sub 3 1 roll 0.000 sin mul sub 2 copy
/fntsize {/Helvetica-0 findfont exch scalefont setfont } def
0.000 400
(.1) Stxtl
(.1) stringwidth pop xratio div
dup 4 3 roll exch 0.000 cos mul add 3 1 roll 0.000 sin mul add 2 copy
pop pop pop pop
3740 22870 3580 22870 Sln
3500 22730 0
/Helvetica-0 findfont 400 yratio mul scalefont setfont
(.2) stringwidth pop add
xratio div
dup 4 3 roll exch 0.000 cos mul sub 3 1 roll 0.000 sin mul sub 2 copy
/fntsize {/Helvetica-0 findfont exch scalefont setfont } def
0.000 400
(.2) Stxtl
(.2) stringwidth pop xratio div
dup 4 3 roll exch 0.000 cos mul add 3 1 roll 0.000 sin mul add 2 copy
pop pop pop pop
3740 23773 3580 23773 Sln
3500 23633 0
/Helvetica-0 findfont 400 yratio mul scalefont setfont
(.3) stringwidth pop add
xratio div
dup 4 3 roll exch 0.000 cos mul sub 3 1 roll 0.000 sin mul sub 2 copy
/fntsize {/Helvetica-0 findfont exch scalefont setfont } def
0.000 400
(.3) Stxtl
(.3) stringwidth pop xratio div
dup 4 3 roll exch 0.000 cos mul add 3 1 roll 0.000 sin mul add 2 copy
pop pop pop pop
14567 18049 14567 24026 Sln
14567 18303 14407 18303 Sln
14327 18163 0
/Helvetica-0 findfont 400 yratio mul scalefont setfont
(-.3) stringwidth pop add
xratio div
dup 4 3 roll exch 0.000 cos mul sub 3 1 roll 0.000 sin mul sub 2 copy
/fntsize {/Helvetica-0 findfont exch scalefont setfont } def
0.000 400
(-.3) Stxtl
(-.3) stringwidth pop xratio div
dup 4 3 roll exch 0.000 cos mul add 3 1 roll 0.000 sin mul add 2 copy
pop pop pop pop
14567 19163 14407 19163 Sln
14327 19023 0
/Helvetica-0 findfont 400 yratio mul scalefont setfont
(-.2) stringwidth pop add
xratio div
dup 4 3 roll exch 0.000 cos mul sub 3 1 roll 0.000 sin mul sub 2 copy
/fntsize {/Helvetica-0 findfont exch scalefont setfont } def
0.000 400
(-.2) Stxtl
(-.2) stringwidth pop xratio div
dup 4 3 roll exch 0.000 cos mul add 3 1 roll 0.000 sin mul add 2 copy
pop pop pop pop
14567 20023 14407 20023 Sln
14327 19883 0
/Helvetica-0 findfont 400 yratio mul scalefont setfont
(-.1) stringwidth pop add
xratio div
dup 4 3 roll exch 0.000 cos mul sub 3 1 roll 0.000 sin mul sub 2 copy
/fntsize {/Helvetica-0 findfont exch scalefont setfont } def
0.000 400
(-.1) Stxtl
(-.1) stringwidth pop xratio div
dup 4 3 roll exch 0.000 cos mul add 3 1 roll 0.000 sin mul add 2 copy
pop pop pop pop
14567 20883 14407 20883 Sln
14327 20743 0
/Helvetica-0 findfont 400 yratio mul scalefont setfont
(0) stringwidth pop add
xratio div
dup 4 3 roll exch 0.000 cos mul sub 3 1 roll 0.000 sin mul sub 2 copy
/fntsize {/Helvetica-0 findfont exch scalefont setfont } def
0.000 400
(0) Stxtl
(0) stringwidth pop xratio div
dup 4 3 roll exch 0.000 cos mul add 3 1 roll 0.000 sin mul add 2 copy
pop pop pop pop
14567 21743 14407 21743 Sln
14327 21603 0
/Helvetica-0 findfont 400 yratio mul scalefont setfont
(.1) stringwidth pop add
xratio div
dup 4 3 roll exch 0.000 cos mul sub 3 1 roll 0.000 sin mul sub 2 copy
/fntsize {/Helvetica-0 findfont exch scalefont setfont } def
0.000 400
(.1) Stxtl
(.1) stringwidth pop xratio div
dup 4 3 roll exch 0.000 cos mul add 3 1 roll 0.000 sin mul add 2 copy
pop pop pop pop
14567 22603 14407 22603 Sln
14327 22463 0
/Helvetica-0 findfont 400 yratio mul scalefont setfont
(.2) stringwidth pop add
xratio div
dup 4 3 roll exch 0.000 cos mul sub 3 1 roll 0.000 sin mul sub 2 copy
/fntsize {/Helvetica-0 findfont exch scalefont setfont } def
0.000 400
(.2) Stxtl
(.2) stringwidth pop xratio div
dup 4 3 roll exch 0.000 cos mul add 3 1 roll 0.000 sin mul add 2 copy
pop pop pop pop
14567 23463 14407 23463 Sln
14327 23323 0
/Helvetica-0 findfont 400 yratio mul scalefont setfont
(.3) stringwidth pop add
xratio div
dup 4 3 roll exch 0.000 cos mul sub 3 1 roll 0.000 sin mul sub 2 copy
/fntsize {/Helvetica-0 findfont exch scalefont setfont } def
0.000 400
(.3) Stxtl
(.3) stringwidth pop xratio div
dup 4 3 roll exch 0.000 cos mul add 3 1 roll 0.000 sin mul add 2 copy
pop pop pop pop
3740 11494 3740 17471 Sln
3740 11747 3580 11747 Sln
3500 11607 0
/Helvetica-0 findfont 400 yratio mul scalefont setfont
(-.6) stringwidth pop add
xratio div
dup 4 3 roll exch 0.000 cos mul sub 3 1 roll 0.000 sin mul sub 2 copy
/fntsize {/Helvetica-0 findfont exch scalefont setfont } def
0.000 400
(-.6) Stxtl
(-.6) stringwidth pop xratio div
dup 4 3 roll exch 0.000 cos mul add 3 1 roll 0.000 sin mul add 2 copy
pop pop pop pop
3740 12841 3580 12841 Sln
3500 12701 0
/Helvetica-0 findfont 400 yratio mul scalefont setfont
(-.4) stringwidth pop add
xratio div
dup 4 3 roll exch 0.000 cos mul sub 3 1 roll 0.000 sin mul sub 2 copy
/fntsize {/Helvetica-0 findfont exch scalefont setfont } def
0.000 400
(-.4) Stxtl
(-.4) stringwidth pop xratio div
dup 4 3 roll exch 0.000 cos mul add 3 1 roll 0.000 sin mul add 2 copy
pop pop pop pop
3740 13936 3580 13936 Sln
3500 13796 0
/Helvetica-0 findfont 400 yratio mul scalefont setfont
(-.2) stringwidth pop add
xratio div
dup 4 3 roll exch 0.000 cos mul sub 3 1 roll 0.000 sin mul sub 2 copy
/fntsize {/Helvetica-0 findfont exch scalefont setfont } def
0.000 400
(-.2) Stxtl
(-.2) stringwidth pop xratio div
dup 4 3 roll exch 0.000 cos mul add 3 1 roll 0.000 sin mul add 2 copy
pop pop pop pop
3740 15030 3580 15030 Sln
3500 14890 0
/Helvetica-0 findfont 400 yratio mul scalefont setfont
(0) stringwidth pop add
xratio div
dup 4 3 roll exch 0.000 cos mul sub 3 1 roll 0.000 sin mul sub 2 copy
/fntsize {/Helvetica-0 findfont exch scalefont setfont } def
0.000 400
(0) Stxtl
(0) stringwidth pop xratio div
dup 4 3 roll exch 0.000 cos mul add 3 1 roll 0.000 sin mul add 2 copy
pop pop pop pop
3740 16124 3580 16124 Sln
3500 15984 0
/Helvetica-0 findfont 400 yratio mul scalefont setfont
(.2) stringwidth pop add
xratio div
dup 4 3 roll exch 0.000 cos mul sub 3 1 roll 0.000 sin mul sub 2 copy
/fntsize {/Helvetica-0 findfont exch scalefont setfont } def
0.000 400
(.2) Stxtl
(.2) stringwidth pop xratio div
dup 4 3 roll exch 0.000 cos mul add 3 1 roll 0.000 sin mul add 2 copy
pop pop pop pop
3740 17218 3580 17218 Sln
3500 17078 0
/Helvetica-0 findfont 400 yratio mul scalefont setfont
(.4) stringwidth pop add
xratio div
dup 4 3 roll exch 0.000 cos mul sub 3 1 roll 0.000 sin mul sub 2 copy
/fntsize {/Helvetica-0 findfont exch scalefont setfont } def
0.000 400
(.4) Stxtl
(.4) stringwidth pop xratio div
dup 4 3 roll exch 0.000 cos mul add 3 1 roll 0.000 sin mul add 2 copy
pop pop pop pop
14567 11494 14567 17471 Sln
14567 11747 14407 11747 Sln
14327 11607 0
/Helvetica-0 findfont 400 yratio mul scalefont setfont
(-.6) stringwidth pop add
xratio div
dup 4 3 roll exch 0.000 cos mul sub 3 1 roll 0.000 sin mul sub 2 copy
/fntsize {/Helvetica-0 findfont exch scalefont setfont } def
0.000 400
(-.6) Stxtl
(-.6) stringwidth pop xratio div
dup 4 3 roll exch 0.000 cos mul add 3 1 roll 0.000 sin mul add 2 copy
pop pop pop pop
14567 13086 14407 13086 Sln
14327 12946 0
/Helvetica-0 findfont 400 yratio mul scalefont setfont
(-.4) stringwidth pop add
xratio div
dup 4 3 roll exch 0.000 cos mul sub 3 1 roll 0.000 sin mul sub 2 copy
/fntsize {/Helvetica-0 findfont exch scalefont setfont } def
0.000 400
(-.4) Stxtl
(-.4) stringwidth pop xratio div
dup 4 3 roll exch 0.000 cos mul add 3 1 roll 0.000 sin mul add 2 copy
pop pop pop pop
14567 14425 14407 14425 Sln
14327 14285 0
/Helvetica-0 findfont 400 yratio mul scalefont setfont
(-.2) stringwidth pop add
xratio div
dup 4 3 roll exch 0.000 cos mul sub 3 1 roll 0.000 sin mul sub 2 copy
/fntsize {/Helvetica-0 findfont exch scalefont setfont } def
0.000 400
(-.2) Stxtl
(-.2) stringwidth pop xratio div
dup 4 3 roll exch 0.000 cos mul add 3 1 roll 0.000 sin mul add 2 copy
pop pop pop pop
14567 15764 14407 15764 Sln
14327 15624 0
/Helvetica-0 findfont 400 yratio mul scalefont setfont
(0) stringwidth pop add
xratio div
dup 4 3 roll exch 0.000 cos mul sub 3 1 roll 0.000 sin mul sub 2 copy
/fntsize {/Helvetica-0 findfont exch scalefont setfont } def
0.000 400
(0) Stxtl
(0) stringwidth pop xratio div
dup 4 3 roll exch 0.000 cos mul add 3 1 roll 0.000 sin mul add 2 copy
pop pop pop pop
14567 17104 14407 17104 Sln
14327 16964 0
/Helvetica-0 findfont 400 yratio mul scalefont setfont
(.2) stringwidth pop add
xratio div
dup 4 3 roll exch 0.000 cos mul sub 3 1 roll 0.000 sin mul sub 2 copy
/fntsize {/Helvetica-0 findfont exch scalefont setfont } def
0.000 400
(.2) Stxtl
(.2) stringwidth pop xratio div
dup 4 3 roll exch 0.000 cos mul add 3 1 roll 0.000 sin mul add 2 copy
pop pop pop pop
3740 4939 3740 10916 Sln
3740 5467 3580 5467 Sln
3500 5327 0
/Helvetica-0 findfont 400 yratio mul scalefont setfont
(-.3) stringwidth pop add
xratio div
dup 4 3 roll exch 0.000 cos mul sub 3 1 roll 0.000 sin mul sub 2 copy
/fntsize {/Helvetica-0 findfont exch scalefont setfont } def
0.000 400
(-.3) Stxtl
(-.3) stringwidth pop xratio div
dup 4 3 roll exch 0.000 cos mul add 3 1 roll 0.000 sin mul add 2 copy
pop pop pop pop
3740 6297 3580 6297 Sln
3500 6157 0
/Helvetica-0 findfont 400 yratio mul scalefont setfont
(-.2) stringwidth pop add
xratio div
dup 4 3 roll exch 0.000 cos mul sub 3 1 roll 0.000 sin mul sub 2 copy
/fntsize {/Helvetica-0 findfont exch scalefont setfont } def
0.000 400
(-.2) Stxtl
(-.2) stringwidth pop xratio div
dup 4 3 roll exch 0.000 cos mul add 3 1 roll 0.000 sin mul add 2 copy
pop pop pop pop
3740 7128 3580 7128 Sln
3500 6988 0
/Helvetica-0 findfont 400 yratio mul scalefont setfont
(-.1) stringwidth pop add
xratio div
dup 4 3 roll exch 0.000 cos mul sub 3 1 roll 0.000 sin mul sub 2 copy
/fntsize {/Helvetica-0 findfont exch scalefont setfont } def
0.000 400
(-.1) Stxtl
(-.1) stringwidth pop xratio div
dup 4 3 roll exch 0.000 cos mul add 3 1 roll 0.000 sin mul add 2 copy
pop pop pop pop
3740 7958 3580 7958 Sln
3500 7818 0
/Helvetica-0 findfont 400 yratio mul scalefont setfont
(0) stringwidth pop add
xratio div
dup 4 3 roll exch 0.000 cos mul sub 3 1 roll 0.000 sin mul sub 2 copy
/fntsize {/Helvetica-0 findfont exch scalefont setfont } def
0.000 400
(0) Stxtl
(0) stringwidth pop xratio div
dup 4 3 roll exch 0.000 cos mul add 3 1 roll 0.000 sin mul add 2 copy
pop pop pop pop
3740 8789 3580 8789 Sln
3500 8649 0
/Helvetica-0 findfont 400 yratio mul scalefont setfont
(.1) stringwidth pop add
xratio div
dup 4 3 roll exch 0.000 cos mul sub 3 1 roll 0.000 sin mul sub 2 copy
/fntsize {/Helvetica-0 findfont exch scalefont setfont } def
0.000 400
(.1) Stxtl
(.1) stringwidth pop xratio div
dup 4 3 roll exch 0.000 cos mul add 3 1 roll 0.000 sin mul add 2 copy
pop pop pop pop
3740 9619 3580 9619 Sln
3500 9479 0
/Helvetica-0 findfont 400 yratio mul scalefont setfont
(.2) stringwidth pop add
xratio div
dup 4 3 roll exch 0.000 cos mul sub 3 1 roll 0.000 sin mul sub 2 copy
/fntsize {/Helvetica-0 findfont exch scalefont setfont } def
0.000 400
(.2) Stxtl
(.2) stringwidth pop xratio div
dup 4 3 roll exch 0.000 cos mul add 3 1 roll 0.000 sin mul add 2 copy
pop pop pop pop
3740 10450 3580 10450 Sln
3500 10310 0
/Helvetica-0 findfont 400 yratio mul scalefont setfont
(.3) stringwidth pop add
xratio div
dup 4 3 roll exch 0.000 cos mul sub 3 1 roll 0.000 sin mul sub 2 copy
/fntsize {/Helvetica-0 findfont exch scalefont setfont } def
0.000 400
(.3) Stxtl
(.3) stringwidth pop xratio div
dup 4 3 roll exch 0.000 cos mul add 3 1 roll 0.000 sin mul add 2 copy
pop pop pop pop
14567 4939 14567 10916 Sln
14567 5522 14407 5522 Sln
14327 5382 0
/Helvetica-0 findfont 400 yratio mul scalefont setfont
(-.4) stringwidth pop add
xratio div
dup 4 3 roll exch 0.000 cos mul sub 3 1 roll 0.000 sin mul sub 2 copy
/fntsize {/Helvetica-0 findfont exch scalefont setfont } def
0.000 400
(-.4) Stxtl
(-.4) stringwidth pop xratio div
dup 4 3 roll exch 0.000 cos mul add 3 1 roll 0.000 sin mul add 2 copy
pop pop pop pop
14567 6798 14407 6798 Sln
14327 6658 0
/Helvetica-0 findfont 400 yratio mul scalefont setfont
(-.2) stringwidth pop add
xratio div
dup 4 3 roll exch 0.000 cos mul sub 3 1 roll 0.000 sin mul sub 2 copy
/fntsize {/Helvetica-0 findfont exch scalefont setfont } def
0.000 400
(-.2) Stxtl
(-.2) stringwidth pop xratio div
dup 4 3 roll exch 0.000 cos mul add 3 1 roll 0.000 sin mul add 2 copy
pop pop pop pop
14567 8074 14407 8074 Sln
14327 7934 0
/Helvetica-0 findfont 400 yratio mul scalefont setfont
(0) stringwidth pop add
xratio div
dup 4 3 roll exch 0.000 cos mul sub 3 1 roll 0.000 sin mul sub 2 copy
/fntsize {/Helvetica-0 findfont exch scalefont setfont } def
0.000 400
(0) Stxtl
(0) stringwidth pop xratio div
dup 4 3 roll exch 0.000 cos mul add 3 1 roll 0.000 sin mul add 2 copy
pop pop pop pop
14567 9350 14407 9350 Sln
14327 9210 0
/Helvetica-0 findfont 400 yratio mul scalefont setfont
(.2) stringwidth pop add
xratio div
dup 4 3 roll exch 0.000 cos mul sub 3 1 roll 0.000 sin mul sub 2 copy
/fntsize {/Helvetica-0 findfont exch scalefont setfont } def
0.000 400
(.2) Stxtl
(.2) stringwidth pop xratio div
dup 4 3 roll exch 0.000 cos mul add 3 1 roll 0.000 sin mul add 2 copy
pop pop pop pop
14567 10626 14407 10626 Sln
14327 10486 0
/Helvetica-0 findfont 400 yratio mul scalefont setfont
(.4) stringwidth pop add
xratio div
dup 4 3 roll exch 0.000 cos mul sub 3 1 roll 0.000 sin mul sub 2 copy
/fntsize {/Helvetica-0 findfont exch scalefont setfont } def
0.000 400
(.4) Stxtl
(.4) stringwidth pop xratio div
dup 4 3 roll exch 0.000 cos mul add 3 1 roll 0.000 sin mul add 2 copy
pop pop pop pop
3740 4939 12333 4939 Sln
4599 4939 4599 4779 Sln
4698 4600 0
/Helvetica-0 findfont 400 yratio mul scalefont setfont
(0-1) stringwidth pop add
xratio div
dup 4 3 roll exch 45.000 cos mul sub 3 1 roll 45.000 sin mul sub 2 copy
/fntsize {/Helvetica-0 findfont exch scalefont setfont } def
45.000 400
(0-1) Stxtl
(0-1) stringwidth pop xratio div
dup 4 3 roll exch 45.000 cos mul add 3 1 roll 45.000 sin mul add 2 copy
pop pop pop pop
6318 4939 6318 4779 Sln
6417 4600 0
/Helvetica-0 findfont 400 yratio mul scalefont setfont
(2-4) stringwidth pop add
xratio div
dup 4 3 roll exch 45.000 cos mul sub 3 1 roll 45.000 sin mul sub 2 copy
/fntsize {/Helvetica-0 findfont exch scalefont setfont } def
45.000 400
(2-4) Stxtl
(2-4) stringwidth pop xratio div
dup 4 3 roll exch 45.000 cos mul add 3 1 roll 45.000 sin mul add 2 copy
pop pop pop pop
8037 4939 8037 4779 Sln
8136 4600 0
/Helvetica-0 findfont 400 yratio mul scalefont setfont
(5-7) stringwidth pop add
xratio div
dup 4 3 roll exch 45.000 cos mul sub 3 1 roll 45.000 sin mul sub 2 copy
/fntsize {/Helvetica-0 findfont exch scalefont setfont } def
45.000 400
(5-7) Stxtl
(5-7) stringwidth pop xratio div
dup 4 3 roll exch 45.000 cos mul add 3 1 roll 45.000 sin mul add 2 copy
pop pop pop pop
9755 4939 9755 4779 Sln
9854 4600 0
/Helvetica-0 findfont 400 yratio mul scalefont setfont
(8-10) stringwidth pop add
xratio div
dup 4 3 roll exch 45.000 cos mul sub 3 1 roll 45.000 sin mul sub 2 copy
/fntsize {/Helvetica-0 findfont exch scalefont setfont } def
45.000 400
(8-10) Stxtl
(8-10) stringwidth pop xratio div
dup 4 3 roll exch 45.000 cos mul add 3 1 roll 45.000 sin mul add 2 copy
pop pop pop pop
11474 4939 11474 4779 Sln
11573 4600 0
/Helvetica-0 findfont 400 yratio mul scalefont setfont
(11-14) stringwidth pop add
xratio div
dup 4 3 roll exch 45.000 cos mul sub 3 1 roll 45.000 sin mul sub 2 copy
/fntsize {/Helvetica-0 findfont exch scalefont setfont } def
45.000 400
(11-14) Stxtl
(11-14) stringwidth pop xratio div
dup 4 3 roll exch 45.000 cos mul add 3 1 roll 45.000 sin mul add 2 copy
pop pop pop pop
14567 4939 23160 4939 Sln
15426 4939 15426 4779 Sln
15525 4600 0
/Helvetica-0 findfont 400 yratio mul scalefont setfont
(0-1) stringwidth pop add
xratio div
dup 4 3 roll exch 45.000 cos mul sub 3 1 roll 45.000 sin mul sub 2 copy
/fntsize {/Helvetica-0 findfont exch scalefont setfont } def
45.000 400
(0-1) Stxtl
(0-1) stringwidth pop xratio div
dup 4 3 roll exch 45.000 cos mul add 3 1 roll 45.000 sin mul add 2 copy
pop pop pop pop
17145 4939 17145 4779 Sln
17244 4600 0
/Helvetica-0 findfont 400 yratio mul scalefont setfont
(2-4) stringwidth pop add
xratio div
dup 4 3 roll exch 45.000 cos mul sub 3 1 roll 45.000 sin mul sub 2 copy
/fntsize {/Helvetica-0 findfont exch scalefont setfont } def
45.000 400
(2-4) Stxtl
(2-4) stringwidth pop xratio div
dup 4 3 roll exch 45.000 cos mul add 3 1 roll 45.000 sin mul add 2 copy
pop pop pop pop
18863 4939 18863 4779 Sln
18962 4600 0
/Helvetica-0 findfont 400 yratio mul scalefont setfont
(5-7) stringwidth pop add
xratio div
dup 4 3 roll exch 45.000 cos mul sub 3 1 roll 45.000 sin mul sub 2 copy
/fntsize {/Helvetica-0 findfont exch scalefont setfont } def
45.000 400
(5-7) Stxtl
(5-7) stringwidth pop xratio div
dup 4 3 roll exch 45.000 cos mul add 3 1 roll 45.000 sin mul add 2 copy
pop pop pop pop
20582 4939 20582 4779 Sln
20681 4600 0
/Helvetica-0 findfont 400 yratio mul scalefont setfont
(8-10) stringwidth pop add
xratio div
dup 4 3 roll exch 45.000 cos mul sub 3 1 roll 45.000 sin mul sub 2 copy
/fntsize {/Helvetica-0 findfont exch scalefont setfont } def
45.000 400
(8-10) Stxtl
(8-10) stringwidth pop xratio div
dup 4 3 roll exch 45.000 cos mul add 3 1 roll 45.000 sin mul add 2 copy
pop pop pop pop
22301 4939 22301 4779 Sln
22400 4600 0
/Helvetica-0 findfont 400 yratio mul scalefont setfont
(11-14) stringwidth pop add
xratio div
dup 4 3 roll exch 45.000 cos mul sub 3 1 roll 45.000 sin mul sub 2 copy
/fntsize {/Helvetica-0 findfont exch scalefont setfont } def
45.000 400
(11-14) Stxtl
(11-14) stringwidth pop xratio div
dup 4 3 roll exch 45.000 cos mul add 3 1 roll 45.000 sin mul add 2 copy
pop pop pop pop
/Ssrgb {1.000 1.000 1.000} def
/Slrgb {1.000 1.000 1.000} def
3740 30582 12333 31160 0 1 Srect
3752 30594 12321 31148 1 0 Srect
8037 30783 0
/Helvetica-0 findfont 440 yratio mul scalefont setfont
(Employed \(MSM\)) stringwidth pop add
2 div xratio div
dup 4 3 roll exch 0.000 cos mul sub 3 1 roll 0.000 sin mul sub 2 copy
/fntsize {/Helvetica-0 findfont exch scalefont setfont } def
0.000 440
(Employed \(MSM\)) Stxtl
(Employed \(MSM\)) stringwidth pop xratio div
dup 4 3 roll exch 0.000 cos mul add 3 1 roll 0.000 sin mul add 2 copy
pop pop pop pop
14567 30582 23160 31160 0 1 Srect
14579 30594 23148 31148 1 0 Srect
18863 30783 0
/Helvetica-0 findfont 440 yratio mul scalefont setfont
(Employed \(FE\)) stringwidth pop add
2 div xratio div
dup 4 3 roll exch 0.000 cos mul sub 3 1 roll 0.000 sin mul sub 2 copy
/fntsize {/Helvetica-0 findfont exch scalefont setfont } def
0.000 440
(Employed \(FE\)) Stxtl
(Employed \(FE\)) stringwidth pop xratio div
dup 4 3 roll exch 0.000 cos mul add 3 1 roll 0.000 sin mul add 2 copy
pop pop pop pop
3740 24026 12333 24605 0 1 Srect
3752 24038 12321 24593 1 0 Srect
8037 24228 0
/Helvetica-0 findfont 440 yratio mul scalefont setfont
(Smoking \(MSM\)) stringwidth pop add
2 div xratio div
dup 4 3 roll exch 0.000 cos mul sub 3 1 roll 0.000 sin mul sub 2 copy
/fntsize {/Helvetica-0 findfont exch scalefont setfont } def
0.000 440
(Smoking \(MSM\)) Stxtl
(Smoking \(MSM\)) stringwidth pop xratio div
dup 4 3 roll exch 0.000 cos mul add 3 1 roll 0.000 sin mul add 2 copy
pop pop pop pop
14567 24026 23160 24605 0 1 Srect
14579 24038 23148 24593 1 0 Srect
18863 24228 0
/Helvetica-0 findfont 440 yratio mul scalefont setfont
(Smoking \(FE\)) stringwidth pop add
2 div xratio div
dup 4 3 roll exch 0.000 cos mul sub 3 1 roll 0.000 sin mul sub 2 copy
/fntsize {/Helvetica-0 findfont exch scalefont setfont } def
0.000 440
(Smoking \(FE\)) Stxtl
(Smoking \(FE\)) stringwidth pop xratio div
dup 4 3 roll exch 0.000 cos mul add 3 1 roll 0.000 sin mul add 2 copy
pop pop pop pop
3740 17471 12333 18049 0 1 Srect
3752 17483 12321 18037 1 0 Srect
8037 17672 0
/Helvetica-0 findfont 440 yratio mul scalefont setfont
(Alcohol \(MSM\)) stringwidth pop add
2 div xratio div
dup 4 3 roll exch 0.000 cos mul sub 3 1 roll 0.000 sin mul sub 2 copy
/fntsize {/Helvetica-0 findfont exch scalefont setfont } def
0.000 440
(Alcohol \(MSM\)) Stxtl
(Alcohol \(MSM\)) stringwidth pop xratio div
dup 4 3 roll exch 0.000 cos mul add 3 1 roll 0.000 sin mul add 2 copy
pop pop pop pop
14567 17471 23160 18049 0 1 Srect
14579 17483 23148 18037 1 0 Srect
18863 17672 0
/Helvetica-0 findfont 440 yratio mul scalefont setfont
(Alcohol \(FE\)) stringwidth pop add
2 div xratio div
dup 4 3 roll exch 0.000 cos mul sub 3 1 roll 0.000 sin mul sub 2 copy
/fntsize {/Helvetica-0 findfont exch scalefont setfont } def
0.000 440
(Alcohol \(FE\)) Stxtl
(Alcohol \(FE\)) stringwidth pop xratio div
dup 4 3 roll exch 0.000 cos mul add 3 1 roll 0.000 sin mul add 2 copy
pop pop pop pop
3740 10916 12333 11494 0 1 Srect
3752 10928 12321 11482 1 0 Srect
8037 11117 0
/Helvetica-0 findfont 440 yratio mul scalefont setfont
(Hypertension \(MSM\)) stringwidth pop add
2 div xratio div
dup 4 3 roll exch 0.000 cos mul sub 3 1 roll 0.000 sin mul sub 2 copy
/fntsize {/Helvetica-0 findfont exch scalefont setfont } def
0.000 440
(Hypertension \(MSM\)) Stxtl
(Hypertension \(MSM\)) stringwidth pop xratio div
dup 4 3 roll exch 0.000 cos mul add 3 1 roll 0.000 sin mul add 2 copy
pop pop pop pop
14567 10916 23160 11494 0 1 Srect
14579 10928 23148 11482 1 0 Srect
18863 11117 0
/Helvetica-0 findfont 440 yratio mul scalefont setfont
(Hypertension \(FE\)) stringwidth pop add
2 div xratio div
dup 4 3 roll exch 0.000 cos mul sub 3 1 roll 0.000 sin mul sub 2 copy
/fntsize {/Helvetica-0 findfont exch scalefont setfont } def
0.000 440
(Hypertension \(FE\)) Stxtl
(Hypertension \(FE\)) stringwidth pop xratio div
dup 4 3 roll exch 0.000 cos mul add 3 1 roll 0.000 sin mul add 2 copy
pop pop pop pop
/Slw 1.296 def
/Slrgb {0.000 0.000 0.000} def
5962 1128 18704 2681 0 1 Srect
5986 1152 18680 2657 1 0 Srect
/Slw 1.944 def
/Slrgb {0.376 0.376 0.376} def
6322 1905 9442 1905 Sln
/Slrgb {0.627 0.627 0.627} def
12469 1905 12661 1905 Sln
12829 1905 13021 1905 Sln
13189 1905 13381 1905 Sln
13549 1905 13741 1905 Sln
13909 1905 14101 1905 Sln
14269 1905 14461 1905 Sln
14628 1905 14820 1905 Sln
14988 1905 15180 1905 Sln
15348 1905 15540 1905 Sln
9942 1672 2 copy
/fntsize {/Helvetica-0 findfont exch scalefont setfont } def
0.000 666
(men) Stxtl
(men) stringwidth pop xratio div
dup 4 3 roll exch 0.000 cos mul add 3 1 roll 0.000 sin mul add 2 copy
pop pop pop pop
16089 1672 2 copy
/fntsize {/Helvetica-0 findfont exch scalefont setfont } def
0.000 666
(women) Stxtl
(women) stringwidth pop xratio div
dup 4 3 roll exch 0.000 cos mul add 3 1 roll 0.000 sin mul add 2 copy
pop pop pop pop
1306 17398 0
/Helvetica-0 findfont 666 yratio mul scalefont setfont
(Marginal effect) stringwidth pop add
2 div xratio div
dup 4 3 roll exch 90.000 cos mul sub 3 1 roll 90.000 sin mul sub 2 copy
/fntsize {/Helvetica-0 findfont exch scalefont setfont } def
90.000 666
(Marginal effect) Stxtl
(Marginal effect) stringwidth pop xratio div
dup 4 3 roll exch 90.000 cos mul add 3 1 roll 90.000 sin mul add 2 copy
pop pop pop pop
12333 3169 0
/Helvetica-0 findfont 666 yratio mul scalefont setfont
(Years after diagnosis) stringwidth pop add
2 div xratio div
dup 4 3 roll exch 0.000 cos mul sub 3 1 roll 0.000 sin mul sub 2 copy
/fntsize {/Helvetica-0 findfont exch scalefont setfont } def
0.000 666
(Years after diagnosis) Stxtl
(Years after diagnosis) stringwidth pop xratio div
dup 4 3 roll exch 0.000 cos mul add 3 1 roll 0.000 sin mul add 2 copy
pop pop pop pop
S showpage
%%EOF
