%!PS-Adobe-2.0 EPSF-2.0
%% This is a Stata generated postscript file
%%BoundingBox: 0 0 648 864
%%HiResBoundingBox: 0.000 0.000 648.000 864.000
%%DocumentNeededResources: font Helvetica
/xratio 0.027000 def
/yratio 0.027000 def
/Sbgfill {
	/y1 exch def
	/x1 exch def
	/y0 exch def
	/x0 exch def
	x0 y0 moveto
	x0 y1 lineto x1 y1 lineto x1 y0 lineto x0 y0 lineto
	fill
} def
/Spt {
	yratio mul
	/yp exch def
	xratio mul
	/xp exch def
	Slrgb setrgbcolor
	xp yp .5 0 360 arc fill
} def
/Sln {
	yratio mul
	/y1p exch def
	xratio mul
	/x1p exch def
	yratio mul
	/y0p exch def
	xratio mul
	/x0p exch def
	Slw setlinewidth
	Slrgb setrgbcolor
	x0p y0p M x1p y1p lineto S
} def
/Scrv {
	yratio mul
	/y3p exch def
	xratio mul
	/x3p exch def
	yratio mul
	/y2p exch def
	xratio mul
	/x2p exch def
	yratio mul
	/y1p exch def
	xratio mul
	/x1p exch def
	Slw setlinewidth
	Slrgb setrgbcolor
	x1p y1p x2p y2p x3p y3p curveto
	stroke
} def
/Stxtl {
	/sp exch def
	yratio mul
	/sizep exch def
	dup
	/anglep exch def
	0 exch sub
	/angle2p exch def
	yratio mul
	/y0p exch def
	xratio mul
	/x0p exch def
	Strgb setrgbcolor
	x0p y0p M anglep rotate sizep fntsize sp show stroke angle2p rotate
} def
/Stxtc {
	/sp exch def
	yratio mul
	/sizep exch def
	dup
	/anglep exch def
	0 exch sub
	/angle2p exch def
	yratio mul
	/y0p exch def
	xratio mul
	/x0p exch def
	Strgb setrgbcolor
	x0p y0p M anglep rotate sizep fntsize sp stringwidth exch -2 div exch rm sp show stroke angle2p rotate
} def
/Stxtr {
	/sp exch def
	yratio mul
	/sizep exch def
	dup
	/anglep exch def
	0 exch sub
	/angle2p exch def
	yratio mul
	/y0p exch def
	xratio mul
	/x0p exch def
	Strgb setrgbcolor
	x0p y0p M anglep rotate sizep fntsize sp stringwidth 1 index -1 mul exch rm pop sp show stroke angle2p rotate
} def
/Srect {
	/sfill exch def
	/sstroke exch def
	yratio mul
	/y1 exch def
	xratio mul
	/x1 exch def
	yratio mul
	/y0 exch def
	xratio mul
	/x0 exch def
	newpath x0 y0 moveto x0 y1 lineto x1 y1 lineto x1 y0 lineto x0 y0 lineto closepath
	sfill Sfill
	sstroke Sstroke
} def
/Sellipse {
	/sfill exch def
	/sstroke exch def
	yratio mul
	/yrad exch def
	xratio mul
	/xrad exch def
	yratio mul
	/y exch def
	xratio mul
	/x exch def
	/savematrix matrix currentmatrix def
	x y translate
	xrad yrad scale
	0 0 1 0 360 arc
	savematrix setmatrix
	sfill Sfill
	sstroke Sstroke
} def
/Stri {
	/sfill exch def
	/sstroke exch def
	xratio mul
	/r exch def
	yratio mul
	/y0 exch def
	xratio mul
	/x0 exch def
	/xcen x0 def
	y0 r add
	/ytop exch def
	r 2 div
	y0 exch sub
	/ybot exch def
	r 3 sqrt 2 div mul dup
	xcen exch sub
	/xleft exch def
	xcen add
	/xright exch def
	newpath xcen ytop moveto xright ybot lineto xleft ybot lineto xcen ytop lineto closepath
	sfill Sfill
	sstroke Sstroke
} def
/Soldtri {
	/sfill exch def
	xratio mul
	/r exch def
	yratio mul
	/y0 exch def
	xratio mul
	/x0 exch def
	x0 r sub
	/x1 exch def
	y0 r sub
	/y1 exch def
	x0 r add
	/x2 exch def
	y0 r sub
	/y2 exch def
	/x3 x0 def
	y0 r add
	/y3 exch def
	newpath x1 y1 moveto x2 y2 lineto x3 y3 lineto x1 y1 lineto closepath
	sfill 1 eq {
		Ssrgb setrgbcolor
		gsave
		fill
		grestore
	} if
	Slw setlinewidth
	Slrgb setrgbcolor
	stroke
} def
/Sdia {
	/sfill exch def
	/sstroke exch def
	xratio mul
	/r exch def
	yratio mul
	/y exch def
	xratio mul
	/x exch def
	x r sub
	/x0 exch def
	/y0 y def
	/x1 x def
	y r sub
	/y1 exch def
	x r add
	/x2 exch def
	/y2 y def
	/x3 x def
	y r add
	/y3 exch def
	newpath x0 y0 moveto x1 y1 lineto x2 y2 lineto x3 y3 lineto closepath
	sfill Sfill
	sstroke Sstroke
} def
/Scc {
	/sfill exch def
	/sstroke exch def
	xratio mul
	/r0 exch def
	yratio mul
	/y0 exch def
	xratio mul
	/x0 exch def
	x0 y0 r0 0 360 arc closepath
	sfill Sfill
	sstroke Sstroke
} def
/Spie {
	/sfill exch def
	/salign exch def
	/a1 exch def
	/a0 exch def
	xratio mul
	/r exch def
	yratio mul
	/y exch def
	xratio mul
	/x exch def
	/Pie {
		x y moveto x y r a0 a1 arc closepath
	} def
	newpath Pie
	sfill Sfill
	Slrgb setrgbcolor
	salign 0 eq {
		gsave
		Slw 2 mul setlinewidth
		clip
		stroke
		grestore
	} if
	salign 1 eq {
		Slw setlinewidth
		stroke
	} if
	salign 2 eq {
		gsave
		Slw 2 mul setlinewidth
		strokepath
		pathbbox
		/ury exch def
		/urx exch def
		/lly exch def
		/llx exch def
		newpath llx lly moveto llx ury lineto urx ury lineto urx lly lineto closepath
		Pie
		eoclip
		newpath Pie
		stroke
		grestore
	} if
	newpath
} def
/Splu {
	xratio mul
	/r exch def
	yratio mul
	/y exch def
	xratio mul
	/x exch def
	x r sub
	/x0 exch def
	x r add
	/x1 exch def
	x0 y M x1 y L
	y r sub
	/y0 exch def
	y r add
	/y1 exch def
	x y0 M x y1 L
} def
/Scro {
	xratio mul
	/r exch def
	yratio mul
	/y exch def
	xratio mul
	/x exch def
	x r sub
	/x0 exch def
	y r sub
	/y0 exch def
	x r add
	/x1 exch def
	y r add
	/y1 exch def
	x0 y0 M x1 y1 L
	x r add
	/x0 exch def
	y r sub
	/y0 exch def
	x r sub
	/x1 exch def
	y r add
	/y1 exch def
	x0 y0 M x1 y1 L
} def
/Sm {
	yratio mul
	/y exch def
	xratio mul
	/x exch def
	x y M
} def
/Sl {
	yratio mul
	/y exch def
	xratio mul
	/x exch def
	x y L
} def
/SPl {
	yratio mul
	/y exch def
	xratio mul
	/x exch def
	x y PL
} def
/Sarr {
	/sfill exch def
	xratio mul
	/r exch def
	yratio mul
	/y exch def
	xratio mul
	/x exch def
	y r add
	/ytop exch def
	y r sub
	/ybot exch def
	gsave
	Slrgb setrgbcolor
	sfill 0 eq {
		r 2 mul 3 div dup
		x exch sub
		/xleft exch def
		x add
		/xright exch def
		newpath xleft y moveto x ytop lineto xright y lineto x ytop moveto x ybot lineto
		Lcs
		1 setlinejoin
	} {
		r 2 div dup
		x exch sub
		/xleft exch def
		x add
		/xright exch def
		newpath xleft y moveto x ytop lineto xright y lineto x ytop closepath moveto x ybot lineto
		gsave
		fill
		grestore
	} ifelse
	Slw setlinewidth
	stroke
	grestore
} def
/Spipe {
	xratio mul
	/r exch def
	yratio mul
	/y exch def
	xratio mul
	/x exch def
	y r sub
	/y0 exch def
	y r add
	/y1 exch def
	x y0 M x y1 L
} def
/Sv {
	xratio mul
	/r exch def
	yratio mul
	/y0 exch def
	xratio mul
	/x0 exch def
	/xcen x0 def
	y0 r add
	/ytop exch def
	r 2 div
	y0 exch sub
	/ybot exch def
	r 3 sqrt 2 div mul dup
	xcen exch sub
	/xleft exch def
	xcen add
	/xright exch def
	newpath xleft ytop moveto xcen ybot lineto xright ytop lineto
	Slw setlinewidth
	Slrgb setrgbcolor
	stroke
} def
/Lcs {
	currentlinecap
	1 setlinecap
} def
/Lcr {
	setlinecap
} def
/Sbp {
	newpath
} def
/Sep {
	/sfill exch def
	closepath
	/salign exch def
	Lcs
	salign 0 eq {
		sfill Sfill
		gsave
		Slw 2 mul setlinewidth
		clip
		Slrgb setrgbcolor
		stroke
		grestore
	} if
	salign 1 eq {
		sfill Sfill
		Slw setlinewidth
		Slrgb setrgbcolor
		stroke
	} if
	salign 2 eq {
		gsave
		Slw 2 mul setlinewidth
		Slrgb setrgbcolor
		stroke
		grestore
		sfill Sfill
	} if
	newpath
	Lcr
} def
/Stransrot {
	/anglep exch def
	yratio mul
	/y exch def
	xratio mul
	/x exch def
	x y translate
	anglep rotate
	x neg y neg translate
} def
/cp {currentpoint} def 
/M {moveto} def 
/rm {rmoveto} def 
/S {stroke} def 
/L {Slw setlinewidth Slrgb setrgbcolor lineto Lcs S Lcr} def 
/PL {Slw setlinewidth Slrgb setrgbcolor lineto} def 
/MF-Helvetica {
  /newfontname exch def
  /fontname exch def
  /fontdict fontname findfont def
  /newfont fontdict maxlength dict def
  fontdict {
  exch dup /FID eq {pop pop} {exch newfont 3 1 roll put} ifelse
  } forall
  newfont /FontName newfontname put
  newfont /Encoding ISOLatin1Encoding put
  newfontname newfont definefont pop
} def
/Helvetica /Helvetica-0 MF-Helvetica
/Slw 0.120 def
1.000 1.000 1.000 setrgbcolor
0 0 648.000 864.000 Sbgfill
/Sfill {
	/sfill exch def
	sfill 1 eq {
		Ssrgb setrgbcolor
		gsave
		fill
		grestore
	} if
} def
/Sstroke {
	/sstroke exch def
	sstroke 1 eq {
		Slw setlinewidth
		Slrgb setrgbcolor
		stroke
	} if
	newpath
} def
/Slrgb {1.000 1.000 1.000} def
/Strgb {1.000 1.000 1.000} def
/Ssrgb {1.000 1.000 1.000} def
/Slw 1.296 def
0 0 24000 32000 0 1 Srect
24 24 23976 31976 1 0 Srect
/Slw 0.622 def
/Slrgb {0.000 0.000 0.000} def
3357 24605 13258 30582 0 0 Srect
3369 24617 13246 30570 1 0 Srect
/Strgb {0.000 0.000 0.000} def
/Slw 0.933 def
/Slrgb {0.188 0.188 0.188} def
3357 27930 13258 27930 Sln
/Slw 0.622 def
/Slrgb {0.000 0.000 0.000} def
13258 24605 23160 30582 0 0 Srect
13270 24617 23148 30570 1 0 Srect
/Slw 0.933 def
/Slrgb {0.188 0.188 0.188} def
13258 27930 23160 27930 Sln
/Slw 0.622 def
/Slrgb {0.000 0.000 0.000} def
3357 18049 13258 24026 0 0 Srect
3369 18061 13246 24014 1 0 Srect
/Slw 0.933 def
/Slrgb {0.188 0.188 0.188} def
3357 21375 13258 21375 Sln
/Slw 0.622 def
/Slrgb {0.000 0.000 0.000} def
13258 18049 23160 24026 0 0 Srect
13270 18061 23148 24014 1 0 Srect
/Slw 0.933 def
/Slrgb {0.188 0.188 0.188} def
13258 21375 23160 21375 Sln
/Slw 0.622 def
/Slrgb {0.000 0.000 0.000} def
3357 11494 13258 17471 0 0 Srect
3369 11506 13246 17459 1 0 Srect
/Slw 0.933 def
/Slrgb {0.188 0.188 0.188} def
3357 14819 13258 14819 Sln
/Slw 0.622 def
/Slrgb {0.000 0.000 0.000} def
13258 11494 23160 17471 0 0 Srect
13270 11506 23148 17459 1 0 Srect
/Slw 0.933 def
/Slrgb {0.188 0.188 0.188} def
13258 14819 23160 14819 Sln
/Slw 0.622 def
/Slrgb {0.000 0.000 0.000} def
3357 4939 13258 10916 0 0 Srect
3369 4951 13246 10904 1 0 Srect
/Slw 0.933 def
/Slrgb {0.188 0.188 0.188} def
3357 8264 13258 8264 Sln
/Slw 0.622 def
/Slrgb {0.000 0.000 0.000} def
13258 4939 23160 10916 0 0 Srect
13270 4951 23148 10904 1 0 Srect
/Slw 0.933 def
/Slrgb {0.188 0.188 0.188} def
13258 8264 23160 8264 Sln
/Ssrgb {0.502 0.502 0.502} def
/Slrgb {0.376 0.376 0.376} def
4017 27790 4017 28805 Sln
5997 27444 5997 28222 Sln
7977 26632 7977 28131 Sln
9958 26933 9958 28781 Sln
11938 26846 11938 29235 Sln
4016 28297 Sm
5997 27832 Sl
5997 27832 Sm
7977 27381 Sl
7977 27381 Sm
9957 27856 Sl
9957 27856 Sm
11938 28040 Sl
/Ssrgb {0.702 0.702 0.702} def
/Slrgb {0.627 0.627 0.627} def
4677 26330 4677 27743 Sln
6657 26764 6657 27727 Sln
8638 26328 8638 27564 Sln
10618 26435 10618 28447 Sln
12598 26349 12598 28726 Sln
4676 27036 4867 27056 Sln
5034 27074 5225 27094 Sln
5392 27112 5583 27132 Sln
5750 27150 5941 27170 Sln
6108 27187 6299 27207 Sln
6465 27225 6656 27245 Sln
6822 27220 7012 27191 Sln
7178 27166 7368 27137 Sln
7534 27112 7724 27084 Sln
7890 27059 8080 27030 Sln
8246 27005 8436 26976 Sln
8602 26951 8637 26946 Sln
8637 26946 8789 26984 Sln
8952 27025 9138 27072 Sln
9301 27112 9487 27159 Sln
9650 27200 9836 27246 Sln
9999 27287 10185 27333 Sln
10348 27374 10534 27421 Sln
10700 27445 10891 27455 Sln
11059 27463 11251 27472 Sln
11419 27480 11611 27489 Sln
11779 27497 11971 27507 Sln
12138 27515 12330 27524 Sln
12498 27532 12598 27537 Sln
/Ssrgb {0.502 0.502 0.502} def
/Slrgb {0.376 0.376 0.376} def
13918 28061 13918 29075 Sln
15899 27454 15899 28337 Sln
17879 26903 17879 28398 Sln
19859 27136 19859 29353 Sln
21840 26917 21840 30328 Sln
13918 28568 Sm
15898 27895 Sl
15898 27895 Sm
17879 27650 Sl
17879 27650 Sm
19859 28244 Sl
19859 28244 Sm
21839 28622 Sl
/Ssrgb {0.702 0.702 0.702} def
/Slrgb {0.627 0.627 0.627} def
14579 26733 14579 28211 Sln
16559 26370 16559 27720 Sln
18539 25817 18539 27686 Sln
20520 25514 20520 27973 Sln
22500 25280 22500 27838 Sln
14578 27471 14766 27430 Sln
14930 27395 15117 27355 Sln
15281 27319 15469 27279 Sln
15633 27243 15820 27203 Sln
15984 27168 16172 27127 Sln
16336 27092 16524 27051 Sln
16689 27025 16879 26997 Sln
17045 26972 17235 26944 Sln
17401 26919 17591 26891 Sln
17757 26867 17947 26839 Sln
18113 26814 18303 26786 Sln
18469 26761 18539 26751 Sln
18539 26751 18660 26751 Sln
18828 26750 19020 26749 Sln
19188 26749 19380 26748 Sln
19548 26747 19740 26746 Sln
19907 26746 20099 26745 Sln
20267 26744 20459 26743 Sln
20627 26733 20818 26716 Sln
20985 26700 21176 26682 Sln
21343 26666 21534 26649 Sln
21701 26633 21892 26615 Sln
22060 26600 22251 26582 Sln
22418 26566 22499 26559 Sln
/Ssrgb {0.502 0.502 0.502} def
/Slrgb {0.376 0.376 0.376} def
4017 20980 4017 22227 Sln
5997 20503 5997 21430 Sln
7977 19827 7977 21424 Sln
9958 19800 9958 22700 Sln
11938 20981 11938 22915 Sln
4016 21603 Sm
5997 20966 Sl
5997 20966 Sm
7977 20625 Sl
7977 20625 Sm
9957 21249 Sl
9957 21249 Sm
11938 21947 Sl
/Ssrgb {0.702 0.702 0.702} def
/Slrgb {0.627 0.627 0.627} def
4677 20961 4677 21322 Sln
6657 21108 6657 21350 Sln
8638 21074 8638 21664 Sln
10618 20981 10618 22013 Sln
12598 20852 12598 21474 Sln
4676 21141 4868 21150 Sln
5036 21157 5228 21165 Sln
5396 21173 5588 21181 Sln
5756 21188 5948 21197 Sln
6115 21204 6307 21213 Sln
6475 21220 6657 21228 Sln
6657 21228 6667 21228 Sln
6835 21240 7026 21254 Sln
7194 21266 7385 21280 Sln
7552 21291 7744 21305 Sln
7911 21317 8103 21331 Sln
8270 21343 8462 21356 Sln
8629 21369 8637 21369 Sln
8637 21369 8821 21381 Sln
8988 21392 9180 21404 Sln
9347 21415 9538 21427 Sln
9706 21438 9897 21450 Sln
10065 21461 10256 21473 Sln
10424 21484 10616 21496 Sln
10781 21469 10971 21437 Sln
11136 21408 11326 21376 Sln
11491 21348 11680 21316 Sln
11846 21288 12035 21256 Sln
12201 21229 12390 21197 Sln
12556 21169 12598 21162 Sln
/Ssrgb {0.502 0.502 0.502} def
/Slrgb {0.376 0.376 0.376} def
13918 20670 13918 22224 Sln
15899 20746 15899 21813 Sln
17879 20344 17879 21972 Sln
19859 19892 19859 22693 Sln
21840 19822 21840 23569 Sln
13918 21447 Sm
15898 21279 Sl
15898 21279 Sm
17879 21157 Sl
17879 21157 Sm
19859 21292 Sl
19859 21292 Sm
21839 21695 Sl
/Ssrgb {0.702 0.702 0.702} def
/Slrgb {0.627 0.627 0.627} def
14579 21016 14579 21415 Sln
16559 21216 16559 21431 Sln
18539 21264 18539 21845 Sln
20520 21186 20520 22082 Sln
22500 20932 22500 21610 Sln
14578 21215 14770 21225 Sln
14938 21235 15129 21245 Sln
15297 21254 15488 21265 Sln
15656 21274 15848 21284 Sln
16016 21293 16207 21304 Sln
16375 21313 16558 21323 Sln
16558 21323 16567 21324 Sln
16734 21344 16924 21366 Sln
17091 21385 17281 21408 Sln
17448 21427 17639 21449 Sln
17806 21469 17996 21491 Sln
18163 21510 18354 21533 Sln
18520 21552 18539 21554 Sln
18539 21554 18712 21561 Sln
18880 21568 19072 21576 Sln
19240 21583 19432 21591 Sln
19600 21598 19792 21605 Sln
19960 21612 20152 21619 Sln
20320 21626 20512 21633 Sln
20677 21605 20866 21570 Sln
21031 21540 21220 21506 Sln
21385 21475 21574 21441 Sln
21739 21410 21928 21376 Sln
22093 21345 22282 21311 Sln
22447 21280 22499 21271 Sln
/Ssrgb {0.502 0.502 0.502} def
/Slrgb {0.376 0.376 0.376} def
4017 14288 4017 15745 Sln
5997 13803 5997 14844 Sln
7977 13450 7977 14805 Sln
9958 13371 9958 16299 Sln
11938 11889 11938 15568 Sln
4016 15016 Sm
5997 14323 Sl
5997 14323 Sm
7977 14127 Sl
7977 14127 Sm
9957 14835 Sl
9957 14835 Sm
11938 13728 Sl
/Ssrgb {0.702 0.702 0.702} def
/Slrgb {0.627 0.627 0.627} def
4677 14663 4677 14752 Sln
6657 14633 6657 14838 Sln
8638 14632 8638 14953 Sln
10618 14626 10618 14778 Sln
12598 14515 12598 14996 Sln
4676 14707 4868 14710 Sln
5036 14712 5228 14715 Sln
5396 14717 5588 14720 Sln
5756 14722 5948 14725 Sln
6115 14727 6307 14730 Sln
6475 14732 6657 14735 Sln
6657 14735 6667 14735 Sln
6835 14740 7027 14746 Sln
7195 14751 7387 14756 Sln
7555 14761 7747 14766 Sln
7915 14771 8107 14777 Sln
8275 14782 8467 14787 Sln
8635 14792 8637 14792 Sln
8637 14792 8827 14783 Sln
8994 14775 9186 14766 Sln
9354 14758 9546 14750 Sln
9714 14742 9906 14733 Sln
10074 14725 10266 14717 Sln
10434 14709 10617 14701 Sln
10617 14701 10626 14701 Sln
10794 14705 10986 14711 Sln
11154 14715 11346 14720 Sln
11514 14725 11706 14730 Sln
11873 14735 12065 14740 Sln
12233 14745 12425 14750 Sln
12593 14755 12598 14755 Sln
/Ssrgb {0.502 0.502 0.502} def
/Slrgb {0.376 0.376 0.376} def
13918 13953 13918 15308 Sln
15899 13798 15899 14987 Sln
17879 13595 17879 15195 Sln
19859 13378 19859 16318 Sln
21840 12145 21840 15403 Sln
13918 14630 Sm
15898 14392 Sl
15898 14392 Sm
17879 14394 Sl
17879 14394 Sm
19859 14848 Sl
19859 14848 Sm
21839 13774 Sl
/Ssrgb {0.702 0.702 0.702} def
/Slrgb {0.627 0.627 0.627} def
14579 14633 14579 14849 Sln
16559 14563 16559 14913 Sln
18539 14606 18539 15211 Sln
20520 14615 20520 15003 Sln
22500 14579 22500 15122 Sln
14578 14741 14770 14741 Sln
14938 14741 15130 14740 Sln
15298 14740 15490 14740 Sln
15658 14740 15850 14739 Sln
16018 14739 16210 14739 Sln
16378 14739 16558 14738 Sln
16558 14738 16570 14739 Sln
16737 14753 16928 14770 Sln
17096 14784 17287 14800 Sln
17455 14815 17646 14831 Sln
17814 14846 18005 14862 Sln
18173 14877 18364 14893 Sln
18531 14908 18539 14908 Sln
18539 14908 18723 14899 Sln
18891 14890 19083 14880 Sln
19251 14872 19443 14862 Sln
19611 14854 19803 14844 Sln
19970 14836 20162 14826 Sln
20330 14817 20519 14808 Sln
20519 14808 20522 14808 Sln
20690 14812 20882 14816 Sln
21050 14819 21242 14823 Sln
21410 14826 21602 14830 Sln
21770 14834 21962 14838 Sln
22130 14842 22322 14846 Sln
22490 14850 22499 14850 Sln
/Ssrgb {0.502 0.502 0.502} def
/Slrgb {0.376 0.376 0.376} def
4017 7178 4017 8823 Sln
5997 8065 5997 9106 Sln
7977 7750 7977 9354 Sln
9958 6356 9958 9451 Sln
11938 6566 11938 9480 Sln
4016 8000 Sm
5997 8585 Sl
5997 8585 Sm
7977 8551 Sl
7977 8551 Sm
9957 7903 Sl
9957 7903 Sm
11938 8022 Sl
/Ssrgb {0.702 0.702 0.702} def
/Slrgb {0.627 0.627 0.627} def
4677 7178 4677 8823 Sln
6657 8065 6657 9106 Sln
8638 7750 8638 9354 Sln
10618 6356 10618 9451 Sln
12598 6566 12598 9480 Sln
4676 8000 4860 8054 Sln
5021 8102 5205 8156 Sln
5366 8204 5550 8258 Sln
5711 8306 5895 8360 Sln
6056 8408 6240 8462 Sln
6401 8510 6586 8564 Sln
6751 8583 6943 8580 Sln
7110 8577 7302 8574 Sln
7470 8571 7662 8567 Sln
7830 8564 8022 8561 Sln
8190 8558 8382 8555 Sln
8550 8552 8637 8551 Sln
8637 8551 8736 8518 Sln
8896 8466 9079 8407 Sln
9238 8354 9421 8295 Sln
9580 8243 9763 8183 Sln
9922 8131 10105 8071 Sln
10265 8019 10447 7959 Sln
10606 7906 10617 7903 Sln
10617 7903 10797 7914 Sln
10965 7924 11156 7935 Sln
11324 7945 11515 7957 Sln
11682 7967 11874 7978 Sln
12041 7989 12233 8000 Sln
12401 8010 12592 8022 Sln
/Ssrgb {0.502 0.502 0.502} def
/Slrgb {0.376 0.376 0.376} def
13918 7338 13918 8855 Sln
15899 7872 15899 9120 Sln
17879 7646 17879 9499 Sln
19859 6826 19859 9423 Sln
21840 6887 21840 10435 Sln
13918 8096 Sm
15898 8496 Sl
15898 8496 Sm
17879 8572 Sl
17879 8572 Sm
19859 8124 Sl
19859 8124 Sm
21839 8660 Sl
/Ssrgb {0.702 0.702 0.702} def
/Slrgb {0.627 0.627 0.627} def
14579 8379 14579 10038 Sln
16559 8483 16559 9710 Sln
18539 8197 18539 9814 Sln
20520 8229 20520 10337 Sln
22500 6415 22500 9041 Sln
14578 9208 14770 9197 Sln
14937 9188 15129 9177 Sln
15296 9168 15488 9157 Sln
15655 9148 15846 9137 Sln
16014 9127 16206 9116 Sln
16374 9106 16558 9096 Sln
16558 9096 16565 9095 Sln
16733 9088 16925 9079 Sln
17093 9071 17285 9062 Sln
17453 9054 17645 9045 Sln
17813 9038 18004 9029 Sln
18172 9022 18364 9013 Sln
18531 9005 18539 9005 Sln
18539 9005 18721 9030 Sln
18888 9054 19078 9080 Sln
19244 9103 19434 9130 Sln
19601 9153 19791 9180 Sln
19957 9203 20147 9230 Sln
20314 9253 20504 9280 Sln
20639 9188 20790 9069 Sln
20922 8965 21073 8847 Sln
21205 8743 21356 8624 Sln
21488 8520 21639 8402 Sln
21771 8298 21922 8179 Sln
22054 8076 22206 7957 Sln
22337 7853 22489 7735 Sln
/Slw 0.622 def
/Slrgb {0.000 0.000 0.000} def
3357 24605 3357 30582 Sln
3357 24858 3197 24858 Sln
3117 24746 0
/Helvetica-0 findfont 320 yratio mul scalefont setfont
(-.6) stringwidth pop add
xratio div
dup 4 3 roll exch 0.000 cos mul sub 3 1 roll 0.000 sin mul sub 2 copy
/fntsize {/Helvetica-0 findfont exch scalefont setfont } def
0.000 320
(-.6) Stxtl
(-.6) stringwidth pop xratio div
dup 4 3 roll exch 0.000 cos mul add 3 1 roll 0.000 sin mul add 2 copy
pop pop pop pop
3357 25882 3197 25882 Sln
3117 25770 0
/Helvetica-0 findfont 320 yratio mul scalefont setfont
(-.4) stringwidth pop add
xratio div
dup 4 3 roll exch 0.000 cos mul sub 3 1 roll 0.000 sin mul sub 2 copy
/fntsize {/Helvetica-0 findfont exch scalefont setfont } def
0.000 320
(-.4) Stxtl
(-.4) stringwidth pop xratio div
dup 4 3 roll exch 0.000 cos mul add 3 1 roll 0.000 sin mul add 2 copy
pop pop pop pop
3357 26906 3197 26906 Sln
3117 26794 0
/Helvetica-0 findfont 320 yratio mul scalefont setfont
(-.2) stringwidth pop add
xratio div
dup 4 3 roll exch 0.000 cos mul sub 3 1 roll 0.000 sin mul sub 2 copy
/fntsize {/Helvetica-0 findfont exch scalefont setfont } def
0.000 320
(-.2) Stxtl
(-.2) stringwidth pop xratio div
dup 4 3 roll exch 0.000 cos mul add 3 1 roll 0.000 sin mul add 2 copy
pop pop pop pop
3357 27930 3197 27930 Sln
3117 27818 0
/Helvetica-0 findfont 320 yratio mul scalefont setfont
(0) stringwidth pop add
xratio div
dup 4 3 roll exch 0.000 cos mul sub 3 1 roll 0.000 sin mul sub 2 copy
/fntsize {/Helvetica-0 findfont exch scalefont setfont } def
0.000 320
(0) Stxtl
(0) stringwidth pop xratio div
dup 4 3 roll exch 0.000 cos mul add 3 1 roll 0.000 sin mul add 2 copy
pop pop pop pop
3357 28954 3197 28954 Sln
3117 28842 0
/Helvetica-0 findfont 320 yratio mul scalefont setfont
(.2) stringwidth pop add
xratio div
dup 4 3 roll exch 0.000 cos mul sub 3 1 roll 0.000 sin mul sub 2 copy
/fntsize {/Helvetica-0 findfont exch scalefont setfont } def
0.000 320
(.2) Stxtl
(.2) stringwidth pop xratio div
dup 4 3 roll exch 0.000 cos mul add 3 1 roll 0.000 sin mul add 2 copy
pop pop pop pop
3357 29978 3197 29978 Sln
3117 29866 0
/Helvetica-0 findfont 320 yratio mul scalefont setfont
(.4) stringwidth pop add
xratio div
dup 4 3 roll exch 0.000 cos mul sub 3 1 roll 0.000 sin mul sub 2 copy
/fntsize {/Helvetica-0 findfont exch scalefont setfont } def
0.000 320
(.4) Stxtl
(.4) stringwidth pop xratio div
dup 4 3 roll exch 0.000 cos mul add 3 1 roll 0.000 sin mul add 2 copy
pop pop pop pop
3357 18049 3357 24026 Sln
3357 18303 3197 18303 Sln
3117 18191 0
/Helvetica-0 findfont 320 yratio mul scalefont setfont
(-.6) stringwidth pop add
xratio div
dup 4 3 roll exch 0.000 cos mul sub 3 1 roll 0.000 sin mul sub 2 copy
/fntsize {/Helvetica-0 findfont exch scalefont setfont } def
0.000 320
(-.6) Stxtl
(-.6) stringwidth pop xratio div
dup 4 3 roll exch 0.000 cos mul add 3 1 roll 0.000 sin mul add 2 copy
pop pop pop pop
3357 19327 3197 19327 Sln
3117 19215 0
/Helvetica-0 findfont 320 yratio mul scalefont setfont
(-.4) stringwidth pop add
xratio div
dup 4 3 roll exch 0.000 cos mul sub 3 1 roll 0.000 sin mul sub 2 copy
/fntsize {/Helvetica-0 findfont exch scalefont setfont } def
0.000 320
(-.4) Stxtl
(-.4) stringwidth pop xratio div
dup 4 3 roll exch 0.000 cos mul add 3 1 roll 0.000 sin mul add 2 copy
pop pop pop pop
3357 20351 3197 20351 Sln
3117 20239 0
/Helvetica-0 findfont 320 yratio mul scalefont setfont
(-.2) stringwidth pop add
xratio div
dup 4 3 roll exch 0.000 cos mul sub 3 1 roll 0.000 sin mul sub 2 copy
/fntsize {/Helvetica-0 findfont exch scalefont setfont } def
0.000 320
(-.2) Stxtl
(-.2) stringwidth pop xratio div
dup 4 3 roll exch 0.000 cos mul add 3 1 roll 0.000 sin mul add 2 copy
pop pop pop pop
3357 21375 3197 21375 Sln
3117 21263 0
/Helvetica-0 findfont 320 yratio mul scalefont setfont
(0) stringwidth pop add
xratio div
dup 4 3 roll exch 0.000 cos mul sub 3 1 roll 0.000 sin mul sub 2 copy
/fntsize {/Helvetica-0 findfont exch scalefont setfont } def
0.000 320
(0) Stxtl
(0) stringwidth pop xratio div
dup 4 3 roll exch 0.000 cos mul add 3 1 roll 0.000 sin mul add 2 copy
pop pop pop pop
3357 22399 3197 22399 Sln
3117 22287 0
/Helvetica-0 findfont 320 yratio mul scalefont setfont
(.2) stringwidth pop add
xratio div
dup 4 3 roll exch 0.000 cos mul sub 3 1 roll 0.000 sin mul sub 2 copy
/fntsize {/Helvetica-0 findfont exch scalefont setfont } def
0.000 320
(.2) Stxtl
(.2) stringwidth pop xratio div
dup 4 3 roll exch 0.000 cos mul add 3 1 roll 0.000 sin mul add 2 copy
pop pop pop pop
3357 23423 3197 23423 Sln
3117 23311 0
/Helvetica-0 findfont 320 yratio mul scalefont setfont
(.4) stringwidth pop add
xratio div
dup 4 3 roll exch 0.000 cos mul sub 3 1 roll 0.000 sin mul sub 2 copy
/fntsize {/Helvetica-0 findfont exch scalefont setfont } def
0.000 320
(.4) Stxtl
(.4) stringwidth pop xratio div
dup 4 3 roll exch 0.000 cos mul add 3 1 roll 0.000 sin mul add 2 copy
pop pop pop pop
3357 11494 3357 17471 Sln
3357 11747 3197 11747 Sln
3117 11635 0
/Helvetica-0 findfont 320 yratio mul scalefont setfont
(-.6) stringwidth pop add
xratio div
dup 4 3 roll exch 0.000 cos mul sub 3 1 roll 0.000 sin mul sub 2 copy
/fntsize {/Helvetica-0 findfont exch scalefont setfont } def
0.000 320
(-.6) Stxtl
(-.6) stringwidth pop xratio div
dup 4 3 roll exch 0.000 cos mul add 3 1 roll 0.000 sin mul add 2 copy
pop pop pop pop
3357 12771 3197 12771 Sln
3117 12659 0
/Helvetica-0 findfont 320 yratio mul scalefont setfont
(-.4) stringwidth pop add
xratio div
dup 4 3 roll exch 0.000 cos mul sub 3 1 roll 0.000 sin mul sub 2 copy
/fntsize {/Helvetica-0 findfont exch scalefont setfont } def
0.000 320
(-.4) Stxtl
(-.4) stringwidth pop xratio div
dup 4 3 roll exch 0.000 cos mul add 3 1 roll 0.000 sin mul add 2 copy
pop pop pop pop
3357 13795 3197 13795 Sln
3117 13683 0
/Helvetica-0 findfont 320 yratio mul scalefont setfont
(-.2) stringwidth pop add
xratio div
dup 4 3 roll exch 0.000 cos mul sub 3 1 roll 0.000 sin mul sub 2 copy
/fntsize {/Helvetica-0 findfont exch scalefont setfont } def
0.000 320
(-.2) Stxtl
(-.2) stringwidth pop xratio div
dup 4 3 roll exch 0.000 cos mul add 3 1 roll 0.000 sin mul add 2 copy
pop pop pop pop
3357 14819 3197 14819 Sln
3117 14707 0
/Helvetica-0 findfont 320 yratio mul scalefont setfont
(0) stringwidth pop add
xratio div
dup 4 3 roll exch 0.000 cos mul sub 3 1 roll 0.000 sin mul sub 2 copy
/fntsize {/Helvetica-0 findfont exch scalefont setfont } def
0.000 320
(0) Stxtl
(0) stringwidth pop xratio div
dup 4 3 roll exch 0.000 cos mul add 3 1 roll 0.000 sin mul add 2 copy
pop pop pop pop
3357 15843 3197 15843 Sln
3117 15731 0
/Helvetica-0 findfont 320 yratio mul scalefont setfont
(.2) stringwidth pop add
xratio div
dup 4 3 roll exch 0.000 cos mul sub 3 1 roll 0.000 sin mul sub 2 copy
/fntsize {/Helvetica-0 findfont exch scalefont setfont } def
0.000 320
(.2) Stxtl
(.2) stringwidth pop xratio div
dup 4 3 roll exch 0.000 cos mul add 3 1 roll 0.000 sin mul add 2 copy
pop pop pop pop
3357 16867 3197 16867 Sln
3117 16755 0
/Helvetica-0 findfont 320 yratio mul scalefont setfont
(.4) stringwidth pop add
xratio div
dup 4 3 roll exch 0.000 cos mul sub 3 1 roll 0.000 sin mul sub 2 copy
/fntsize {/Helvetica-0 findfont exch scalefont setfont } def
0.000 320
(.4) Stxtl
(.4) stringwidth pop xratio div
dup 4 3 roll exch 0.000 cos mul add 3 1 roll 0.000 sin mul add 2 copy
pop pop pop pop
3357 4939 3357 10916 Sln
3357 5192 3197 5192 Sln
3117 5080 0
/Helvetica-0 findfont 320 yratio mul scalefont setfont
(-.6) stringwidth pop add
xratio div
dup 4 3 roll exch 0.000 cos mul sub 3 1 roll 0.000 sin mul sub 2 copy
/fntsize {/Helvetica-0 findfont exch scalefont setfont } def
0.000 320
(-.6) Stxtl
(-.6) stringwidth pop xratio div
dup 4 3 roll exch 0.000 cos mul add 3 1 roll 0.000 sin mul add 2 copy
pop pop pop pop
3357 6216 3197 6216 Sln
3117 6104 0
/Helvetica-0 findfont 320 yratio mul scalefont setfont
(-.4) stringwidth pop add
xratio div
dup 4 3 roll exch 0.000 cos mul sub 3 1 roll 0.000 sin mul sub 2 copy
/fntsize {/Helvetica-0 findfont exch scalefont setfont } def
0.000 320
(-.4) Stxtl
(-.4) stringwidth pop xratio div
dup 4 3 roll exch 0.000 cos mul add 3 1 roll 0.000 sin mul add 2 copy
pop pop pop pop
3357 7240 3197 7240 Sln
3117 7128 0
/Helvetica-0 findfont 320 yratio mul scalefont setfont
(-.2) stringwidth pop add
xratio div
dup 4 3 roll exch 0.000 cos mul sub 3 1 roll 0.000 sin mul sub 2 copy
/fntsize {/Helvetica-0 findfont exch scalefont setfont } def
0.000 320
(-.2) Stxtl
(-.2) stringwidth pop xratio div
dup 4 3 roll exch 0.000 cos mul add 3 1 roll 0.000 sin mul add 2 copy
pop pop pop pop
3357 8264 3197 8264 Sln
3117 8152 0
/Helvetica-0 findfont 320 yratio mul scalefont setfont
(0) stringwidth pop add
xratio div
dup 4 3 roll exch 0.000 cos mul sub 3 1 roll 0.000 sin mul sub 2 copy
/fntsize {/Helvetica-0 findfont exch scalefont setfont } def
0.000 320
(0) Stxtl
(0) stringwidth pop xratio div
dup 4 3 roll exch 0.000 cos mul add 3 1 roll 0.000 sin mul add 2 copy
pop pop pop pop
3357 9288 3197 9288 Sln
3117 9176 0
/Helvetica-0 findfont 320 yratio mul scalefont setfont
(.2) stringwidth pop add
xratio div
dup 4 3 roll exch 0.000 cos mul sub 3 1 roll 0.000 sin mul sub 2 copy
/fntsize {/Helvetica-0 findfont exch scalefont setfont } def
0.000 320
(.2) Stxtl
(.2) stringwidth pop xratio div
dup 4 3 roll exch 0.000 cos mul add 3 1 roll 0.000 sin mul add 2 copy
pop pop pop pop
3357 10312 3197 10312 Sln
3117 10200 0
/Helvetica-0 findfont 320 yratio mul scalefont setfont
(.4) stringwidth pop add
xratio div
dup 4 3 roll exch 0.000 cos mul sub 3 1 roll 0.000 sin mul sub 2 copy
/fntsize {/Helvetica-0 findfont exch scalefont setfont } def
0.000 320
(.4) Stxtl
(.4) stringwidth pop xratio div
dup 4 3 roll exch 0.000 cos mul add 3 1 roll 0.000 sin mul add 2 copy
pop pop pop pop
3357 4939 13258 4939 Sln
4347 4939 4347 4779 Sln
4446 4600 0
/Helvetica-0 findfont 400 yratio mul scalefont setfont
(0-1) stringwidth pop add
xratio div
dup 4 3 roll exch 45.000 cos mul sub 3 1 roll 45.000 sin mul sub 2 copy
/fntsize {/Helvetica-0 findfont exch scalefont setfont } def
45.000 400
(0-1) Stxtl
(0-1) stringwidth pop xratio div
dup 4 3 roll exch 45.000 cos mul add 3 1 roll 45.000 sin mul add 2 copy
pop pop pop pop
6327 4939 6327 4779 Sln
6426 4600 0
/Helvetica-0 findfont 400 yratio mul scalefont setfont
(2-4) stringwidth pop add
xratio div
dup 4 3 roll exch 45.000 cos mul sub 3 1 roll 45.000 sin mul sub 2 copy
/fntsize {/Helvetica-0 findfont exch scalefont setfont } def
45.000 400
(2-4) Stxtl
(2-4) stringwidth pop xratio div
dup 4 3 roll exch 45.000 cos mul add 3 1 roll 45.000 sin mul add 2 copy
pop pop pop pop
8308 4939 8308 4779 Sln
8407 4600 0
/Helvetica-0 findfont 400 yratio mul scalefont setfont
(5-7) stringwidth pop add
xratio div
dup 4 3 roll exch 45.000 cos mul sub 3 1 roll 45.000 sin mul sub 2 copy
/fntsize {/Helvetica-0 findfont exch scalefont setfont } def
45.000 400
(5-7) Stxtl
(5-7) stringwidth pop xratio div
dup 4 3 roll exch 45.000 cos mul add 3 1 roll 45.000 sin mul add 2 copy
pop pop pop pop
10288 4939 10288 4779 Sln
10387 4600 0
/Helvetica-0 findfont 400 yratio mul scalefont setfont
(8-10) stringwidth pop add
xratio div
dup 4 3 roll exch 45.000 cos mul sub 3 1 roll 45.000 sin mul sub 2 copy
/fntsize {/Helvetica-0 findfont exch scalefont setfont } def
45.000 400
(8-10) Stxtl
(8-10) stringwidth pop xratio div
dup 4 3 roll exch 45.000 cos mul add 3 1 roll 45.000 sin mul add 2 copy
pop pop pop pop
12268 4939 12268 4779 Sln
12367 4600 0
/Helvetica-0 findfont 400 yratio mul scalefont setfont
(11-15) stringwidth pop add
xratio div
dup 4 3 roll exch 45.000 cos mul sub 3 1 roll 45.000 sin mul sub 2 copy
/fntsize {/Helvetica-0 findfont exch scalefont setfont } def
45.000 400
(11-15) Stxtl
(11-15) stringwidth pop xratio div
dup 4 3 roll exch 45.000 cos mul add 3 1 roll 45.000 sin mul add 2 copy
pop pop pop pop
13258 4939 23160 4939 Sln
14249 4939 14249 4779 Sln
14348 4600 0
/Helvetica-0 findfont 400 yratio mul scalefont setfont
(0-1) stringwidth pop add
xratio div
dup 4 3 roll exch 45.000 cos mul sub 3 1 roll 45.000 sin mul sub 2 copy
/fntsize {/Helvetica-0 findfont exch scalefont setfont } def
45.000 400
(0-1) Stxtl
(0-1) stringwidth pop xratio div
dup 4 3 roll exch 45.000 cos mul add 3 1 roll 45.000 sin mul add 2 copy
pop pop pop pop
16229 4939 16229 4779 Sln
16328 4600 0
/Helvetica-0 findfont 400 yratio mul scalefont setfont
(2-4) stringwidth pop add
xratio div
dup 4 3 roll exch 45.000 cos mul sub 3 1 roll 45.000 sin mul sub 2 copy
/fntsize {/Helvetica-0 findfont exch scalefont setfont } def
45.000 400
(2-4) Stxtl
(2-4) stringwidth pop xratio div
dup 4 3 roll exch 45.000 cos mul add 3 1 roll 45.000 sin mul add 2 copy
pop pop pop pop
18209 4939 18209 4779 Sln
18308 4600 0
/Helvetica-0 findfont 400 yratio mul scalefont setfont
(5-7) stringwidth pop add
xratio div
dup 4 3 roll exch 45.000 cos mul sub 3 1 roll 45.000 sin mul sub 2 copy
/fntsize {/Helvetica-0 findfont exch scalefont setfont } def
45.000 400
(5-7) Stxtl
(5-7) stringwidth pop xratio div
dup 4 3 roll exch 45.000 cos mul add 3 1 roll 45.000 sin mul add 2 copy
pop pop pop pop
20190 4939 20190 4779 Sln
20289 4600 0
/Helvetica-0 findfont 400 yratio mul scalefont setfont
(8-10) stringwidth pop add
xratio div
dup 4 3 roll exch 45.000 cos mul sub 3 1 roll 45.000 sin mul sub 2 copy
/fntsize {/Helvetica-0 findfont exch scalefont setfont } def
45.000 400
(8-10) Stxtl
(8-10) stringwidth pop xratio div
dup 4 3 roll exch 45.000 cos mul add 3 1 roll 45.000 sin mul add 2 copy
pop pop pop pop
22170 4939 22170 4779 Sln
22269 4600 0
/Helvetica-0 findfont 400 yratio mul scalefont setfont
(11-15) stringwidth pop add
xratio div
dup 4 3 roll exch 45.000 cos mul sub 3 1 roll 45.000 sin mul sub 2 copy
/fntsize {/Helvetica-0 findfont exch scalefont setfont } def
45.000 400
(11-15) Stxtl
(11-15) stringwidth pop xratio div
dup 4 3 roll exch 45.000 cos mul add 3 1 roll 45.000 sin mul add 2 copy
pop pop pop pop
/Ssrgb {1.000 1.000 1.000} def
/Slrgb {1.000 1.000 1.000} def
3357 30582 13258 31160 0 1 Srect
3369 30594 13246 31148 1 0 Srect
8308 30783 0
/Helvetica-0 findfont 440 yratio mul scalefont setfont
(Employed \(MSM\)) stringwidth pop add
2 div xratio div
dup 4 3 roll exch 0.000 cos mul sub 3 1 roll 0.000 sin mul sub 2 copy
/fntsize {/Helvetica-0 findfont exch scalefont setfont } def
0.000 440
(Employed \(MSM\)) Stxtl
(Employed \(MSM\)) stringwidth pop xratio div
dup 4 3 roll exch 0.000 cos mul add 3 1 roll 0.000 sin mul add 2 copy
pop pop pop pop
13258 30582 23160 31160 0 1 Srect
13270 30594 23148 31148 1 0 Srect
18209 30783 0
/Helvetica-0 findfont 440 yratio mul scalefont setfont
(Employed \(FE\)) stringwidth pop add
2 div xratio div
dup 4 3 roll exch 0.000 cos mul sub 3 1 roll 0.000 sin mul sub 2 copy
/fntsize {/Helvetica-0 findfont exch scalefont setfont } def
0.000 440
(Employed \(FE\)) Stxtl
(Employed \(FE\)) stringwidth pop xratio div
dup 4 3 roll exch 0.000 cos mul add 3 1 roll 0.000 sin mul add 2 copy
pop pop pop pop
3357 24026 13258 24605 0 1 Srect
3369 24038 13246 24593 1 0 Srect
8308 24228 0
/Helvetica-0 findfont 440 yratio mul scalefont setfont
(Smoking \(MSM\)) stringwidth pop add
2 div xratio div
dup 4 3 roll exch 0.000 cos mul sub 3 1 roll 0.000 sin mul sub 2 copy
/fntsize {/Helvetica-0 findfont exch scalefont setfont } def
0.000 440
(Smoking \(MSM\)) Stxtl
(Smoking \(MSM\)) stringwidth pop xratio div
dup 4 3 roll exch 0.000 cos mul add 3 1 roll 0.000 sin mul add 2 copy
pop pop pop pop
13258 24026 23160 24605 0 1 Srect
13270 24038 23148 24593 1 0 Srect
18209 24228 0
/Helvetica-0 findfont 440 yratio mul scalefont setfont
(Smoking \(FE\)) stringwidth pop add
2 div xratio div
dup 4 3 roll exch 0.000 cos mul sub 3 1 roll 0.000 sin mul sub 2 copy
/fntsize {/Helvetica-0 findfont exch scalefont setfont } def
0.000 440
(Smoking \(FE\)) Stxtl
(Smoking \(FE\)) stringwidth pop xratio div
dup 4 3 roll exch 0.000 cos mul add 3 1 roll 0.000 sin mul add 2 copy
pop pop pop pop
3357 17471 13258 18049 0 1 Srect
3369 17483 13246 18037 1 0 Srect
8308 17672 0
/Helvetica-0 findfont 440 yratio mul scalefont setfont
(Alcohol \(MSM\)) stringwidth pop add
2 div xratio div
dup 4 3 roll exch 0.000 cos mul sub 3 1 roll 0.000 sin mul sub 2 copy
/fntsize {/Helvetica-0 findfont exch scalefont setfont } def
0.000 440
(Alcohol \(MSM\)) Stxtl
(Alcohol \(MSM\)) stringwidth pop xratio div
dup 4 3 roll exch 0.000 cos mul add 3 1 roll 0.000 sin mul add 2 copy
pop pop pop pop
13258 17471 23160 18049 0 1 Srect
13270 17483 23148 18037 1 0 Srect
18209 17672 0
/Helvetica-0 findfont 440 yratio mul scalefont setfont
(Alcohol \(FE\)) stringwidth pop add
2 div xratio div
dup 4 3 roll exch 0.000 cos mul sub 3 1 roll 0.000 sin mul sub 2 copy
/fntsize {/Helvetica-0 findfont exch scalefont setfont } def
0.000 440
(Alcohol \(FE\)) Stxtl
(Alcohol \(FE\)) stringwidth pop xratio div
dup 4 3 roll exch 0.000 cos mul add 3 1 roll 0.000 sin mul add 2 copy
pop pop pop pop
3357 10916 13258 11494 0 1 Srect
3369 10928 13246 11482 1 0 Srect
8308 11117 0
/Helvetica-0 findfont 440 yratio mul scalefont setfont
(Hypertension \(MSM\)) stringwidth pop add
2 div xratio div
dup 4 3 roll exch 0.000 cos mul sub 3 1 roll 0.000 sin mul sub 2 copy
/fntsize {/Helvetica-0 findfont exch scalefont setfont } def
0.000 440
(Hypertension \(MSM\)) Stxtl
(Hypertension \(MSM\)) stringwidth pop xratio div
dup 4 3 roll exch 0.000 cos mul add 3 1 roll 0.000 sin mul add 2 copy
pop pop pop pop
13258 10916 23160 11494 0 1 Srect
13270 10928 23148 11482 1 0 Srect
18209 11117 0
/Helvetica-0 findfont 440 yratio mul scalefont setfont
(Hypertension \(FE\)) stringwidth pop add
2 div xratio div
dup 4 3 roll exch 0.000 cos mul sub 3 1 roll 0.000 sin mul sub 2 copy
/fntsize {/Helvetica-0 findfont exch scalefont setfont } def
0.000 440
(Hypertension \(FE\)) Stxtl
(Hypertension \(FE\)) stringwidth pop xratio div
dup 4 3 roll exch 0.000 cos mul add 3 1 roll 0.000 sin mul add 2 copy
pop pop pop pop
/Slw 1.296 def
/Slrgb {0.000 0.000 0.000} def
5962 1128 18704 2681 0 1 Srect
5986 1152 18680 2657 1 0 Srect
/Slw 1.944 def
/Slrgb {0.376 0.376 0.376} def
6322 1905 9442 1905 Sln
/Slrgb {0.627 0.627 0.627} def
12469 1905 12661 1905 Sln
12829 1905 13021 1905 Sln
13189 1905 13381 1905 Sln
13549 1905 13741 1905 Sln
13909 1905 14101 1905 Sln
14269 1905 14461 1905 Sln
14628 1905 14820 1905 Sln
14988 1905 15180 1905 Sln
15348 1905 15540 1905 Sln
9942 1672 2 copy
/fntsize {/Helvetica-0 findfont exch scalefont setfont } def
0.000 666
(men) Stxtl
(men) stringwidth pop xratio div
dup 4 3 roll exch 0.000 cos mul add 3 1 roll 0.000 sin mul add 2 copy
pop pop pop pop
16089 1672 2 copy
/fntsize {/Helvetica-0 findfont exch scalefont setfont } def
0.000 666
(women) Stxtl
(women) stringwidth pop xratio div
dup 4 3 roll exch 0.000 cos mul add 3 1 roll 0.000 sin mul add 2 copy
pop pop pop pop
1306 17398 0
/Helvetica-0 findfont 666 yratio mul scalefont setfont
(Marginal effect) stringwidth pop add
2 div xratio div
dup 4 3 roll exch 90.000 cos mul sub 3 1 roll 90.000 sin mul sub 2 copy
/fntsize {/Helvetica-0 findfont exch scalefont setfont } def
90.000 666
(Marginal effect) Stxtl
(Marginal effect) stringwidth pop xratio div
dup 4 3 roll exch 90.000 cos mul add 3 1 roll 90.000 sin mul add 2 copy
pop pop pop pop
12333 3169 0
/Helvetica-0 findfont 666 yratio mul scalefont setfont
(Years after diagnosis) stringwidth pop add
2 div xratio div
dup 4 3 roll exch 0.000 cos mul sub 3 1 roll 0.000 sin mul sub 2 copy
/fntsize {/Helvetica-0 findfont exch scalefont setfont } def
0.000 666
(Years after diagnosis) Stxtl
(Years after diagnosis) stringwidth pop xratio div
dup 4 3 roll exch 0.000 cos mul add 3 1 roll 0.000 sin mul add 2 copy
pop pop pop pop
S showpage
%%EOF
