%!PS-Adobe-2.0 EPSF-2.0
%% This is a Stata generated postscript file
%%BoundingBox: 0 0 648 864
%%HiResBoundingBox: 0.000 0.000 648.000 864.000
%%DocumentNeededResources: font Helvetica
/xratio 0.027000 def
/yratio 0.027000 def
/Sbgfill {
	/y1 exch def
	/x1 exch def
	/y0 exch def
	/x0 exch def
	x0 y0 moveto
	x0 y1 lineto x1 y1 lineto x1 y0 lineto x0 y0 lineto
	fill
} def
/Spt {
	yratio mul
	/yp exch def
	xratio mul
	/xp exch def
	Slrgb setrgbcolor
	xp yp .5 0 360 arc fill
} def
/Sln {
	yratio mul
	/y1p exch def
	xratio mul
	/x1p exch def
	yratio mul
	/y0p exch def
	xratio mul
	/x0p exch def
	Slw setlinewidth
	Slrgb setrgbcolor
	x0p y0p M x1p y1p lineto S
} def
/Scrv {
	yratio mul
	/y3p exch def
	xratio mul
	/x3p exch def
	yratio mul
	/y2p exch def
	xratio mul
	/x2p exch def
	yratio mul
	/y1p exch def
	xratio mul
	/x1p exch def
	Slw setlinewidth
	Slrgb setrgbcolor
	x1p y1p x2p y2p x3p y3p curveto
	stroke
} def
/Stxtl {
	/sp exch def
	yratio mul
	/sizep exch def
	dup
	/anglep exch def
	0 exch sub
	/angle2p exch def
	yratio mul
	/y0p exch def
	xratio mul
	/x0p exch def
	Strgb setrgbcolor
	x0p y0p M anglep rotate sizep fntsize sp show stroke angle2p rotate
} def
/Stxtc {
	/sp exch def
	yratio mul
	/sizep exch def
	dup
	/anglep exch def
	0 exch sub
	/angle2p exch def
	yratio mul
	/y0p exch def
	xratio mul
	/x0p exch def
	Strgb setrgbcolor
	x0p y0p M anglep rotate sizep fntsize sp stringwidth exch -2 div exch rm sp show stroke angle2p rotate
} def
/Stxtr {
	/sp exch def
	yratio mul
	/sizep exch def
	dup
	/anglep exch def
	0 exch sub
	/angle2p exch def
	yratio mul
	/y0p exch def
	xratio mul
	/x0p exch def
	Strgb setrgbcolor
	x0p y0p M anglep rotate sizep fntsize sp stringwidth 1 index -1 mul exch rm pop sp show stroke angle2p rotate
} def
/Srect {
	/sfill exch def
	/sstroke exch def
	yratio mul
	/y1 exch def
	xratio mul
	/x1 exch def
	yratio mul
	/y0 exch def
	xratio mul
	/x0 exch def
	newpath x0 y0 moveto x0 y1 lineto x1 y1 lineto x1 y0 lineto x0 y0 lineto closepath
	sfill Sfill
	sstroke Sstroke
} def
/Sellipse {
	/sfill exch def
	/sstroke exch def
	yratio mul
	/yrad exch def
	xratio mul
	/xrad exch def
	yratio mul
	/y exch def
	xratio mul
	/x exch def
	/savematrix matrix currentmatrix def
	x y translate
	xrad yrad scale
	0 0 1 0 360 arc
	savematrix setmatrix
	sfill Sfill
	sstroke Sstroke
} def
/Stri {
	/sfill exch def
	/sstroke exch def
	xratio mul
	/r exch def
	yratio mul
	/y0 exch def
	xratio mul
	/x0 exch def
	/xcen x0 def
	y0 r add
	/ytop exch def
	r 2 div
	y0 exch sub
	/ybot exch def
	r 3 sqrt 2 div mul dup
	xcen exch sub
	/xleft exch def
	xcen add
	/xright exch def
	newpath xcen ytop moveto xright ybot lineto xleft ybot lineto xcen ytop lineto closepath
	sfill Sfill
	sstroke Sstroke
} def
/Soldtri {
	/sfill exch def
	xratio mul
	/r exch def
	yratio mul
	/y0 exch def
	xratio mul
	/x0 exch def
	x0 r sub
	/x1 exch def
	y0 r sub
	/y1 exch def
	x0 r add
	/x2 exch def
	y0 r sub
	/y2 exch def
	/x3 x0 def
	y0 r add
	/y3 exch def
	newpath x1 y1 moveto x2 y2 lineto x3 y3 lineto x1 y1 lineto closepath
	sfill 1 eq {
		Ssrgb setrgbcolor
		gsave
		fill
		grestore
	} if
	Slw setlinewidth
	Slrgb setrgbcolor
	stroke
} def
/Sdia {
	/sfill exch def
	/sstroke exch def
	xratio mul
	/r exch def
	yratio mul
	/y exch def
	xratio mul
	/x exch def
	x r sub
	/x0 exch def
	/y0 y def
	/x1 x def
	y r sub
	/y1 exch def
	x r add
	/x2 exch def
	/y2 y def
	/x3 x def
	y r add
	/y3 exch def
	newpath x0 y0 moveto x1 y1 lineto x2 y2 lineto x3 y3 lineto closepath
	sfill Sfill
	sstroke Sstroke
} def
/Scc {
	/sfill exch def
	/sstroke exch def
	xratio mul
	/r0 exch def
	yratio mul
	/y0 exch def
	xratio mul
	/x0 exch def
	x0 y0 r0 0 360 arc closepath
	sfill Sfill
	sstroke Sstroke
} def
/Spie {
	/sfill exch def
	/salign exch def
	/a1 exch def
	/a0 exch def
	xratio mul
	/r exch def
	yratio mul
	/y exch def
	xratio mul
	/x exch def
	/Pie {
		x y moveto x y r a0 a1 arc closepath
	} def
	newpath Pie
	sfill Sfill
	Slrgb setrgbcolor
	salign 0 eq {
		gsave
		Slw 2 mul setlinewidth
		clip
		stroke
		grestore
	} if
	salign 1 eq {
		Slw setlinewidth
		stroke
	} if
	salign 2 eq {
		gsave
		Slw 2 mul setlinewidth
		strokepath
		pathbbox
		/ury exch def
		/urx exch def
		/lly exch def
		/llx exch def
		newpath llx lly moveto llx ury lineto urx ury lineto urx lly lineto closepath
		Pie
		eoclip
		newpath Pie
		stroke
		grestore
	} if
	newpath
} def
/Splu {
	xratio mul
	/r exch def
	yratio mul
	/y exch def
	xratio mul
	/x exch def
	x r sub
	/x0 exch def
	x r add
	/x1 exch def
	x0 y M x1 y L
	y r sub
	/y0 exch def
	y r add
	/y1 exch def
	x y0 M x y1 L
} def
/Scro {
	xratio mul
	/r exch def
	yratio mul
	/y exch def
	xratio mul
	/x exch def
	x r sub
	/x0 exch def
	y r sub
	/y0 exch def
	x r add
	/x1 exch def
	y r add
	/y1 exch def
	x0 y0 M x1 y1 L
	x r add
	/x0 exch def
	y r sub
	/y0 exch def
	x r sub
	/x1 exch def
	y r add
	/y1 exch def
	x0 y0 M x1 y1 L
} def
/Sm {
	yratio mul
	/y exch def
	xratio mul
	/x exch def
	x y M
} def
/Sl {
	yratio mul
	/y exch def
	xratio mul
	/x exch def
	x y L
} def
/SPl {
	yratio mul
	/y exch def
	xratio mul
	/x exch def
	x y PL
} def
/Sarr {
	/sfill exch def
	xratio mul
	/r exch def
	yratio mul
	/y exch def
	xratio mul
	/x exch def
	y r add
	/ytop exch def
	y r sub
	/ybot exch def
	gsave
	Slrgb setrgbcolor
	sfill 0 eq {
		r 2 mul 3 div dup
		x exch sub
		/xleft exch def
		x add
		/xright exch def
		newpath xleft y moveto x ytop lineto xright y lineto x ytop moveto x ybot lineto
		Lcs
		1 setlinejoin
	} {
		r 2 div dup
		x exch sub
		/xleft exch def
		x add
		/xright exch def
		newpath xleft y moveto x ytop lineto xright y lineto x ytop closepath moveto x ybot lineto
		gsave
		fill
		grestore
	} ifelse
	Slw setlinewidth
	stroke
	grestore
} def
/Spipe {
	xratio mul
	/r exch def
	yratio mul
	/y exch def
	xratio mul
	/x exch def
	y r sub
	/y0 exch def
	y r add
	/y1 exch def
	x y0 M x y1 L
} def
/Sv {
	xratio mul
	/r exch def
	yratio mul
	/y0 exch def
	xratio mul
	/x0 exch def
	/xcen x0 def
	y0 r add
	/ytop exch def
	r 2 div
	y0 exch sub
	/ybot exch def
	r 3 sqrt 2 div mul dup
	xcen exch sub
	/xleft exch def
	xcen add
	/xright exch def
	newpath xleft ytop moveto xcen ybot lineto xright ytop lineto
	Slw setlinewidth
	Slrgb setrgbcolor
	stroke
} def
/Lcs {
	currentlinecap
	1 setlinecap
} def
/Lcr {
	setlinecap
} def
/Sbp {
	newpath
} def
/Sep {
	/sfill exch def
	closepath
	/salign exch def
	Lcs
	salign 0 eq {
		sfill Sfill
		gsave
		Slw 2 mul setlinewidth
		clip
		Slrgb setrgbcolor
		stroke
		grestore
	} if
	salign 1 eq {
		sfill Sfill
		Slw setlinewidth
		Slrgb setrgbcolor
		stroke
	} if
	salign 2 eq {
		gsave
		Slw 2 mul setlinewidth
		Slrgb setrgbcolor
		stroke
		grestore
		sfill Sfill
	} if
	newpath
	Lcr
} def
/Stransrot {
	/anglep exch def
	yratio mul
	/y exch def
	xratio mul
	/x exch def
	x y translate
	anglep rotate
	x neg y neg translate
} def
/cp {currentpoint} def 
/M {moveto} def 
/rm {rmoveto} def 
/S {stroke} def 
/L {Slw setlinewidth Slrgb setrgbcolor lineto Lcs S Lcr} def 
/PL {Slw setlinewidth Slrgb setrgbcolor lineto} def 
/MF-Helvetica {
  /newfontname exch def
  /fontname exch def
  /fontdict fontname findfont def
  /newfont fontdict maxlength dict def
  fontdict {
  exch dup /FID eq {pop pop} {exch newfont 3 1 roll put} ifelse
  } forall
  newfont /FontName newfontname put
  newfont /Encoding ISOLatin1Encoding put
  newfontname newfont definefont pop
} def
/Helvetica /Helvetica-0 MF-Helvetica
/Slw 0.120 def
1.000 1.000 1.000 setrgbcolor
0 0 648.000 864.000 Sbgfill
/Sfill {
	/sfill exch def
	sfill 1 eq {
		Ssrgb setrgbcolor
		gsave
		fill
		grestore
	} if
} def
/Sstroke {
	/sstroke exch def
	sstroke 1 eq {
		Slw setlinewidth
		Slrgb setrgbcolor
		stroke
	} if
	newpath
} def
/Slrgb {1.000 1.000 1.000} def
/Strgb {1.000 1.000 1.000} def
/Ssrgb {1.000 1.000 1.000} def
/Slw 1.296 def
0 0 24000 32000 0 1 Srect
24 24 23976 31976 1 0 Srect
/Slw 0.622 def
/Slrgb {0.000 0.000 0.000} def
2783 22420 12333 30582 0 0 Srect
2795 22432 12321 30570 1 0 Srect
/Strgb {0.000 0.000 0.000} def
/Slw 0.933 def
/Slrgb {0.188 0.188 0.188} def
2783 27266 12333 27266 Sln
/Slw 0.622 def
/Slrgb {0.000 0.000 0.000} def
13610 22420 23160 30582 0 0 Srect
13622 22432 23148 30570 1 0 Srect
/Slw 0.933 def
/Slrgb {0.188 0.188 0.188} def
13610 28615 23160 28615 Sln
/Slw 0.622 def
/Slrgb {0.000 0.000 0.000} def
2783 13679 12333 21841 0 0 Srect
2795 13691 12321 21829 1 0 Srect
/Slw 0.933 def
/Slrgb {0.188 0.188 0.188} def
2783 17812 12333 17812 Sln
/Slw 0.622 def
/Slrgb {0.000 0.000 0.000} def
13610 13679 23160 21841 0 0 Srect
13622 13691 23148 21829 1 0 Srect
/Slw 0.933 def
/Slrgb {0.188 0.188 0.188} def
13610 18526 23160 18526 Sln
/Slw 0.622 def
/Slrgb {0.000 0.000 0.000} def
2783 4939 12333 13101 0 0 Srect
2795 4951 12321 13089 1 0 Srect
/Slw 0.933 def
/Slrgb {0.188 0.188 0.188} def
2783 9020 12333 9020 Sln
/Slw 0.622 def
/Slrgb {0.000 0.000 0.000} def
13610 4939 23160 13101 0 0 Srect
13622 4951 23148 13089 1 0 Srect
/Slw 0.933 def
/Slrgb {0.188 0.188 0.188} def
13610 8959 23160 8959 Sln
/Ssrgb {0.502 0.502 0.502} def
/Slrgb {0.376 0.376 0.376} def
3420 25228 3420 27639 Sln
5330 25559 5330 27121 Sln
7240 24769 7240 27463 Sln
9150 23466 9150 26814 Sln
11060 22721 11060 27222 Sln
3419 26433 Sm
5329 26340 Sl
5329 26340 Sm
7239 26115 Sl
7239 26115 Sm
9149 25140 Sl
9149 25140 Sm
11059 24971 Sl
/Ssrgb {0.702 0.702 0.702} def
/Slrgb {0.627 0.627 0.627} def
4056 25762 4056 28346 Sln
5966 25960 5966 27616 Sln
7877 24969 7877 27416 Sln
9787 24747 9787 28366 Sln
11697 24327 11697 29999 Sln
4056 27054 4246 27027 Sln
4413 27004 4603 26977 Sln
4769 26954 4959 26928 Sln
5125 26905 5315 26878 Sln
5482 26855 5672 26829 Sln
5838 26806 5966 26788 Sln
5966 26788 6026 26769 Sln
6186 26719 6369 26662 Sln
6530 26612 6713 26555 Sln
6874 26505 7057 26448 Sln
7217 26398 7400 26340 Sln
7561 26291 7744 26234 Sln
7905 26198 8094 26234 Sln
8258 26265 8447 26301 Sln
8612 26333 8800 26368 Sln
8965 26400 9154 26436 Sln
9319 26467 9507 26503 Sln
9672 26534 9786 26556 Sln
9786 26556 9859 26579 Sln
10019 26630 10202 26688 Sln
10362 26739 10545 26797 Sln
10705 26848 10888 26906 Sln
11048 26957 11232 27015 Sln
11392 27066 11574 27124 Sln
/Ssrgb {0.502 0.502 0.502} def
/Slrgb {0.376 0.376 0.376} def
14247 26288 14247 28514 Sln
16157 26909 16157 28425 Sln
18067 25738 18067 27989 Sln
19977 23965 19977 27786 Sln
21887 22673 21887 27072 Sln
14246 27400 Sm
16156 27667 Sl
16156 27667 Sm
18066 26863 Sl
18066 26863 Sm
19976 25875 Sl
19976 25875 Sm
21886 24872 Sl
/Ssrgb {0.702 0.702 0.702} def
/Slrgb {0.627 0.627 0.627} def
14883 26672 14883 28740 Sln
16793 26970 16793 28547 Sln
18703 25753 18703 27820 Sln
20613 25883 20613 28949 Sln
22523 25295 22523 30328 Sln
14883 27705 15075 27711 Sln
15243 27715 15435 27720 Sln
15603 27725 15795 27730 Sln
15963 27735 16155 27740 Sln
16322 27744 16514 27750 Sln
16682 27755 16793 27758 Sln
16793 27758 16865 27721 Sln
17015 27645 17186 27557 Sln
17336 27481 17507 27394 Sln
17657 27318 17828 27231 Sln
17978 27154 18149 27067 Sln
18299 26991 18470 26904 Sln
18620 26828 18703 26786 Sln
18703 26786 18797 26817 Sln
18956 26870 19138 26930 Sln
19298 26982 19480 27042 Sln
19640 27095 19822 27155 Sln
19981 27208 20163 27268 Sln
20323 27321 20506 27381 Sln
20667 27427 20855 27466 Sln
21019 27500 21207 27539 Sln
21372 27573 21560 27612 Sln
21724 27646 21912 27684 Sln
22077 27718 22265 27757 Sln
22429 27791 22523 27811 Sln
/Ssrgb {0.502 0.502 0.502} def
/Slrgb {0.376 0.376 0.376} def
3420 15364 3420 19407 Sln
5330 15722 5330 18090 Sln
7240 15002 7240 18437 Sln
9150 13933 9150 18310 Sln
11060 15676 11060 20974 Sln
3419 17385 Sm
5329 16905 Sl
5329 16905 Sm
7239 16719 Sl
7239 16719 Sm
9149 16121 Sl
9149 16121 Sm
11059 18324 Sl
/Ssrgb {0.702 0.702 0.702} def
/Slrgb {0.627 0.627 0.627} def
4056 16628 4056 19119 Sln
5966 16648 5966 18100 Sln
7877 16801 7877 18834 Sln
9787 14591 9787 17442 Sln
11697 14577 11697 17677 Sln
4056 17873 4242 17824 Sln
4404 17782 4590 17733 Sln
4752 17691 4938 17642 Sln
5100 17600 5286 17551 Sln
5448 17509 5634 17460 Sln
5796 17417 5966 17373 Sln
5966 17373 5982 17377 Sln
6145 17415 6333 17458 Sln
6496 17496 6683 17539 Sln
6847 17577 7034 17621 Sln
7197 17659 7384 17702 Sln
7548 17740 7735 17784 Sln
7892 17801 8032 17670 Sln
8154 17555 8294 17423 Sln
8416 17308 8556 17176 Sln
8678 17060 8818 16929 Sln
8940 16814 9080 16682 Sln
9202 16567 9342 16435 Sln
9464 16320 9603 16189 Sln
9726 16073 9786 16016 Sln
9786 16016 9895 16023 Sln
10062 16032 10254 16043 Sln
10421 16053 10613 16064 Sln
10780 16073 10972 16084 Sln
11139 16094 11331 16105 Sln
11499 16115 11690 16126 Sln
/Ssrgb {0.502 0.502 0.502} def
/Slrgb {0.376 0.376 0.376} def
14247 15461 14247 18726 Sln
16157 16010 16157 18876 Sln
18067 16067 18067 19790 Sln
19977 14206 19977 19353 Sln
21887 14273 21887 20960 Sln
14246 17093 Sm
16156 17442 Sl
16156 17442 Sm
18066 17928 Sl
18066 17928 Sm
19976 16779 Sl
19976 16779 Sm
21886 17616 Sl
/Ssrgb {0.702 0.702 0.702} def
/Slrgb {0.627 0.627 0.627} def
14883 16436 14883 19191 Sln
16793 17112 16793 19178 Sln
18703 16876 18703 19982 Sln
20613 14988 20613 18609 Sln
22523 14915 22523 19375 Sln
14883 17813 15072 17846 Sln
15237 17875 15426 17908 Sln
15592 17936 15781 17969 Sln
15946 17997 16135 18030 Sln
16301 18059 16490 18091 Sln
16655 18120 16793 18144 Sln
16793 18144 16845 18152 Sln
17011 18176 17201 18205 Sln
17367 18230 17557 18258 Sln
17723 18283 17913 18311 Sln
18079 18336 18269 18364 Sln
18434 18389 18624 18417 Sln
18770 18371 18916 18247 Sln
19044 18138 19190 18014 Sln
19318 17904 19464 17780 Sln
19591 17671 19738 17546 Sln
19865 17437 20011 17312 Sln
20139 17203 20285 17079 Sln
20412 16969 20558 16845 Sln
20707 16815 20896 16850 Sln
21062 16880 21251 16914 Sln
21416 16944 21605 16979 Sln
21771 17009 21960 17043 Sln
22125 17073 22314 17107 Sln
22479 17137 22523 17145 Sln
/Ssrgb {0.502 0.502 0.502} def
/Slrgb {0.376 0.376 0.376} def
3420 6924 3420 10693 Sln
5330 7778 5330 9718 Sln
7240 7123 7240 9756 Sln
9150 6659 9150 11651 Sln
11060 6090 11060 10584 Sln
3419 8808 Sm
5329 8747 Sl
5329 8747 Sm
7239 8439 Sl
7239 8439 Sm
9149 9155 Sl
9149 9155 Sm
11059 8336 Sl
/Ssrgb {0.702 0.702 0.702} def
/Slrgb {0.627 0.627 0.627} def
4056 6660 4056 8526 Sln
5966 7321 5966 8973 Sln
7877 6585 7877 8874 Sln
9787 5717 9787 8538 Sln
11697 5849 11697 12468 Sln
4056 7593 4241 7647 Sln
4402 7693 4587 7746 Sln
4748 7793 4933 7847 Sln
5094 7894 5279 7947 Sln
5440 7994 5625 8047 Sln
5786 8094 5966 8146 Sln
5966 8146 5971 8145 Sln
6135 8109 6322 8068 Sln
6486 8032 6674 7992 Sln
6838 7956 7025 7915 Sln
7189 7879 7377 7838 Sln
7541 7802 7728 7761 Sln
7892 7724 8075 7667 Sln
8235 7616 8418 7558 Sln
8578 7508 8761 7450 Sln
8921 7400 9104 7342 Sln
9264 7292 9447 7234 Sln
9607 7183 9786 7127 Sln
9786 7127 9790 7131 Sln
9905 7253 10036 7392 Sln
10151 7515 10283 7654 Sln
10398 7776 10529 7916 Sln
10645 8038 10776 8178 Sln
10891 8301 11022 8441 Sln
11137 8563 11269 8703 Sln
11384 8825 11515 8965 Sln
11630 9087 11696 9158 Sln
/Ssrgb {0.502 0.502 0.502} def
/Slrgb {0.376 0.376 0.376} def
14247 7538 14247 10559 Sln
16157 8361 16157 10251 Sln
18067 7668 18067 10502 Sln
19977 7560 19977 12847 Sln
21887 6896 21887 11392 Sln
14246 9048 Sm
16156 9305 Sl
16156 9305 Sm
18066 9084 Sl
18066 9084 Sm
19976 10203 Sl
19976 10203 Sm
21886 9144 Sl
/Ssrgb {0.702 0.702 0.702} def
/Slrgb {0.627 0.627 0.627} def
14883 6367 14883 8887 Sln
16793 7476 16793 9455 Sln
18703 7100 18703 9635 Sln
20613 6198 20613 9199 Sln
22523 5724 22523 12601 Sln
14883 7626 15059 7703 Sln
15212 7771 15388 7848 Sln
15542 7915 15717 7993 Sln
15871 8060 16047 8137 Sln
16200 8205 16376 8282 Sln
16530 8350 16705 8427 Sln
16865 8461 17057 8451 Sln
17225 8443 17416 8433 Sln
17584 8424 17776 8415 Sln
17944 8406 18135 8396 Sln
18303 8387 18495 8378 Sln
18662 8369 18703 8367 Sln
18703 8367 18846 8317 Sln
19004 8261 19185 8198 Sln
19344 8142 19525 8079 Sln
19683 8023 19865 7960 Sln
20023 7904 20204 7841 Sln
20363 7785 20544 7722 Sln
20688 7756 20841 7872 Sln
20974 7974 21127 8091 Sln
21260 8193 21413 8310 Sln
21546 8413 21698 8529 Sln
21832 8632 21984 8748 Sln
22117 8851 22270 8967 Sln
22403 9070 22523 9162 Sln
/Slw 0.622 def
/Slrgb {0.000 0.000 0.000} def
2783 22420 2783 30582 Sln
2783 22673 2623 22673 Sln
2543 22533 0
/Helvetica-0 findfont 400 yratio mul scalefont setfont
(-3) stringwidth pop add
xratio div
dup 4 3 roll exch 0.000 cos mul sub 3 1 roll 0.000 sin mul sub 2 copy
/fntsize {/Helvetica-0 findfont exch scalefont setfont } def
0.000 400
(-3) Stxtl
(-3) stringwidth pop xratio div
dup 4 3 roll exch 0.000 cos mul add 3 1 roll 0.000 sin mul add 2 copy
pop pop pop pop
2783 24204 2623 24204 Sln
2543 24064 0
/Helvetica-0 findfont 400 yratio mul scalefont setfont
(-2) stringwidth pop add
xratio div
dup 4 3 roll exch 0.000 cos mul sub 3 1 roll 0.000 sin mul sub 2 copy
/fntsize {/Helvetica-0 findfont exch scalefont setfont } def
0.000 400
(-2) Stxtl
(-2) stringwidth pop xratio div
dup 4 3 roll exch 0.000 cos mul add 3 1 roll 0.000 sin mul add 2 copy
pop pop pop pop
2783 25735 2623 25735 Sln
2543 25595 0
/Helvetica-0 findfont 400 yratio mul scalefont setfont
(-1) stringwidth pop add
xratio div
dup 4 3 roll exch 0.000 cos mul sub 3 1 roll 0.000 sin mul sub 2 copy
/fntsize {/Helvetica-0 findfont exch scalefont setfont } def
0.000 400
(-1) Stxtl
(-1) stringwidth pop xratio div
dup 4 3 roll exch 0.000 cos mul add 3 1 roll 0.000 sin mul add 2 copy
pop pop pop pop
2783 27266 2623 27266 Sln
2543 27126 0
/Helvetica-0 findfont 400 yratio mul scalefont setfont
(0) stringwidth pop add
xratio div
dup 4 3 roll exch 0.000 cos mul sub 3 1 roll 0.000 sin mul sub 2 copy
/fntsize {/Helvetica-0 findfont exch scalefont setfont } def
0.000 400
(0) Stxtl
(0) stringwidth pop xratio div
dup 4 3 roll exch 0.000 cos mul add 3 1 roll 0.000 sin mul add 2 copy
pop pop pop pop
2783 28797 2623 28797 Sln
2543 28657 0
/Helvetica-0 findfont 400 yratio mul scalefont setfont
(1) stringwidth pop add
xratio div
dup 4 3 roll exch 0.000 cos mul sub 3 1 roll 0.000 sin mul sub 2 copy
/fntsize {/Helvetica-0 findfont exch scalefont setfont } def
0.000 400
(1) Stxtl
(1) stringwidth pop xratio div
dup 4 3 roll exch 0.000 cos mul add 3 1 roll 0.000 sin mul add 2 copy
pop pop pop pop
2783 30328 2623 30328 Sln
2543 30188 0
/Helvetica-0 findfont 400 yratio mul scalefont setfont
(2) stringwidth pop add
xratio div
dup 4 3 roll exch 0.000 cos mul sub 3 1 roll 0.000 sin mul sub 2 copy
/fntsize {/Helvetica-0 findfont exch scalefont setfont } def
0.000 400
(2) Stxtl
(2) stringwidth pop xratio div
dup 4 3 roll exch 0.000 cos mul add 3 1 roll 0.000 sin mul add 2 copy
pop pop pop pop
13610 22420 13610 30582 Sln
13610 22775 13450 22775 Sln
13370 22635 0
/Helvetica-0 findfont 400 yratio mul scalefont setfont
(-4) stringwidth pop add
xratio div
dup 4 3 roll exch 0.000 cos mul sub 3 1 roll 0.000 sin mul sub 2 copy
/fntsize {/Helvetica-0 findfont exch scalefont setfont } def
0.000 400
(-4) Stxtl
(-4) stringwidth pop xratio div
dup 4 3 roll exch 0.000 cos mul add 3 1 roll 0.000 sin mul add 2 copy
pop pop pop pop
13610 24235 13450 24235 Sln
13370 24095 0
/Helvetica-0 findfont 400 yratio mul scalefont setfont
(-3) stringwidth pop add
xratio div
dup 4 3 roll exch 0.000 cos mul sub 3 1 roll 0.000 sin mul sub 2 copy
/fntsize {/Helvetica-0 findfont exch scalefont setfont } def
0.000 400
(-3) Stxtl
(-3) stringwidth pop xratio div
dup 4 3 roll exch 0.000 cos mul add 3 1 roll 0.000 sin mul add 2 copy
pop pop pop pop
13610 25695 13450 25695 Sln
13370 25555 0
/Helvetica-0 findfont 400 yratio mul scalefont setfont
(-2) stringwidth pop add
xratio div
dup 4 3 roll exch 0.000 cos mul sub 3 1 roll 0.000 sin mul sub 2 copy
/fntsize {/Helvetica-0 findfont exch scalefont setfont } def
0.000 400
(-2) Stxtl
(-2) stringwidth pop xratio div
dup 4 3 roll exch 0.000 cos mul add 3 1 roll 0.000 sin mul add 2 copy
pop pop pop pop
13610 27155 13450 27155 Sln
13370 27015 0
/Helvetica-0 findfont 400 yratio mul scalefont setfont
(-1) stringwidth pop add
xratio div
dup 4 3 roll exch 0.000 cos mul sub 3 1 roll 0.000 sin mul sub 2 copy
/fntsize {/Helvetica-0 findfont exch scalefont setfont } def
0.000 400
(-1) Stxtl
(-1) stringwidth pop xratio div
dup 4 3 roll exch 0.000 cos mul add 3 1 roll 0.000 sin mul add 2 copy
pop pop pop pop
13610 28615 13450 28615 Sln
13370 28475 0
/Helvetica-0 findfont 400 yratio mul scalefont setfont
(0) stringwidth pop add
xratio div
dup 4 3 roll exch 0.000 cos mul sub 3 1 roll 0.000 sin mul sub 2 copy
/fntsize {/Helvetica-0 findfont exch scalefont setfont } def
0.000 400
(0) Stxtl
(0) stringwidth pop xratio div
dup 4 3 roll exch 0.000 cos mul add 3 1 roll 0.000 sin mul add 2 copy
pop pop pop pop
13610 30075 13450 30075 Sln
13370 29935 0
/Helvetica-0 findfont 400 yratio mul scalefont setfont
(1) stringwidth pop add
xratio div
dup 4 3 roll exch 0.000 cos mul sub 3 1 roll 0.000 sin mul sub 2 copy
/fntsize {/Helvetica-0 findfont exch scalefont setfont } def
0.000 400
(1) Stxtl
(1) stringwidth pop xratio div
dup 4 3 roll exch 0.000 cos mul add 3 1 roll 0.000 sin mul add 2 copy
pop pop pop pop
2783 13679 2783 21841 Sln
2783 14036 2623 14036 Sln
2543 13896 0
/Helvetica-0 findfont 400 yratio mul scalefont setfont
(-600) stringwidth pop add
xratio div
dup 4 3 roll exch 0.000 cos mul sub 3 1 roll 0.000 sin mul sub 2 copy
/fntsize {/Helvetica-0 findfont exch scalefont setfont } def
0.000 400
(-600) Stxtl
(-600) stringwidth pop xratio div
dup 4 3 roll exch 0.000 cos mul add 3 1 roll 0.000 sin mul add 2 copy
pop pop pop pop
2783 15295 2623 15295 Sln
2543 15155 0
/Helvetica-0 findfont 400 yratio mul scalefont setfont
(-400) stringwidth pop add
xratio div
dup 4 3 roll exch 0.000 cos mul sub 3 1 roll 0.000 sin mul sub 2 copy
/fntsize {/Helvetica-0 findfont exch scalefont setfont } def
0.000 400
(-400) Stxtl
(-400) stringwidth pop xratio div
dup 4 3 roll exch 0.000 cos mul add 3 1 roll 0.000 sin mul add 2 copy
pop pop pop pop
2783 16553 2623 16553 Sln
2543 16413 0
/Helvetica-0 findfont 400 yratio mul scalefont setfont
(-200) stringwidth pop add
xratio div
dup 4 3 roll exch 0.000 cos mul sub 3 1 roll 0.000 sin mul sub 2 copy
/fntsize {/Helvetica-0 findfont exch scalefont setfont } def
0.000 400
(-200) Stxtl
(-200) stringwidth pop xratio div
dup 4 3 roll exch 0.000 cos mul add 3 1 roll 0.000 sin mul add 2 copy
pop pop pop pop
2783 17812 2623 17812 Sln
2543 17672 0
/Helvetica-0 findfont 400 yratio mul scalefont setfont
(0) stringwidth pop add
xratio div
dup 4 3 roll exch 0.000 cos mul sub 3 1 roll 0.000 sin mul sub 2 copy
/fntsize {/Helvetica-0 findfont exch scalefont setfont } def
0.000 400
(0) Stxtl
(0) stringwidth pop xratio div
dup 4 3 roll exch 0.000 cos mul add 3 1 roll 0.000 sin mul add 2 copy
pop pop pop pop
2783 19071 2623 19071 Sln
2543 18931 0
/Helvetica-0 findfont 400 yratio mul scalefont setfont
(200) stringwidth pop add
xratio div
dup 4 3 roll exch 0.000 cos mul sub 3 1 roll 0.000 sin mul sub 2 copy
/fntsize {/Helvetica-0 findfont exch scalefont setfont } def
0.000 400
(200) Stxtl
(200) stringwidth pop xratio div
dup 4 3 roll exch 0.000 cos mul add 3 1 roll 0.000 sin mul add 2 copy
pop pop pop pop
2783 20329 2623 20329 Sln
2543 20189 0
/Helvetica-0 findfont 400 yratio mul scalefont setfont
(400) stringwidth pop add
xratio div
dup 4 3 roll exch 0.000 cos mul sub 3 1 roll 0.000 sin mul sub 2 copy
/fntsize {/Helvetica-0 findfont exch scalefont setfont } def
0.000 400
(400) Stxtl
(400) stringwidth pop xratio div
dup 4 3 roll exch 0.000 cos mul add 3 1 roll 0.000 sin mul add 2 copy
pop pop pop pop
2783 21588 2623 21588 Sln
2543 21448 0
/Helvetica-0 findfont 400 yratio mul scalefont setfont
(600) stringwidth pop add
xratio div
dup 4 3 roll exch 0.000 cos mul sub 3 1 roll 0.000 sin mul sub 2 copy
/fntsize {/Helvetica-0 findfont exch scalefont setfont } def
0.000 400
(600) Stxtl
(600) stringwidth pop xratio div
dup 4 3 roll exch 0.000 cos mul add 3 1 roll 0.000 sin mul add 2 copy
pop pop pop pop
13610 13679 13610 21841 Sln
13610 13933 13450 13933 Sln
13370 13793 0
/Helvetica-0 findfont 400 yratio mul scalefont setfont
(-600) stringwidth pop add
xratio div
dup 4 3 roll exch 0.000 cos mul sub 3 1 roll 0.000 sin mul sub 2 copy
/fntsize {/Helvetica-0 findfont exch scalefont setfont } def
0.000 400
(-600) Stxtl
(-600) stringwidth pop xratio div
dup 4 3 roll exch 0.000 cos mul add 3 1 roll 0.000 sin mul add 2 copy
pop pop pop pop
13610 15464 13450 15464 Sln
13370 15324 0
/Helvetica-0 findfont 400 yratio mul scalefont setfont
(-400) stringwidth pop add
xratio div
dup 4 3 roll exch 0.000 cos mul sub 3 1 roll 0.000 sin mul sub 2 copy
/fntsize {/Helvetica-0 findfont exch scalefont setfont } def
0.000 400
(-400) Stxtl
(-400) stringwidth pop xratio div
dup 4 3 roll exch 0.000 cos mul add 3 1 roll 0.000 sin mul add 2 copy
pop pop pop pop
13610 16995 13450 16995 Sln
13370 16855 0
/Helvetica-0 findfont 400 yratio mul scalefont setfont
(-200) stringwidth pop add
xratio div
dup 4 3 roll exch 0.000 cos mul sub 3 1 roll 0.000 sin mul sub 2 copy
/fntsize {/Helvetica-0 findfont exch scalefont setfont } def
0.000 400
(-200) Stxtl
(-200) stringwidth pop xratio div
dup 4 3 roll exch 0.000 cos mul add 3 1 roll 0.000 sin mul add 2 copy
pop pop pop pop
13610 18526 13450 18526 Sln
13370 18386 0
/Helvetica-0 findfont 400 yratio mul scalefont setfont
(0) stringwidth pop add
xratio div
dup 4 3 roll exch 0.000 cos mul sub 3 1 roll 0.000 sin mul sub 2 copy
/fntsize {/Helvetica-0 findfont exch scalefont setfont } def
0.000 400
(0) Stxtl
(0) stringwidth pop xratio div
dup 4 3 roll exch 0.000 cos mul add 3 1 roll 0.000 sin mul add 2 copy
pop pop pop pop
13610 20057 13450 20057 Sln
13370 19917 0
/Helvetica-0 findfont 400 yratio mul scalefont setfont
(200) stringwidth pop add
xratio div
dup 4 3 roll exch 0.000 cos mul sub 3 1 roll 0.000 sin mul sub 2 copy
/fntsize {/Helvetica-0 findfont exch scalefont setfont } def
0.000 400
(200) Stxtl
(200) stringwidth pop xratio div
dup 4 3 roll exch 0.000 cos mul add 3 1 roll 0.000 sin mul add 2 copy
pop pop pop pop
13610 21588 13450 21588 Sln
13370 21448 0
/Helvetica-0 findfont 400 yratio mul scalefont setfont
(400) stringwidth pop add
xratio div
dup 4 3 roll exch 0.000 cos mul sub 3 1 roll 0.000 sin mul sub 2 copy
/fntsize {/Helvetica-0 findfont exch scalefont setfont } def
0.000 400
(400) Stxtl
(400) stringwidth pop xratio div
dup 4 3 roll exch 0.000 cos mul add 3 1 roll 0.000 sin mul add 2 copy
pop pop pop pop
2783 4939 2783 13101 Sln
2783 5192 2623 5192 Sln
2543 5052 0
/Helvetica-0 findfont 400 yratio mul scalefont setfont
(-150) stringwidth pop add
xratio div
dup 4 3 roll exch 0.000 cos mul sub 3 1 roll 0.000 sin mul sub 2 copy
/fntsize {/Helvetica-0 findfont exch scalefont setfont } def
0.000 400
(-150) Stxtl
(-150) stringwidth pop xratio div
dup 4 3 roll exch 0.000 cos mul add 3 1 roll 0.000 sin mul add 2 copy
pop pop pop pop
2783 6468 2623 6468 Sln
2543 6328 0
/Helvetica-0 findfont 400 yratio mul scalefont setfont
(-100) stringwidth pop add
xratio div
dup 4 3 roll exch 0.000 cos mul sub 3 1 roll 0.000 sin mul sub 2 copy
/fntsize {/Helvetica-0 findfont exch scalefont setfont } def
0.000 400
(-100) Stxtl
(-100) stringwidth pop xratio div
dup 4 3 roll exch 0.000 cos mul add 3 1 roll 0.000 sin mul add 2 copy
pop pop pop pop
2783 7744 2623 7744 Sln
2543 7604 0
/Helvetica-0 findfont 400 yratio mul scalefont setfont
(-50) stringwidth pop add
xratio div
dup 4 3 roll exch 0.000 cos mul sub 3 1 roll 0.000 sin mul sub 2 copy
/fntsize {/Helvetica-0 findfont exch scalefont setfont } def
0.000 400
(-50) Stxtl
(-50) stringwidth pop xratio div
dup 4 3 roll exch 0.000 cos mul add 3 1 roll 0.000 sin mul add 2 copy
pop pop pop pop
2783 9020 2623 9020 Sln
2543 8880 0
/Helvetica-0 findfont 400 yratio mul scalefont setfont
(0) stringwidth pop add
xratio div
dup 4 3 roll exch 0.000 cos mul sub 3 1 roll 0.000 sin mul sub 2 copy
/fntsize {/Helvetica-0 findfont exch scalefont setfont } def
0.000 400
(0) Stxtl
(0) stringwidth pop xratio div
dup 4 3 roll exch 0.000 cos mul add 3 1 roll 0.000 sin mul add 2 copy
pop pop pop pop
2783 10296 2623 10296 Sln
2543 10156 0
/Helvetica-0 findfont 400 yratio mul scalefont setfont
(50) stringwidth pop add
xratio div
dup 4 3 roll exch 0.000 cos mul sub 3 1 roll 0.000 sin mul sub 2 copy
/fntsize {/Helvetica-0 findfont exch scalefont setfont } def
0.000 400
(50) Stxtl
(50) stringwidth pop xratio div
dup 4 3 roll exch 0.000 cos mul add 3 1 roll 0.000 sin mul add 2 copy
pop pop pop pop
2783 11572 2623 11572 Sln
2543 11432 0
/Helvetica-0 findfont 400 yratio mul scalefont setfont
(100) stringwidth pop add
xratio div
dup 4 3 roll exch 0.000 cos mul sub 3 1 roll 0.000 sin mul sub 2 copy
/fntsize {/Helvetica-0 findfont exch scalefont setfont } def
0.000 400
(100) Stxtl
(100) stringwidth pop xratio div
dup 4 3 roll exch 0.000 cos mul add 3 1 roll 0.000 sin mul add 2 copy
pop pop pop pop
2783 12847 2623 12847 Sln
2543 12707 0
/Helvetica-0 findfont 400 yratio mul scalefont setfont
(150) stringwidth pop add
xratio div
dup 4 3 roll exch 0.000 cos mul sub 3 1 roll 0.000 sin mul sub 2 copy
/fntsize {/Helvetica-0 findfont exch scalefont setfont } def
0.000 400
(150) Stxtl
(150) stringwidth pop xratio div
dup 4 3 roll exch 0.000 cos mul add 3 1 roll 0.000 sin mul add 2 copy
pop pop pop pop
13610 4939 13610 13101 Sln
13610 5192 13450 5192 Sln
13370 5052 0
/Helvetica-0 findfont 400 yratio mul scalefont setfont
(-150) stringwidth pop add
xratio div
dup 4 3 roll exch 0.000 cos mul sub 3 1 roll 0.000 sin mul sub 2 copy
/fntsize {/Helvetica-0 findfont exch scalefont setfont } def
0.000 400
(-150) Stxtl
(-150) stringwidth pop xratio div
dup 4 3 roll exch 0.000 cos mul add 3 1 roll 0.000 sin mul add 2 copy
pop pop pop pop
13610 6448 13450 6448 Sln
13370 6308 0
/Helvetica-0 findfont 400 yratio mul scalefont setfont
(-100) stringwidth pop add
xratio div
dup 4 3 roll exch 0.000 cos mul sub 3 1 roll 0.000 sin mul sub 2 copy
/fntsize {/Helvetica-0 findfont exch scalefont setfont } def
0.000 400
(-100) Stxtl
(-100) stringwidth pop xratio div
dup 4 3 roll exch 0.000 cos mul add 3 1 roll 0.000 sin mul add 2 copy
pop pop pop pop
13610 7704 13450 7704 Sln
13370 7564 0
/Helvetica-0 findfont 400 yratio mul scalefont setfont
(-50) stringwidth pop add
xratio div
dup 4 3 roll exch 0.000 cos mul sub 3 1 roll 0.000 sin mul sub 2 copy
/fntsize {/Helvetica-0 findfont exch scalefont setfont } def
0.000 400
(-50) Stxtl
(-50) stringwidth pop xratio div
dup 4 3 roll exch 0.000 cos mul add 3 1 roll 0.000 sin mul add 2 copy
pop pop pop pop
13610 8959 13450 8959 Sln
13370 8819 0
/Helvetica-0 findfont 400 yratio mul scalefont setfont
(0) stringwidth pop add
xratio div
dup 4 3 roll exch 0.000 cos mul sub 3 1 roll 0.000 sin mul sub 2 copy
/fntsize {/Helvetica-0 findfont exch scalefont setfont } def
0.000 400
(0) Stxtl
(0) stringwidth pop xratio div
dup 4 3 roll exch 0.000 cos mul add 3 1 roll 0.000 sin mul add 2 copy
pop pop pop pop
13610 10215 13450 10215 Sln
13370 10075 0
/Helvetica-0 findfont 400 yratio mul scalefont setfont
(50) stringwidth pop add
xratio div
dup 4 3 roll exch 0.000 cos mul sub 3 1 roll 0.000 sin mul sub 2 copy
/fntsize {/Helvetica-0 findfont exch scalefont setfont } def
0.000 400
(50) Stxtl
(50) stringwidth pop xratio div
dup 4 3 roll exch 0.000 cos mul add 3 1 roll 0.000 sin mul add 2 copy
pop pop pop pop
13610 11471 13450 11471 Sln
13370 11331 0
/Helvetica-0 findfont 400 yratio mul scalefont setfont
(100) stringwidth pop add
xratio div
dup 4 3 roll exch 0.000 cos mul sub 3 1 roll 0.000 sin mul sub 2 copy
/fntsize {/Helvetica-0 findfont exch scalefont setfont } def
0.000 400
(100) Stxtl
(100) stringwidth pop xratio div
dup 4 3 roll exch 0.000 cos mul add 3 1 roll 0.000 sin mul add 2 copy
pop pop pop pop
13610 12726 13450 12726 Sln
13370 12586 0
/Helvetica-0 findfont 400 yratio mul scalefont setfont
(150) stringwidth pop add
xratio div
dup 4 3 roll exch 0.000 cos mul sub 3 1 roll 0.000 sin mul sub 2 copy
/fntsize {/Helvetica-0 findfont exch scalefont setfont } def
0.000 400
(150) Stxtl
(150) stringwidth pop xratio div
dup 4 3 roll exch 0.000 cos mul add 3 1 roll 0.000 sin mul add 2 copy
pop pop pop pop
2783 4939 12333 4939 Sln
3738 4939 3738 4779 Sln
3837 4600 0
/Helvetica-0 findfont 400 yratio mul scalefont setfont
(0-1) stringwidth pop add
xratio div
dup 4 3 roll exch 45.000 cos mul sub 3 1 roll 45.000 sin mul sub 2 copy
/fntsize {/Helvetica-0 findfont exch scalefont setfont } def
45.000 400
(0-1) Stxtl
(0-1) stringwidth pop xratio div
dup 4 3 roll exch 45.000 cos mul add 3 1 roll 45.000 sin mul add 2 copy
pop pop pop pop
5648 4939 5648 4779 Sln
5747 4600 0
/Helvetica-0 findfont 400 yratio mul scalefont setfont
(2-4) stringwidth pop add
xratio div
dup 4 3 roll exch 45.000 cos mul sub 3 1 roll 45.000 sin mul sub 2 copy
/fntsize {/Helvetica-0 findfont exch scalefont setfont } def
45.000 400
(2-4) Stxtl
(2-4) stringwidth pop xratio div
dup 4 3 roll exch 45.000 cos mul add 3 1 roll 45.000 sin mul add 2 copy
pop pop pop pop
7558 4939 7558 4779 Sln
7657 4600 0
/Helvetica-0 findfont 400 yratio mul scalefont setfont
(5-7) stringwidth pop add
xratio div
dup 4 3 roll exch 45.000 cos mul sub 3 1 roll 45.000 sin mul sub 2 copy
/fntsize {/Helvetica-0 findfont exch scalefont setfont } def
45.000 400
(5-7) Stxtl
(5-7) stringwidth pop xratio div
dup 4 3 roll exch 45.000 cos mul add 3 1 roll 45.000 sin mul add 2 copy
pop pop pop pop
9468 4939 9468 4779 Sln
9567 4600 0
/Helvetica-0 findfont 400 yratio mul scalefont setfont
(8-10) stringwidth pop add
xratio div
dup 4 3 roll exch 45.000 cos mul sub 3 1 roll 45.000 sin mul sub 2 copy
/fntsize {/Helvetica-0 findfont exch scalefont setfont } def
45.000 400
(8-10) Stxtl
(8-10) stringwidth pop xratio div
dup 4 3 roll exch 45.000 cos mul add 3 1 roll 45.000 sin mul add 2 copy
pop pop pop pop
11378 4939 11378 4779 Sln
11477 4600 0
/Helvetica-0 findfont 400 yratio mul scalefont setfont
(11-14) stringwidth pop add
xratio div
dup 4 3 roll exch 45.000 cos mul sub 3 1 roll 45.000 sin mul sub 2 copy
/fntsize {/Helvetica-0 findfont exch scalefont setfont } def
45.000 400
(11-14) Stxtl
(11-14) stringwidth pop xratio div
dup 4 3 roll exch 45.000 cos mul add 3 1 roll 45.000 sin mul add 2 copy
pop pop pop pop
13610 4939 23160 4939 Sln
14565 4939 14565 4779 Sln
14664 4600 0
/Helvetica-0 findfont 400 yratio mul scalefont setfont
(0-1) stringwidth pop add
xratio div
dup 4 3 roll exch 45.000 cos mul sub 3 1 roll 45.000 sin mul sub 2 copy
/fntsize {/Helvetica-0 findfont exch scalefont setfont } def
45.000 400
(0-1) Stxtl
(0-1) stringwidth pop xratio div
dup 4 3 roll exch 45.000 cos mul add 3 1 roll 45.000 sin mul add 2 copy
pop pop pop pop
16475 4939 16475 4779 Sln
16574 4600 0
/Helvetica-0 findfont 400 yratio mul scalefont setfont
(2-4) stringwidth pop add
xratio div
dup 4 3 roll exch 45.000 cos mul sub 3 1 roll 45.000 sin mul sub 2 copy
/fntsize {/Helvetica-0 findfont exch scalefont setfont } def
45.000 400
(2-4) Stxtl
(2-4) stringwidth pop xratio div
dup 4 3 roll exch 45.000 cos mul add 3 1 roll 45.000 sin mul add 2 copy
pop pop pop pop
18385 4939 18385 4779 Sln
18484 4600 0
/Helvetica-0 findfont 400 yratio mul scalefont setfont
(5-7) stringwidth pop add
xratio div
dup 4 3 roll exch 45.000 cos mul sub 3 1 roll 45.000 sin mul sub 2 copy
/fntsize {/Helvetica-0 findfont exch scalefont setfont } def
45.000 400
(5-7) Stxtl
(5-7) stringwidth pop xratio div
dup 4 3 roll exch 45.000 cos mul add 3 1 roll 45.000 sin mul add 2 copy
pop pop pop pop
20295 4939 20295 4779 Sln
20394 4600 0
/Helvetica-0 findfont 400 yratio mul scalefont setfont
(8-10) stringwidth pop add
xratio div
dup 4 3 roll exch 45.000 cos mul sub 3 1 roll 45.000 sin mul sub 2 copy
/fntsize {/Helvetica-0 findfont exch scalefont setfont } def
45.000 400
(8-10) Stxtl
(8-10) stringwidth pop xratio div
dup 4 3 roll exch 45.000 cos mul add 3 1 roll 45.000 sin mul add 2 copy
pop pop pop pop
22205 4939 22205 4779 Sln
22304 4600 0
/Helvetica-0 findfont 400 yratio mul scalefont setfont
(11-14) stringwidth pop add
xratio div
dup 4 3 roll exch 45.000 cos mul sub 3 1 roll 45.000 sin mul sub 2 copy
/fntsize {/Helvetica-0 findfont exch scalefont setfont } def
45.000 400
(11-14) Stxtl
(11-14) stringwidth pop xratio div
dup 4 3 roll exch 45.000 cos mul add 3 1 roll 45.000 sin mul add 2 copy
pop pop pop pop
/Ssrgb {1.000 1.000 1.000} def
/Slrgb {1.000 1.000 1.000} def
2783 30582 12333 31160 0 1 Srect
2795 30594 12321 31148 1 0 Srect
7558 30783 0
/Helvetica-0 findfont 440 yratio mul scalefont setfont
(BMI \(MSM\)) stringwidth pop add
2 div xratio div
dup 4 3 roll exch 0.000 cos mul sub 3 1 roll 0.000 sin mul sub 2 copy
/fntsize {/Helvetica-0 findfont exch scalefont setfont } def
0.000 440
(BMI \(MSM\)) Stxtl
(BMI \(MSM\)) stringwidth pop xratio div
dup 4 3 roll exch 0.000 cos mul add 3 1 roll 0.000 sin mul add 2 copy
pop pop pop pop
13610 30582 23160 31160 0 1 Srect
13622 30594 23148 31148 1 0 Srect
18385 30783 0
/Helvetica-0 findfont 440 yratio mul scalefont setfont
(BMI \(FE\)) stringwidth pop add
2 div xratio div
dup 4 3 roll exch 0.000 cos mul sub 3 1 roll 0.000 sin mul sub 2 copy
/fntsize {/Helvetica-0 findfont exch scalefont setfont } def
0.000 440
(BMI \(FE\)) Stxtl
(BMI \(FE\)) stringwidth pop xratio div
dup 4 3 roll exch 0.000 cos mul add 3 1 roll 0.000 sin mul add 2 copy
pop pop pop pop
2783 21841 12333 22420 0 1 Srect
2795 21853 12321 22408 1 0 Srect
7558 22042 0
/Helvetica-0 findfont 440 yratio mul scalefont setfont
(Kcal \(MSM\)) stringwidth pop add
2 div xratio div
dup 4 3 roll exch 0.000 cos mul sub 3 1 roll 0.000 sin mul sub 2 copy
/fntsize {/Helvetica-0 findfont exch scalefont setfont } def
0.000 440
(Kcal \(MSM\)) Stxtl
(Kcal \(MSM\)) stringwidth pop xratio div
dup 4 3 roll exch 0.000 cos mul add 3 1 roll 0.000 sin mul add 2 copy
pop pop pop pop
13610 21841 23160 22420 0 1 Srect
13622 21853 23148 22408 1 0 Srect
18385 22042 0
/Helvetica-0 findfont 440 yratio mul scalefont setfont
(Kcal \(FE\)) stringwidth pop add
2 div xratio div
dup 4 3 roll exch 0.000 cos mul sub 3 1 roll 0.000 sin mul sub 2 copy
/fntsize {/Helvetica-0 findfont exch scalefont setfont } def
0.000 440
(Kcal \(FE\)) Stxtl
(Kcal \(FE\)) stringwidth pop xratio div
dup 4 3 roll exch 0.000 cos mul add 3 1 roll 0.000 sin mul add 2 copy
pop pop pop pop
2783 13101 12333 13679 0 1 Srect
2795 13113 12321 13667 1 0 Srect
7558 13302 0
/Helvetica-0 findfont 440 yratio mul scalefont setfont
(PA \(MSM\)) stringwidth pop add
2 div xratio div
dup 4 3 roll exch 0.000 cos mul sub 3 1 roll 0.000 sin mul sub 2 copy
/fntsize {/Helvetica-0 findfont exch scalefont setfont } def
0.000 440
(PA \(MSM\)) Stxtl
(PA \(MSM\)) stringwidth pop xratio div
dup 4 3 roll exch 0.000 cos mul add 3 1 roll 0.000 sin mul add 2 copy
pop pop pop pop
13610 13101 23160 13679 0 1 Srect
13622 13113 23148 13667 1 0 Srect
18385 13302 0
/Helvetica-0 findfont 440 yratio mul scalefont setfont
(PA \(FE\)) stringwidth pop add
2 div xratio div
dup 4 3 roll exch 0.000 cos mul sub 3 1 roll 0.000 sin mul sub 2 copy
/fntsize {/Helvetica-0 findfont exch scalefont setfont } def
0.000 440
(PA \(FE\)) Stxtl
(PA \(FE\)) stringwidth pop xratio div
dup 4 3 roll exch 0.000 cos mul add 3 1 roll 0.000 sin mul add 2 copy
pop pop pop pop
/Slw 1.296 def
/Slrgb {0.000 0.000 0.000} def
5962 1128 18704 2681 0 1 Srect
5986 1152 18680 2657 1 0 Srect
/Slw 1.944 def
/Slrgb {0.376 0.376 0.376} def
6322 1905 9442 1905 Sln
/Slrgb {0.627 0.627 0.627} def
12469 1905 12661 1905 Sln
12829 1905 13021 1905 Sln
13189 1905 13381 1905 Sln
13549 1905 13741 1905 Sln
13909 1905 14101 1905 Sln
14269 1905 14461 1905 Sln
14628 1905 14820 1905 Sln
14988 1905 15180 1905 Sln
15348 1905 15540 1905 Sln
9942 1672 2 copy
/fntsize {/Helvetica-0 findfont exch scalefont setfont } def
0.000 666
(men) Stxtl
(men) stringwidth pop xratio div
dup 4 3 roll exch 0.000 cos mul add 3 1 roll 0.000 sin mul add 2 copy
pop pop pop pop
16089 1672 2 copy
/fntsize {/Helvetica-0 findfont exch scalefont setfont } def
0.000 666
(women) Stxtl
(women) stringwidth pop xratio div
dup 4 3 roll exch 0.000 cos mul add 3 1 roll 0.000 sin mul add 2 copy
pop pop pop pop
1306 17398 0
/Helvetica-0 findfont 666 yratio mul scalefont setfont
(Marginal effect) stringwidth pop add
2 div xratio div
dup 4 3 roll exch 90.000 cos mul sub 3 1 roll 90.000 sin mul sub 2 copy
/fntsize {/Helvetica-0 findfont exch scalefont setfont } def
90.000 666
(Marginal effect) Stxtl
(Marginal effect) stringwidth pop xratio div
dup 4 3 roll exch 90.000 cos mul add 3 1 roll 90.000 sin mul add 2 copy
pop pop pop pop
12333 3169 0
/Helvetica-0 findfont 666 yratio mul scalefont setfont
(Years after diagnosis) stringwidth pop add
2 div xratio div
dup 4 3 roll exch 0.000 cos mul sub 3 1 roll 0.000 sin mul sub 2 copy
/fntsize {/Helvetica-0 findfont exch scalefont setfont } def
0.000 666
(Years after diagnosis) Stxtl
(Years after diagnosis) stringwidth pop xratio div
dup 4 3 roll exch 0.000 cos mul add 3 1 roll 0.000 sin mul add 2 copy
pop pop pop pop
S showpage
%%EOF
