%!PS-Adobe-2.0 EPSF-2.0
%% This is a Stata generated postscript file
%%BoundingBox: 0 0 648 864
%%HiResBoundingBox: 0.000 0.000 648.000 864.000
%%DocumentNeededResources: font Helvetica
/xratio 0.027000 def
/yratio 0.027000 def
/Sbgfill {
	/y1 exch def
	/x1 exch def
	/y0 exch def
	/x0 exch def
	x0 y0 moveto
	x0 y1 lineto x1 y1 lineto x1 y0 lineto x0 y0 lineto
	fill
} def
/Spt {
	yratio mul
	/yp exch def
	xratio mul
	/xp exch def
	Slrgb setrgbcolor
	xp yp .5 0 360 arc fill
} def
/Sln {
	yratio mul
	/y1p exch def
	xratio mul
	/x1p exch def
	yratio mul
	/y0p exch def
	xratio mul
	/x0p exch def
	Slw setlinewidth
	Slrgb setrgbcolor
	x0p y0p M x1p y1p lineto S
} def
/Scrv {
	yratio mul
	/y3p exch def
	xratio mul
	/x3p exch def
	yratio mul
	/y2p exch def
	xratio mul
	/x2p exch def
	yratio mul
	/y1p exch def
	xratio mul
	/x1p exch def
	Slw setlinewidth
	Slrgb setrgbcolor
	x1p y1p x2p y2p x3p y3p curveto
	stroke
} def
/Stxtl {
	/sp exch def
	yratio mul
	/sizep exch def
	dup
	/anglep exch def
	0 exch sub
	/angle2p exch def
	yratio mul
	/y0p exch def
	xratio mul
	/x0p exch def
	Strgb setrgbcolor
	x0p y0p M anglep rotate sizep fntsize sp show stroke angle2p rotate
} def
/Stxtc {
	/sp exch def
	yratio mul
	/sizep exch def
	dup
	/anglep exch def
	0 exch sub
	/angle2p exch def
	yratio mul
	/y0p exch def
	xratio mul
	/x0p exch def
	Strgb setrgbcolor
	x0p y0p M anglep rotate sizep fntsize sp stringwidth exch -2 div exch rm sp show stroke angle2p rotate
} def
/Stxtr {
	/sp exch def
	yratio mul
	/sizep exch def
	dup
	/anglep exch def
	0 exch sub
	/angle2p exch def
	yratio mul
	/y0p exch def
	xratio mul
	/x0p exch def
	Strgb setrgbcolor
	x0p y0p M anglep rotate sizep fntsize sp stringwidth 1 index -1 mul exch rm pop sp show stroke angle2p rotate
} def
/Srect {
	/sfill exch def
	/sstroke exch def
	yratio mul
	/y1 exch def
	xratio mul
	/x1 exch def
	yratio mul
	/y0 exch def
	xratio mul
	/x0 exch def
	newpath x0 y0 moveto x0 y1 lineto x1 y1 lineto x1 y0 lineto x0 y0 lineto closepath
	sfill Sfill
	sstroke Sstroke
} def
/Sellipse {
	/sfill exch def
	/sstroke exch def
	yratio mul
	/yrad exch def
	xratio mul
	/xrad exch def
	yratio mul
	/y exch def
	xratio mul
	/x exch def
	/savematrix matrix currentmatrix def
	x y translate
	xrad yrad scale
	0 0 1 0 360 arc
	savematrix setmatrix
	sfill Sfill
	sstroke Sstroke
} def
/Stri {
	/sfill exch def
	/sstroke exch def
	xratio mul
	/r exch def
	yratio mul
	/y0 exch def
	xratio mul
	/x0 exch def
	/xcen x0 def
	y0 r add
	/ytop exch def
	r 2 div
	y0 exch sub
	/ybot exch def
	r 3 sqrt 2 div mul dup
	xcen exch sub
	/xleft exch def
	xcen add
	/xright exch def
	newpath xcen ytop moveto xright ybot lineto xleft ybot lineto xcen ytop lineto closepath
	sfill Sfill
	sstroke Sstroke
} def
/Soldtri {
	/sfill exch def
	xratio mul
	/r exch def
	yratio mul
	/y0 exch def
	xratio mul
	/x0 exch def
	x0 r sub
	/x1 exch def
	y0 r sub
	/y1 exch def
	x0 r add
	/x2 exch def
	y0 r sub
	/y2 exch def
	/x3 x0 def
	y0 r add
	/y3 exch def
	newpath x1 y1 moveto x2 y2 lineto x3 y3 lineto x1 y1 lineto closepath
	sfill 1 eq {
		Ssrgb setrgbcolor
		gsave
		fill
		grestore
	} if
	Slw setlinewidth
	Slrgb setrgbcolor
	stroke
} def
/Sdia {
	/sfill exch def
	/sstroke exch def
	xratio mul
	/r exch def
	yratio mul
	/y exch def
	xratio mul
	/x exch def
	x r sub
	/x0 exch def
	/y0 y def
	/x1 x def
	y r sub
	/y1 exch def
	x r add
	/x2 exch def
	/y2 y def
	/x3 x def
	y r add
	/y3 exch def
	newpath x0 y0 moveto x1 y1 lineto x2 y2 lineto x3 y3 lineto closepath
	sfill Sfill
	sstroke Sstroke
} def
/Scc {
	/sfill exch def
	/sstroke exch def
	xratio mul
	/r0 exch def
	yratio mul
	/y0 exch def
	xratio mul
	/x0 exch def
	x0 y0 r0 0 360 arc closepath
	sfill Sfill
	sstroke Sstroke
} def
/Spie {
	/sfill exch def
	/salign exch def
	/a1 exch def
	/a0 exch def
	xratio mul
	/r exch def
	yratio mul
	/y exch def
	xratio mul
	/x exch def
	/Pie {
		x y moveto x y r a0 a1 arc closepath
	} def
	newpath Pie
	sfill Sfill
	Slrgb setrgbcolor
	salign 0 eq {
		gsave
		Slw 2 mul setlinewidth
		clip
		stroke
		grestore
	} if
	salign 1 eq {
		Slw setlinewidth
		stroke
	} if
	salign 2 eq {
		gsave
		Slw 2 mul setlinewidth
		strokepath
		pathbbox
		/ury exch def
		/urx exch def
		/lly exch def
		/llx exch def
		newpath llx lly moveto llx ury lineto urx ury lineto urx lly lineto closepath
		Pie
		eoclip
		newpath Pie
		stroke
		grestore
	} if
	newpath
} def
/Splu {
	xratio mul
	/r exch def
	yratio mul
	/y exch def
	xratio mul
	/x exch def
	x r sub
	/x0 exch def
	x r add
	/x1 exch def
	x0 y M x1 y L
	y r sub
	/y0 exch def
	y r add
	/y1 exch def
	x y0 M x y1 L
} def
/Scro {
	xratio mul
	/r exch def
	yratio mul
	/y exch def
	xratio mul
	/x exch def
	x r sub
	/x0 exch def
	y r sub
	/y0 exch def
	x r add
	/x1 exch def
	y r add
	/y1 exch def
	x0 y0 M x1 y1 L
	x r add
	/x0 exch def
	y r sub
	/y0 exch def
	x r sub
	/x1 exch def
	y r add
	/y1 exch def
	x0 y0 M x1 y1 L
} def
/Sm {
	yratio mul
	/y exch def
	xratio mul
	/x exch def
	x y M
} def
/Sl {
	yratio mul
	/y exch def
	xratio mul
	/x exch def
	x y L
} def
/SPl {
	yratio mul
	/y exch def
	xratio mul
	/x exch def
	x y PL
} def
/Sarr {
	/sfill exch def
	xratio mul
	/r exch def
	yratio mul
	/y exch def
	xratio mul
	/x exch def
	y r add
	/ytop exch def
	y r sub
	/ybot exch def
	gsave
	Slrgb setrgbcolor
	sfill 0 eq {
		r 2 mul 3 div dup
		x exch sub
		/xleft exch def
		x add
		/xright exch def
		newpath xleft y moveto x ytop lineto xright y lineto x ytop moveto x ybot lineto
		Lcs
		1 setlinejoin
	} {
		r 2 div dup
		x exch sub
		/xleft exch def
		x add
		/xright exch def
		newpath xleft y moveto x ytop lineto xright y lineto x ytop closepath moveto x ybot lineto
		gsave
		fill
		grestore
	} ifelse
	Slw setlinewidth
	stroke
	grestore
} def
/Spipe {
	xratio mul
	/r exch def
	yratio mul
	/y exch def
	xratio mul
	/x exch def
	y r sub
	/y0 exch def
	y r add
	/y1 exch def
	x y0 M x y1 L
} def
/Sv {
	xratio mul
	/r exch def
	yratio mul
	/y0 exch def
	xratio mul
	/x0 exch def
	/xcen x0 def
	y0 r add
	/ytop exch def
	r 2 div
	y0 exch sub
	/ybot exch def
	r 3 sqrt 2 div mul dup
	xcen exch sub
	/xleft exch def
	xcen add
	/xright exch def
	newpath xleft ytop moveto xcen ybot lineto xright ytop lineto
	Slw setlinewidth
	Slrgb setrgbcolor
	stroke
} def
/Lcs {
	currentlinecap
	1 setlinecap
} def
/Lcr {
	setlinecap
} def
/Sbp {
	newpath
} def
/Sep {
	/sfill exch def
	closepath
	/salign exch def
	Lcs
	salign 0 eq {
		sfill Sfill
		gsave
		Slw 2 mul setlinewidth
		clip
		Slrgb setrgbcolor
		stroke
		grestore
	} if
	salign 1 eq {
		sfill Sfill
		Slw setlinewidth
		Slrgb setrgbcolor
		stroke
	} if
	salign 2 eq {
		gsave
		Slw 2 mul setlinewidth
		Slrgb setrgbcolor
		stroke
		grestore
		sfill Sfill
	} if
	newpath
	Lcr
} def
/Stransrot {
	/anglep exch def
	yratio mul
	/y exch def
	xratio mul
	/x exch def
	x y translate
	anglep rotate
	x neg y neg translate
} def
/cp {currentpoint} def 
/M {moveto} def 
/rm {rmoveto} def 
/S {stroke} def 
/L {Slw setlinewidth Slrgb setrgbcolor lineto Lcs S Lcr} def 
/PL {Slw setlinewidth Slrgb setrgbcolor lineto} def 
/MF-Helvetica {
  /newfontname exch def
  /fontname exch def
  /fontdict fontname findfont def
  /newfont fontdict maxlength dict def
  fontdict {
  exch dup /FID eq {pop pop} {exch newfont 3 1 roll put} ifelse
  } forall
  newfont /FontName newfontname put
  newfont /Encoding ISOLatin1Encoding put
  newfontname newfont definefont pop
} def
/Helvetica /Helvetica-0 MF-Helvetica
/Slw 0.120 def
1.000 1.000 1.000 setrgbcolor
0 0 648.000 864.000 Sbgfill
/Sfill {
	/sfill exch def
	sfill 1 eq {
		Ssrgb setrgbcolor
		gsave
		fill
		grestore
	} if
} def
/Sstroke {
	/sstroke exch def
	sstroke 1 eq {
		Slw setlinewidth
		Slrgb setrgbcolor
		stroke
	} if
	newpath
} def
/Slrgb {1.000 1.000 1.000} def
/Strgb {1.000 1.000 1.000} def
/Ssrgb {1.000 1.000 1.000} def
/Slw 1.296 def
0 0 24000 32000 0 1 Srect
24 24 23976 31976 1 0 Srect
/Slw 0.622 def
/Slrgb {0.000 0.000 0.000} def
2778 22420 12333 30582 0 0 Srect
2790 22432 12321 30570 1 0 Srect
/Strgb {0.000 0.000 0.000} def
/Slw 0.933 def
/Slrgb {0.188 0.188 0.188} def
2778 28506 12333 28506 Sln
/Slw 0.622 def
/Slrgb {0.000 0.000 0.000} def
13605 22420 23160 30582 0 0 Srect
13617 22432 23148 30570 1 0 Srect
/Slw 0.933 def
/Slrgb {0.188 0.188 0.188} def
13605 27406 23160 27406 Sln
/Slw 0.622 def
/Slrgb {0.000 0.000 0.000} def
2778 13679 12333 21841 0 0 Srect
2790 13691 12321 21829 1 0 Srect
/Slw 0.933 def
/Slrgb {0.188 0.188 0.188} def
2778 16995 12333 16995 Sln
/Slw 0.622 def
/Slrgb {0.000 0.000 0.000} def
13605 13679 23160 21841 0 0 Srect
13617 13691 23148 21829 1 0 Srect
/Slw 0.933 def
/Slrgb {0.188 0.188 0.188} def
13605 18526 23160 18526 Sln
/Slw 0.622 def
/Slrgb {0.000 0.000 0.000} def
2778 4939 12333 13101 0 0 Srect
2790 4951 12321 13089 1 0 Srect
/Slw 0.933 def
/Slrgb {0.188 0.188 0.188} def
2778 9020 12333 9020 Sln
/Slw 0.622 def
/Slrgb {0.000 0.000 0.000} def
13605 4939 23160 13101 0 0 Srect
13617 4951 23148 13089 1 0 Srect
/Slw 0.933 def
/Slrgb {0.188 0.188 0.188} def
13605 9020 23160 9020 Sln
/Ssrgb {0.502 0.502 0.502} def
/Slrgb {0.376 0.376 0.376} def
3415 26083 3415 28091 Sln
5326 26738 5326 28589 Sln
7237 25686 7237 28073 Sln
9148 23932 9148 28137 Sln
11059 22907 11059 27502 Sln
3415 27086 Sm
5326 27663 Sl
5326 27663 Sm
7237 26879 Sl
7237 26879 Sm
9148 26034 Sl
9148 26034 Sm
11059 25204 Sl
/Ssrgb {0.702 0.702 0.702} def
/Slrgb {0.627 0.627 0.627} def
4052 26371 4052 28506 Sln
5963 26769 5963 28860 Sln
7874 24982 7874 27389 Sln
9785 25327 9785 28511 Sln
11696 24639 11696 30328 Sln
4052 27438 4241 27475 Sln
4406 27507 4594 27544 Sln
4759 27577 4948 27614 Sln
5113 27646 5301 27683 Sln
5466 27716 5655 27753 Sln
5820 27785 5963 27814 Sln
5963 27814 5998 27784 Sln
6125 27676 6272 27551 Sln
6400 27442 6546 27318 Sln
6673 27209 6819 27084 Sln
6947 26976 7093 26851 Sln
7221 26742 7367 26618 Sln
7494 26509 7641 26384 Sln
7768 26275 7874 26185 Sln
7874 26185 7924 26204 Sln
8080 26264 8259 26333 Sln
8416 26393 8595 26462 Sln
8752 26522 8931 26591 Sln
9088 26651 9267 26720 Sln
9423 26780 9602 26849 Sln
9760 26909 9785 26919 Sln
9785 26919 9943 26966 Sln
10104 27013 10288 27067 Sln
10449 27115 10633 27169 Sln
10794 27217 10978 27271 Sln
11139 27319 11323 27373 Sln
11484 27421 11668 27475 Sln
/Ssrgb {0.502 0.502 0.502} def
/Slrgb {0.376 0.376 0.376} def
14242 25284 14242 27410 Sln
16153 25881 16153 27321 Sln
18064 25318 18064 27730 Sln
19975 23537 19975 27197 Sln
21886 22673 21886 27397 Sln
14241 26347 Sm
16152 26600 Sl
16152 26600 Sm
18063 26524 Sl
18063 26524 Sm
19974 25366 Sl
19974 25366 Sm
21885 25034 Sl
/Ssrgb {0.702 0.702 0.702} def
/Slrgb {0.627 0.627 0.627} def
14879 25941 14879 28586 Sln
16790 26040 16790 27676 Sln
18701 24713 18701 27104 Sln
20612 24504 20612 28120 Sln
22523 24096 22523 29862 Sln
14878 27263 15066 27223 Sln
15231 27188 15419 27148 Sln
15583 27113 15771 27073 Sln
15936 27039 16124 26999 Sln
16288 26964 16476 26924 Sln
16640 26889 16789 26858 Sln
16789 26858 16825 26840 Sln
16975 26765 17147 26680 Sln
17297 26605 17469 26520 Sln
17619 26445 17791 26360 Sln
17941 26285 18113 26200 Sln
18263 26125 18435 26040 Sln
18585 25965 18700 25908 Sln
18700 25908 18762 25921 Sln
18927 25956 19115 25995 Sln
19279 26030 19467 26070 Sln
19632 26104 19820 26144 Sln
19984 26178 20172 26218 Sln
20337 26253 20525 26293 Sln
20686 26337 20867 26400 Sln
21026 26456 21207 26519 Sln
21366 26574 21547 26638 Sln
21705 26693 21887 26756 Sln
22045 26812 22226 26875 Sln
22385 26930 22522 26978 Sln
/Ssrgb {0.502 0.502 0.502} def
/Slrgb {0.376 0.376 0.376} def
3415 15770 3415 17797 Sln
5326 16016 5326 17224 Sln
7237 15763 7237 17111 Sln
9148 15373 9148 17239 Sln
11059 14064 11059 20961 Sln
3415 16783 Sm
5326 16619 Sl
5326 16619 Sm
7237 16436 Sl
7237 16436 Sm
9148 16305 Sl
9148 16305 Sm
11059 17512 Sl
/Ssrgb {0.702 0.702 0.702} def
/Slrgb {0.627 0.627 0.627} def
4052 16440 4052 17634 Sln
5963 16471 5963 17211 Sln
7874 16548 7874 17622 Sln
9785 15437 9785 16918 Sln
11696 15634 11696 17185 Sln
4052 17037 4243 17017 Sln
4410 17000 4601 16980 Sln
4768 16963 4959 16943 Sln
5126 16926 5317 16907 Sln
5484 16890 5675 16870 Sln
5842 16853 5963 16841 Sln
5963 16841 6033 16850 Sln
6199 16871 6390 16895 Sln
6556 16916 6747 16940 Sln
6913 16961 7104 16986 Sln
7270 17007 7460 17031 Sln
7627 17052 7817 17077 Sln
7974 17037 8147 16955 Sln
8299 16883 8472 16800 Sln
8624 16729 8797 16646 Sln
8949 16575 9122 16492 Sln
9274 16420 9447 16338 Sln
9599 16266 9772 16184 Sln
9937 16195 10128 16219 Sln
10295 16239 10485 16262 Sln
10652 16282 10843 16305 Sln
11009 16325 11200 16349 Sln
11366 16369 11557 16392 Sln
/Ssrgb {0.502 0.502 0.502} def
/Slrgb {0.376 0.376 0.376} def
14242 16895 14242 18353 Sln
16153 17284 16153 18657 Sln
18064 17245 18064 18975 Sln
19975 16570 19975 18851 Sln
21886 14605 21886 20739 Sln
14241 17623 Sm
16152 17970 Sl
16152 17970 Sm
18063 18109 Sl
18063 18109 Sm
19974 17710 Sl
19974 17710 Sm
21885 17672 Sl
/Ssrgb {0.702 0.702 0.702} def
/Slrgb {0.627 0.627 0.627} def
14879 17741 14879 18979 Sln
16790 17879 16790 18951 Sln
18701 17827 18701 19357 Sln
20612 17061 20612 18914 Sln
22523 17192 22523 19323 Sln
14878 18360 15070 18366 Sln
15238 18370 15430 18376 Sln
15598 18381 15790 18386 Sln
15958 18391 16150 18397 Sln
16318 18401 16510 18407 Sln
16677 18412 16789 18415 Sln
16789 18415 16869 18422 Sln
17036 18437 17227 18455 Sln
17395 18471 17586 18489 Sln
17753 18504 17944 18522 Sln
18111 18537 18302 18555 Sln
18469 18570 18660 18588 Sln
18822 18554 19005 18496 Sln
19165 18445 19348 18387 Sln
19508 18336 19691 18278 Sln
19851 18227 20034 18169 Sln
20194 18118 20378 18061 Sln
20538 18010 20611 17987 Sln
20611 17987 20725 18003 Sln
20892 18027 21082 18054 Sln
21248 18078 21438 18104 Sln
21604 18128 21794 18155 Sln
21961 18178 22151 18205 Sln
22317 18228 22507 18255 Sln
/Ssrgb {0.502 0.502 0.502} def
/Slrgb {0.376 0.376 0.376} def
3415 7049 3415 10898 Sln
5326 7807 5326 9671 Sln
7237 6989 7237 9482 Sln
9148 6570 9148 11899 Sln
11059 5592 11059 10953 Sln
3415 8973 Sm
5326 8738 Sl
5326 8738 Sm
7237 8235 Sl
7237 8235 Sm
9148 9234 Sl
9148 9234 Sm
11059 8272 Sl
/Ssrgb {0.702 0.702 0.702} def
/Slrgb {0.627 0.627 0.627} def
4052 6615 4052 8438 Sln
5963 7251 5963 8882 Sln
7874 6715 7874 8978 Sln
9785 5674 9785 8704 Sln
11696 6007 11696 12384 Sln
4052 7526 4237 7578 Sln
4398 7624 4583 7676 Sln
4744 7722 4929 7774 Sln
5090 7820 5275 7872 Sln
5437 7918 5621 7970 Sln
5783 8015 5963 8066 Sln
5963 8066 5968 8065 Sln
6135 8046 6325 8024 Sln
6492 8005 6683 7983 Sln
6849 7964 7040 7942 Sln
7207 7923 7397 7901 Sln
7564 7881 7755 7860 Sln
7920 7830 8101 7768 Sln
8260 7713 8442 7650 Sln
8600 7596 8782 7533 Sln
8940 7479 9122 7416 Sln
9281 7361 9463 7299 Sln
9621 7244 9785 7188 Sln
9785 7188 9798 7202 Sln
9914 7324 10046 7462 Sln
10162 7584 10294 7723 Sln
10410 7844 10542 7983 Sln
10658 8105 10790 8244 Sln
10906 8365 11039 8504 Sln
11154 8626 11287 8765 Sln
11402 8886 11535 9025 Sln
11650 9147 11696 9195 Sln
/Ssrgb {0.502 0.502 0.502} def
/Slrgb {0.376 0.376 0.376} def
14242 8032 14242 10567 Sln
16153 8239 16153 10090 Sln
18064 7390 18064 10419 Sln
19975 7456 19975 12253 Sln
21886 6672 21886 11615 Sln
14241 9299 Sm
16152 9164 Sl
16152 9164 Sm
18063 8904 Sl
18063 8904 Sm
19974 9854 Sl
19974 9854 Sm
21885 9143 Sl
/Ssrgb {0.702 0.702 0.702} def
/Slrgb {0.627 0.627 0.627} def
14879 6304 14879 8817 Sln
16790 6872 16790 9364 Sln
18701 6867 18701 9390 Sln
20612 5748 20612 8808 Sln
22523 5502 22523 11020 Sln
14878 7560 15062 7614 Sln
15223 7661 15407 7714 Sln
15568 7762 15752 7815 Sln
15913 7863 16097 7916 Sln
16258 7963 16443 8017 Sln
16604 8064 16788 8118 Sln
16956 8119 17148 8120 Sln
17315 8121 17507 8122 Sln
17675 8123 17867 8124 Sln
18035 8125 18227 8126 Sln
18395 8127 18587 8128 Sln
18750 8105 18925 8028 Sln
19079 7959 19254 7881 Sln
19408 7813 19583 7735 Sln
19737 7667 19912 7589 Sln
20065 7520 20241 7442 Sln
20394 7374 20570 7296 Sln
20720 7334 20891 7422 Sln
21040 7498 21211 7586 Sln
21360 7663 21531 7750 Sln
21680 7827 21851 7915 Sln
22000 7992 22171 8079 Sln
22320 8156 22491 8244 Sln
/Slw 0.622 def
/Slrgb {0.000 0.000 0.000} def
2778 22420 2778 30582 Sln
2778 22673 2618 22673 Sln
2538 22561 0
/Helvetica-0 findfont 320 yratio mul scalefont setfont
(-4) stringwidth pop add
xratio div
dup 4 3 roll exch 0.000 cos mul sub 3 1 roll 0.000 sin mul sub 2 copy
/fntsize {/Helvetica-0 findfont exch scalefont setfont } def
0.000 320
(-4) Stxtl
(-4) stringwidth pop xratio div
dup 4 3 roll exch 0.000 cos mul add 3 1 roll 0.000 sin mul add 2 copy
pop pop pop pop
2778 24131 2618 24131 Sln
2538 24019 0
/Helvetica-0 findfont 320 yratio mul scalefont setfont
(-3) stringwidth pop add
xratio div
dup 4 3 roll exch 0.000 cos mul sub 3 1 roll 0.000 sin mul sub 2 copy
/fntsize {/Helvetica-0 findfont exch scalefont setfont } def
0.000 320
(-3) Stxtl
(-3) stringwidth pop xratio div
dup 4 3 roll exch 0.000 cos mul add 3 1 roll 0.000 sin mul add 2 copy
pop pop pop pop
2778 25589 2618 25589 Sln
2538 25477 0
/Helvetica-0 findfont 320 yratio mul scalefont setfont
(-2) stringwidth pop add
xratio div
dup 4 3 roll exch 0.000 cos mul sub 3 1 roll 0.000 sin mul sub 2 copy
/fntsize {/Helvetica-0 findfont exch scalefont setfont } def
0.000 320
(-2) Stxtl
(-2) stringwidth pop xratio div
dup 4 3 roll exch 0.000 cos mul add 3 1 roll 0.000 sin mul add 2 copy
pop pop pop pop
2778 27047 2618 27047 Sln
2538 26935 0
/Helvetica-0 findfont 320 yratio mul scalefont setfont
(-1) stringwidth pop add
xratio div
dup 4 3 roll exch 0.000 cos mul sub 3 1 roll 0.000 sin mul sub 2 copy
/fntsize {/Helvetica-0 findfont exch scalefont setfont } def
0.000 320
(-1) Stxtl
(-1) stringwidth pop xratio div
dup 4 3 roll exch 0.000 cos mul add 3 1 roll 0.000 sin mul add 2 copy
pop pop pop pop
2778 28506 2618 28506 Sln
2538 28394 0
/Helvetica-0 findfont 320 yratio mul scalefont setfont
(0) stringwidth pop add
xratio div
dup 4 3 roll exch 0.000 cos mul sub 3 1 roll 0.000 sin mul sub 2 copy
/fntsize {/Helvetica-0 findfont exch scalefont setfont } def
0.000 320
(0) Stxtl
(0) stringwidth pop xratio div
dup 4 3 roll exch 0.000 cos mul add 3 1 roll 0.000 sin mul add 2 copy
pop pop pop pop
2778 29964 2618 29964 Sln
2538 29852 0
/Helvetica-0 findfont 320 yratio mul scalefont setfont
(1) stringwidth pop add
xratio div
dup 4 3 roll exch 0.000 cos mul sub 3 1 roll 0.000 sin mul sub 2 copy
/fntsize {/Helvetica-0 findfont exch scalefont setfont } def
0.000 320
(1) Stxtl
(1) stringwidth pop xratio div
dup 4 3 roll exch 0.000 cos mul add 3 1 roll 0.000 sin mul add 2 copy
pop pop pop pop
13605 22420 13605 30582 Sln
13605 23022 13445 23022 Sln
13365 22910 0
/Helvetica-0 findfont 320 yratio mul scalefont setfont
(-3) stringwidth pop add
xratio div
dup 4 3 roll exch 0.000 cos mul sub 3 1 roll 0.000 sin mul sub 2 copy
/fntsize {/Helvetica-0 findfont exch scalefont setfont } def
0.000 320
(-3) Stxtl
(-3) stringwidth pop xratio div
dup 4 3 roll exch 0.000 cos mul add 3 1 roll 0.000 sin mul add 2 copy
pop pop pop pop
13605 24483 13445 24483 Sln
13365 24371 0
/Helvetica-0 findfont 320 yratio mul scalefont setfont
(-2) stringwidth pop add
xratio div
dup 4 3 roll exch 0.000 cos mul sub 3 1 roll 0.000 sin mul sub 2 copy
/fntsize {/Helvetica-0 findfont exch scalefont setfont } def
0.000 320
(-2) Stxtl
(-2) stringwidth pop xratio div
dup 4 3 roll exch 0.000 cos mul add 3 1 roll 0.000 sin mul add 2 copy
pop pop pop pop
13605 25944 13445 25944 Sln
13365 25832 0
/Helvetica-0 findfont 320 yratio mul scalefont setfont
(-1) stringwidth pop add
xratio div
dup 4 3 roll exch 0.000 cos mul sub 3 1 roll 0.000 sin mul sub 2 copy
/fntsize {/Helvetica-0 findfont exch scalefont setfont } def
0.000 320
(-1) Stxtl
(-1) stringwidth pop xratio div
dup 4 3 roll exch 0.000 cos mul add 3 1 roll 0.000 sin mul add 2 copy
pop pop pop pop
13605 27406 13445 27406 Sln
13365 27294 0
/Helvetica-0 findfont 320 yratio mul scalefont setfont
(0) stringwidth pop add
xratio div
dup 4 3 roll exch 0.000 cos mul sub 3 1 roll 0.000 sin mul sub 2 copy
/fntsize {/Helvetica-0 findfont exch scalefont setfont } def
0.000 320
(0) Stxtl
(0) stringwidth pop xratio div
dup 4 3 roll exch 0.000 cos mul add 3 1 roll 0.000 sin mul add 2 copy
pop pop pop pop
13605 28867 13445 28867 Sln
13365 28755 0
/Helvetica-0 findfont 320 yratio mul scalefont setfont
(1) stringwidth pop add
xratio div
dup 4 3 roll exch 0.000 cos mul sub 3 1 roll 0.000 sin mul sub 2 copy
/fntsize {/Helvetica-0 findfont exch scalefont setfont } def
0.000 320
(1) Stxtl
(1) stringwidth pop xratio div
dup 4 3 roll exch 0.000 cos mul add 3 1 roll 0.000 sin mul add 2 copy
pop pop pop pop
13605 30328 13445 30328 Sln
13365 30216 0
/Helvetica-0 findfont 320 yratio mul scalefont setfont
(2) stringwidth pop add
xratio div
dup 4 3 roll exch 0.000 cos mul sub 3 1 roll 0.000 sin mul sub 2 copy
/fntsize {/Helvetica-0 findfont exch scalefont setfont } def
0.000 320
(2) Stxtl
(2) stringwidth pop xratio div
dup 4 3 roll exch 0.000 cos mul add 3 1 roll 0.000 sin mul add 2 copy
pop pop pop pop
2778 13679 2778 21841 Sln
2778 13933 2618 13933 Sln
2538 13821 0
/Helvetica-0 findfont 320 yratio mul scalefont setfont
(-1000) stringwidth pop add
xratio div
dup 4 3 roll exch 0.000 cos mul sub 3 1 roll 0.000 sin mul sub 2 copy
/fntsize {/Helvetica-0 findfont exch scalefont setfont } def
0.000 320
(-1000) Stxtl
(-1000) stringwidth pop xratio div
dup 4 3 roll exch 0.000 cos mul add 3 1 roll 0.000 sin mul add 2 copy
pop pop pop pop
2778 15464 2618 15464 Sln
2538 15352 0
/Helvetica-0 findfont 320 yratio mul scalefont setfont
(-500) stringwidth pop add
xratio div
dup 4 3 roll exch 0.000 cos mul sub 3 1 roll 0.000 sin mul sub 2 copy
/fntsize {/Helvetica-0 findfont exch scalefont setfont } def
0.000 320
(-500) Stxtl
(-500) stringwidth pop xratio div
dup 4 3 roll exch 0.000 cos mul add 3 1 roll 0.000 sin mul add 2 copy
pop pop pop pop
2778 16995 2618 16995 Sln
2538 16883 0
/Helvetica-0 findfont 320 yratio mul scalefont setfont
(0) stringwidth pop add
xratio div
dup 4 3 roll exch 0.000 cos mul sub 3 1 roll 0.000 sin mul sub 2 copy
/fntsize {/Helvetica-0 findfont exch scalefont setfont } def
0.000 320
(0) Stxtl
(0) stringwidth pop xratio div
dup 4 3 roll exch 0.000 cos mul add 3 1 roll 0.000 sin mul add 2 copy
pop pop pop pop
2778 18526 2618 18526 Sln
2538 18414 0
/Helvetica-0 findfont 320 yratio mul scalefont setfont
(500) stringwidth pop add
xratio div
dup 4 3 roll exch 0.000 cos mul sub 3 1 roll 0.000 sin mul sub 2 copy
/fntsize {/Helvetica-0 findfont exch scalefont setfont } def
0.000 320
(500) Stxtl
(500) stringwidth pop xratio div
dup 4 3 roll exch 0.000 cos mul add 3 1 roll 0.000 sin mul add 2 copy
pop pop pop pop
2778 20057 2618 20057 Sln
2538 19945 0
/Helvetica-0 findfont 320 yratio mul scalefont setfont
(1000) stringwidth pop add
xratio div
dup 4 3 roll exch 0.000 cos mul sub 3 1 roll 0.000 sin mul sub 2 copy
/fntsize {/Helvetica-0 findfont exch scalefont setfont } def
0.000 320
(1000) Stxtl
(1000) stringwidth pop xratio div
dup 4 3 roll exch 0.000 cos mul add 3 1 roll 0.000 sin mul add 2 copy
pop pop pop pop
2778 21588 2618 21588 Sln
2538 21476 0
/Helvetica-0 findfont 320 yratio mul scalefont setfont
(1500) stringwidth pop add
xratio div
dup 4 3 roll exch 0.000 cos mul sub 3 1 roll 0.000 sin mul sub 2 copy
/fntsize {/Helvetica-0 findfont exch scalefont setfont } def
0.000 320
(1500) Stxtl
(1500) stringwidth pop xratio div
dup 4 3 roll exch 0.000 cos mul add 3 1 roll 0.000 sin mul add 2 copy
pop pop pop pop
13605 13679 13605 21841 Sln
13605 13933 13445 13933 Sln
13365 13821 0
/Helvetica-0 findfont 320 yratio mul scalefont setfont
(-1500) stringwidth pop add
xratio div
dup 4 3 roll exch 0.000 cos mul sub 3 1 roll 0.000 sin mul sub 2 copy
/fntsize {/Helvetica-0 findfont exch scalefont setfont } def
0.000 320
(-1500) Stxtl
(-1500) stringwidth pop xratio div
dup 4 3 roll exch 0.000 cos mul add 3 1 roll 0.000 sin mul add 2 copy
pop pop pop pop
13605 15464 13445 15464 Sln
13365 15352 0
/Helvetica-0 findfont 320 yratio mul scalefont setfont
(-1000) stringwidth pop add
xratio div
dup 4 3 roll exch 0.000 cos mul sub 3 1 roll 0.000 sin mul sub 2 copy
/fntsize {/Helvetica-0 findfont exch scalefont setfont } def
0.000 320
(-1000) Stxtl
(-1000) stringwidth pop xratio div
dup 4 3 roll exch 0.000 cos mul add 3 1 roll 0.000 sin mul add 2 copy
pop pop pop pop
13605 16995 13445 16995 Sln
13365 16883 0
/Helvetica-0 findfont 320 yratio mul scalefont setfont
(-500) stringwidth pop add
xratio div
dup 4 3 roll exch 0.000 cos mul sub 3 1 roll 0.000 sin mul sub 2 copy
/fntsize {/Helvetica-0 findfont exch scalefont setfont } def
0.000 320
(-500) Stxtl
(-500) stringwidth pop xratio div
dup 4 3 roll exch 0.000 cos mul add 3 1 roll 0.000 sin mul add 2 copy
pop pop pop pop
13605 18526 13445 18526 Sln
13365 18414 0
/Helvetica-0 findfont 320 yratio mul scalefont setfont
(0) stringwidth pop add
xratio div
dup 4 3 roll exch 0.000 cos mul sub 3 1 roll 0.000 sin mul sub 2 copy
/fntsize {/Helvetica-0 findfont exch scalefont setfont } def
0.000 320
(0) Stxtl
(0) stringwidth pop xratio div
dup 4 3 roll exch 0.000 cos mul add 3 1 roll 0.000 sin mul add 2 copy
pop pop pop pop
13605 20057 13445 20057 Sln
13365 19945 0
/Helvetica-0 findfont 320 yratio mul scalefont setfont
(500) stringwidth pop add
xratio div
dup 4 3 roll exch 0.000 cos mul sub 3 1 roll 0.000 sin mul sub 2 copy
/fntsize {/Helvetica-0 findfont exch scalefont setfont } def
0.000 320
(500) Stxtl
(500) stringwidth pop xratio div
dup 4 3 roll exch 0.000 cos mul add 3 1 roll 0.000 sin mul add 2 copy
pop pop pop pop
13605 21588 13445 21588 Sln
13365 21476 0
/Helvetica-0 findfont 320 yratio mul scalefont setfont
(1000) stringwidth pop add
xratio div
dup 4 3 roll exch 0.000 cos mul sub 3 1 roll 0.000 sin mul sub 2 copy
/fntsize {/Helvetica-0 findfont exch scalefont setfont } def
0.000 320
(1000) Stxtl
(1000) stringwidth pop xratio div
dup 4 3 roll exch 0.000 cos mul add 3 1 roll 0.000 sin mul add 2 copy
pop pop pop pop
2778 4939 2778 13101 Sln
2778 5192 2618 5192 Sln
2538 5080 0
/Helvetica-0 findfont 320 yratio mul scalefont setfont
(-150) stringwidth pop add
xratio div
dup 4 3 roll exch 0.000 cos mul sub 3 1 roll 0.000 sin mul sub 2 copy
/fntsize {/Helvetica-0 findfont exch scalefont setfont } def
0.000 320
(-150) Stxtl
(-150) stringwidth pop xratio div
dup 4 3 roll exch 0.000 cos mul add 3 1 roll 0.000 sin mul add 2 copy
pop pop pop pop
2778 6468 2618 6468 Sln
2538 6356 0
/Helvetica-0 findfont 320 yratio mul scalefont setfont
(-100) stringwidth pop add
xratio div
dup 4 3 roll exch 0.000 cos mul sub 3 1 roll 0.000 sin mul sub 2 copy
/fntsize {/Helvetica-0 findfont exch scalefont setfont } def
0.000 320
(-100) Stxtl
(-100) stringwidth pop xratio div
dup 4 3 roll exch 0.000 cos mul add 3 1 roll 0.000 sin mul add 2 copy
pop pop pop pop
2778 7744 2618 7744 Sln
2538 7632 0
/Helvetica-0 findfont 320 yratio mul scalefont setfont
(-50) stringwidth pop add
xratio div
dup 4 3 roll exch 0.000 cos mul sub 3 1 roll 0.000 sin mul sub 2 copy
/fntsize {/Helvetica-0 findfont exch scalefont setfont } def
0.000 320
(-50) Stxtl
(-50) stringwidth pop xratio div
dup 4 3 roll exch 0.000 cos mul add 3 1 roll 0.000 sin mul add 2 copy
pop pop pop pop
2778 9020 2618 9020 Sln
2538 8908 0
/Helvetica-0 findfont 320 yratio mul scalefont setfont
(0) stringwidth pop add
xratio div
dup 4 3 roll exch 0.000 cos mul sub 3 1 roll 0.000 sin mul sub 2 copy
/fntsize {/Helvetica-0 findfont exch scalefont setfont } def
0.000 320
(0) Stxtl
(0) stringwidth pop xratio div
dup 4 3 roll exch 0.000 cos mul add 3 1 roll 0.000 sin mul add 2 copy
pop pop pop pop
2778 10296 2618 10296 Sln
2538 10184 0
/Helvetica-0 findfont 320 yratio mul scalefont setfont
(50) stringwidth pop add
xratio div
dup 4 3 roll exch 0.000 cos mul sub 3 1 roll 0.000 sin mul sub 2 copy
/fntsize {/Helvetica-0 findfont exch scalefont setfont } def
0.000 320
(50) Stxtl
(50) stringwidth pop xratio div
dup 4 3 roll exch 0.000 cos mul add 3 1 roll 0.000 sin mul add 2 copy
pop pop pop pop
2778 11572 2618 11572 Sln
2538 11460 0
/Helvetica-0 findfont 320 yratio mul scalefont setfont
(100) stringwidth pop add
xratio div
dup 4 3 roll exch 0.000 cos mul sub 3 1 roll 0.000 sin mul sub 2 copy
/fntsize {/Helvetica-0 findfont exch scalefont setfont } def
0.000 320
(100) Stxtl
(100) stringwidth pop xratio div
dup 4 3 roll exch 0.000 cos mul add 3 1 roll 0.000 sin mul add 2 copy
pop pop pop pop
2778 12847 2618 12847 Sln
2538 12735 0
/Helvetica-0 findfont 320 yratio mul scalefont setfont
(150) stringwidth pop add
xratio div
dup 4 3 roll exch 0.000 cos mul sub 3 1 roll 0.000 sin mul sub 2 copy
/fntsize {/Helvetica-0 findfont exch scalefont setfont } def
0.000 320
(150) Stxtl
(150) stringwidth pop xratio div
dup 4 3 roll exch 0.000 cos mul add 3 1 roll 0.000 sin mul add 2 copy
pop pop pop pop
13605 4939 13605 13101 Sln
13605 5192 13445 5192 Sln
13365 5080 0
/Helvetica-0 findfont 320 yratio mul scalefont setfont
(-200) stringwidth pop add
xratio div
dup 4 3 roll exch 0.000 cos mul sub 3 1 roll 0.000 sin mul sub 2 copy
/fntsize {/Helvetica-0 findfont exch scalefont setfont } def
0.000 320
(-200) Stxtl
(-200) stringwidth pop xratio div
dup 4 3 roll exch 0.000 cos mul add 3 1 roll 0.000 sin mul add 2 copy
pop pop pop pop
13605 7106 13445 7106 Sln
13365 6994 0
/Helvetica-0 findfont 320 yratio mul scalefont setfont
(-100) stringwidth pop add
xratio div
dup 4 3 roll exch 0.000 cos mul sub 3 1 roll 0.000 sin mul sub 2 copy
/fntsize {/Helvetica-0 findfont exch scalefont setfont } def
0.000 320
(-100) Stxtl
(-100) stringwidth pop xratio div
dup 4 3 roll exch 0.000 cos mul add 3 1 roll 0.000 sin mul add 2 copy
pop pop pop pop
13605 9020 13445 9020 Sln
13365 8908 0
/Helvetica-0 findfont 320 yratio mul scalefont setfont
(0) stringwidth pop add
xratio div
dup 4 3 roll exch 0.000 cos mul sub 3 1 roll 0.000 sin mul sub 2 copy
/fntsize {/Helvetica-0 findfont exch scalefont setfont } def
0.000 320
(0) Stxtl
(0) stringwidth pop xratio div
dup 4 3 roll exch 0.000 cos mul add 3 1 roll 0.000 sin mul add 2 copy
pop pop pop pop
13605 10934 13445 10934 Sln
13365 10822 0
/Helvetica-0 findfont 320 yratio mul scalefont setfont
(100) stringwidth pop add
xratio div
dup 4 3 roll exch 0.000 cos mul sub 3 1 roll 0.000 sin mul sub 2 copy
/fntsize {/Helvetica-0 findfont exch scalefont setfont } def
0.000 320
(100) Stxtl
(100) stringwidth pop xratio div
dup 4 3 roll exch 0.000 cos mul add 3 1 roll 0.000 sin mul add 2 copy
pop pop pop pop
13605 12847 13445 12847 Sln
13365 12735 0
/Helvetica-0 findfont 320 yratio mul scalefont setfont
(200) stringwidth pop add
xratio div
dup 4 3 roll exch 0.000 cos mul sub 3 1 roll 0.000 sin mul sub 2 copy
/fntsize {/Helvetica-0 findfont exch scalefont setfont } def
0.000 320
(200) Stxtl
(200) stringwidth pop xratio div
dup 4 3 roll exch 0.000 cos mul add 3 1 roll 0.000 sin mul add 2 copy
pop pop pop pop
2778 4939 12333 4939 Sln
3734 4939 3734 4779 Sln
3833 4600 0
/Helvetica-0 findfont 400 yratio mul scalefont setfont
(0-1) stringwidth pop add
xratio div
dup 4 3 roll exch 45.000 cos mul sub 3 1 roll 45.000 sin mul sub 2 copy
/fntsize {/Helvetica-0 findfont exch scalefont setfont } def
45.000 400
(0-1) Stxtl
(0-1) stringwidth pop xratio div
dup 4 3 roll exch 45.000 cos mul add 3 1 roll 45.000 sin mul add 2 copy
pop pop pop pop
5645 4939 5645 4779 Sln
5744 4600 0
/Helvetica-0 findfont 400 yratio mul scalefont setfont
(2-4) stringwidth pop add
xratio div
dup 4 3 roll exch 45.000 cos mul sub 3 1 roll 45.000 sin mul sub 2 copy
/fntsize {/Helvetica-0 findfont exch scalefont setfont } def
45.000 400
(2-4) Stxtl
(2-4) stringwidth pop xratio div
dup 4 3 roll exch 45.000 cos mul add 3 1 roll 45.000 sin mul add 2 copy
pop pop pop pop
7556 4939 7556 4779 Sln
7655 4600 0
/Helvetica-0 findfont 400 yratio mul scalefont setfont
(5-7) stringwidth pop add
xratio div
dup 4 3 roll exch 45.000 cos mul sub 3 1 roll 45.000 sin mul sub 2 copy
/fntsize {/Helvetica-0 findfont exch scalefont setfont } def
45.000 400
(5-7) Stxtl
(5-7) stringwidth pop xratio div
dup 4 3 roll exch 45.000 cos mul add 3 1 roll 45.000 sin mul add 2 copy
pop pop pop pop
9467 4939 9467 4779 Sln
9566 4600 0
/Helvetica-0 findfont 400 yratio mul scalefont setfont
(8-10) stringwidth pop add
xratio div
dup 4 3 roll exch 45.000 cos mul sub 3 1 roll 45.000 sin mul sub 2 copy
/fntsize {/Helvetica-0 findfont exch scalefont setfont } def
45.000 400
(8-10) Stxtl
(8-10) stringwidth pop xratio div
dup 4 3 roll exch 45.000 cos mul add 3 1 roll 45.000 sin mul add 2 copy
pop pop pop pop
11378 4939 11378 4779 Sln
11477 4600 0
/Helvetica-0 findfont 400 yratio mul scalefont setfont
(11-15) stringwidth pop add
xratio div
dup 4 3 roll exch 45.000 cos mul sub 3 1 roll 45.000 sin mul sub 2 copy
/fntsize {/Helvetica-0 findfont exch scalefont setfont } def
45.000 400
(11-15) Stxtl
(11-15) stringwidth pop xratio div
dup 4 3 roll exch 45.000 cos mul add 3 1 roll 45.000 sin mul add 2 copy
pop pop pop pop
13605 4939 23160 4939 Sln
14560 4939 14560 4779 Sln
14659 4600 0
/Helvetica-0 findfont 400 yratio mul scalefont setfont
(0-1) stringwidth pop add
xratio div
dup 4 3 roll exch 45.000 cos mul sub 3 1 roll 45.000 sin mul sub 2 copy
/fntsize {/Helvetica-0 findfont exch scalefont setfont } def
45.000 400
(0-1) Stxtl
(0-1) stringwidth pop xratio div
dup 4 3 roll exch 45.000 cos mul add 3 1 roll 45.000 sin mul add 2 copy
pop pop pop pop
16471 4939 16471 4779 Sln
16570 4600 0
/Helvetica-0 findfont 400 yratio mul scalefont setfont
(2-4) stringwidth pop add
xratio div
dup 4 3 roll exch 45.000 cos mul sub 3 1 roll 45.000 sin mul sub 2 copy
/fntsize {/Helvetica-0 findfont exch scalefont setfont } def
45.000 400
(2-4) Stxtl
(2-4) stringwidth pop xratio div
dup 4 3 roll exch 45.000 cos mul add 3 1 roll 45.000 sin mul add 2 copy
pop pop pop pop
18382 4939 18382 4779 Sln
18481 4600 0
/Helvetica-0 findfont 400 yratio mul scalefont setfont
(5-7) stringwidth pop add
xratio div
dup 4 3 roll exch 45.000 cos mul sub 3 1 roll 45.000 sin mul sub 2 copy
/fntsize {/Helvetica-0 findfont exch scalefont setfont } def
45.000 400
(5-7) Stxtl
(5-7) stringwidth pop xratio div
dup 4 3 roll exch 45.000 cos mul add 3 1 roll 45.000 sin mul add 2 copy
pop pop pop pop
20293 4939 20293 4779 Sln
20392 4600 0
/Helvetica-0 findfont 400 yratio mul scalefont setfont
(8-10) stringwidth pop add
xratio div
dup 4 3 roll exch 45.000 cos mul sub 3 1 roll 45.000 sin mul sub 2 copy
/fntsize {/Helvetica-0 findfont exch scalefont setfont } def
45.000 400
(8-10) Stxtl
(8-10) stringwidth pop xratio div
dup 4 3 roll exch 45.000 cos mul add 3 1 roll 45.000 sin mul add 2 copy
pop pop pop pop
22204 4939 22204 4779 Sln
22303 4600 0
/Helvetica-0 findfont 400 yratio mul scalefont setfont
(11-15) stringwidth pop add
xratio div
dup 4 3 roll exch 45.000 cos mul sub 3 1 roll 45.000 sin mul sub 2 copy
/fntsize {/Helvetica-0 findfont exch scalefont setfont } def
45.000 400
(11-15) Stxtl
(11-15) stringwidth pop xratio div
dup 4 3 roll exch 45.000 cos mul add 3 1 roll 45.000 sin mul add 2 copy
pop pop pop pop
/Ssrgb {1.000 1.000 1.000} def
/Slrgb {1.000 1.000 1.000} def
2778 30582 12333 31160 0 1 Srect
2790 30594 12321 31148 1 0 Srect
7556 30783 0
/Helvetica-0 findfont 440 yratio mul scalefont setfont
(BMI \(FE\)) stringwidth pop add
2 div xratio div
dup 4 3 roll exch 0.000 cos mul sub 3 1 roll 0.000 sin mul sub 2 copy
/fntsize {/Helvetica-0 findfont exch scalefont setfont } def
0.000 440
(BMI \(FE\)) Stxtl
(BMI \(FE\)) stringwidth pop xratio div
dup 4 3 roll exch 0.000 cos mul add 3 1 roll 0.000 sin mul add 2 copy
pop pop pop pop
13605 30582 23160 31160 0 1 Srect
13617 30594 23148 31148 1 0 Srect
18382 30783 0
/Helvetica-0 findfont 440 yratio mul scalefont setfont
(BMI \(MSM\)) stringwidth pop add
2 div xratio div
dup 4 3 roll exch 0.000 cos mul sub 3 1 roll 0.000 sin mul sub 2 copy
/fntsize {/Helvetica-0 findfont exch scalefont setfont } def
0.000 440
(BMI \(MSM\)) Stxtl
(BMI \(MSM\)) stringwidth pop xratio div
dup 4 3 roll exch 0.000 cos mul add 3 1 roll 0.000 sin mul add 2 copy
pop pop pop pop
2778 21841 12333 22420 0 1 Srect
2790 21853 12321 22408 1 0 Srect
7556 22042 0
/Helvetica-0 findfont 440 yratio mul scalefont setfont
(Kcal \(MSM\)) stringwidth pop add
2 div xratio div
dup 4 3 roll exch 0.000 cos mul sub 3 1 roll 0.000 sin mul sub 2 copy
/fntsize {/Helvetica-0 findfont exch scalefont setfont } def
0.000 440
(Kcal \(MSM\)) Stxtl
(Kcal \(MSM\)) stringwidth pop xratio div
dup 4 3 roll exch 0.000 cos mul add 3 1 roll 0.000 sin mul add 2 copy
pop pop pop pop
13605 21841 23160 22420 0 1 Srect
13617 21853 23148 22408 1 0 Srect
18382 22042 0
/Helvetica-0 findfont 440 yratio mul scalefont setfont
(Kcal \(FE\)) stringwidth pop add
2 div xratio div
dup 4 3 roll exch 0.000 cos mul sub 3 1 roll 0.000 sin mul sub 2 copy
/fntsize {/Helvetica-0 findfont exch scalefont setfont } def
0.000 440
(Kcal \(FE\)) Stxtl
(Kcal \(FE\)) stringwidth pop xratio div
dup 4 3 roll exch 0.000 cos mul add 3 1 roll 0.000 sin mul add 2 copy
pop pop pop pop
2778 13101 12333 13679 0 1 Srect
2790 13113 12321 13667 1 0 Srect
7556 13302 0
/Helvetica-0 findfont 440 yratio mul scalefont setfont
(PA \(MSM\)) stringwidth pop add
2 div xratio div
dup 4 3 roll exch 0.000 cos mul sub 3 1 roll 0.000 sin mul sub 2 copy
/fntsize {/Helvetica-0 findfont exch scalefont setfont } def
0.000 440
(PA \(MSM\)) Stxtl
(PA \(MSM\)) stringwidth pop xratio div
dup 4 3 roll exch 0.000 cos mul add 3 1 roll 0.000 sin mul add 2 copy
pop pop pop pop
13605 13101 23160 13679 0 1 Srect
13617 13113 23148 13667 1 0 Srect
18382 13302 0
/Helvetica-0 findfont 440 yratio mul scalefont setfont
(PA \(FE\)) stringwidth pop add
2 div xratio div
dup 4 3 roll exch 0.000 cos mul sub 3 1 roll 0.000 sin mul sub 2 copy
/fntsize {/Helvetica-0 findfont exch scalefont setfont } def
0.000 440
(PA \(FE\)) Stxtl
(PA \(FE\)) stringwidth pop xratio div
dup 4 3 roll exch 0.000 cos mul add 3 1 roll 0.000 sin mul add 2 copy
pop pop pop pop
/Slw 1.296 def
/Slrgb {0.000 0.000 0.000} def
5962 1128 18704 2681 0 1 Srect
5986 1152 18680 2657 1 0 Srect
/Slw 1.944 def
/Slrgb {0.376 0.376 0.376} def
6322 1905 9442 1905 Sln
/Slrgb {0.627 0.627 0.627} def
12469 1905 12661 1905 Sln
12829 1905 13021 1905 Sln
13189 1905 13381 1905 Sln
13549 1905 13741 1905 Sln
13909 1905 14101 1905 Sln
14269 1905 14461 1905 Sln
14628 1905 14820 1905 Sln
14988 1905 15180 1905 Sln
15348 1905 15540 1905 Sln
9942 1672 2 copy
/fntsize {/Helvetica-0 findfont exch scalefont setfont } def
0.000 666
(men) Stxtl
(men) stringwidth pop xratio div
dup 4 3 roll exch 0.000 cos mul add 3 1 roll 0.000 sin mul add 2 copy
pop pop pop pop
16089 1672 2 copy
/fntsize {/Helvetica-0 findfont exch scalefont setfont } def
0.000 666
(women) Stxtl
(women) stringwidth pop xratio div
dup 4 3 roll exch 0.000 cos mul add 3 1 roll 0.000 sin mul add 2 copy
pop pop pop pop
1306 17398 0
/Helvetica-0 findfont 666 yratio mul scalefont setfont
(Marginal effect) stringwidth pop add
2 div xratio div
dup 4 3 roll exch 90.000 cos mul sub 3 1 roll 90.000 sin mul sub 2 copy
/fntsize {/Helvetica-0 findfont exch scalefont setfont } def
90.000 666
(Marginal effect) Stxtl
(Marginal effect) stringwidth pop xratio div
dup 4 3 roll exch 90.000 cos mul add 3 1 roll 90.000 sin mul add 2 copy
pop pop pop pop
12333 3169 0
/Helvetica-0 findfont 666 yratio mul scalefont setfont
(Years after diagnosis) stringwidth pop add
2 div xratio div
dup 4 3 roll exch 0.000 cos mul sub 3 1 roll 0.000 sin mul sub 2 copy
/fntsize {/Helvetica-0 findfont exch scalefont setfont } def
0.000 666
(Years after diagnosis) Stxtl
(Years after diagnosis) stringwidth pop xratio div
dup 4 3 roll exch 0.000 cos mul add 3 1 roll 0.000 sin mul add 2 copy
pop pop pop pop
S showpage
%%EOF
