%!PS-Adobe-2.0 EPSF-2.0
%% This is a Stata generated postscript file
%%BoundingBox: 0 0 396 288
%%HiResBoundingBox: 0.000 0.000 396.000 288.000
%%DocumentNeededResources: font Helvetica
/xratio 0.012375 def
/yratio 0.012375 def
/Sbgfill {
	/y1 exch def
	/x1 exch def
	/y0 exch def
	/x0 exch def
	x0 y0 moveto
	x0 y1 lineto x1 y1 lineto x1 y0 lineto x0 y0 lineto
	fill
} def
/Spt {
	yratio mul
	/yp exch def
	xratio mul
	/xp exch def
	Slrgb setrgbcolor
	xp yp .5 0 360 arc fill
} def
/Sln {
	yratio mul
	/y1p exch def
	xratio mul
	/x1p exch def
	yratio mul
	/y0p exch def
	xratio mul
	/x0p exch def
	Slw setlinewidth
	Slrgb setrgbcolor
	x0p y0p M x1p y1p lineto S
} def
/Scrv {
	yratio mul
	/y3p exch def
	xratio mul
	/x3p exch def
	yratio mul
	/y2p exch def
	xratio mul
	/x2p exch def
	yratio mul
	/y1p exch def
	xratio mul
	/x1p exch def
	Slw setlinewidth
	Slrgb setrgbcolor
	x1p y1p x2p y2p x3p y3p curveto
	stroke
} def
/Stxtl {
	/sp exch def
	yratio mul
	/sizep exch def
	dup
	/anglep exch def
	0 exch sub
	/angle2p exch def
	yratio mul
	/y0p exch def
	xratio mul
	/x0p exch def
	Strgb setrgbcolor
	x0p y0p M anglep rotate sizep fntsize sp show stroke angle2p rotate
} def
/Stxtc {
	/sp exch def
	yratio mul
	/sizep exch def
	dup
	/anglep exch def
	0 exch sub
	/angle2p exch def
	yratio mul
	/y0p exch def
	xratio mul
	/x0p exch def
	Strgb setrgbcolor
	x0p y0p M anglep rotate sizep fntsize sp stringwidth exch -2 div exch rm sp show stroke angle2p rotate
} def
/Stxtr {
	/sp exch def
	yratio mul
	/sizep exch def
	dup
	/anglep exch def
	0 exch sub
	/angle2p exch def
	yratio mul
	/y0p exch def
	xratio mul
	/x0p exch def
	Strgb setrgbcolor
	x0p y0p M anglep rotate sizep fntsize sp stringwidth 1 index -1 mul exch rm pop sp show stroke angle2p rotate
} def
/Srect {
	/sfill exch def
	yratio mul
	/y1 exch def
	xratio mul
	/x1 exch def
	yratio mul
	/y0 exch def
	xratio mul
	/x0 exch def
	newpath x0 y0 moveto x0 y1 lineto x1 y1 lineto x1 y0 lineto x0 y0 lineto closepath
	sfill 1 eq {
		Ssrgb setrgbcolor
		gsave
		fill
		grestore
	} if
	Slw setlinewidth
	Slrgb setrgbcolor
	stroke
} def
/Sellipse {
	/sfill exch def
	yratio mul
	/yrad exch def
	xratio mul
	/xrad exch def
	yratio mul
	/y exch def
	xratio mul
	/x exch def
	/savematrix matrix currentmatrix def
	x y translate
	xrad yrad scale
	0 0 1 0 360 arc
	savematrix setmatrix
	sfill 1 eq {
		Ssrgb setrgbcolor
		gsave
		fill
		grestore
	} if
	Slw setlinewidth
	Slrgb setrgbcolor
	stroke
} def
/Stri {
	/sfill exch def
	xratio mul
	/r exch def
	yratio mul
	/y0 exch def
	xratio mul
	/x0 exch def
	/xcen x0 def
	y0 r add
	/ytop exch def
	r 2 div
	y0 exch sub
	/ybot exch def
	r 3 sqrt 2 div mul dup
	xcen exch sub
	/xleft exch def
	xcen add
	/xright exch def
	newpath xcen ytop moveto xright ybot lineto xleft ybot lineto xcen ytop lineto closepath
	sfill 1 eq {
		Ssrgb setrgbcolor
		gsave
		fill
		grestore
	} if
	Slw setlinewidth
	Slrgb setrgbcolor
	stroke
} def
/Soldtri {
	/sfill exch def
	xratio mul
	/r exch def
	yratio mul
	/y0 exch def
	xratio mul
	/x0 exch def
	x0 r sub
	/x1 exch def
	y0 r sub
	/y1 exch def
	x0 r add
	/x2 exch def
	y0 r sub
	/y2 exch def
	/x3 x0 def
	y0 r add
	/y3 exch def
	newpath x1 y1 moveto x2 y2 lineto x3 y3 lineto x1 y1 lineto closepath
	sfill 1 eq {
		Ssrgb setrgbcolor
		gsave
		fill
		grestore
	} if
	Slw setlinewidth
	Slrgb setrgbcolor
	stroke
} def
/Sdia {
	/sfill exch def
	xratio mul
	/r exch def
	yratio mul
	/y exch def
	xratio mul
	/x exch def
	x r sub
	/x0 exch def
	/y0 y def
	/x1 x def
	y r sub
	/y1 exch def
	x r add
	/x2 exch def
	/y2 y def
	/x3 x def
	y r add
	/y3 exch def
	newpath x0 y0 moveto x1 y1 lineto x2 y2 lineto x3 y3 lineto x0 y0 lineto closepath
	sfill 1 eq {
		Ssrgb setrgbcolor
		gsave
		fill
		grestore
	} if
	Slw setlinewidth
	Slrgb setrgbcolor
	stroke
} def
/Scc {
	/sfill exch def
	xratio mul
	/r0 exch def
	yratio mul
	/y0 exch def
	xratio mul
	/x0 exch def
	x0 y0 r0 0 360 arc closepath
	sfill 1 eq {
		Ssrgb setrgbcolor
		gsave
		fill
		grestore
	} if
	Slw setlinewidth
	Slrgb setrgbcolor
	stroke
} def
/Spie {
	/sfill exch def
	/a1 exch def
	/a0 exch def
	xratio mul
	/r exch def
	yratio mul
	/y exch def
	xratio mul
	/x exch def
	newpath x y moveto x y r a0 a1 arc closepath
	sfill 1 eq {
		Ssrgb setrgbcolor
		gsave
		fill
		grestore
	} if
	Slw setlinewidth
	Slrgb setrgbcolor
	stroke
} def
/Splu {
	xratio mul
	/r exch def
	yratio mul
	/y exch def
	xratio mul
	/x exch def
	x r sub
	/x0 exch def
	x r add
	/x1 exch def
	x0 y M x1 y L
	y r sub
	/y0 exch def
	y r add
	/y1 exch def
	x y0 M x y1 L
} def
/Scro {
	xratio mul
	/r exch def
	yratio mul
	/y exch def
	xratio mul
	/x exch def
	x r sub
	/x0 exch def
	y r sub
	/y0 exch def
	x r add
	/x1 exch def
	y r add
	/y1 exch def
	x0 y0 M x1 y1 L
	x r add
	/x0 exch def
	y r sub
	/y0 exch def
	x r sub
	/x1 exch def
	y r add
	/y1 exch def
	x0 y0 M x1 y1 L
} def
/Sm {
	yratio mul
	/y exch def
	xratio mul
	/x exch def
	x y M
} def
/Sl {
	yratio mul
	/y exch def
	xratio mul
	/x exch def
	x y L
} def
/SPl {
	yratio mul
	/y exch def
	xratio mul
	/x exch def
	x y PL
} def
/Lcs {
	currentlinecap
	1 setlinecap
} def
/Lcr {
	setlinecap
} def
/Sbp {
	newpath
} def
/Sep {
	/sfill exch def
	closepath
	sfill 1 eq  {
		Ssrgb setrgbcolor
		gsave
		fill
		grestore
	} if
	Slw setlinewidth
	Slrgb setrgbcolor
	Lcs
	stroke
	Lcr
} def
/cp {currentpoint} def 
/M {moveto} def 
/rm {rmoveto} def 
/S {stroke} def 
/L {Slw setlinewidth Slrgb setrgbcolor lineto Lcs S Lcr} def 
/PL {Slw setlinewidth Slrgb setrgbcolor lineto} def 
/MF-Helvetica {
  /newfontname exch def
  /fontname exch def
  /fontdict fontname findfont def
  /newfont fontdict maxlength dict def
  fontdict {
  exch dup /FID eq {pop pop} {exch newfont 3 1 roll put} ifelse
  } forall
  newfont /FontName newfontname put
  newfont /Encoding ISOLatin1Encoding put
  newfontname newfont definefont pop
} def
/Helvetica /Helvetica-0 MF-Helvetica
/Slw 0.120 def
1.000 1.000 1.000 setrgbcolor
0 0 396.000 288.000 Sbgfill
/Slrgb {1.000 1.000 1.000} def
/Strgb {1.000 1.000 1.000} def
/Ssrgb {1.000 1.000 1.000} def
/Slw 0.576 def
0 0 31999 23272 1 Srect
/Slw 0.461 def
/Slrgb {0.000 0.000 0.000} def
4703 14168 10659 21244 0 Srect
/Strgb {0.000 0.000 0.000} def
/Slw 0.691 def
/Slrgb {0.188 0.188 0.188} def
4703 18189 10659 18189 Sln
/Slw 0.461 def
/Slrgb {0.000 0.000 0.000} def
14826 14168 20782 21244 0 Srect
/Slw 0.691 def
/Slrgb {0.188 0.188 0.188} def
14826 17546 20782 17546 Sln
/Slw 0.461 def
/Slrgb {0.000 0.000 0.000} def
24950 14168 30905 21244 0 Srect
/Slw 0.691 def
/Slrgb {0.188 0.188 0.188} def
24950 18331 30905 18331 Sln
/Slw 0.461 def
/Slrgb {0.000 0.000 0.000} def
4703 5599 10659 12675 0 Srect
/Slw 0.691 def
/Slrgb {0.188 0.188 0.188} def
4703 10672 10659 10672 Sln
/Slw 0.461 def
/Slrgb {0.000 0.000 0.000} def
14826 5599 20782 12675 0 Srect
/Slw 0.691 def
/Slrgb {0.188 0.188 0.188} def
14826 10669 20782 10669 Sln
/Slw 0.461 def
/Slrgb {0.000 0.000 0.000} def
24950 5599 30905 12675 0 Srect
/Slw 0.691 def
/Slrgb {0.188 0.188 0.188} def
24950 10180 30905 10180 Sln
/Ssrgb {0.502 0.502 0.502} def
/Slw 0.461 def
/Slrgb {0.376 0.376 0.376} def
4951 18086 4951 19804 Sln
5696 18010 5696 18922 Sln
6440 17720 6440 18814 Sln
7185 16448 7185 18322 Sln
7929 18249 7929 20083 Sln
8673 16479 8673 19685 Sln
9418 16465 9418 20666 Sln
10162 16260 10162 20834 Sln
4951 18944 Sm
5695 18466 Sl
5695 18466 Sm
6440 18267 Sl
6440 18267 Sm
7184 17385 Sl
7184 17385 Sm
7928 19166 Sl
7928 19166 Sm
8673 18081 Sl
8673 18081 Sm
9417 18565 Sl
9417 18565 Sm
10162 18547 Sl
/Ssrgb {0.702 0.702 0.702} def
/Slrgb {0.627 0.627 0.627} def
5199 16987 5199 20609 Sln
5944 17196 5944 17983 Sln
6688 16603 6688 17992 Sln
7433 16601 7433 18314 Sln
8177 15716 8177 17829 Sln
8922 15313 8922 18097 Sln
9666 15536 9666 17969 Sln
10410 15038 10410 18946 Sln
5199 18798 5296 18639 Sln
5382 18500 5479 18342 Sln
5565 18203 5663 18045 Sln
5748 17906 5846 17747 Sln
5931 17608 5943 17589 Sln
5943 17589 6095 17530 Sln
6247 17470 6420 17402 Sln
6572 17343 6688 17297 Sln
6688 17297 6748 17310 Sln
6908 17344 7090 17383 Sln
7249 17418 7431 17457 Sln
7551 17347 7688 17221 Sln
7808 17111 7945 16985 Sln
8065 16875 8177 16772 Sln
8177 16772 8211 16769 Sln
8374 16754 8559 16737 Sln
8721 16722 8906 16705 Sln
9069 16713 9254 16726 Sln
9417 16736 9602 16748 Sln
9760 16783 9938 16840 Sln
10093 16890 10270 16947 Sln
/Ssrgb {0.502 0.502 0.502} def
/Slrgb {0.376 0.376 0.376} def
15075 16225 15075 18676 Sln
15819 16831 15819 17973 Sln
16563 17020 16563 18584 Sln
17308 16635 17308 18878 Sln
18052 14816 18052 18230 Sln
18797 16092 18797 19659 Sln
19541 16254 19541 20158 Sln
20286 17552 20286 20834 Sln
15074 17450 Sm
15818 17402 Sl
15818 17402 Sm
16563 17802 Sl
16563 17802 Sm
17307 17756 Sl
17307 17756 Sm
18052 16523 Sl
18052 16523 Sm
18796 17875 Sl
18796 17875 Sm
19541 18206 Sl
19541 18206 Sm
20285 19193 Sl
/Ssrgb {0.702 0.702 0.702} def
/Slrgb {0.627 0.627 0.627} def
15323 17344 15323 17544 Sln
16067 17152 16067 17507 Sln
16812 17224 16812 17612 Sln
17556 16636 17556 17821 Sln
18300 17321 18300 18115 Sln
19045 17213 19045 18344 Sln
19789 16206 19789 17842 Sln
20534 17116 20534 17641 Sln
15322 17443 15506 17415 Sln
15667 17390 15851 17362 Sln
16012 17338 16067 17329 Sln
16067 17329 16197 17344 Sln
16359 17364 16544 17386 Sln
16705 17405 16811 17418 Sln
16811 17418 16888 17398 Sln
17046 17358 17226 17312 Sln
17384 17271 17555 17228 Sln
17555 17228 17564 17233 Sln
17699 17323 17855 17425 Sln
17991 17515 18147 17617 Sln
18283 17707 18300 17718 Sln
18300 17718 18465 17731 Sln
18628 17745 18814 17760 Sln
18976 17773 19044 17778 Sln
19044 17778 19127 17694 Sln
19241 17578 19372 17445 Sln
19487 17329 19617 17197 Sln
19732 17081 19789 17023 Sln
19789 17023 19883 17068 Sln
20031 17138 20198 17218 Sln
20346 17288 20513 17369 Sln
/Ssrgb {0.502 0.502 0.502} def
/Slrgb {0.376 0.376 0.376} def
25198 16923 25198 20750 Sln
25942 16971 25942 18008 Sln
26687 17329 26687 18686 Sln
27431 16699 27431 18291 Sln
28176 15200 28176 18078 Sln
28920 17241 28920 20442 Sln
29664 16211 29664 18235 Sln
30409 15946 30409 18662 Sln
25197 18836 Sm
25942 17489 Sl
25942 17489 Sm
26686 18007 Sl
26686 18007 Sm
27431 17494 Sl
27431 17494 Sm
28175 16639 Sl
28175 16639 Sm
28920 18841 Sl
28920 18841 Sm
29664 17222 Sl
29664 17222 Sm
30408 17303 Sl
/Ssrgb {0.702 0.702 0.702} def
/Slrgb {0.627 0.627 0.627} def
25446 17547 25446 18541 Sln
26190 18042 26190 18333 Sln
26935 18006 26935 18349 Sln
27679 18098 27679 18596 Sln
28424 18212 28424 18401 Sln
29168 18163 29168 18381 Sln
29913 18192 29913 18406 Sln
30657 18175 30657 18394 Sln
25445 18043 25628 18079 Sln
25788 18110 25970 18144 Sln
26130 18176 26190 18187 Sln
26190 18187 26315 18185 Sln
26478 18183 26664 18181 Sln
26827 18178 26934 18177 Sln
26934 18177 27011 18195 Sln
27170 18231 27352 18272 Sln
27511 18308 27679 18346 Sln
27679 18346 27693 18345 Sln
27856 18336 28041 18327 Sln
28204 18318 28390 18308 Sln
28553 18300 28739 18291 Sln
28902 18283 29088 18275 Sln
29250 18274 29437 18281 Sln
29600 18287 29786 18294 Sln
29949 18298 30135 18294 Sln
30298 18291 30484 18287 Sln
30647 18284 30657 18284 Sln
/Ssrgb {0.502 0.502 0.502} def
/Slrgb {0.376 0.376 0.376} def
4951 9047 4951 12265 Sln
5696 9265 5696 10173 Sln
6440 9012 6440 10499 Sln
7185 8537 7185 10104 Sln
7929 8884 7929 10846 Sln
8673 6887 8673 9937 Sln
9418 6958 9418 10321 Sln
10162 6166 10162 11662 Sln
4951 10656 Sm
5695 9718 Sl
5695 9718 Sm
6440 9755 Sl
6440 9755 Sm
7184 9320 Sl
7184 9320 Sm
7928 9865 Sl
7928 9865 Sm
8673 8412 Sl
8673 8412 Sm
9417 8639 Sl
9417 8639 Sm
10162 8914 Sl
/Ssrgb {0.702 0.702 0.702} def
/Slrgb {0.627 0.627 0.627} def
5199 7686 5199 11842 Sln
5944 9459 5944 11118 Sln
6688 8703 6688 10724 Sln
7433 8731 7433 10216 Sln
8177 8232 8177 10016 Sln
8922 8110 8922 10947 Sln
9666 7504 9666 12172 Sln
10410 9023 10410 12063 Sln
5199 9764 5351 9871 Sln
5484 9965 5636 10073 Sln
5770 10166 5922 10273 Sln
6052 10204 6199 10090 Sln
6328 9991 6475 9877 Sln
6604 9778 6688 9713 Sln
6688 9713 6764 9689 Sln
6919 9638 7097 9581 Sln
7252 9531 7428 9474 Sln
7576 9406 7744 9327 Sln
7892 9258 8061 9179 Sln
8207 9140 8371 9229 Sln
8514 9307 8677 9396 Sln
8821 9473 8921 9528 Sln
8921 9528 8988 9556 Sln
9138 9618 9310 9690 Sln
9460 9752 9632 9824 Sln
9757 9925 9892 10053 Sln
10011 10165 10146 10293 Sln
10265 10405 10400 10532 Sln
/Ssrgb {0.502 0.502 0.502} def
/Slrgb {0.376 0.376 0.376} def
15075 9971 15075 12265 Sln
15819 9567 15819 10344 Sln
16563 9233 16563 10231 Sln
17308 9419 17308 10854 Sln
18052 8824 18052 10927 Sln
18797 6719 18797 9475 Sln
19541 7131 19541 10576 Sln
20286 8715 20286 10010 Sln
15074 11118 Sm
15818 9955 Sl
15818 9955 Sm
16563 9732 Sl
16563 9732 Sm
17307 10136 Sl
17307 10136 Sm
18052 9875 Sl
18052 9875 Sm
18796 8097 Sl
18796 8097 Sm
19541 8853 Sl
19541 8853 Sm
20285 9362 Sl
/Ssrgb {0.702 0.702 0.702} def
/Slrgb {0.627 0.627 0.627} def
15323 7368 15323 11535 Sln
16067 10087 16067 10905 Sln
16812 9714 16812 11113 Sln
17556 9548 17556 10786 Sln
18300 9087 18300 10279 Sln
19045 9291 19045 11887 Sln
19789 8070 19789 11131 Sln
20534 9573 20534 12196 Sln
15322 9451 15430 9602 Sln
15524 9735 15632 9887 Sln
15727 10019 15835 10171 Sln
15930 10304 16038 10455 Sln
16179 10484 16364 10463 Sln
16526 10445 16711 10424 Sln
16870 10393 17047 10335 Sln
17202 10284 17378 10226 Sln
17533 10175 17555 10167 Sln
17555 10167 17692 10078 Sln
17828 9989 17984 9888 Sln
18121 9799 18277 9697 Sln
18386 9787 18504 9931 Sln
18608 10057 18726 10201 Sln
18829 10327 18947 10470 Sln
19050 10579 19163 10431 Sln
19261 10301 19373 10152 Sln
19471 10022 19583 9873 Sln
19681 9743 19789 9600 Sln
19789 9600 19792 9606 Sln
19874 9747 19968 9908 Sln
20049 10048 20142 10209 Sln
20224 10350 20317 10511 Sln
20399 10652 20492 10813 Sln
/Ssrgb {0.502 0.502 0.502} def
/Slrgb {0.376 0.376 0.376} def
25198 6598 25198 10961 Sln
25942 8077 25942 9926 Sln
26687 8612 26687 10628 Sln
27431 9154 27431 11562 Sln
28176 7225 28176 9948 Sln
28920 7094 28920 11213 Sln
29664 8622 29664 11500 Sln
30409 7733 30409 11376 Sln
25197 8779 Sm
25942 9001 Sl
25942 9001 Sm
26686 9620 Sl
26686 9620 Sm
27431 10357 Sl
27431 10357 Sm
28175 8586 Sl
28175 8586 Sm
28920 9153 Sl
28920 9153 Sm
29664 10061 Sl
29664 10061 Sm
30408 9554 Sl
/Ssrgb {0.702 0.702 0.702} def
/Slrgb {0.627 0.627 0.627} def
25446 6539 25446 10086 Sln
26190 8983 26190 10144 Sln
26935 9590 26935 11286 Sln
27679 8831 27679 10809 Sln
28424 8575 28424 10844 Sln
29168 8471 29168 11213 Sln
29913 8274 29913 11818 Sln
30657 7379 30657 9161 Sln
25445 8312 25540 8472 Sln
25623 8612 25718 8772 Sln
25801 8912 25897 9072 Sln
25980 9212 26076 9372 Sln
26159 9511 26190 9563 Sln
26190 9563 26272 9659 Sln
26377 9783 26498 9925 Sln
26604 10049 26724 10191 Sln
26830 10315 26934 10437 Sln
26934 10437 26954 10421 Sln
27079 10317 27223 10198 Sln
27348 10094 27491 9975 Sln
27617 9871 27679 9819 Sln
27679 9819 27783 9804 Sln
27944 9780 28128 9753 Sln
28289 9728 28423 9709 Sln
28423 9709 28473 9718 Sln
28634 9746 28817 9779 Sln
28977 9807 29160 9840 Sln
29318 9883 29497 9932 Sln
29654 9975 29834 10024 Sln
29944 9971 30016 9799 Sln
30079 9649 30150 9477 Sln
30213 9327 30285 9155 Sln
30348 9005 30420 8833 Sln
30483 8683 30555 8511 Sln
30618 8361 30657 8269 Sln
/Slrgb {0.000 0.000 0.000} def
4703 14168 4703 21244 Sln
4703 14577 4444 14577 Sln
4315 14351 0
/Helvetica-0 findfont 646 yratio mul scalefont setfont
(-.6) stringwidth pop add
xratio div
dup 4 3 roll exch 0.000 cos mul sub 3 1 roll 0.000 sin mul sub 2 copy
/fntsize {/Helvetica-0 findfont exch scalefont setfont } def
0.000 646
(-.6) Stxtl
(-.6) stringwidth pop xratio div
dup 4 3 roll exch 0.000 cos mul add 3 1 roll 0.000 sin mul add 2 copy
pop pop pop pop
4703 15781 4444 15781 Sln
4315 15555 0
/Helvetica-0 findfont 646 yratio mul scalefont setfont
(-.4) stringwidth pop add
xratio div
dup 4 3 roll exch 0.000 cos mul sub 3 1 roll 0.000 sin mul sub 2 copy
/fntsize {/Helvetica-0 findfont exch scalefont setfont } def
0.000 646
(-.4) Stxtl
(-.4) stringwidth pop xratio div
dup 4 3 roll exch 0.000 cos mul add 3 1 roll 0.000 sin mul add 2 copy
pop pop pop pop
4703 16985 4444 16985 Sln
4315 16759 0
/Helvetica-0 findfont 646 yratio mul scalefont setfont
(-.2) stringwidth pop add
xratio div
dup 4 3 roll exch 0.000 cos mul sub 3 1 roll 0.000 sin mul sub 2 copy
/fntsize {/Helvetica-0 findfont exch scalefont setfont } def
0.000 646
(-.2) Stxtl
(-.2) stringwidth pop xratio div
dup 4 3 roll exch 0.000 cos mul add 3 1 roll 0.000 sin mul add 2 copy
pop pop pop pop
4703 18189 4444 18189 Sln
4315 17963 0
/Helvetica-0 findfont 646 yratio mul scalefont setfont
(0) stringwidth pop add
xratio div
dup 4 3 roll exch 0.000 cos mul sub 3 1 roll 0.000 sin mul sub 2 copy
/fntsize {/Helvetica-0 findfont exch scalefont setfont } def
0.000 646
(0) Stxtl
(0) stringwidth pop xratio div
dup 4 3 roll exch 0.000 cos mul add 3 1 roll 0.000 sin mul add 2 copy
pop pop pop pop
4703 19393 4444 19393 Sln
4315 19167 0
/Helvetica-0 findfont 646 yratio mul scalefont setfont
(.2) stringwidth pop add
xratio div
dup 4 3 roll exch 0.000 cos mul sub 3 1 roll 0.000 sin mul sub 2 copy
/fntsize {/Helvetica-0 findfont exch scalefont setfont } def
0.000 646
(.2) Stxtl
(.2) stringwidth pop xratio div
dup 4 3 roll exch 0.000 cos mul add 3 1 roll 0.000 sin mul add 2 copy
pop pop pop pop
4703 20597 4444 20597 Sln
4315 20371 0
/Helvetica-0 findfont 646 yratio mul scalefont setfont
(.4) stringwidth pop add
xratio div
dup 4 3 roll exch 0.000 cos mul sub 3 1 roll 0.000 sin mul sub 2 copy
/fntsize {/Helvetica-0 findfont exch scalefont setfont } def
0.000 646
(.4) Stxtl
(.4) stringwidth pop xratio div
dup 4 3 roll exch 0.000 cos mul add 3 1 roll 0.000 sin mul add 2 copy
pop pop pop pop
14826 14168 14826 21244 Sln
14826 14577 14568 14577 Sln
14439 14351 0
/Helvetica-0 findfont 646 yratio mul scalefont setfont
(-.4) stringwidth pop add
xratio div
dup 4 3 roll exch 0.000 cos mul sub 3 1 roll 0.000 sin mul sub 2 copy
/fntsize {/Helvetica-0 findfont exch scalefont setfont } def
0.000 646
(-.4) Stxtl
(-.4) stringwidth pop xratio div
dup 4 3 roll exch 0.000 cos mul add 3 1 roll 0.000 sin mul add 2 copy
pop pop pop pop
14826 16062 14568 16062 Sln
14439 15836 0
/Helvetica-0 findfont 646 yratio mul scalefont setfont
(-.2) stringwidth pop add
xratio div
dup 4 3 roll exch 0.000 cos mul sub 3 1 roll 0.000 sin mul sub 2 copy
/fntsize {/Helvetica-0 findfont exch scalefont setfont } def
0.000 646
(-.2) Stxtl
(-.2) stringwidth pop xratio div
dup 4 3 roll exch 0.000 cos mul add 3 1 roll 0.000 sin mul add 2 copy
pop pop pop pop
14826 17546 14568 17546 Sln
14439 17320 0
/Helvetica-0 findfont 646 yratio mul scalefont setfont
(0) stringwidth pop add
xratio div
dup 4 3 roll exch 0.000 cos mul sub 3 1 roll 0.000 sin mul sub 2 copy
/fntsize {/Helvetica-0 findfont exch scalefont setfont } def
0.000 646
(0) Stxtl
(0) stringwidth pop xratio div
dup 4 3 roll exch 0.000 cos mul add 3 1 roll 0.000 sin mul add 2 copy
pop pop pop pop
14826 19030 14568 19030 Sln
14439 18804 0
/Helvetica-0 findfont 646 yratio mul scalefont setfont
(.2) stringwidth pop add
xratio div
dup 4 3 roll exch 0.000 cos mul sub 3 1 roll 0.000 sin mul sub 2 copy
/fntsize {/Helvetica-0 findfont exch scalefont setfont } def
0.000 646
(.2) Stxtl
(.2) stringwidth pop xratio div
dup 4 3 roll exch 0.000 cos mul add 3 1 roll 0.000 sin mul add 2 copy
pop pop pop pop
14826 20515 14568 20515 Sln
14439 20289 0
/Helvetica-0 findfont 646 yratio mul scalefont setfont
(.4) stringwidth pop add
xratio div
dup 4 3 roll exch 0.000 cos mul sub 3 1 roll 0.000 sin mul sub 2 copy
/fntsize {/Helvetica-0 findfont exch scalefont setfont } def
0.000 646
(.4) Stxtl
(.4) stringwidth pop xratio div
dup 4 3 roll exch 0.000 cos mul add 3 1 roll 0.000 sin mul add 2 copy
pop pop pop pop
24950 14168 24950 21244 Sln
24950 14577 24691 14577 Sln
24562 14351 0
/Helvetica-0 findfont 646 yratio mul scalefont setfont
(-.6) stringwidth pop add
xratio div
dup 4 3 roll exch 0.000 cos mul sub 3 1 roll 0.000 sin mul sub 2 copy
/fntsize {/Helvetica-0 findfont exch scalefont setfont } def
0.000 646
(-.6) Stxtl
(-.6) stringwidth pop xratio div
dup 4 3 roll exch 0.000 cos mul add 3 1 roll 0.000 sin mul add 2 copy
pop pop pop pop
24950 15829 24691 15829 Sln
24562 15603 0
/Helvetica-0 findfont 646 yratio mul scalefont setfont
(-.4) stringwidth pop add
xratio div
dup 4 3 roll exch 0.000 cos mul sub 3 1 roll 0.000 sin mul sub 2 copy
/fntsize {/Helvetica-0 findfont exch scalefont setfont } def
0.000 646
(-.4) Stxtl
(-.4) stringwidth pop xratio div
dup 4 3 roll exch 0.000 cos mul add 3 1 roll 0.000 sin mul add 2 copy
pop pop pop pop
24950 17080 24691 17080 Sln
24562 16854 0
/Helvetica-0 findfont 646 yratio mul scalefont setfont
(-.2) stringwidth pop add
xratio div
dup 4 3 roll exch 0.000 cos mul sub 3 1 roll 0.000 sin mul sub 2 copy
/fntsize {/Helvetica-0 findfont exch scalefont setfont } def
0.000 646
(-.2) Stxtl
(-.2) stringwidth pop xratio div
dup 4 3 roll exch 0.000 cos mul add 3 1 roll 0.000 sin mul add 2 copy
pop pop pop pop
24950 18331 24691 18331 Sln
24562 18105 0
/Helvetica-0 findfont 646 yratio mul scalefont setfont
(0) stringwidth pop add
xratio div
dup 4 3 roll exch 0.000 cos mul sub 3 1 roll 0.000 sin mul sub 2 copy
/fntsize {/Helvetica-0 findfont exch scalefont setfont } def
0.000 646
(0) Stxtl
(0) stringwidth pop xratio div
dup 4 3 roll exch 0.000 cos mul add 3 1 roll 0.000 sin mul add 2 copy
pop pop pop pop
24950 19583 24691 19583 Sln
24562 19357 0
/Helvetica-0 findfont 646 yratio mul scalefont setfont
(.2) stringwidth pop add
xratio div
dup 4 3 roll exch 0.000 cos mul sub 3 1 roll 0.000 sin mul sub 2 copy
/fntsize {/Helvetica-0 findfont exch scalefont setfont } def
0.000 646
(.2) Stxtl
(.2) stringwidth pop xratio div
dup 4 3 roll exch 0.000 cos mul add 3 1 roll 0.000 sin mul add 2 copy
pop pop pop pop
24950 20834 24691 20834 Sln
24562 20608 0
/Helvetica-0 findfont 646 yratio mul scalefont setfont
(.4) stringwidth pop add
xratio div
dup 4 3 roll exch 0.000 cos mul sub 3 1 roll 0.000 sin mul sub 2 copy
/fntsize {/Helvetica-0 findfont exch scalefont setfont } def
0.000 646
(.4) Stxtl
(.4) stringwidth pop xratio div
dup 4 3 roll exch 0.000 cos mul add 3 1 roll 0.000 sin mul add 2 copy
pop pop pop pop
4703 5599 4703 12675 Sln
4703 6008 4444 6008 Sln
4315 5782 0
/Helvetica-0 findfont 646 yratio mul scalefont setfont
(-4) stringwidth pop add
xratio div
dup 4 3 roll exch 0.000 cos mul sub 3 1 roll 0.000 sin mul sub 2 copy
/fntsize {/Helvetica-0 findfont exch scalefont setfont } def
0.000 646
(-4) Stxtl
(-4) stringwidth pop xratio div
dup 4 3 roll exch 0.000 cos mul add 3 1 roll 0.000 sin mul add 2 copy
pop pop pop pop
4703 7174 4444 7174 Sln
4315 6948 0
/Helvetica-0 findfont 646 yratio mul scalefont setfont
(-3) stringwidth pop add
xratio div
dup 4 3 roll exch 0.000 cos mul sub 3 1 roll 0.000 sin mul sub 2 copy
/fntsize {/Helvetica-0 findfont exch scalefont setfont } def
0.000 646
(-3) Stxtl
(-3) stringwidth pop xratio div
dup 4 3 roll exch 0.000 cos mul add 3 1 roll 0.000 sin mul add 2 copy
pop pop pop pop
4703 8340 4444 8340 Sln
4315 8114 0
/Helvetica-0 findfont 646 yratio mul scalefont setfont
(-2) stringwidth pop add
xratio div
dup 4 3 roll exch 0.000 cos mul sub 3 1 roll 0.000 sin mul sub 2 copy
/fntsize {/Helvetica-0 findfont exch scalefont setfont } def
0.000 646
(-2) Stxtl
(-2) stringwidth pop xratio div
dup 4 3 roll exch 0.000 cos mul add 3 1 roll 0.000 sin mul add 2 copy
pop pop pop pop
4703 9506 4444 9506 Sln
4315 9280 0
/Helvetica-0 findfont 646 yratio mul scalefont setfont
(-1) stringwidth pop add
xratio div
dup 4 3 roll exch 0.000 cos mul sub 3 1 roll 0.000 sin mul sub 2 copy
/fntsize {/Helvetica-0 findfont exch scalefont setfont } def
0.000 646
(-1) Stxtl
(-1) stringwidth pop xratio div
dup 4 3 roll exch 0.000 cos mul add 3 1 roll 0.000 sin mul add 2 copy
pop pop pop pop
4703 10672 4444 10672 Sln
4315 10446 0
/Helvetica-0 findfont 646 yratio mul scalefont setfont
(0) stringwidth pop add
xratio div
dup 4 3 roll exch 0.000 cos mul sub 3 1 roll 0.000 sin mul sub 2 copy
/fntsize {/Helvetica-0 findfont exch scalefont setfont } def
0.000 646
(0) Stxtl
(0) stringwidth pop xratio div
dup 4 3 roll exch 0.000 cos mul add 3 1 roll 0.000 sin mul add 2 copy
pop pop pop pop
4703 11838 4444 11838 Sln
4315 11612 0
/Helvetica-0 findfont 646 yratio mul scalefont setfont
(1) stringwidth pop add
xratio div
dup 4 3 roll exch 0.000 cos mul sub 3 1 roll 0.000 sin mul sub 2 copy
/fntsize {/Helvetica-0 findfont exch scalefont setfont } def
0.000 646
(1) Stxtl
(1) stringwidth pop xratio div
dup 4 3 roll exch 0.000 cos mul add 3 1 roll 0.000 sin mul add 2 copy
pop pop pop pop
14826 5599 14826 12675 Sln
14826 6008 14568 6008 Sln
14439 5782 0
/Helvetica-0 findfont 646 yratio mul scalefont setfont
(-15) stringwidth pop add
xratio div
dup 4 3 roll exch 0.000 cos mul sub 3 1 roll 0.000 sin mul sub 2 copy
/fntsize {/Helvetica-0 findfont exch scalefont setfont } def
0.000 646
(-15) Stxtl
(-15) stringwidth pop xratio div
dup 4 3 roll exch 0.000 cos mul add 3 1 roll 0.000 sin mul add 2 copy
pop pop pop pop
14826 7562 14568 7562 Sln
14439 7336 0
/Helvetica-0 findfont 646 yratio mul scalefont setfont
(-10) stringwidth pop add
xratio div
dup 4 3 roll exch 0.000 cos mul sub 3 1 roll 0.000 sin mul sub 2 copy
/fntsize {/Helvetica-0 findfont exch scalefont setfont } def
0.000 646
(-10) Stxtl
(-10) stringwidth pop xratio div
dup 4 3 roll exch 0.000 cos mul add 3 1 roll 0.000 sin mul add 2 copy
pop pop pop pop
14826 9116 14568 9116 Sln
14439 8890 0
/Helvetica-0 findfont 646 yratio mul scalefont setfont
(-5) stringwidth pop add
xratio div
dup 4 3 roll exch 0.000 cos mul sub 3 1 roll 0.000 sin mul sub 2 copy
/fntsize {/Helvetica-0 findfont exch scalefont setfont } def
0.000 646
(-5) Stxtl
(-5) stringwidth pop xratio div
dup 4 3 roll exch 0.000 cos mul add 3 1 roll 0.000 sin mul add 2 copy
pop pop pop pop
14826 10669 14568 10669 Sln
14439 10443 0
/Helvetica-0 findfont 646 yratio mul scalefont setfont
(0) stringwidth pop add
xratio div
dup 4 3 roll exch 0.000 cos mul sub 3 1 roll 0.000 sin mul sub 2 copy
/fntsize {/Helvetica-0 findfont exch scalefont setfont } def
0.000 646
(0) Stxtl
(0) stringwidth pop xratio div
dup 4 3 roll exch 0.000 cos mul add 3 1 roll 0.000 sin mul add 2 copy
pop pop pop pop
14826 12223 14568 12223 Sln
14439 11997 0
/Helvetica-0 findfont 646 yratio mul scalefont setfont
(5) stringwidth pop add
xratio div
dup 4 3 roll exch 0.000 cos mul sub 3 1 roll 0.000 sin mul sub 2 copy
/fntsize {/Helvetica-0 findfont exch scalefont setfont } def
0.000 646
(5) Stxtl
(5) stringwidth pop xratio div
dup 4 3 roll exch 0.000 cos mul add 3 1 roll 0.000 sin mul add 2 copy
pop pop pop pop
24950 5599 24950 12675 Sln
24950 6008 24691 6008 Sln
24562 5782 0
/Helvetica-0 findfont 646 yratio mul scalefont setfont
(-800) stringwidth pop add
xratio div
dup 4 3 roll exch 0.000 cos mul sub 3 1 roll 0.000 sin mul sub 2 copy
/fntsize {/Helvetica-0 findfont exch scalefont setfont } def
0.000 646
(-800) Stxtl
(-800) stringwidth pop xratio div
dup 4 3 roll exch 0.000 cos mul add 3 1 roll 0.000 sin mul add 2 copy
pop pop pop pop
24950 7051 24691 7051 Sln
24562 6825 0
/Helvetica-0 findfont 646 yratio mul scalefont setfont
(-600) stringwidth pop add
xratio div
dup 4 3 roll exch 0.000 cos mul sub 3 1 roll 0.000 sin mul sub 2 copy
/fntsize {/Helvetica-0 findfont exch scalefont setfont } def
0.000 646
(-600) Stxtl
(-600) stringwidth pop xratio div
dup 4 3 roll exch 0.000 cos mul add 3 1 roll 0.000 sin mul add 2 copy
pop pop pop pop
24950 8094 24691 8094 Sln
24562 7868 0
/Helvetica-0 findfont 646 yratio mul scalefont setfont
(-400) stringwidth pop add
xratio div
dup 4 3 roll exch 0.000 cos mul sub 3 1 roll 0.000 sin mul sub 2 copy
/fntsize {/Helvetica-0 findfont exch scalefont setfont } def
0.000 646
(-400) Stxtl
(-400) stringwidth pop xratio div
dup 4 3 roll exch 0.000 cos mul add 3 1 roll 0.000 sin mul add 2 copy
pop pop pop pop
24950 9137 24691 9137 Sln
24562 8911 0
/Helvetica-0 findfont 646 yratio mul scalefont setfont
(-200) stringwidth pop add
xratio div
dup 4 3 roll exch 0.000 cos mul sub 3 1 roll 0.000 sin mul sub 2 copy
/fntsize {/Helvetica-0 findfont exch scalefont setfont } def
0.000 646
(-200) Stxtl
(-200) stringwidth pop xratio div
dup 4 3 roll exch 0.000 cos mul add 3 1 roll 0.000 sin mul add 2 copy
pop pop pop pop
24950 10180 24691 10180 Sln
24562 9954 0
/Helvetica-0 findfont 646 yratio mul scalefont setfont
(0) stringwidth pop add
xratio div
dup 4 3 roll exch 0.000 cos mul sub 3 1 roll 0.000 sin mul sub 2 copy
/fntsize {/Helvetica-0 findfont exch scalefont setfont } def
0.000 646
(0) Stxtl
(0) stringwidth pop xratio div
dup 4 3 roll exch 0.000 cos mul add 3 1 roll 0.000 sin mul add 2 copy
pop pop pop pop
24950 11222 24691 11222 Sln
24562 10996 0
/Helvetica-0 findfont 646 yratio mul scalefont setfont
(200) stringwidth pop add
xratio div
dup 4 3 roll exch 0.000 cos mul sub 3 1 roll 0.000 sin mul sub 2 copy
/fntsize {/Helvetica-0 findfont exch scalefont setfont } def
0.000 646
(200) Stxtl
(200) stringwidth pop xratio div
dup 4 3 roll exch 0.000 cos mul add 3 1 roll 0.000 sin mul add 2 copy
pop pop pop pop
24950 12265 24691 12265 Sln
24562 12039 0
/Helvetica-0 findfont 646 yratio mul scalefont setfont
(400) stringwidth pop add
xratio div
dup 4 3 roll exch 0.000 cos mul sub 3 1 roll 0.000 sin mul sub 2 copy
/fntsize {/Helvetica-0 findfont exch scalefont setfont } def
0.000 646
(400) Stxtl
(400) stringwidth pop xratio div
dup 4 3 roll exch 0.000 cos mul add 3 1 roll 0.000 sin mul add 2 copy
pop pop pop pop
4703 5599 10659 5599 Sln
5075 5599 5075 5340 Sln
5301 5211 0
/Helvetica-0 findfont 646 yratio mul scalefont setfont
(0) stringwidth pop add
xratio div
dup 4 3 roll exch 90.000 cos mul sub 3 1 roll 90.000 sin mul sub 2 copy
/fntsize {/Helvetica-0 findfont exch scalefont setfont } def
90.000 646
(0) Stxtl
(0) stringwidth pop xratio div
dup 4 3 roll exch 90.000 cos mul add 3 1 roll 90.000 sin mul add 2 copy
pop pop pop pop
5820 5599 5820 5340 Sln
6046 5211 0
/Helvetica-0 findfont 646 yratio mul scalefont setfont
(1-2) stringwidth pop add
xratio div
dup 4 3 roll exch 90.000 cos mul sub 3 1 roll 90.000 sin mul sub 2 copy
/fntsize {/Helvetica-0 findfont exch scalefont setfont } def
90.000 646
(1-2) Stxtl
(1-2) stringwidth pop xratio div
dup 4 3 roll exch 90.000 cos mul add 3 1 roll 90.000 sin mul add 2 copy
pop pop pop pop
6564 5599 6564 5340 Sln
6790 5211 0
/Helvetica-0 findfont 646 yratio mul scalefont setfont
(3-4) stringwidth pop add
xratio div
dup 4 3 roll exch 90.000 cos mul sub 3 1 roll 90.000 sin mul sub 2 copy
/fntsize {/Helvetica-0 findfont exch scalefont setfont } def
90.000 646
(3-4) Stxtl
(3-4) stringwidth pop xratio div
dup 4 3 roll exch 90.000 cos mul add 3 1 roll 90.000 sin mul add 2 copy
pop pop pop pop
7309 5599 7309 5340 Sln
7535 5211 0
/Helvetica-0 findfont 646 yratio mul scalefont setfont
(5-6) stringwidth pop add
xratio div
dup 4 3 roll exch 90.000 cos mul sub 3 1 roll 90.000 sin mul sub 2 copy
/fntsize {/Helvetica-0 findfont exch scalefont setfont } def
90.000 646
(5-6) Stxtl
(5-6) stringwidth pop xratio div
dup 4 3 roll exch 90.000 cos mul add 3 1 roll 90.000 sin mul add 2 copy
pop pop pop pop
8053 5599 8053 5340 Sln
8279 5211 0
/Helvetica-0 findfont 646 yratio mul scalefont setfont
(7-8) stringwidth pop add
xratio div
dup 4 3 roll exch 90.000 cos mul sub 3 1 roll 90.000 sin mul sub 2 copy
/fntsize {/Helvetica-0 findfont exch scalefont setfont } def
90.000 646
(7-8) Stxtl
(7-8) stringwidth pop xratio div
dup 4 3 roll exch 90.000 cos mul add 3 1 roll 90.000 sin mul add 2 copy
pop pop pop pop
8797 5599 8797 5340 Sln
9023 5211 0
/Helvetica-0 findfont 646 yratio mul scalefont setfont
(9-10) stringwidth pop add
xratio div
dup 4 3 roll exch 90.000 cos mul sub 3 1 roll 90.000 sin mul sub 2 copy
/fntsize {/Helvetica-0 findfont exch scalefont setfont } def
90.000 646
(9-10) Stxtl
(9-10) stringwidth pop xratio div
dup 4 3 roll exch 90.000 cos mul add 3 1 roll 90.000 sin mul add 2 copy
pop pop pop pop
9542 5599 9542 5340 Sln
9768 5211 0
/Helvetica-0 findfont 646 yratio mul scalefont setfont
(11-12) stringwidth pop add
xratio div
dup 4 3 roll exch 90.000 cos mul sub 3 1 roll 90.000 sin mul sub 2 copy
/fntsize {/Helvetica-0 findfont exch scalefont setfont } def
90.000 646
(11-12) Stxtl
(11-12) stringwidth pop xratio div
dup 4 3 roll exch 90.000 cos mul add 3 1 roll 90.000 sin mul add 2 copy
pop pop pop pop
10286 5599 10286 5340 Sln
10512 5211 0
/Helvetica-0 findfont 646 yratio mul scalefont setfont
(13-14) stringwidth pop add
xratio div
dup 4 3 roll exch 90.000 cos mul sub 3 1 roll 90.000 sin mul sub 2 copy
/fntsize {/Helvetica-0 findfont exch scalefont setfont } def
90.000 646
(13-14) Stxtl
(13-14) stringwidth pop xratio div
dup 4 3 roll exch 90.000 cos mul add 3 1 roll 90.000 sin mul add 2 copy
pop pop pop pop
14826 5599 20782 5599 Sln
15199 5599 15199 5340 Sln
15425 5211 0
/Helvetica-0 findfont 646 yratio mul scalefont setfont
(0) stringwidth pop add
xratio div
dup 4 3 roll exch 90.000 cos mul sub 3 1 roll 90.000 sin mul sub 2 copy
/fntsize {/Helvetica-0 findfont exch scalefont setfont } def
90.000 646
(0) Stxtl
(0) stringwidth pop xratio div
dup 4 3 roll exch 90.000 cos mul add 3 1 roll 90.000 sin mul add 2 copy
pop pop pop pop
15943 5599 15943 5340 Sln
16169 5211 0
/Helvetica-0 findfont 646 yratio mul scalefont setfont
(1-2) stringwidth pop add
xratio div
dup 4 3 roll exch 90.000 cos mul sub 3 1 roll 90.000 sin mul sub 2 copy
/fntsize {/Helvetica-0 findfont exch scalefont setfont } def
90.000 646
(1-2) Stxtl
(1-2) stringwidth pop xratio div
dup 4 3 roll exch 90.000 cos mul add 3 1 roll 90.000 sin mul add 2 copy
pop pop pop pop
16687 5599 16687 5340 Sln
16913 5211 0
/Helvetica-0 findfont 646 yratio mul scalefont setfont
(3-4) stringwidth pop add
xratio div
dup 4 3 roll exch 90.000 cos mul sub 3 1 roll 90.000 sin mul sub 2 copy
/fntsize {/Helvetica-0 findfont exch scalefont setfont } def
90.000 646
(3-4) Stxtl
(3-4) stringwidth pop xratio div
dup 4 3 roll exch 90.000 cos mul add 3 1 roll 90.000 sin mul add 2 copy
pop pop pop pop
17432 5599 17432 5340 Sln
17658 5211 0
/Helvetica-0 findfont 646 yratio mul scalefont setfont
(5-6) stringwidth pop add
xratio div
dup 4 3 roll exch 90.000 cos mul sub 3 1 roll 90.000 sin mul sub 2 copy
/fntsize {/Helvetica-0 findfont exch scalefont setfont } def
90.000 646
(5-6) Stxtl
(5-6) stringwidth pop xratio div
dup 4 3 roll exch 90.000 cos mul add 3 1 roll 90.000 sin mul add 2 copy
pop pop pop pop
18176 5599 18176 5340 Sln
18402 5211 0
/Helvetica-0 findfont 646 yratio mul scalefont setfont
(7-8) stringwidth pop add
xratio div
dup 4 3 roll exch 90.000 cos mul sub 3 1 roll 90.000 sin mul sub 2 copy
/fntsize {/Helvetica-0 findfont exch scalefont setfont } def
90.000 646
(7-8) Stxtl
(7-8) stringwidth pop xratio div
dup 4 3 roll exch 90.000 cos mul add 3 1 roll 90.000 sin mul add 2 copy
pop pop pop pop
18921 5599 18921 5340 Sln
19147 5211 0
/Helvetica-0 findfont 646 yratio mul scalefont setfont
(9-10) stringwidth pop add
xratio div
dup 4 3 roll exch 90.000 cos mul sub 3 1 roll 90.000 sin mul sub 2 copy
/fntsize {/Helvetica-0 findfont exch scalefont setfont } def
90.000 646
(9-10) Stxtl
(9-10) stringwidth pop xratio div
dup 4 3 roll exch 90.000 cos mul add 3 1 roll 90.000 sin mul add 2 copy
pop pop pop pop
19665 5599 19665 5340 Sln
19891 5211 0
/Helvetica-0 findfont 646 yratio mul scalefont setfont
(11-12) stringwidth pop add
xratio div
dup 4 3 roll exch 90.000 cos mul sub 3 1 roll 90.000 sin mul sub 2 copy
/fntsize {/Helvetica-0 findfont exch scalefont setfont } def
90.000 646
(11-12) Stxtl
(11-12) stringwidth pop xratio div
dup 4 3 roll exch 90.000 cos mul add 3 1 roll 90.000 sin mul add 2 copy
pop pop pop pop
20410 5599 20410 5340 Sln
20636 5211 0
/Helvetica-0 findfont 646 yratio mul scalefont setfont
(13-14) stringwidth pop add
xratio div
dup 4 3 roll exch 90.000 cos mul sub 3 1 roll 90.000 sin mul sub 2 copy
/fntsize {/Helvetica-0 findfont exch scalefont setfont } def
90.000 646
(13-14) Stxtl
(13-14) stringwidth pop xratio div
dup 4 3 roll exch 90.000 cos mul add 3 1 roll 90.000 sin mul add 2 copy
pop pop pop pop
24950 5599 30905 5599 Sln
25322 5599 25322 5340 Sln
25548 5211 0
/Helvetica-0 findfont 646 yratio mul scalefont setfont
(0) stringwidth pop add
xratio div
dup 4 3 roll exch 90.000 cos mul sub 3 1 roll 90.000 sin mul sub 2 copy
/fntsize {/Helvetica-0 findfont exch scalefont setfont } def
90.000 646
(0) Stxtl
(0) stringwidth pop xratio div
dup 4 3 roll exch 90.000 cos mul add 3 1 roll 90.000 sin mul add 2 copy
pop pop pop pop
26066 5599 26066 5340 Sln
26292 5211 0
/Helvetica-0 findfont 646 yratio mul scalefont setfont
(1-2) stringwidth pop add
xratio div
dup 4 3 roll exch 90.000 cos mul sub 3 1 roll 90.000 sin mul sub 2 copy
/fntsize {/Helvetica-0 findfont exch scalefont setfont } def
90.000 646
(1-2) Stxtl
(1-2) stringwidth pop xratio div
dup 4 3 roll exch 90.000 cos mul add 3 1 roll 90.000 sin mul add 2 copy
pop pop pop pop
26811 5599 26811 5340 Sln
27037 5211 0
/Helvetica-0 findfont 646 yratio mul scalefont setfont
(3-4) stringwidth pop add
xratio div
dup 4 3 roll exch 90.000 cos mul sub 3 1 roll 90.000 sin mul sub 2 copy
/fntsize {/Helvetica-0 findfont exch scalefont setfont } def
90.000 646
(3-4) Stxtl
(3-4) stringwidth pop xratio div
dup 4 3 roll exch 90.000 cos mul add 3 1 roll 90.000 sin mul add 2 copy
pop pop pop pop
27555 5599 27555 5340 Sln
27781 5211 0
/Helvetica-0 findfont 646 yratio mul scalefont setfont
(5-6) stringwidth pop add
xratio div
dup 4 3 roll exch 90.000 cos mul sub 3 1 roll 90.000 sin mul sub 2 copy
/fntsize {/Helvetica-0 findfont exch scalefont setfont } def
90.000 646
(5-6) Stxtl
(5-6) stringwidth pop xratio div
dup 4 3 roll exch 90.000 cos mul add 3 1 roll 90.000 sin mul add 2 copy
pop pop pop pop
28300 5599 28300 5340 Sln
28526 5211 0
/Helvetica-0 findfont 646 yratio mul scalefont setfont
(7-8) stringwidth pop add
xratio div
dup 4 3 roll exch 90.000 cos mul sub 3 1 roll 90.000 sin mul sub 2 copy
/fntsize {/Helvetica-0 findfont exch scalefont setfont } def
90.000 646
(7-8) Stxtl
(7-8) stringwidth pop xratio div
dup 4 3 roll exch 90.000 cos mul add 3 1 roll 90.000 sin mul add 2 copy
pop pop pop pop
29044 5599 29044 5340 Sln
29270 5211 0
/Helvetica-0 findfont 646 yratio mul scalefont setfont
(9-10) stringwidth pop add
xratio div
dup 4 3 roll exch 90.000 cos mul sub 3 1 roll 90.000 sin mul sub 2 copy
/fntsize {/Helvetica-0 findfont exch scalefont setfont } def
90.000 646
(9-10) Stxtl
(9-10) stringwidth pop xratio div
dup 4 3 roll exch 90.000 cos mul add 3 1 roll 90.000 sin mul add 2 copy
pop pop pop pop
29789 5599 29789 5340 Sln
30015 5211 0
/Helvetica-0 findfont 646 yratio mul scalefont setfont
(11-12) stringwidth pop add
xratio div
dup 4 3 roll exch 90.000 cos mul sub 3 1 roll 90.000 sin mul sub 2 copy
/fntsize {/Helvetica-0 findfont exch scalefont setfont } def
90.000 646
(11-12) Stxtl
(11-12) stringwidth pop xratio div
dup 4 3 roll exch 90.000 cos mul add 3 1 roll 90.000 sin mul add 2 copy
pop pop pop pop
30533 5599 30533 5340 Sln
30759 5211 0
/Helvetica-0 findfont 646 yratio mul scalefont setfont
(13-14) stringwidth pop add
xratio div
dup 4 3 roll exch 90.000 cos mul sub 3 1 roll 90.000 sin mul sub 2 copy
/fntsize {/Helvetica-0 findfont exch scalefont setfont } def
90.000 646
(13-14) Stxtl
(13-14) stringwidth pop xratio div
dup 4 3 roll exch 90.000 cos mul add 3 1 roll 90.000 sin mul add 2 copy
pop pop pop pop
/Ssrgb {0.816 0.816 0.816} def
4703 21244 10659 22178 1 Srect
7681 21568 0
/Helvetica-0 findfont 711 yratio mul scalefont setfont
(Employed) stringwidth pop add
2 div xratio div
dup 4 3 roll exch 0.000 cos mul sub 3 1 roll 0.000 sin mul sub 2 copy
/fntsize {/Helvetica-0 findfont exch scalefont setfont } def
0.000 711
(Employed) Stxtl
(Employed) stringwidth pop xratio div
dup 4 3 roll exch 0.000 cos mul add 3 1 roll 0.000 sin mul add 2 copy
pop pop pop pop
14826 21244 20782 22178 1 Srect
17804 21568 0
/Helvetica-0 findfont 711 yratio mul scalefont setfont
(Smoking) stringwidth pop add
2 div xratio div
dup 4 3 roll exch 0.000 cos mul sub 3 1 roll 0.000 sin mul sub 2 copy
/fntsize {/Helvetica-0 findfont exch scalefont setfont } def
0.000 711
(Smoking) Stxtl
(Smoking) stringwidth pop xratio div
dup 4 3 roll exch 0.000 cos mul add 3 1 roll 0.000 sin mul add 2 copy
pop pop pop pop
24950 21244 30905 22178 1 Srect
27927 21568 0
/Helvetica-0 findfont 711 yratio mul scalefont setfont
(Alcohol) stringwidth pop add
2 div xratio div
dup 4 3 roll exch 0.000 cos mul sub 3 1 roll 0.000 sin mul sub 2 copy
/fntsize {/Helvetica-0 findfont exch scalefont setfont } def
0.000 711
(Alcohol) Stxtl
(Alcohol) stringwidth pop xratio div
dup 4 3 roll exch 0.000 cos mul add 3 1 roll 0.000 sin mul add 2 copy
pop pop pop pop
4703 12675 10659 13609 1 Srect
7681 12999 0
/Helvetica-0 findfont 711 yratio mul scalefont setfont
(BMI) stringwidth pop add
2 div xratio div
dup 4 3 roll exch 0.000 cos mul sub 3 1 roll 0.000 sin mul sub 2 copy
/fntsize {/Helvetica-0 findfont exch scalefont setfont } def
0.000 711
(BMI) Stxtl
(BMI) stringwidth pop xratio div
dup 4 3 roll exch 0.000 cos mul add 3 1 roll 0.000 sin mul add 2 copy
pop pop pop pop
14826 12675 20782 13609 1 Srect
17804 12999 0
/Helvetica-0 findfont 711 yratio mul scalefont setfont
(Waist \(cm\)) stringwidth pop add
2 div xratio div
dup 4 3 roll exch 0.000 cos mul sub 3 1 roll 0.000 sin mul sub 2 copy
/fntsize {/Helvetica-0 findfont exch scalefont setfont } def
0.000 711
(Waist \(cm\)) Stxtl
(Waist \(cm\)) stringwidth pop xratio div
dup 4 3 roll exch 0.000 cos mul add 3 1 roll 0.000 sin mul add 2 copy
pop pop pop pop
24950 12675 30905 13609 1 Srect
27927 12999 0
/Helvetica-0 findfont 711 yratio mul scalefont setfont
(Kcal) stringwidth pop add
2 div xratio div
dup 4 3 roll exch 0.000 cos mul sub 3 1 roll 0.000 sin mul sub 2 copy
/fntsize {/Helvetica-0 findfont exch scalefont setfont } def
0.000 711
(Kcal) Stxtl
(Kcal) stringwidth pop xratio div
dup 4 3 roll exch 0.000 cos mul add 3 1 roll 0.000 sin mul add 2 copy
pop pop pop pop
/Ssrgb {1.000 1.000 1.000} def
/Slw 0.576 def
9383 1094 22616 2600 1 Srect
/Slrgb {0.376 0.376 0.376} def
9732 1847 12757 1847 Sln
/Slrgb {0.627 0.627 0.627} def
16023 1847 16209 1847 Sln
16372 1847 16558 1847 Sln
16721 1847 16907 1847 Sln
17070 1847 17256 1847 Sln
17419 1847 17605 1847 Sln
17768 1847 17954 1847 Sln
18117 1847 18304 1847 Sln
18466 1847 18653 1847 Sln
18816 1847 19002 1847 Sln
13242 1564 2 copy
/fntsize {/Helvetica-0 findfont exch scalefont setfont } def
0.000 808
(men) Stxtl
(men) stringwidth pop xratio div
dup 4 3 roll exch 0.000 cos mul add 3 1 roll 0.000 sin mul add 2 copy
pop pop pop pop
19533 1564 2 copy
/fntsize {/Helvetica-0 findfont exch scalefont setfont } def
0.000 808
(women) Stxtl
(women) stringwidth pop xratio div
dup 4 3 roll exch 0.000 cos mul add 3 1 roll 0.000 sin mul add 2 copy
pop pop pop pop
S showpage
%%EOF
