%!PS-Adobe-2.0 EPSF-2.0
%% This is a Stata generated postscript file
%%BoundingBox: 0 0 648 864
%%HiResBoundingBox: 0.000 0.000 648.000 864.000
%%DocumentNeededResources: font Helvetica
/xratio 0.027000 def
/yratio 0.027000 def
/Sbgfill {
	/y1 exch def
	/x1 exch def
	/y0 exch def
	/x0 exch def
	x0 y0 moveto
	x0 y1 lineto x1 y1 lineto x1 y0 lineto x0 y0 lineto
	fill
} def
/Spt {
	yratio mul
	/yp exch def
	xratio mul
	/xp exch def
	Slrgb setrgbcolor
	xp yp .5 0 360 arc fill
} def
/Sln {
	yratio mul
	/y1p exch def
	xratio mul
	/x1p exch def
	yratio mul
	/y0p exch def
	xratio mul
	/x0p exch def
	Slw setlinewidth
	Slrgb setrgbcolor
	x0p y0p M x1p y1p lineto S
} def
/Scrv {
	yratio mul
	/y3p exch def
	xratio mul
	/x3p exch def
	yratio mul
	/y2p exch def
	xratio mul
	/x2p exch def
	yratio mul
	/y1p exch def
	xratio mul
	/x1p exch def
	Slw setlinewidth
	Slrgb setrgbcolor
	x1p y1p x2p y2p x3p y3p curveto
	stroke
} def
/Stxtl {
	/sp exch def
	yratio mul
	/sizep exch def
	dup
	/anglep exch def
	0 exch sub
	/angle2p exch def
	yratio mul
	/y0p exch def
	xratio mul
	/x0p exch def
	Strgb setrgbcolor
	x0p y0p M anglep rotate sizep fntsize sp show stroke angle2p rotate
} def
/Stxtc {
	/sp exch def
	yratio mul
	/sizep exch def
	dup
	/anglep exch def
	0 exch sub
	/angle2p exch def
	yratio mul
	/y0p exch def
	xratio mul
	/x0p exch def
	Strgb setrgbcolor
	x0p y0p M anglep rotate sizep fntsize sp stringwidth exch -2 div exch rm sp show stroke angle2p rotate
} def
/Stxtr {
	/sp exch def
	yratio mul
	/sizep exch def
	dup
	/anglep exch def
	0 exch sub
	/angle2p exch def
	yratio mul
	/y0p exch def
	xratio mul
	/x0p exch def
	Strgb setrgbcolor
	x0p y0p M anglep rotate sizep fntsize sp stringwidth 1 index -1 mul exch rm pop sp show stroke angle2p rotate
} def
/Srect {
	/sfill exch def
	/sstroke exch def
	yratio mul
	/y1 exch def
	xratio mul
	/x1 exch def
	yratio mul
	/y0 exch def
	xratio mul
	/x0 exch def
	newpath x0 y0 moveto x0 y1 lineto x1 y1 lineto x1 y0 lineto x0 y0 lineto closepath
	sfill Sfill
	sstroke Sstroke
} def
/Sellipse {
	/sfill exch def
	/sstroke exch def
	yratio mul
	/yrad exch def
	xratio mul
	/xrad exch def
	yratio mul
	/y exch def
	xratio mul
	/x exch def
	/savematrix matrix currentmatrix def
	x y translate
	xrad yrad scale
	0 0 1 0 360 arc
	savematrix setmatrix
	sfill Sfill
	sstroke Sstroke
} def
/Stri {
	/sfill exch def
	/sstroke exch def
	xratio mul
	/r exch def
	yratio mul
	/y0 exch def
	xratio mul
	/x0 exch def
	/xcen x0 def
	y0 r add
	/ytop exch def
	r 2 div
	y0 exch sub
	/ybot exch def
	r 3 sqrt 2 div mul dup
	xcen exch sub
	/xleft exch def
	xcen add
	/xright exch def
	newpath xcen ytop moveto xright ybot lineto xleft ybot lineto xcen ytop lineto closepath
	sfill Sfill
	sstroke Sstroke
} def
/Soldtri {
	/sfill exch def
	xratio mul
	/r exch def
	yratio mul
	/y0 exch def
	xratio mul
	/x0 exch def
	x0 r sub
	/x1 exch def
	y0 r sub
	/y1 exch def
	x0 r add
	/x2 exch def
	y0 r sub
	/y2 exch def
	/x3 x0 def
	y0 r add
	/y3 exch def
	newpath x1 y1 moveto x2 y2 lineto x3 y3 lineto x1 y1 lineto closepath
	sfill 1 eq {
		Ssrgb setrgbcolor
		gsave
		fill
		grestore
	} if
	Slw setlinewidth
	Slrgb setrgbcolor
	stroke
} def
/Sdia {
	/sfill exch def
	/sstroke exch def
	xratio mul
	/r exch def
	yratio mul
	/y exch def
	xratio mul
	/x exch def
	x r sub
	/x0 exch def
	/y0 y def
	/x1 x def
	y r sub
	/y1 exch def
	x r add
	/x2 exch def
	/y2 y def
	/x3 x def
	y r add
	/y3 exch def
	newpath x0 y0 moveto x1 y1 lineto x2 y2 lineto x3 y3 lineto closepath
	sfill Sfill
	sstroke Sstroke
} def
/Scc {
	/sfill exch def
	/sstroke exch def
	xratio mul
	/r0 exch def
	yratio mul
	/y0 exch def
	xratio mul
	/x0 exch def
	x0 y0 r0 0 360 arc closepath
	sfill Sfill
	sstroke Sstroke
} def
/Spie {
	/sfill exch def
	/salign exch def
	/a1 exch def
	/a0 exch def
	xratio mul
	/r exch def
	yratio mul
	/y exch def
	xratio mul
	/x exch def
	/Pie {
		x y moveto x y r a0 a1 arc closepath
	} def
	newpath Pie
	sfill Sfill
	Slrgb setrgbcolor
	salign 0 eq {
		gsave
		Slw 2 mul setlinewidth
		clip
		stroke
		grestore
	} if
	salign 1 eq {
		Slw setlinewidth
		stroke
	} if
	salign 2 eq {
		gsave
		Slw 2 mul setlinewidth
		strokepath
		pathbbox
		/ury exch def
		/urx exch def
		/lly exch def
		/llx exch def
		newpath llx lly moveto llx ury lineto urx ury lineto urx lly lineto closepath
		Pie
		eoclip
		newpath Pie
		stroke
		grestore
	} if
	newpath
} def
/Splu {
	xratio mul
	/r exch def
	yratio mul
	/y exch def
	xratio mul
	/x exch def
	x r sub
	/x0 exch def
	x r add
	/x1 exch def
	x0 y M x1 y L
	y r sub
	/y0 exch def
	y r add
	/y1 exch def
	x y0 M x y1 L
} def
/Scro {
	xratio mul
	/r exch def
	yratio mul
	/y exch def
	xratio mul
	/x exch def
	x r sub
	/x0 exch def
	y r sub
	/y0 exch def
	x r add
	/x1 exch def
	y r add
	/y1 exch def
	x0 y0 M x1 y1 L
	x r add
	/x0 exch def
	y r sub
	/y0 exch def
	x r sub
	/x1 exch def
	y r add
	/y1 exch def
	x0 y0 M x1 y1 L
} def
/Sm {
	yratio mul
	/y exch def
	xratio mul
	/x exch def
	x y M
} def
/Sl {
	yratio mul
	/y exch def
	xratio mul
	/x exch def
	x y L
} def
/SPl {
	yratio mul
	/y exch def
	xratio mul
	/x exch def
	x y PL
} def
/Sarr {
	/sfill exch def
	xratio mul
	/r exch def
	yratio mul
	/y exch def
	xratio mul
	/x exch def
	y r add
	/ytop exch def
	y r sub
	/ybot exch def
	gsave
	Slrgb setrgbcolor
	sfill 0 eq {
		r 2 mul 3 div dup
		x exch sub
		/xleft exch def
		x add
		/xright exch def
		newpath xleft y moveto x ytop lineto xright y lineto x ytop moveto x ybot lineto
		Lcs
		1 setlinejoin
	} {
		r 2 div dup
		x exch sub
		/xleft exch def
		x add
		/xright exch def
		newpath xleft y moveto x ytop lineto xright y lineto x ytop closepath moveto x ybot lineto
		gsave
		fill
		grestore
	} ifelse
	Slw setlinewidth
	stroke
	grestore
} def
/Spipe {
	xratio mul
	/r exch def
	yratio mul
	/y exch def
	xratio mul
	/x exch def
	y r sub
	/y0 exch def
	y r add
	/y1 exch def
	x y0 M x y1 L
} def
/Sv {
	xratio mul
	/r exch def
	yratio mul
	/y0 exch def
	xratio mul
	/x0 exch def
	/xcen x0 def
	y0 r add
	/ytop exch def
	r 2 div
	y0 exch sub
	/ybot exch def
	r 3 sqrt 2 div mul dup
	xcen exch sub
	/xleft exch def
	xcen add
	/xright exch def
	newpath xleft ytop moveto xcen ybot lineto xright ytop lineto
	Slw setlinewidth
	Slrgb setrgbcolor
	stroke
} def
/Lcs {
	currentlinecap
	1 setlinecap
} def
/Lcr {
	setlinecap
} def
/Sbp {
	newpath
} def
/Sep {
	/sfill exch def
	closepath
	/salign exch def
	Lcs
	salign 0 eq {
		sfill Sfill
		gsave
		Slw 2 mul setlinewidth
		clip
		Slrgb setrgbcolor
		stroke
		grestore
	} if
	salign 1 eq {
		sfill Sfill
		Slw setlinewidth
		Slrgb setrgbcolor
		stroke
	} if
	salign 2 eq {
		gsave
		Slw 2 mul setlinewidth
		Slrgb setrgbcolor
		stroke
		grestore
		sfill Sfill
	} if
	newpath
	Lcr
} def
/Stransrot {
	/anglep exch def
	yratio mul
	/y exch def
	xratio mul
	/x exch def
	x y translate
	anglep rotate
	x neg y neg translate
} def
/cp {currentpoint} def 
/M {moveto} def 
/rm {rmoveto} def 
/S {stroke} def 
/L {Slw setlinewidth Slrgb setrgbcolor lineto Lcs S Lcr} def 
/PL {Slw setlinewidth Slrgb setrgbcolor lineto} def 
/MF-Helvetica {
  /newfontname exch def
  /fontname exch def
  /fontdict fontname findfont def
  /newfont fontdict maxlength dict def
  fontdict {
  exch dup /FID eq {pop pop} {exch newfont 3 1 roll put} ifelse
  } forall
  newfont /FontName newfontname put
  newfont /Encoding ISOLatin1Encoding put
  newfontname newfont definefont pop
} def
/Helvetica /Helvetica-0 MF-Helvetica
/Slw 0.120 def
0.918 0.949 0.953 setrgbcolor
0 0 648.000 864.000 Sbgfill
/Sfill {
	/sfill exch def
	sfill 1 eq {
		Ssrgb setrgbcolor
		gsave
		fill
		grestore
	} if
} def
/Sstroke {
	/sstroke exch def
	sstroke 1 eq {
		Slw setlinewidth
		Slrgb setrgbcolor
		stroke
	} if
	newpath
} def
/Slrgb {1.000 1.000 1.000} def
/Strgb {1.000 1.000 1.000} def
/Ssrgb {1.000 1.000 1.000} def
/Ssrgb {0.918 0.949 0.953} def
/Slw 1.296 def
/Slrgb {0.918 0.949 0.953} def
0 0 24000 32000 0 1 Srect
24 24 23976 31976 1 0 Srect
/Ssrgb {1.000 1.000 1.000} def
/Slw 0.972 def
/Slrgb {1.000 1.000 1.000} def
528 21157 23472 31472 0 1 Srect
546 21175 23454 31454 1 0 Srect
/Slw 0.496 def
/Slrgb {0.000 0.000 0.000} def
2225 22826 12534 30381 0 0 Srect
2234 22835 12525 30372 1 0 Srect
/Strgb {0.000 0.000 0.000} def
/Slw 0.744 def
/Slrgb {0.188 0.188 0.188} def
2225 27795 12534 27795 Sln
/Slw 0.496 def
/Slrgb {0.000 0.000 0.000} def
12534 22826 22842 30381 0 0 Srect
12543 22835 22833 30372 1 0 Srect
/Slw 0.744 def
/Slrgb {0.188 0.188 0.188} def
12534 27795 22842 27795 Sln
/Ssrgb {0.502 0.502 0.502} def
/Slrgb {0.376 0.376 0.376} def
2912 25951 2912 27763 Sln
4974 26537 4974 27794 Sln
7036 25809 7036 27516 Sln
9097 24174 9097 27472 Sln
11159 23269 11159 27385 Sln
2912 26857 Sm
4974 27165 Sl
4974 27165 Sm
7035 26662 Sl
7035 26662 Sm
9097 25822 Sl
9097 25822 Sm
11159 25327 Sl
/Ssrgb {0.702 0.702 0.702} def
/Slrgb {0.627 0.627 0.627} def
3600 26174 3600 27904 Sln
5661 26467 5661 27759 Sln
7723 25059 7723 26772 Sln
9785 25192 9785 27710 Sln
11846 24629 11846 29024 Sln
3599 27039 3791 27046 Sln
3959 27052 4151 27059 Sln
4319 27065 4511 27072 Sln
4678 27077 4870 27084 Sln
5038 27090 5230 27097 Sln
5398 27103 5590 27110 Sln
5745 27064 5911 26968 Sln
6056 26883 6222 26787 Sln
6367 26703 6533 26606 Sln
6678 26522 6844 26426 Sln
6989 26341 7155 26245 Sln
7300 26160 7466 26064 Sln
7612 25979 7722 25915 Sln
7722 25915 7784 25931 Sln
7947 25974 8132 26022 Sln
8295 26064 8481 26112 Sln
8643 26155 8829 26203 Sln
8992 26245 9178 26294 Sln
9340 26336 9526 26384 Sln
9688 26427 9784 26451 Sln
9784 26451 9876 26468 Sln
10041 26498 10230 26532 Sln
10395 26562 10584 26597 Sln
10750 26627 10939 26661 Sln
11104 26691 11293 26725 Sln
11458 26755 11648 26790 Sln
11812 26820 11846 26826 Sln
/Ssrgb {0.502 0.502 0.502} def
/Slrgb {0.376 0.376 0.376} def
13221 26052 13221 27795 Sln
15282 26490 15282 27686 Sln
17344 26093 17344 28055 Sln
19406 24671 19406 27599 Sln
21468 23975 21468 27757 Sln
13220 26923 Sm
15282 27087 Sl
15282 27087 Sm
17344 27074 Sl
17344 27074 Sm
19405 26135 Sl
19405 26135 Sm
21467 25865 Sl
/Ssrgb {0.702 0.702 0.702} def
/Slrgb {0.627 0.627 0.627} def
13908 26528 13908 28773 Sln
15970 26576 15970 27956 Sln
18031 25575 18031 27512 Sln
20093 25383 20093 28356 Sln
22155 25073 22155 29776 Sln
13908 27650 14097 27615 Sln
14262 27584 14450 27548 Sln
14615 27518 14804 27482 Sln
14969 27452 15157 27416 Sln
15322 27386 15511 27351 Sln
15676 27320 15865 27285 Sln
16027 27245 16208 27181 Sln
16367 27126 16548 27062 Sln
16706 27007 16888 26943 Sln
17046 26887 17227 26824 Sln
17386 26768 17567 26705 Sln
17726 26650 17907 26586 Sln
18067 26549 18256 26579 Sln
18422 26605 18612 26635 Sln
18778 26661 18967 26691 Sln
19133 26717 19323 26747 Sln
19488 26773 19678 26803 Sln
19844 26830 20033 26860 Sln
20197 26897 20383 26947 Sln
20544 26991 20730 27040 Sln
20892 27084 21078 27134 Sln
21240 27178 21425 27228 Sln
21587 27271 21773 27321 Sln
21935 27365 22120 27415 Sln
/Slw 0.496 def
/Slrgb {0.000 0.000 0.000} def
2225 22826 2225 30381 Sln
2225 23027 2098 23027 Sln
2034 22938 0
/Helvetica-0 findfont 255 yratio mul scalefont setfont
(-4) stringwidth pop add
xratio div
dup 4 3 roll exch 0.000 cos mul sub 3 1 roll 0.000 sin mul sub 2 copy
/fntsize {/Helvetica-0 findfont exch scalefont setfont } def
0.000 255
(-4) Stxtl
(-4) stringwidth pop xratio div
dup 4 3 roll exch 0.000 cos mul add 3 1 roll 0.000 sin mul add 2 copy
pop pop pop pop
2225 24219 2098 24219 Sln
2034 24130 0
/Helvetica-0 findfont 255 yratio mul scalefont setfont
(-3) stringwidth pop add
xratio div
dup 4 3 roll exch 0.000 cos mul sub 3 1 roll 0.000 sin mul sub 2 copy
/fntsize {/Helvetica-0 findfont exch scalefont setfont } def
0.000 255
(-3) Stxtl
(-3) stringwidth pop xratio div
dup 4 3 roll exch 0.000 cos mul add 3 1 roll 0.000 sin mul add 2 copy
pop pop pop pop
2225 25411 2098 25411 Sln
2034 25322 0
/Helvetica-0 findfont 255 yratio mul scalefont setfont
(-2) stringwidth pop add
xratio div
dup 4 3 roll exch 0.000 cos mul sub 3 1 roll 0.000 sin mul sub 2 copy
/fntsize {/Helvetica-0 findfont exch scalefont setfont } def
0.000 255
(-2) Stxtl
(-2) stringwidth pop xratio div
dup 4 3 roll exch 0.000 cos mul add 3 1 roll 0.000 sin mul add 2 copy
pop pop pop pop
2225 26603 2098 26603 Sln
2034 26514 0
/Helvetica-0 findfont 255 yratio mul scalefont setfont
(-1) stringwidth pop add
xratio div
dup 4 3 roll exch 0.000 cos mul sub 3 1 roll 0.000 sin mul sub 2 copy
/fntsize {/Helvetica-0 findfont exch scalefont setfont } def
0.000 255
(-1) Stxtl
(-1) stringwidth pop xratio div
dup 4 3 roll exch 0.000 cos mul add 3 1 roll 0.000 sin mul add 2 copy
pop pop pop pop
2225 27795 2098 27795 Sln
2034 27706 0
/Helvetica-0 findfont 255 yratio mul scalefont setfont
(0) stringwidth pop add
xratio div
dup 4 3 roll exch 0.000 cos mul sub 3 1 roll 0.000 sin mul sub 2 copy
/fntsize {/Helvetica-0 findfont exch scalefont setfont } def
0.000 255
(0) Stxtl
(0) stringwidth pop xratio div
dup 4 3 roll exch 0.000 cos mul add 3 1 roll 0.000 sin mul add 2 copy
pop pop pop pop
2225 28987 2098 28987 Sln
2034 28898 0
/Helvetica-0 findfont 255 yratio mul scalefont setfont
(1) stringwidth pop add
xratio div
dup 4 3 roll exch 0.000 cos mul sub 3 1 roll 0.000 sin mul sub 2 copy
/fntsize {/Helvetica-0 findfont exch scalefont setfont } def
0.000 255
(1) Stxtl
(1) stringwidth pop xratio div
dup 4 3 roll exch 0.000 cos mul add 3 1 roll 0.000 sin mul add 2 copy
pop pop pop pop
2225 30179 2098 30179 Sln
2034 30090 0
/Helvetica-0 findfont 255 yratio mul scalefont setfont
(2) stringwidth pop add
xratio div
dup 4 3 roll exch 0.000 cos mul sub 3 1 roll 0.000 sin mul sub 2 copy
/fntsize {/Helvetica-0 findfont exch scalefont setfont } def
0.000 255
(2) Stxtl
(2) stringwidth pop xratio div
dup 4 3 roll exch 0.000 cos mul add 3 1 roll 0.000 sin mul add 2 copy
pop pop pop pop
2225 22826 12534 22826 Sln
3256 22826 3256 22698 Sln
3335 22555 0
/Helvetica-0 findfont 319 yratio mul scalefont setfont
(0-1) stringwidth pop add
xratio div
dup 4 3 roll exch 45.000 cos mul sub 3 1 roll 45.000 sin mul sub 2 copy
/fntsize {/Helvetica-0 findfont exch scalefont setfont } def
45.000 319
(0-1) Stxtl
(0-1) stringwidth pop xratio div
dup 4 3 roll exch 45.000 cos mul add 3 1 roll 45.000 sin mul add 2 copy
pop pop pop pop
5318 22826 5318 22698 Sln
5397 22555 0
/Helvetica-0 findfont 319 yratio mul scalefont setfont
(2-4) stringwidth pop add
xratio div
dup 4 3 roll exch 45.000 cos mul sub 3 1 roll 45.000 sin mul sub 2 copy
/fntsize {/Helvetica-0 findfont exch scalefont setfont } def
45.000 319
(2-4) Stxtl
(2-4) stringwidth pop xratio div
dup 4 3 roll exch 45.000 cos mul add 3 1 roll 45.000 sin mul add 2 copy
pop pop pop pop
7379 22826 7379 22698 Sln
7458 22555 0
/Helvetica-0 findfont 319 yratio mul scalefont setfont
(5-7) stringwidth pop add
xratio div
dup 4 3 roll exch 45.000 cos mul sub 3 1 roll 45.000 sin mul sub 2 copy
/fntsize {/Helvetica-0 findfont exch scalefont setfont } def
45.000 319
(5-7) Stxtl
(5-7) stringwidth pop xratio div
dup 4 3 roll exch 45.000 cos mul add 3 1 roll 45.000 sin mul add 2 copy
pop pop pop pop
9441 22826 9441 22698 Sln
9520 22555 0
/Helvetica-0 findfont 319 yratio mul scalefont setfont
(8-10) stringwidth pop add
xratio div
dup 4 3 roll exch 45.000 cos mul sub 3 1 roll 45.000 sin mul sub 2 copy
/fntsize {/Helvetica-0 findfont exch scalefont setfont } def
45.000 319
(8-10) Stxtl
(8-10) stringwidth pop xratio div
dup 4 3 roll exch 45.000 cos mul add 3 1 roll 45.000 sin mul add 2 copy
pop pop pop pop
11503 22826 11503 22698 Sln
11582 22555 0
/Helvetica-0 findfont 319 yratio mul scalefont setfont
(11-15) stringwidth pop add
xratio div
dup 4 3 roll exch 45.000 cos mul sub 3 1 roll 45.000 sin mul sub 2 copy
/fntsize {/Helvetica-0 findfont exch scalefont setfont } def
45.000 319
(11-15) Stxtl
(11-15) stringwidth pop xratio div
dup 4 3 roll exch 45.000 cos mul add 3 1 roll 45.000 sin mul add 2 copy
pop pop pop pop
12534 22826 22842 22826 Sln
13564 22826 13564 22698 Sln
13643 22555 0
/Helvetica-0 findfont 319 yratio mul scalefont setfont
(0-1) stringwidth pop add
xratio div
dup 4 3 roll exch 45.000 cos mul sub 3 1 roll 45.000 sin mul sub 2 copy
/fntsize {/Helvetica-0 findfont exch scalefont setfont } def
45.000 319
(0-1) Stxtl
(0-1) stringwidth pop xratio div
dup 4 3 roll exch 45.000 cos mul add 3 1 roll 45.000 sin mul add 2 copy
pop pop pop pop
15626 22826 15626 22698 Sln
15705 22555 0
/Helvetica-0 findfont 319 yratio mul scalefont setfont
(2-4) stringwidth pop add
xratio div
dup 4 3 roll exch 45.000 cos mul sub 3 1 roll 45.000 sin mul sub 2 copy
/fntsize {/Helvetica-0 findfont exch scalefont setfont } def
45.000 319
(2-4) Stxtl
(2-4) stringwidth pop xratio div
dup 4 3 roll exch 45.000 cos mul add 3 1 roll 45.000 sin mul add 2 copy
pop pop pop pop
17688 22826 17688 22698 Sln
17767 22555 0
/Helvetica-0 findfont 319 yratio mul scalefont setfont
(5-7) stringwidth pop add
xratio div
dup 4 3 roll exch 45.000 cos mul sub 3 1 roll 45.000 sin mul sub 2 copy
/fntsize {/Helvetica-0 findfont exch scalefont setfont } def
45.000 319
(5-7) Stxtl
(5-7) stringwidth pop xratio div
dup 4 3 roll exch 45.000 cos mul add 3 1 roll 45.000 sin mul add 2 copy
pop pop pop pop
19749 22826 19749 22698 Sln
19828 22555 0
/Helvetica-0 findfont 319 yratio mul scalefont setfont
(8-10) stringwidth pop add
xratio div
dup 4 3 roll exch 45.000 cos mul sub 3 1 roll 45.000 sin mul sub 2 copy
/fntsize {/Helvetica-0 findfont exch scalefont setfont } def
45.000 319
(8-10) Stxtl
(8-10) stringwidth pop xratio div
dup 4 3 roll exch 45.000 cos mul add 3 1 roll 45.000 sin mul add 2 copy
pop pop pop pop
21811 22826 21811 22698 Sln
21890 22555 0
/Helvetica-0 findfont 319 yratio mul scalefont setfont
(11-15) stringwidth pop add
xratio div
dup 4 3 roll exch 45.000 cos mul sub 3 1 roll 45.000 sin mul sub 2 copy
/fntsize {/Helvetica-0 findfont exch scalefont setfont } def
45.000 319
(11-15) Stxtl
(11-15) stringwidth pop xratio div
dup 4 3 roll exch 45.000 cos mul add 3 1 roll 45.000 sin mul add 2 copy
pop pop pop pop
/Ssrgb {1.000 1.000 1.000} def
/Slrgb {1.000 1.000 1.000} def
2225 30381 12534 30842 0 1 Srect
2234 30390 12525 30833 1 0 Srect
7379 30541 0
/Helvetica-0 findfont 351 yratio mul scalefont setfont
(BMI \(MSM\)) stringwidth pop add
2 div xratio div
dup 4 3 roll exch 0.000 cos mul sub 3 1 roll 0.000 sin mul sub 2 copy
/fntsize {/Helvetica-0 findfont exch scalefont setfont } def
0.000 351
(BMI \(MSM\)) Stxtl
(BMI \(MSM\)) stringwidth pop xratio div
dup 4 3 roll exch 0.000 cos mul add 3 1 roll 0.000 sin mul add 2 copy
pop pop pop pop
12534 30381 22842 30842 0 1 Srect
12543 30390 22833 30833 1 0 Srect
17688 30541 0
/Helvetica-0 findfont 351 yratio mul scalefont setfont
(BMI \(FE\)) stringwidth pop add
2 div xratio div
dup 4 3 roll exch 0.000 cos mul sub 3 1 roll 0.000 sin mul sub 2 copy
/fntsize {/Helvetica-0 findfont exch scalefont setfont } def
0.000 351
(BMI \(FE\)) Stxtl
(BMI \(FE\)) stringwidth pop xratio div
dup 4 3 roll exch 0.000 cos mul add 3 1 roll 0.000 sin mul add 2 copy
pop pop pop pop
1508 26315 0
/Helvetica-0 findfont 500 yratio mul scalefont setfont
(Marginal effect) stringwidth pop add
2 div xratio div
dup 4 3 roll exch 90.000 cos mul sub 3 1 roll 90.000 sin mul sub 2 copy
/fntsize {/Helvetica-0 findfont exch scalefont setfont } def
90.000 500
(Marginal effect) Stxtl
(Marginal effect) stringwidth pop xratio div
dup 4 3 roll exch 90.000 cos mul add 3 1 roll 90.000 sin mul add 2 copy
pop pop pop pop
/Slw 0.972 def
528 10843 23472 21157 0 1 Srect
546 10861 23454 21139 1 0 Srect
/Slw 0.496 def
/Slrgb {0.000 0.000 0.000} def
2671 12511 12757 20067 0 0 Srect
2680 12520 12748 20058 1 0 Srect
/Slw 0.744 def
/Slrgb {0.188 0.188 0.188} def
2671 15651 12757 15651 Sln
/Slw 0.496 def
/Slrgb {0.000 0.000 0.000} def
12757 12511 22842 20067 0 0 Srect
12766 12520 22833 20058 1 0 Srect
/Slw 0.744 def
/Slrgb {0.188 0.188 0.188} def
12757 15651 22842 15651 Sln
/Ssrgb {0.502 0.502 0.502} def
/Slrgb {0.376 0.376 0.376} def
3344 14516 3344 15611 Sln
5361 14754 5361 15793 Sln
7378 14732 7378 16084 Sln
9395 14204 9395 15899 Sln
11412 12713 11412 18229 Sln
3343 15063 Sm
5360 15273 Sl
5360 15273 Sm
7377 15408 Sl
7377 15408 Sm
9394 15051 Sl
9394 15051 Sm
11411 15471 Sl
/Ssrgb {0.702 0.702 0.702} def
/Slrgb {0.627 0.627 0.627} def
4016 14933 4016 15949 Sln
6033 15125 6033 15904 Sln
8050 15088 8050 16285 Sln
10067 14375 10067 15804 Sln
12084 14578 12084 16259 Sln
4015 15441 4207 15448 Sln
4375 15454 4567 15461 Sln
4735 15467 4927 15474 Sln
5094 15480 5286 15487 Sln
5454 15493 5646 15500 Sln
5814 15506 6006 15513 Sln
6174 15526 6365 15542 Sln
6532 15556 6724 15573 Sln
6891 15587 7083 15603 Sln
7250 15617 7442 15634 Sln
7609 15648 7801 15664 Sln
7968 15679 8050 15686 Sln
8050 15686 8155 15655 Sln
8316 15607 8500 15552 Sln
8661 15505 8845 15450 Sln
9006 15402 9190 15348 Sln
9351 15300 9536 15246 Sln
9696 15199 9881 15144 Sln
10042 15097 10067 15089 Sln
10067 15089 10231 15116 Sln
10397 15143 10586 15174 Sln
10752 15201 10942 15232 Sln
11107 15259 11297 15290 Sln
11463 15317 11652 15348 Sln
11818 15375 12008 15406 Sln
/Ssrgb {0.502 0.502 0.502} def
/Slrgb {0.376 0.376 0.376} def
13429 14495 13429 16333 Sln
15446 14688 15446 15843 Sln
17463 14524 17463 15758 Sln
19480 14126 19480 15840 Sln
21497 12954 21497 19236 Sln
13428 15413 Sm
15446 15265 Sl
15446 15265 Sm
17463 15140 Sl
17463 15140 Sm
19480 14983 Sl
19480 14983 Sm
21497 16094 Sl
/Ssrgb {0.702 0.702 0.702} def
/Slrgb {0.627 0.627 0.627} def
14101 15134 14101 16166 Sln
16118 15136 16118 15853 Sln
18135 15247 18135 16241 Sln
20153 14206 20153 15609 Sln
22170 14422 22170 15843 Sln
14101 15649 14293 15634 Sln
14460 15621 14652 15607 Sln
14819 15594 15010 15579 Sln
15178 15566 15369 15552 Sln
15537 15539 15728 15524 Sln
15896 15511 16087 15496 Sln
16254 15511 16445 15534 Sln
16611 15555 16801 15579 Sln
16968 15599 17158 15623 Sln
17325 15644 17515 15667 Sln
17682 15688 17872 15712 Sln
18039 15732 18135 15744 Sln
18135 15744 18223 15708 Sln
18378 15643 18555 15570 Sln
18710 15505 18887 15432 Sln
19042 15367 19220 15294 Sln
19375 15230 19552 15156 Sln
19707 15092 19884 15018 Sln
20039 14954 20152 14907 Sln
20152 14907 20222 14915 Sln
20388 14934 20579 14955 Sln
20746 14974 20937 14995 Sln
21104 15013 21295 15035 Sln
21462 15053 21653 15074 Sln
21820 15093 22011 15114 Sln
/Slw 0.496 def
/Slrgb {0.000 0.000 0.000} def
2671 12511 2671 20067 Sln
2671 12843 2544 12843 Sln
2480 12754 0
/Helvetica-0 findfont 255 yratio mul scalefont setfont
(-1000) stringwidth pop add
xratio div
dup 4 3 roll exch 0.000 cos mul sub 3 1 roll 0.000 sin mul sub 2 copy
/fntsize {/Helvetica-0 findfont exch scalefont setfont } def
0.000 255
(-1000) Stxtl
(-1000) stringwidth pop xratio div
dup 4 3 roll exch 0.000 cos mul add 3 1 roll 0.000 sin mul add 2 copy
pop pop pop pop
2671 14247 2544 14247 Sln
2480 14158 0
/Helvetica-0 findfont 255 yratio mul scalefont setfont
(-500) stringwidth pop add
xratio div
dup 4 3 roll exch 0.000 cos mul sub 3 1 roll 0.000 sin mul sub 2 copy
/fntsize {/Helvetica-0 findfont exch scalefont setfont } def
0.000 255
(-500) Stxtl
(-500) stringwidth pop xratio div
dup 4 3 roll exch 0.000 cos mul add 3 1 roll 0.000 sin mul add 2 copy
pop pop pop pop
2671 15651 2544 15651 Sln
2480 15562 0
/Helvetica-0 findfont 255 yratio mul scalefont setfont
(0) stringwidth pop add
xratio div
dup 4 3 roll exch 0.000 cos mul sub 3 1 roll 0.000 sin mul sub 2 copy
/fntsize {/Helvetica-0 findfont exch scalefont setfont } def
0.000 255
(0) Stxtl
(0) stringwidth pop xratio div
dup 4 3 roll exch 0.000 cos mul add 3 1 roll 0.000 sin mul add 2 copy
pop pop pop pop
2671 17056 2544 17056 Sln
2480 16967 0
/Helvetica-0 findfont 255 yratio mul scalefont setfont
(500) stringwidth pop add
xratio div
dup 4 3 roll exch 0.000 cos mul sub 3 1 roll 0.000 sin mul sub 2 copy
/fntsize {/Helvetica-0 findfont exch scalefont setfont } def
0.000 255
(500) Stxtl
(500) stringwidth pop xratio div
dup 4 3 roll exch 0.000 cos mul add 3 1 roll 0.000 sin mul add 2 copy
pop pop pop pop
2671 18460 2544 18460 Sln
2480 18371 0
/Helvetica-0 findfont 255 yratio mul scalefont setfont
(1000) stringwidth pop add
xratio div
dup 4 3 roll exch 0.000 cos mul sub 3 1 roll 0.000 sin mul sub 2 copy
/fntsize {/Helvetica-0 findfont exch scalefont setfont } def
0.000 255
(1000) Stxtl
(1000) stringwidth pop xratio div
dup 4 3 roll exch 0.000 cos mul add 3 1 roll 0.000 sin mul add 2 copy
pop pop pop pop
2671 19865 2544 19865 Sln
2480 19776 0
/Helvetica-0 findfont 255 yratio mul scalefont setfont
(1500) stringwidth pop add
xratio div
dup 4 3 roll exch 0.000 cos mul sub 3 1 roll 0.000 sin mul sub 2 copy
/fntsize {/Helvetica-0 findfont exch scalefont setfont } def
0.000 255
(1500) Stxtl
(1500) stringwidth pop xratio div
dup 4 3 roll exch 0.000 cos mul add 3 1 roll 0.000 sin mul add 2 copy
pop pop pop pop
2671 12511 12757 12511 Sln
3680 12511 3680 12383 Sln
3759 12241 0
/Helvetica-0 findfont 319 yratio mul scalefont setfont
(0-1) stringwidth pop add
xratio div
dup 4 3 roll exch 45.000 cos mul sub 3 1 roll 45.000 sin mul sub 2 copy
/fntsize {/Helvetica-0 findfont exch scalefont setfont } def
45.000 319
(0-1) Stxtl
(0-1) stringwidth pop xratio div
dup 4 3 roll exch 45.000 cos mul add 3 1 roll 45.000 sin mul add 2 copy
pop pop pop pop
5697 12511 5697 12383 Sln
5776 12241 0
/Helvetica-0 findfont 319 yratio mul scalefont setfont
(2-4) stringwidth pop add
xratio div
dup 4 3 roll exch 45.000 cos mul sub 3 1 roll 45.000 sin mul sub 2 copy
/fntsize {/Helvetica-0 findfont exch scalefont setfont } def
45.000 319
(2-4) Stxtl
(2-4) stringwidth pop xratio div
dup 4 3 roll exch 45.000 cos mul add 3 1 roll 45.000 sin mul add 2 copy
pop pop pop pop
7714 12511 7714 12383 Sln
7793 12241 0
/Helvetica-0 findfont 319 yratio mul scalefont setfont
(5-7) stringwidth pop add
xratio div
dup 4 3 roll exch 45.000 cos mul sub 3 1 roll 45.000 sin mul sub 2 copy
/fntsize {/Helvetica-0 findfont exch scalefont setfont } def
45.000 319
(5-7) Stxtl
(5-7) stringwidth pop xratio div
dup 4 3 roll exch 45.000 cos mul add 3 1 roll 45.000 sin mul add 2 copy
pop pop pop pop
9731 12511 9731 12383 Sln
9810 12241 0
/Helvetica-0 findfont 319 yratio mul scalefont setfont
(8-10) stringwidth pop add
xratio div
dup 4 3 roll exch 45.000 cos mul sub 3 1 roll 45.000 sin mul sub 2 copy
/fntsize {/Helvetica-0 findfont exch scalefont setfont } def
45.000 319
(8-10) Stxtl
(8-10) stringwidth pop xratio div
dup 4 3 roll exch 45.000 cos mul add 3 1 roll 45.000 sin mul add 2 copy
pop pop pop pop
11748 12511 11748 12383 Sln
11827 12241 0
/Helvetica-0 findfont 319 yratio mul scalefont setfont
(11-15) stringwidth pop add
xratio div
dup 4 3 roll exch 45.000 cos mul sub 3 1 roll 45.000 sin mul sub 2 copy
/fntsize {/Helvetica-0 findfont exch scalefont setfont } def
45.000 319
(11-15) Stxtl
(11-15) stringwidth pop xratio div
dup 4 3 roll exch 45.000 cos mul add 3 1 roll 45.000 sin mul add 2 copy
pop pop pop pop
12757 12511 22842 12511 Sln
13765 12511 13765 12383 Sln
13844 12241 0
/Helvetica-0 findfont 319 yratio mul scalefont setfont
(0-1) stringwidth pop add
xratio div
dup 4 3 roll exch 45.000 cos mul sub 3 1 roll 45.000 sin mul sub 2 copy
/fntsize {/Helvetica-0 findfont exch scalefont setfont } def
45.000 319
(0-1) Stxtl
(0-1) stringwidth pop xratio div
dup 4 3 roll exch 45.000 cos mul add 3 1 roll 45.000 sin mul add 2 copy
pop pop pop pop
15782 12511 15782 12383 Sln
15861 12241 0
/Helvetica-0 findfont 319 yratio mul scalefont setfont
(2-4) stringwidth pop add
xratio div
dup 4 3 roll exch 45.000 cos mul sub 3 1 roll 45.000 sin mul sub 2 copy
/fntsize {/Helvetica-0 findfont exch scalefont setfont } def
45.000 319
(2-4) Stxtl
(2-4) stringwidth pop xratio div
dup 4 3 roll exch 45.000 cos mul add 3 1 roll 45.000 sin mul add 2 copy
pop pop pop pop
17799 12511 17799 12383 Sln
17878 12241 0
/Helvetica-0 findfont 319 yratio mul scalefont setfont
(5-7) stringwidth pop add
xratio div
dup 4 3 roll exch 45.000 cos mul sub 3 1 roll 45.000 sin mul sub 2 copy
/fntsize {/Helvetica-0 findfont exch scalefont setfont } def
45.000 319
(5-7) Stxtl
(5-7) stringwidth pop xratio div
dup 4 3 roll exch 45.000 cos mul add 3 1 roll 45.000 sin mul add 2 copy
pop pop pop pop
19816 12511 19816 12383 Sln
19895 12241 0
/Helvetica-0 findfont 319 yratio mul scalefont setfont
(8-10) stringwidth pop add
xratio div
dup 4 3 roll exch 45.000 cos mul sub 3 1 roll 45.000 sin mul sub 2 copy
/fntsize {/Helvetica-0 findfont exch scalefont setfont } def
45.000 319
(8-10) Stxtl
(8-10) stringwidth pop xratio div
dup 4 3 roll exch 45.000 cos mul add 3 1 roll 45.000 sin mul add 2 copy
pop pop pop pop
21833 12511 21833 12383 Sln
21912 12241 0
/Helvetica-0 findfont 319 yratio mul scalefont setfont
(11-15) stringwidth pop add
xratio div
dup 4 3 roll exch 45.000 cos mul sub 3 1 roll 45.000 sin mul sub 2 copy
/fntsize {/Helvetica-0 findfont exch scalefont setfont } def
45.000 319
(11-15) Stxtl
(11-15) stringwidth pop xratio div
dup 4 3 roll exch 45.000 cos mul add 3 1 roll 45.000 sin mul add 2 copy
pop pop pop pop
/Ssrgb {1.000 1.000 1.000} def
/Slrgb {1.000 1.000 1.000} def
2671 20067 12757 20527 0 1 Srect
2680 20076 12748 20518 1 0 Srect
7714 20227 0
/Helvetica-0 findfont 351 yratio mul scalefont setfont
(Kcal \(MSM\)) stringwidth pop add
2 div xratio div
dup 4 3 roll exch 0.000 cos mul sub 3 1 roll 0.000 sin mul sub 2 copy
/fntsize {/Helvetica-0 findfont exch scalefont setfont } def
0.000 351
(Kcal \(MSM\)) Stxtl
(Kcal \(MSM\)) stringwidth pop xratio div
dup 4 3 roll exch 0.000 cos mul add 3 1 roll 0.000 sin mul add 2 copy
pop pop pop pop
12757 20067 22842 20527 0 1 Srect
12766 20076 22833 20518 1 0 Srect
17799 20227 0
/Helvetica-0 findfont 351 yratio mul scalefont setfont
(Kcal \(FE\)) stringwidth pop add
2 div xratio div
dup 4 3 roll exch 0.000 cos mul sub 3 1 roll 0.000 sin mul sub 2 copy
/fntsize {/Helvetica-0 findfont exch scalefont setfont } def
0.000 351
(Kcal \(FE\)) Stxtl
(Kcal \(FE\)) stringwidth pop xratio div
dup 4 3 roll exch 0.000 cos mul add 3 1 roll 0.000 sin mul add 2 copy
pop pop pop pop
1508 16000 0
/Helvetica-0 findfont 500 yratio mul scalefont setfont
(Marginal effect) stringwidth pop add
2 div xratio div
dup 4 3 roll exch 90.000 cos mul sub 3 1 roll 90.000 sin mul sub 2 copy
/fntsize {/Helvetica-0 findfont exch scalefont setfont } def
90.000 500
(Marginal effect) Stxtl
(Marginal effect) stringwidth pop xratio div
dup 4 3 roll exch 90.000 cos mul add 3 1 roll 90.000 sin mul add 2 copy
pop pop pop pop
/Slw 0.972 def
528 528 23472 10843 0 1 Srect
546 546 23454 10825 1 0 Srect
/Slw 0.496 def
/Slrgb {0.000 0.000 0.000} def
2523 4293 12682 9752 0 0 Srect
2532 4302 12673 9743 1 0 Srect
/Slw 0.744 def
/Slrgb {0.188 0.188 0.188} def
2523 6951 12682 6951 Sln
/Slw 0.496 def
/Slrgb {0.000 0.000 0.000} def
12682 4293 22842 9752 0 0 Srect
12691 4302 22833 9743 1 0 Srect
/Slw 0.744 def
/Slrgb {0.188 0.188 0.188} def
12682 6951 22842 6951 Sln
/Ssrgb {0.502 0.502 0.502} def
/Slrgb {0.376 0.376 0.376} def
3200 6026 3200 7989 Sln
5232 6591 5232 7824 Sln
7264 6037 7264 7924 Sln
9296 6039 9296 9550 Sln
11328 5356 11328 8948 Sln
3199 7007 Sm
5231 7207 Sl
5231 7207 Sm
7263 6980 Sl
7263 6980 Sm
9295 7794 Sl
9295 7794 Sm
11327 7152 Sl
/Ssrgb {0.702 0.702 0.702} def
/Slrgb {0.627 0.627 0.627} def
3877 5266 3877 6910 Sln
5909 5977 5909 7291 Sln
7941 5803 7941 7433 Sln
9973 5115 9973 7187 Sln
12005 4847 12005 9362 Sln
3877 6087 4063 6137 Sln
4224 6180 4410 6230 Sln
4572 6273 4758 6323 Sln
4920 6367 5105 6417 Sln
5267 6461 5453 6510 Sln
5615 6554 5800 6603 Sln
5964 6632 6156 6631 Sln
6324 6629 6516 6628 Sln
6684 6626 6876 6625 Sln
7044 6624 7236 6622 Sln
7404 6621 7596 6620 Sln
7764 6619 7941 6617 Sln
7941 6617 7955 6614 Sln
8119 6576 8306 6533 Sln
8469 6496 8656 6453 Sln
8820 6415 9007 6372 Sln
9170 6335 9357 6292 Sln
9521 6254 9708 6211 Sln
9871 6174 9973 6150 Sln
9973 6150 10052 6187 Sln
10205 6259 10378 6340 Sln
10530 6412 10704 6494 Sln
10856 6565 11030 6647 Sln
11182 6718 11356 6800 Sln
11508 6871 11682 6953 Sln
11834 7024 12004 7104 Sln
/Ssrgb {0.502 0.502 0.502} def
/Slrgb {0.376 0.376 0.376} def
13360 5676 13360 8256 Sln
15392 6177 15392 7426 Sln
17423 5685 17423 7294 Sln
19455 5370 19455 8834 Sln
21487 4739 21487 8250 Sln
13359 6965 Sm
15391 6801 Sl
15391 6801 Sm
17423 6489 Sl
17423 6489 Sm
19455 7102 Sl
19455 7102 Sm
21487 6494 Sl
/Ssrgb {0.702 0.702 0.702} def
/Slrgb {0.627 0.627 0.627} def
14037 5308 14037 6502 Sln
16069 5845 16069 6949 Sln
18101 5454 18101 6940 Sln
20133 4776 20133 6772 Sln
22165 5014 22165 9045 Sln
14036 5904 14223 5950 Sln
14386 5989 14572 6034 Sln
14735 6074 14922 6119 Sln
15085 6158 15271 6204 Sln
15434 6243 15621 6288 Sln
15784 6328 15970 6373 Sln
16135 6391 16326 6372 Sln
16493 6355 16684 6336 Sln
16851 6320 17042 6301 Sln
17209 6284 17400 6266 Sln
17567 6249 17758 6230 Sln
17925 6213 18100 6196 Sln
18100 6196 18115 6193 Sln
18280 6159 18468 6120 Sln
18632 6086 18820 6047 Sln
18985 6013 19173 5974 Sln
19337 5939 19525 5900 Sln
19690 5866 19878 5826 Sln
20042 5792 20132 5774 Sln
20132 5774 20218 5826 Sln
20360 5915 20524 6016 Sln
20667 6104 20830 6205 Sln
20973 6293 21136 6394 Sln
21279 6482 21442 6583 Sln
21585 6671 21749 6772 Sln
21891 6860 22054 6961 Sln
/Slw 0.496 def
/Slrgb {0.000 0.000 0.000} def
2523 4293 2523 9752 Sln
2523 4495 2395 4495 Sln
2331 4406 0
/Helvetica-0 findfont 255 yratio mul scalefont setfont
(-150) stringwidth pop add
xratio div
dup 4 3 roll exch 0.000 cos mul sub 3 1 roll 0.000 sin mul sub 2 copy
/fntsize {/Helvetica-0 findfont exch scalefont setfont } def
0.000 255
(-150) Stxtl
(-150) stringwidth pop xratio div
dup 4 3 roll exch 0.000 cos mul add 3 1 roll 0.000 sin mul add 2 copy
pop pop pop pop
2523 5314 2395 5314 Sln
2331 5225 0
/Helvetica-0 findfont 255 yratio mul scalefont setfont
(-100) stringwidth pop add
xratio div
dup 4 3 roll exch 0.000 cos mul sub 3 1 roll 0.000 sin mul sub 2 copy
/fntsize {/Helvetica-0 findfont exch scalefont setfont } def
0.000 255
(-100) Stxtl
(-100) stringwidth pop xratio div
dup 4 3 roll exch 0.000 cos mul add 3 1 roll 0.000 sin mul add 2 copy
pop pop pop pop
2523 6132 2395 6132 Sln
2331 6043 0
/Helvetica-0 findfont 255 yratio mul scalefont setfont
(-50) stringwidth pop add
xratio div
dup 4 3 roll exch 0.000 cos mul sub 3 1 roll 0.000 sin mul sub 2 copy
/fntsize {/Helvetica-0 findfont exch scalefont setfont } def
0.000 255
(-50) Stxtl
(-50) stringwidth pop xratio div
dup 4 3 roll exch 0.000 cos mul add 3 1 roll 0.000 sin mul add 2 copy
pop pop pop pop
2523 6951 2395 6951 Sln
2331 6862 0
/Helvetica-0 findfont 255 yratio mul scalefont setfont
(0) stringwidth pop add
xratio div
dup 4 3 roll exch 0.000 cos mul sub 3 1 roll 0.000 sin mul sub 2 copy
/fntsize {/Helvetica-0 findfont exch scalefont setfont } def
0.000 255
(0) Stxtl
(0) stringwidth pop xratio div
dup 4 3 roll exch 0.000 cos mul add 3 1 roll 0.000 sin mul add 2 copy
pop pop pop pop
2523 7769 2395 7769 Sln
2331 7680 0
/Helvetica-0 findfont 255 yratio mul scalefont setfont
(50) stringwidth pop add
xratio div
dup 4 3 roll exch 0.000 cos mul sub 3 1 roll 0.000 sin mul sub 2 copy
/fntsize {/Helvetica-0 findfont exch scalefont setfont } def
0.000 255
(50) Stxtl
(50) stringwidth pop xratio div
dup 4 3 roll exch 0.000 cos mul add 3 1 roll 0.000 sin mul add 2 copy
pop pop pop pop
2523 8588 2395 8588 Sln
2331 8499 0
/Helvetica-0 findfont 255 yratio mul scalefont setfont
(100) stringwidth pop add
xratio div
dup 4 3 roll exch 0.000 cos mul sub 3 1 roll 0.000 sin mul sub 2 copy
/fntsize {/Helvetica-0 findfont exch scalefont setfont } def
0.000 255
(100) Stxtl
(100) stringwidth pop xratio div
dup 4 3 roll exch 0.000 cos mul add 3 1 roll 0.000 sin mul add 2 copy
pop pop pop pop
2523 9406 2395 9406 Sln
2331 9317 0
/Helvetica-0 findfont 255 yratio mul scalefont setfont
(150) stringwidth pop add
xratio div
dup 4 3 roll exch 0.000 cos mul sub 3 1 roll 0.000 sin mul sub 2 copy
/fntsize {/Helvetica-0 findfont exch scalefont setfont } def
0.000 255
(150) Stxtl
(150) stringwidth pop xratio div
dup 4 3 roll exch 0.000 cos mul add 3 1 roll 0.000 sin mul add 2 copy
pop pop pop pop
2523 4293 12682 4293 Sln
3539 4293 3539 4166 Sln
3618 4023 0
/Helvetica-0 findfont 319 yratio mul scalefont setfont
(0-1) stringwidth pop add
xratio div
dup 4 3 roll exch 45.000 cos mul sub 3 1 roll 45.000 sin mul sub 2 copy
/fntsize {/Helvetica-0 findfont exch scalefont setfont } def
45.000 319
(0-1) Stxtl
(0-1) stringwidth pop xratio div
dup 4 3 roll exch 45.000 cos mul add 3 1 roll 45.000 sin mul add 2 copy
pop pop pop pop
5570 4293 5570 4166 Sln
5649 4023 0
/Helvetica-0 findfont 319 yratio mul scalefont setfont
(2-4) stringwidth pop add
xratio div
dup 4 3 roll exch 45.000 cos mul sub 3 1 roll 45.000 sin mul sub 2 copy
/fntsize {/Helvetica-0 findfont exch scalefont setfont } def
45.000 319
(2-4) Stxtl
(2-4) stringwidth pop xratio div
dup 4 3 roll exch 45.000 cos mul add 3 1 roll 45.000 sin mul add 2 copy
pop pop pop pop
7602 4293 7602 4166 Sln
7681 4023 0
/Helvetica-0 findfont 319 yratio mul scalefont setfont
(5-7) stringwidth pop add
xratio div
dup 4 3 roll exch 45.000 cos mul sub 3 1 roll 45.000 sin mul sub 2 copy
/fntsize {/Helvetica-0 findfont exch scalefont setfont } def
45.000 319
(5-7) Stxtl
(5-7) stringwidth pop xratio div
dup 4 3 roll exch 45.000 cos mul add 3 1 roll 45.000 sin mul add 2 copy
pop pop pop pop
9634 4293 9634 4166 Sln
9713 4023 0
/Helvetica-0 findfont 319 yratio mul scalefont setfont
(8-10) stringwidth pop add
xratio div
dup 4 3 roll exch 45.000 cos mul sub 3 1 roll 45.000 sin mul sub 2 copy
/fntsize {/Helvetica-0 findfont exch scalefont setfont } def
45.000 319
(8-10) Stxtl
(8-10) stringwidth pop xratio div
dup 4 3 roll exch 45.000 cos mul add 3 1 roll 45.000 sin mul add 2 copy
pop pop pop pop
11666 4293 11666 4166 Sln
11745 4023 0
/Helvetica-0 findfont 319 yratio mul scalefont setfont
(11-15) stringwidth pop add
xratio div
dup 4 3 roll exch 45.000 cos mul sub 3 1 roll 45.000 sin mul sub 2 copy
/fntsize {/Helvetica-0 findfont exch scalefont setfont } def
45.000 319
(11-15) Stxtl
(11-15) stringwidth pop xratio div
dup 4 3 roll exch 45.000 cos mul add 3 1 roll 45.000 sin mul add 2 copy
pop pop pop pop
12682 4293 22842 4293 Sln
13698 4293 13698 4166 Sln
13777 4023 0
/Helvetica-0 findfont 319 yratio mul scalefont setfont
(0-1) stringwidth pop add
xratio div
dup 4 3 roll exch 45.000 cos mul sub 3 1 roll 45.000 sin mul sub 2 copy
/fntsize {/Helvetica-0 findfont exch scalefont setfont } def
45.000 319
(0-1) Stxtl
(0-1) stringwidth pop xratio div
dup 4 3 roll exch 45.000 cos mul add 3 1 roll 45.000 sin mul add 2 copy
pop pop pop pop
15730 4293 15730 4166 Sln
15809 4023 0
/Helvetica-0 findfont 319 yratio mul scalefont setfont
(2-4) stringwidth pop add
xratio div
dup 4 3 roll exch 45.000 cos mul sub 3 1 roll 45.000 sin mul sub 2 copy
/fntsize {/Helvetica-0 findfont exch scalefont setfont } def
45.000 319
(2-4) Stxtl
(2-4) stringwidth pop xratio div
dup 4 3 roll exch 45.000 cos mul add 3 1 roll 45.000 sin mul add 2 copy
pop pop pop pop
17762 4293 17762 4166 Sln
17841 4023 0
/Helvetica-0 findfont 319 yratio mul scalefont setfont
(5-7) stringwidth pop add
xratio div
dup 4 3 roll exch 45.000 cos mul sub 3 1 roll 45.000 sin mul sub 2 copy
/fntsize {/Helvetica-0 findfont exch scalefont setfont } def
45.000 319
(5-7) Stxtl
(5-7) stringwidth pop xratio div
dup 4 3 roll exch 45.000 cos mul add 3 1 roll 45.000 sin mul add 2 copy
pop pop pop pop
19794 4293 19794 4166 Sln
19873 4023 0
/Helvetica-0 findfont 319 yratio mul scalefont setfont
(8-10) stringwidth pop add
xratio div
dup 4 3 roll exch 45.000 cos mul sub 3 1 roll 45.000 sin mul sub 2 copy
/fntsize {/Helvetica-0 findfont exch scalefont setfont } def
45.000 319
(8-10) Stxtl
(8-10) stringwidth pop xratio div
dup 4 3 roll exch 45.000 cos mul add 3 1 roll 45.000 sin mul add 2 copy
pop pop pop pop
21826 4293 21826 4166 Sln
21905 4023 0
/Helvetica-0 findfont 319 yratio mul scalefont setfont
(11-15) stringwidth pop add
xratio div
dup 4 3 roll exch 45.000 cos mul sub 3 1 roll 45.000 sin mul sub 2 copy
/fntsize {/Helvetica-0 findfont exch scalefont setfont } def
45.000 319
(11-15) Stxtl
(11-15) stringwidth pop xratio div
dup 4 3 roll exch 45.000 cos mul add 3 1 roll 45.000 sin mul add 2 copy
pop pop pop pop
/Ssrgb {1.000 1.000 1.000} def
/Slrgb {1.000 1.000 1.000} def
2523 9752 12682 10213 0 1 Srect
2532 9761 12673 10204 1 0 Srect
7602 9912 0
/Helvetica-0 findfont 351 yratio mul scalefont setfont
(Physical activity \(MET\) \(MSM\)) stringwidth pop add
2 div xratio div
dup 4 3 roll exch 0.000 cos mul sub 3 1 roll 0.000 sin mul sub 2 copy
/fntsize {/Helvetica-0 findfont exch scalefont setfont } def
0.000 351
(Physical activity \(MET\) \(MSM\)) Stxtl
(Physical activity \(MET\) \(MSM\)) stringwidth pop xratio div
dup 4 3 roll exch 0.000 cos mul add 3 1 roll 0.000 sin mul add 2 copy
pop pop pop pop
12682 9752 22842 10213 0 1 Srect
12691 9761 22833 10204 1 0 Srect
17762 9912 0
/Helvetica-0 findfont 351 yratio mul scalefont setfont
(Physical activity \(MET\) \(FE\)) stringwidth pop add
2 div xratio div
dup 4 3 roll exch 0.000 cos mul sub 3 1 roll 0.000 sin mul sub 2 copy
/fntsize {/Helvetica-0 findfont exch scalefont setfont } def
0.000 351
(Physical activity \(MET\) \(FE\)) Stxtl
(Physical activity \(MET\) \(FE\)) stringwidth pop xratio div
dup 4 3 roll exch 0.000 cos mul add 3 1 roll 0.000 sin mul add 2 copy
pop pop pop pop
/Slw 0.972 def
/Slrgb {0.000 0.000 0.000} def
7201 1374 17299 2539 0 1 Srect
7219 1392 17281 2521 1 0 Srect
/Slw 1.458 def
/Slrgb {0.376 0.376 0.376} def
7471 1956 9811 1956 Sln
/Slrgb {0.627 0.627 0.627} def
12498 1956 12690 1956 Sln
12858 1956 13050 1956 Sln
13218 1956 13410 1956 Sln
13578 1956 13770 1956 Sln
13938 1956 14130 1956 Sln
14298 1956 14490 1956 Sln
14657 1956 14838 1956 Sln
10311 1781 2 copy
/fntsize {/Helvetica-0 findfont exch scalefont setfont } def
0.000 500
(men) Stxtl
(men) stringwidth pop xratio div
dup 4 3 roll exch 0.000 cos mul add 3 1 roll 0.000 sin mul add 2 copy
pop pop pop pop
15338 1781 2 copy
/fntsize {/Helvetica-0 findfont exch scalefont setfont } def
0.000 500
(women) Stxtl
(women) stringwidth pop xratio div
dup 4 3 roll exch 0.000 cos mul add 3 1 roll 0.000 sin mul add 2 copy
pop pop pop pop
1508 6734 0
/Helvetica-0 findfont 500 yratio mul scalefont setfont
(Marginal effect) stringwidth pop add
2 div xratio div
dup 4 3 roll exch 90.000 cos mul sub 3 1 roll 90.000 sin mul sub 2 copy
/fntsize {/Helvetica-0 findfont exch scalefont setfont } def
90.000 500
(Marginal effect) Stxtl
(Marginal effect) stringwidth pop xratio div
dup 4 3 roll exch 90.000 cos mul add 3 1 roll 90.000 sin mul add 2 copy
pop pop pop pop
12250 2905 0
/Helvetica-0 findfont 500 yratio mul scalefont setfont
(Years after diagnosis) stringwidth pop add
2 div xratio div
dup 4 3 roll exch 0.000 cos mul sub 3 1 roll 0.000 sin mul sub 2 copy
/fntsize {/Helvetica-0 findfont exch scalefont setfont } def
0.000 500
(Years after diagnosis) Stxtl
(Years after diagnosis) stringwidth pop xratio div
dup 4 3 roll exch 0.000 cos mul add 3 1 roll 0.000 sin mul add 2 copy
pop pop pop pop
S showpage
%%EOF
