%!PS-Adobe-2.0 EPSF-2.0
%% This is a Stata generated postscript file
%%BoundingBox: 0 0 576 288
%%HiResBoundingBox: 0.000 0.000 576.000 288.000
%%DocumentNeededResources: font Helvetica
/xratio 0.018000 def
/yratio 0.018000 def
/Sbgfill {
	/y1 exch def
	/x1 exch def
	/y0 exch def
	/x0 exch def
	x0 y0 moveto
	x0 y1 lineto x1 y1 lineto x1 y0 lineto x0 y0 lineto
	fill
} def
/Spt {
	yratio mul
	/yp exch def
	xratio mul
	/xp exch def
	Slrgb setrgbcolor
	xp yp .5 0 360 arc fill
} def
/Sln {
	yratio mul
	/y1p exch def
	xratio mul
	/x1p exch def
	yratio mul
	/y0p exch def
	xratio mul
	/x0p exch def
	Slw setlinewidth
	Slrgb setrgbcolor
	x0p y0p M x1p y1p lineto S
} def
/Scrv {
	yratio mul
	/y3p exch def
	xratio mul
	/x3p exch def
	yratio mul
	/y2p exch def
	xratio mul
	/x2p exch def
	yratio mul
	/y1p exch def
	xratio mul
	/x1p exch def
	Slw setlinewidth
	Slrgb setrgbcolor
	x1p y1p x2p y2p x3p y3p curveto
	S
} def
/Stxtl {
	/sp exch def
	yratio mul
	/sizep exch def
	dup
	/anglep exch def
	0 exch sub
	/angle2p exch def
	yratio mul
	/y0p exch def
	xratio mul
	/x0p exch def
	Strgb setrgbcolor
	x0p y0p M anglep rotate sizep fntsize sp show stroke angle2p rotate
} def
/Stxtc {
	/sp exch def
	yratio mul
	/sizep exch def
	dup
	/anglep exch def
	0 exch sub
	/angle2p exch def
	yratio mul
	/y0p exch def
	xratio mul
	/x0p exch def
	Strgb setrgbcolor
	x0p y0p M anglep rotate sizep fntsize sp stringwidth exch -2 div exch rm sp show stroke angle2p rotate
} def
/Stxtr {
	/sp exch def
	yratio mul
	/sizep exch def
	dup
	/anglep exch def
	0 exch sub
	/angle2p exch def
	yratio mul
	/y0p exch def
	xratio mul
	/x0p exch def
	Strgb setrgbcolor
	x0p y0p M anglep rotate sizep fntsize sp stringwidth 1 index -1 mul exch rm pop sp show stroke angle2p rotate
} def
/Srect {
	/sfill exch def
	/sstroke exch def
	yratio mul
	/y1 exch def
	xratio mul
	/x1 exch def
	yratio mul
	/y0 exch def
	xratio mul
	/x0 exch def
	newpath x0 y0 moveto x0 y1 lineto x1 y1 lineto x1 y0 lineto x0 y0 lineto closepath
	sfill Sfill
	sstroke Sstroke
} def
/Sellipse {
	/sfill exch def
	/sstroke exch def
	yratio mul
	/yrad exch def
	xratio mul
	/xrad exch def
	yratio mul
	/y exch def
	xratio mul
	/x exch def
	/savematrix matrix currentmatrix def
	x y translate
	xrad yrad scale
	0 0 1 0 360 arc
	savematrix setmatrix
	sfill Sfill
	sstroke Sstroke
} def
/Stri {
	/sfill exch def
	/sstroke exch def
	xratio mul
	/r exch def
	yratio mul
	/y0 exch def
	xratio mul
	/x0 exch def
	/xcen x0 def
	y0 r add
	/ytop exch def
	r 2 div
	y0 exch sub
	/ybot exch def
	r 3 sqrt 2 div mul dup
	xcen exch sub
	/xleft exch def
	xcen add
	/xright exch def
	newpath xcen ytop moveto xright ybot lineto xleft ybot lineto xcen ytop lineto closepath
	sfill Sfill
	sstroke Sstroke
} def
/Soldtri {
	/sfill exch def
	xratio mul
	/r exch def
	yratio mul
	/y0 exch def
	xratio mul
	/x0 exch def
	x0 r sub
	/x1 exch def
	y0 r sub
	/y1 exch def
	x0 r add
	/x2 exch def
	y0 r sub
	/y2 exch def
	/x3 x0 def
	y0 r add
	/y3 exch def
	newpath x1 y1 moveto x2 y2 lineto x3 y3 lineto x1 y1 lineto closepath
	sfill 1 eq {
		Ssrgb setrgbcolor
		gsave
		fill
		grestore
	} if
	Slw setlinewidth
	Slrgb setrgbcolor
	S
} def
/Sdia {
	/sfill exch def
	/sstroke exch def
	xratio mul
	/r exch def
	yratio mul
	/y exch def
	xratio mul
	/x exch def
	x r sub
	/x0 exch def
	/y0 y def
	/x1 x def
	y r sub
	/y1 exch def
	x r add
	/x2 exch def
	/y2 y def
	/x3 x def
	y r add
	/y3 exch def
	newpath x0 y0 moveto x1 y1 lineto x2 y2 lineto x3 y3 lineto closepath
	sfill Sfill
	sstroke Sstroke
} def
/Scc {
	/sfill exch def
	/sstroke exch def
	xratio mul
	/r0 exch def
	yratio mul
	/y0 exch def
	xratio mul
	/x0 exch def
	x0 y0 r0 0 360 arc closepath
	sfill Sfill
	sstroke Sstroke
} def
/Spie {
	/sfill exch def
	/salign exch def
	/a1 exch def
	/a0 exch def
	xratio mul
	/r exch def
	yratio mul
	/y exch def
	xratio mul
	/x exch def
	/Pie {
		x y moveto x y r a0 a1 arc closepath
	} def
	newpath Pie
	sfill Sfill
	Slrgb setrgbcolor
	salign 0 eq {
		gsave
		Slw 2 mul setlinewidth
		clip
		S
		grestore
	} if
	salign 1 eq {
		Slw setlinewidth
		S
	} if
	salign 2 eq {
		gsave
		Slw 2 mul setlinewidth
		strokepath
		pathbbox
		/ury exch def
		/urx exch def
		/lly exch def
		/llx exch def
		newpath llx lly moveto llx ury lineto urx ury lineto urx lly lineto closepath
		Pie
		eoclip
		newpath Pie
		S
		grestore
	} if
	newpath
} def
/Splu {
	xratio mul
	/r exch def
	yratio mul
	/y exch def
	xratio mul
	/x exch def
	x r sub
	/x0 exch def
	x r add
	/x1 exch def
	x0 y M x1 y L
	y r sub
	/y0 exch def
	y r add
	/y1 exch def
	x y0 M x y1 L
} def
/Scro {
	xratio mul
	/r exch def
	yratio mul
	/y exch def
	xratio mul
	/x exch def
	x r sub
	/x0 exch def
	y r sub
	/y0 exch def
	x r add
	/x1 exch def
	y r add
	/y1 exch def
	x0 y0 M x1 y1 L
	x r add
	/x0 exch def
	y r sub
	/y0 exch def
	x r sub
	/x1 exch def
	y r add
	/y1 exch def
	x0 y0 M x1 y1 L
} def
/Sm {
	yratio mul
	/y exch def
	xratio mul
	/x exch def
	x y M
} def
/Sl {
	yratio mul
	/y exch def
	xratio mul
	/x exch def
	x y L
} def
/SPl {
	yratio mul
	/y exch def
	xratio mul
	/x exch def
	x y PL
} def
/Sarr {
	/sfill exch def
	xratio mul
	/r exch def
	yratio mul
	/y exch def
	xratio mul
	/x exch def
	y r add
	/ytop exch def
	y r sub
	/ybot exch def
	gsave
	Slrgb setrgbcolor
	sfill 0 eq {
		r 2 mul 3 div dup
		x exch sub
		/xleft exch def
		x add
		/xright exch def
		newpath xleft y moveto x ytop lineto xright y lineto x ytop moveto x ybot lineto
		Lcs
		1 setlinejoin
	} {
		r 2 div dup
		x exch sub
		/xleft exch def
		x add
		/xright exch def
		newpath xleft y moveto x ytop lineto xright y lineto x ytop closepath moveto x ybot lineto
		gsave
		fill
		grestore
	} ifelse
	Slw setlinewidth
	S
	grestore
} def
/Spipe {
	xratio mul
	/r exch def
	yratio mul
	/y exch def
	xratio mul
	/x exch def
	y r sub
	/y0 exch def
	y r add
	/y1 exch def
	x y0 M x y1 L
} def
/Sv {
	xratio mul
	/r exch def
	yratio mul
	/y0 exch def
	xratio mul
	/x0 exch def
	/xcen x0 def
	y0 r add
	/ytop exch def
	r 2 div
	y0 exch sub
	/ybot exch def
	r 3 sqrt 2 div mul dup
	xcen exch sub
	/xleft exch def
	xcen add
	/xright exch def
	newpath xleft ytop moveto xcen ybot lineto xright ytop lineto
	Slw setlinewidth
	Slrgb setrgbcolor
	S
} def
/Lcs {
	currentlinecap
	1 setlinecap
} def
/Lcr {
	setlinecap
} def
/Sbp {
	newpath
} def
/Sep {
	/sfill exch def
	closepath
	/salign exch def
	Lcs
	salign 0 eq {
		sfill Sfill
		gsave
		Slw 2 mul setlinewidth
		clip
		Slrgb setrgbcolor
		S
		grestore
	} if
	salign 1 eq {
		sfill Sfill
		Slw setlinewidth
		Slrgb setrgbcolor
		S
	} if
	salign 2 eq {
		gsave
		Slw 2 mul setlinewidth
		Slrgb setrgbcolor
		S
		grestore
		sfill Sfill
	} if
	newpath
	Lcr
} def
/Stransrot {
	/anglep exch def
	yratio mul
	/y exch def
	xratio mul
	/x exch def
	x y translate
	anglep rotate
	x neg y neg translate
} def
/cp {currentpoint} def 
/M {moveto} def 
/rm {rmoveto} def 
/S {
	Slw 0.000 eq {
		newpath
	} if
	Slw 0.000 ne {
		stroke
	} if
} def
/L {Slw setlinewidth Slrgb setrgbcolor lineto Lcs S Lcr} def 
/PL {Slw setlinewidth Slrgb setrgbcolor lineto} def 
/MF-Helvetica {
  /newfontname exch def
  /fontname exch def
  /fontdict fontname findfont def
  /newfont fontdict maxlength dict def
  fontdict {
  exch dup /FID eq {pop pop} {exch newfont 3 1 roll put} ifelse
  } forall
  newfont /FontName newfontname put
  newfont /Encoding ISOLatin1Encoding put
  newfontname newfont definefont pop
} def
/Helvetica /Helvetica-0 MF-Helvetica
/Slw 0.120 def
1.000 1.000 1.000 setrgbcolor
0 0 576.000 288.000 Sbgfill
/Sfill {
	/sfill exch def
	sfill 1 eq {
		Ssrgb setrgbcolor
		gsave
		fill
		grestore
	} if
} def
/Sstroke {
	/sstroke exch def
	sstroke 1 eq {
		Slw setlinewidth
		Slrgb setrgbcolor
		S
	} if
	newpath
} def
/Slrgb {1.000 1.000 1.000} def
/Strgb {1.000 1.000 1.000} def
/Ssrgb {1.000 1.000 1.000} def
/Slw 0.576 def
0 0 32000 16000 0 1 Srect
16 16 31984 15984 1 0 Srect
/Slw 0.461 def
/Slrgb {0.000 0.000 0.000} def
3789 10018 9133 14606 0 0 Srect
3802 10031 9120 14593 1 0 Srect
/Strgb {0.000 0.000 0.000} def
/Slw 0.691 def
/Slrgb {0.188 0.188 0.188} def
3789 12312 9133 12312 Sln
/Slw 0.461 def
/Slrgb {0.000 0.000 0.000} def
10936 10018 16280 14606 0 0 Srect
10949 10031 16267 14593 1 0 Srect
/Slw 0.691 def
/Slrgb {0.188 0.188 0.188} def
10936 11910 16280 11910 Sln
/Slw 0.461 def
/Slrgb {0.000 0.000 0.000} def
19146 10018 24490 14606 0 0 Srect
19159 10031 24477 14593 1 0 Srect
/Slw 0.691 def
/Slrgb {0.188 0.188 0.188} def
19146 12714 24490 12714 Sln
/Slw 0.461 def
/Slrgb {0.000 0.000 0.000} def
25904 10018 31248 14606 0 0 Srect
25917 10031 31235 14593 1 0 Srect
/Slw 0.691 def
/Slrgb {0.188 0.188 0.188} def
25904 13401 31248 13401 Sln
/Slw 0.461 def
/Slrgb {0.000 0.000 0.000} def
3789 4405 9133 8992 0 0 Srect
3802 4418 9120 8979 1 0 Srect
/Slw 0.691 def
/Slrgb {0.188 0.188 0.188} def
3789 7704 9133 7704 Sln
/Slw 0.461 def
/Slrgb {0.000 0.000 0.000} def
10936 4405 16280 8992 0 0 Srect
10949 4418 16267 8979 1 0 Srect
/Slw 0.691 def
/Slrgb {0.188 0.188 0.188} def
10936 7208 16280 7208 Sln
/Slw 0.461 def
/Slrgb {0.000 0.000 0.000} def
19146 4405 24490 8992 0 0 Srect
19159 4418 24477 8979 1 0 Srect
/Slw 0.691 def
/Slrgb {0.188 0.188 0.188} def
19146 6698 24490 6698 Sln
/Slw 0.461 def
/Slrgb {0.000 0.000 0.000} def
25904 4405 31248 8992 0 0 Srect
25917 4418 31235 8979 1 0 Srect
/Slw 0.691 def
/Slrgb {0.188 0.188 0.188} def
25904 6601 31248 6601 Sln
/Ssrgb {0.502 0.502 0.502} def
/Slw 0.461 def
/Slrgb {0.376 0.376 0.376} def
4145 12463 4145 13172 Sln
5214 12082 5214 12633 Sln
6283 11736 6283 12784 Sln
7352 12070 7352 13334 Sln
8421 11696 8421 14082 Sln
4145 12817 Sm
5214 12357 Sl
5214 12357 Sm
6283 12260 Sl
6283 12260 Sm
7351 12701 Sl
7351 12701 Sm
8420 12889 Sl
/Ssrgb {0.702 0.702 0.702} def
/Slrgb {0.627 0.627 0.627} def
4502 11511 4502 12475 Sln
5570 11300 5570 12176 Sln
6639 10954 6639 12134 Sln
7708 10637 7708 12237 Sln
8777 10489 8777 12320 Sln
4501 11993 4626 11964 Sln
4735 11937 4860 11908 Sln
4969 11882 5093 11852 Sln
5203 11826 5327 11796 Sln
5437 11770 5561 11740 Sln
5672 11719 5798 11696 Sln
5908 11676 6034 11653 Sln
6144 11633 6271 11610 Sln
6381 11590 6507 11567 Sln
6618 11547 6639 11543 Sln
6639 11543 6745 11532 Sln
6856 11521 6984 11508 Sln
7096 11497 7223 11484 Sln
7335 11473 7462 11460 Sln
7574 11449 7702 11436 Sln
7814 11433 7942 11429 Sln
8054 11425 8182 11422 Sln
8294 11418 8422 11414 Sln
8535 11411 8663 11407 Sln
8775 11404 8777 11404 Sln
/Ssrgb {0.502 0.502 0.502} def
/Slrgb {0.376 0.376 0.376} def
11292 11431 11292 12602 Sln
12361 11446 12361 12254 Sln
13430 11159 13430 12388 Sln
14499 10986 14499 12964 Sln
15568 10887 15568 13852 Sln
11292 12016 Sm
12361 11849 Sl
12361 11849 Sm
13429 11773 Sl
13429 11773 Sm
14498 11975 Sl
14498 11975 Sm
15567 12369 Sl
/Ssrgb {0.702 0.702 0.702} def
/Slrgb {0.627 0.627 0.627} def
11648 11626 11648 11940 Sln
12717 11800 12717 11950 Sln
13786 11821 13786 12244 Sln
14855 11735 14855 12521 Sln
15924 11559 15924 12099 Sln
11648 11783 11776 11794 Sln
11887 11804 12015 11814 Sln
12127 11824 12254 11835 Sln
12366 11845 12493 11856 Sln
12605 11866 12717 11875 Sln
12717 11875 12733 11877 Sln
12844 11894 12970 11912 Sln
13082 11929 13208 11947 Sln
13319 11964 13446 11982 Sln
13557 11999 13684 12017 Sln
13795 12033 13922 12044 Sln
14034 12054 14162 12065 Sln
14273 12075 14401 12087 Sln
14513 12096 14640 12108 Sln
14752 12118 14855 12127 Sln
14855 12127 14879 12121 Sln
14987 12091 15110 12056 Sln
15218 12026 15341 11991 Sln
15449 11961 15572 11927 Sln
15680 11896 15803 11862 Sln
15911 11832 15923 11828 Sln
/Ssrgb {0.502 0.502 0.502} def
/Slrgb {0.376 0.376 0.376} def
19502 12015 19502 13023 Sln
20571 11883 20571 12775 Sln
21640 11728 21640 12898 Sln
22709 11720 22709 13943 Sln
23777 10858 23777 13284 Sln
19501 12518 Sm
20570 12329 Sl
20570 12329 Sm
21639 12313 Sl
21639 12313 Sm
22708 12831 Sl
22708 12831 Sm
23777 12070 Sl
/Ssrgb {0.702 0.702 0.702} def
/Slrgb {0.627 0.627 0.627} def
19858 12562 19858 12740 Sln
20927 12468 20927 12808 Sln
21996 12537 21996 13012 Sln
23065 12543 23065 12867 Sln
24134 12544 24134 12892 Sln
19858 12651 19986 12649 Sln
20098 12648 20226 12646 Sln
20339 12645 20467 12643 Sln
20579 12642 20707 12640 Sln
20819 12639 20927 12637 Sln
20927 12637 20947 12640 Sln
21058 12654 21185 12670 Sln
21297 12684 21424 12701 Sln
21535 12715 21662 12731 Sln
21773 12745 21900 12762 Sln
22012 12773 22139 12765 Sln
22251 12757 22379 12749 Sln
22491 12741 22619 12733 Sln
22731 12726 22859 12717 Sln
22971 12710 23064 12704 Sln
23064 12704 23099 12704 Sln
23211 12706 23339 12707 Sln
23451 12709 23579 12710 Sln
23691 12712 23819 12713 Sln
23932 12715 24060 12717 Sln
/Ssrgb {0.502 0.502 0.502} def
/Slrgb {0.376 0.376 0.376} def
26260 11893 26260 13422 Sln
27329 12436 27329 13293 Sln
28398 11717 28398 13230 Sln
29467 10882 29467 12726 Sln
30535 10300 30535 12183 Sln
26259 12657 Sm
27328 12864 Sl
27328 12864 Sm
28397 12473 Sl
28397 12473 Sm
29466 11804 Sl
29466 11804 Sm
30535 11241 Sl
/Ssrgb {0.702 0.702 0.702} def
/Slrgb {0.627 0.627 0.627} def
26616 12293 26616 13418 Sln
27685 12433 27685 13495 Sln
28754 11802 28754 13031 Sln
29823 11910 29823 13469 Sln
30892 11368 30892 14324 Sln
26616 12855 26744 12868 Sln
26855 12879 26983 12892 Sln
27095 12903 27222 12917 Sln
27334 12928 27461 12941 Sln
27573 12953 27685 12964 Sln
27685 12964 27699 12957 Sln
27799 12905 27912 12847 Sln
28012 12796 28126 12737 Sln
28226 12686 28340 12628 Sln
28440 12576 28553 12518 Sln
28653 12467 28753 12416 Sln
28753 12416 28768 12420 Sln
28877 12448 29001 12479 Sln
29110 12507 29234 12539 Sln
29343 12567 29467 12598 Sln
29576 12626 29700 12658 Sln
29809 12686 29822 12689 Sln
29822 12689 29935 12705 Sln
30047 12722 30173 12740 Sln
30284 12757 30411 12775 Sln
30522 12791 30649 12809 Sln
30760 12826 30886 12844 Sln
/Ssrgb {0.502 0.502 0.502} def
/Slrgb {0.376 0.376 0.376} def
4145 6726 4145 7955 Sln
5214 6851 5214 7534 Sln
6283 6821 6283 7776 Sln
7352 5964 7352 7722 Sln
8421 5311 8421 7338 Sln
4145 7340 Sm
5214 7192 Sl
5214 7192 Sm
6283 7298 Sl
6283 7298 Sm
7351 6843 Sl
7351 6843 Sm
8420 6324 Sl
/Ssrgb {0.702 0.702 0.702} def
/Slrgb {0.627 0.627 0.627} def
4502 7029 4502 8060 Sln
5570 7301 5570 8109 Sln
6639 6812 6639 7943 Sln
7708 6675 7708 8334 Sln
8777 6275 8777 8652 Sln
4501 7544 4628 7563 Sln
4739 7580 4865 7599 Sln
4976 7616 5103 7634 Sln
5214 7651 5340 7670 Sln
5451 7686 5570 7704 Sln
5570 7704 5577 7702 Sln
5685 7669 5807 7631 Sln
5915 7598 6037 7561 Sln
6144 7528 6267 7490 Sln
6374 7458 6497 7421 Sln
6604 7388 6639 7377 Sln
6639 7377 6730 7388 Sln
6842 7401 6969 7417 Sln
7080 7430 7207 7445 Sln
7318 7458 7445 7473 Sln
7556 7487 7683 7501 Sln
7796 7501 7924 7496 Sln
8036 7491 8164 7487 Sln
8276 7482 8404 7477 Sln
8516 7473 8644 7468 Sln
8757 7464 8777 7463 Sln
/Ssrgb {0.502 0.502 0.502} def
/Slrgb {0.376 0.376 0.376} def
11292 5219 11292 6941 Sln
12361 5831 12361 7373 Sln
13430 5752 13430 7749 Sln
14499 5103 14499 7720 Sln
15568 4686 15568 7512 Sln
11292 6080 Sm
12361 6601 Sl
12361 6601 Sm
13429 6750 Sl
13429 6750 Sm
14498 6411 Sl
14498 6411 Sm
15567 6099 Sl
/Ssrgb {0.702 0.702 0.702} def
/Slrgb {0.627 0.627 0.627} def
11648 6251 11648 7738 Sln
12717 6395 12717 7687 Sln
13786 6405 13786 8223 Sln
14855 5491 14855 7458 Sln
15924 5289 15924 8071 Sln
11648 6994 11776 7000 Sln
11888 7005 12016 7010 Sln
12128 7015 12256 7020 Sln
12369 7025 12497 7031 Sln
12609 7036 12717 7040 Sln
12717 7040 12736 7045 Sln
12845 7072 12969 7104 Sln
13078 7132 13202 7164 Sln
13311 7192 13435 7223 Sln
13544 7251 13668 7283 Sln
13777 7311 13786 7313 Sln
13786 7313 13879 7240 Sln
13967 7171 14068 7092 Sln
14156 7022 14257 6944 Sln
14345 6874 14446 6795 Sln
14534 6725 14635 6647 Sln
14723 6577 14824 6498 Sln
14926 6488 15052 6512 Sln
15162 6533 15288 6557 Sln
15398 6578 15523 6603 Sln
15634 6624 15759 6648 Sln
15870 6670 15923 6680 Sln
/Ssrgb {0.502 0.502 0.502} def
/Slrgb {0.376 0.376 0.376} def
19502 6153 19502 7415 Sln
20571 6334 20571 7305 Sln
21640 5725 21640 7594 Sln
22709 6053 22709 8493 Sln
23777 4974 23777 8483 Sln
19501 6783 Sm
20570 6819 Sl
20570 6819 Sm
21639 6659 Sl
21639 6659 Sm
22708 7273 Sl
22708 7273 Sm
23777 6728 Sl
/Ssrgb {0.702 0.702 0.702} def
/Slrgb {0.627 0.627 0.627} def
19858 5246 19858 6569 Sln
20927 5501 20927 6845 Sln
21996 5519 21996 6906 Sln
23065 4966 23065 6475 Sln
24134 4739 24134 7603 Sln
19858 5907 19982 5938 Sln
20091 5965 20215 5996 Sln
20324 6023 20448 6053 Sln
20557 6080 20681 6111 Sln
20790 6138 20914 6169 Sln
21026 6176 21154 6180 Sln
21266 6185 21394 6190 Sln
21506 6194 21634 6199 Sln
21747 6203 21875 6208 Sln
21987 6211 21995 6212 Sln
21995 6212 22104 6162 Sln
22206 6115 22322 6061 Sln
22424 6015 22540 5961 Sln
22642 5914 22758 5860 Sln
22860 5814 22976 5760 Sln
23078 5726 23197 5776 Sln
23300 5820 23418 5869 Sln
23521 5913 23640 5963 Sln
23743 6007 23861 6056 Sln
23964 6100 24082 6150 Sln
/Ssrgb {0.502 0.502 0.502} def
/Slrgb {0.376 0.376 0.376} def
26260 5633 26260 6948 Sln
27329 6146 27329 7331 Sln
28398 5914 28398 7695 Sln
29467 5206 29467 7396 Sln
30535 5119 30535 8542 Sln
26259 6290 Sm
27328 6738 Sl
27328 6738 Sm
28397 6804 Sl
28397 6804 Sm
29466 6301 Sl
29466 6301 Sm
30535 6830 Sl
/Ssrgb {0.702 0.702 0.702} def
/Slrgb {0.627 0.627 0.627} def
26616 6719 26616 8264 Sln
27685 6785 27685 7977 Sln
28754 6545 28754 8118 Sln
29823 6672 29823 8710 Sln
30892 4919 30892 7377 Sln
26616 7491 26744 7478 Sln
26855 7466 26983 7453 Sln
27095 7441 27222 7428 Sln
27334 7417 27461 7403 Sln
27573 7392 27685 7380 Sln
27685 7380 27701 7380 Sln
27813 7374 27941 7368 Sln
28053 7363 28181 7358 Sln
28293 7352 28421 7346 Sln
28534 7341 28662 7335 Sln
28773 7337 28894 7378 Sln
29000 7414 29121 7455 Sln
29228 7491 29349 7532 Sln
29456 7568 29577 7609 Sln
29683 7645 29805 7685 Sln
29876 7614 29949 7508 Sln
30013 7416 30085 7311 Sln
30149 7219 30222 7113 Sln
30286 7021 30359 6916 Sln
30423 6824 30496 6719 Sln
30560 6626 30633 6521 Sln
30697 6429 30770 6323 Sln
30834 6231 30891 6148 Sln
/Slrgb {0.000 0.000 0.000} def
3789 10018 3789 14606 Sln
3789 10300 3611 10300 Sln
3522 10145 0
/Helvetica-0 findfont 444 yratio mul scalefont setfont
(-.6) stringwidth pop add
xratio div
dup 4 3 roll exch 0.000 cos mul sub 3 1 roll 0.000 sin mul sub 2 copy
/fntsize {/Helvetica-0 findfont exch scalefont setfont } def
0.000 444
(-.6) Stxtl
(-.6) stringwidth pop xratio div
dup 4 3 roll exch 0.000 cos mul add 3 1 roll 0.000 sin mul add 2 copy
pop pop pop pop
3789 10971 3611 10971 Sln
3522 10816 0
/Helvetica-0 findfont 444 yratio mul scalefont setfont
(-.4) stringwidth pop add
xratio div
dup 4 3 roll exch 0.000 cos mul sub 3 1 roll 0.000 sin mul sub 2 copy
/fntsize {/Helvetica-0 findfont exch scalefont setfont } def
0.000 444
(-.4) Stxtl
(-.4) stringwidth pop xratio div
dup 4 3 roll exch 0.000 cos mul add 3 1 roll 0.000 sin mul add 2 copy
pop pop pop pop
3789 11641 3611 11641 Sln
3522 11486 0
/Helvetica-0 findfont 444 yratio mul scalefont setfont
(-.2) stringwidth pop add
xratio div
dup 4 3 roll exch 0.000 cos mul sub 3 1 roll 0.000 sin mul sub 2 copy
/fntsize {/Helvetica-0 findfont exch scalefont setfont } def
0.000 444
(-.2) Stxtl
(-.2) stringwidth pop xratio div
dup 4 3 roll exch 0.000 cos mul add 3 1 roll 0.000 sin mul add 2 copy
pop pop pop pop
3789 12312 3611 12312 Sln
3522 12157 0
/Helvetica-0 findfont 444 yratio mul scalefont setfont
(0) stringwidth pop add
xratio div
dup 4 3 roll exch 0.000 cos mul sub 3 1 roll 0.000 sin mul sub 2 copy
/fntsize {/Helvetica-0 findfont exch scalefont setfont } def
0.000 444
(0) Stxtl
(0) stringwidth pop xratio div
dup 4 3 roll exch 0.000 cos mul add 3 1 roll 0.000 sin mul add 2 copy
pop pop pop pop
3789 12983 3611 12983 Sln
3522 12828 0
/Helvetica-0 findfont 444 yratio mul scalefont setfont
(.2) stringwidth pop add
xratio div
dup 4 3 roll exch 0.000 cos mul sub 3 1 roll 0.000 sin mul sub 2 copy
/fntsize {/Helvetica-0 findfont exch scalefont setfont } def
0.000 444
(.2) Stxtl
(.2) stringwidth pop xratio div
dup 4 3 roll exch 0.000 cos mul add 3 1 roll 0.000 sin mul add 2 copy
pop pop pop pop
3789 13653 3611 13653 Sln
3522 13498 0
/Helvetica-0 findfont 444 yratio mul scalefont setfont
(.4) stringwidth pop add
xratio div
dup 4 3 roll exch 0.000 cos mul sub 3 1 roll 0.000 sin mul sub 2 copy
/fntsize {/Helvetica-0 findfont exch scalefont setfont } def
0.000 444
(.4) Stxtl
(.4) stringwidth pop xratio div
dup 4 3 roll exch 0.000 cos mul add 3 1 roll 0.000 sin mul add 2 copy
pop pop pop pop
3789 14324 3611 14324 Sln
3522 14169 0
/Helvetica-0 findfont 444 yratio mul scalefont setfont
(.6) stringwidth pop add
xratio div
dup 4 3 roll exch 0.000 cos mul sub 3 1 roll 0.000 sin mul sub 2 copy
/fntsize {/Helvetica-0 findfont exch scalefont setfont } def
0.000 444
(.6) Stxtl
(.6) stringwidth pop xratio div
dup 4 3 roll exch 0.000 cos mul add 3 1 roll 0.000 sin mul add 2 copy
pop pop pop pop
10936 10018 10936 14606 Sln
10936 10300 10758 10300 Sln
10669 10145 0
/Helvetica-0 findfont 444 yratio mul scalefont setfont
(-.4) stringwidth pop add
xratio div
dup 4 3 roll exch 0.000 cos mul sub 3 1 roll 0.000 sin mul sub 2 copy
/fntsize {/Helvetica-0 findfont exch scalefont setfont } def
0.000 444
(-.4) Stxtl
(-.4) stringwidth pop xratio div
dup 4 3 roll exch 0.000 cos mul add 3 1 roll 0.000 sin mul add 2 copy
pop pop pop pop
10936 11105 10758 11105 Sln
10669 10950 0
/Helvetica-0 findfont 444 yratio mul scalefont setfont
(-.2) stringwidth pop add
xratio div
dup 4 3 roll exch 0.000 cos mul sub 3 1 roll 0.000 sin mul sub 2 copy
/fntsize {/Helvetica-0 findfont exch scalefont setfont } def
0.000 444
(-.2) Stxtl
(-.2) stringwidth pop xratio div
dup 4 3 roll exch 0.000 cos mul add 3 1 roll 0.000 sin mul add 2 copy
pop pop pop pop
10936 11910 10758 11910 Sln
10669 11755 0
/Helvetica-0 findfont 444 yratio mul scalefont setfont
(0) stringwidth pop add
xratio div
dup 4 3 roll exch 0.000 cos mul sub 3 1 roll 0.000 sin mul sub 2 copy
/fntsize {/Helvetica-0 findfont exch scalefont setfont } def
0.000 444
(0) Stxtl
(0) stringwidth pop xratio div
dup 4 3 roll exch 0.000 cos mul add 3 1 roll 0.000 sin mul add 2 copy
pop pop pop pop
10936 12714 10758 12714 Sln
10669 12559 0
/Helvetica-0 findfont 444 yratio mul scalefont setfont
(.2) stringwidth pop add
xratio div
dup 4 3 roll exch 0.000 cos mul sub 3 1 roll 0.000 sin mul sub 2 copy
/fntsize {/Helvetica-0 findfont exch scalefont setfont } def
0.000 444
(.2) Stxtl
(.2) stringwidth pop xratio div
dup 4 3 roll exch 0.000 cos mul add 3 1 roll 0.000 sin mul add 2 copy
pop pop pop pop
10936 13519 10758 13519 Sln
10669 13364 0
/Helvetica-0 findfont 444 yratio mul scalefont setfont
(.4) stringwidth pop add
xratio div
dup 4 3 roll exch 0.000 cos mul sub 3 1 roll 0.000 sin mul sub 2 copy
/fntsize {/Helvetica-0 findfont exch scalefont setfont } def
0.000 444
(.4) Stxtl
(.4) stringwidth pop xratio div
dup 4 3 roll exch 0.000 cos mul add 3 1 roll 0.000 sin mul add 2 copy
pop pop pop pop
10936 14324 10758 14324 Sln
10669 14169 0
/Helvetica-0 findfont 444 yratio mul scalefont setfont
(.6) stringwidth pop add
xratio div
dup 4 3 roll exch 0.000 cos mul sub 3 1 roll 0.000 sin mul sub 2 copy
/fntsize {/Helvetica-0 findfont exch scalefont setfont } def
0.000 444
(.6) Stxtl
(.6) stringwidth pop xratio div
dup 4 3 roll exch 0.000 cos mul add 3 1 roll 0.000 sin mul add 2 copy
pop pop pop pop
19146 10018 19146 14606 Sln
19146 10300 18968 10300 Sln
18879 10145 0
/Helvetica-0 findfont 444 yratio mul scalefont setfont
(-.6) stringwidth pop add
xratio div
dup 4 3 roll exch 0.000 cos mul sub 3 1 roll 0.000 sin mul sub 2 copy
/fntsize {/Helvetica-0 findfont exch scalefont setfont } def
0.000 444
(-.6) Stxtl
(-.6) stringwidth pop xratio div
dup 4 3 roll exch 0.000 cos mul add 3 1 roll 0.000 sin mul add 2 copy
pop pop pop pop
19146 11105 18968 11105 Sln
18879 10950 0
/Helvetica-0 findfont 444 yratio mul scalefont setfont
(-.4) stringwidth pop add
xratio div
dup 4 3 roll exch 0.000 cos mul sub 3 1 roll 0.000 sin mul sub 2 copy
/fntsize {/Helvetica-0 findfont exch scalefont setfont } def
0.000 444
(-.4) Stxtl
(-.4) stringwidth pop xratio div
dup 4 3 roll exch 0.000 cos mul add 3 1 roll 0.000 sin mul add 2 copy
pop pop pop pop
19146 11910 18968 11910 Sln
18879 11755 0
/Helvetica-0 findfont 444 yratio mul scalefont setfont
(-.2) stringwidth pop add
xratio div
dup 4 3 roll exch 0.000 cos mul sub 3 1 roll 0.000 sin mul sub 2 copy
/fntsize {/Helvetica-0 findfont exch scalefont setfont } def
0.000 444
(-.2) Stxtl
(-.2) stringwidth pop xratio div
dup 4 3 roll exch 0.000 cos mul add 3 1 roll 0.000 sin mul add 2 copy
pop pop pop pop
19146 12714 18968 12714 Sln
18879 12559 0
/Helvetica-0 findfont 444 yratio mul scalefont setfont
(0) stringwidth pop add
xratio div
dup 4 3 roll exch 0.000 cos mul sub 3 1 roll 0.000 sin mul sub 2 copy
/fntsize {/Helvetica-0 findfont exch scalefont setfont } def
0.000 444
(0) Stxtl
(0) stringwidth pop xratio div
dup 4 3 roll exch 0.000 cos mul add 3 1 roll 0.000 sin mul add 2 copy
pop pop pop pop
19146 13519 18968 13519 Sln
18879 13364 0
/Helvetica-0 findfont 444 yratio mul scalefont setfont
(.2) stringwidth pop add
xratio div
dup 4 3 roll exch 0.000 cos mul sub 3 1 roll 0.000 sin mul sub 2 copy
/fntsize {/Helvetica-0 findfont exch scalefont setfont } def
0.000 444
(.2) Stxtl
(.2) stringwidth pop xratio div
dup 4 3 roll exch 0.000 cos mul add 3 1 roll 0.000 sin mul add 2 copy
pop pop pop pop
19146 14324 18968 14324 Sln
18879 14169 0
/Helvetica-0 findfont 444 yratio mul scalefont setfont
(.4) stringwidth pop add
xratio div
dup 4 3 roll exch 0.000 cos mul sub 3 1 roll 0.000 sin mul sub 2 copy
/fntsize {/Helvetica-0 findfont exch scalefont setfont } def
0.000 444
(.4) Stxtl
(.4) stringwidth pop xratio div
dup 4 3 roll exch 0.000 cos mul add 3 1 roll 0.000 sin mul add 2 copy
pop pop pop pop
25904 10018 25904 14606 Sln
25904 10343 25726 10343 Sln
25637 10188 0
/Helvetica-0 findfont 444 yratio mul scalefont setfont
(-4) stringwidth pop add
xratio div
dup 4 3 roll exch 0.000 cos mul sub 3 1 roll 0.000 sin mul sub 2 copy
/fntsize {/Helvetica-0 findfont exch scalefont setfont } def
0.000 444
(-4) Stxtl
(-4) stringwidth pop xratio div
dup 4 3 roll exch 0.000 cos mul add 3 1 roll 0.000 sin mul add 2 copy
pop pop pop pop
25904 11107 25726 11107 Sln
25637 10952 0
/Helvetica-0 findfont 444 yratio mul scalefont setfont
(-3) stringwidth pop add
xratio div
dup 4 3 roll exch 0.000 cos mul sub 3 1 roll 0.000 sin mul sub 2 copy
/fntsize {/Helvetica-0 findfont exch scalefont setfont } def
0.000 444
(-3) Stxtl
(-3) stringwidth pop xratio div
dup 4 3 roll exch 0.000 cos mul add 3 1 roll 0.000 sin mul add 2 copy
pop pop pop pop
25904 11872 25726 11872 Sln
25637 11717 0
/Helvetica-0 findfont 444 yratio mul scalefont setfont
(-2) stringwidth pop add
xratio div
dup 4 3 roll exch 0.000 cos mul sub 3 1 roll 0.000 sin mul sub 2 copy
/fntsize {/Helvetica-0 findfont exch scalefont setfont } def
0.000 444
(-2) Stxtl
(-2) stringwidth pop xratio div
dup 4 3 roll exch 0.000 cos mul add 3 1 roll 0.000 sin mul add 2 copy
pop pop pop pop
25904 12636 25726 12636 Sln
25637 12481 0
/Helvetica-0 findfont 444 yratio mul scalefont setfont
(-1) stringwidth pop add
xratio div
dup 4 3 roll exch 0.000 cos mul sub 3 1 roll 0.000 sin mul sub 2 copy
/fntsize {/Helvetica-0 findfont exch scalefont setfont } def
0.000 444
(-1) Stxtl
(-1) stringwidth pop xratio div
dup 4 3 roll exch 0.000 cos mul add 3 1 roll 0.000 sin mul add 2 copy
pop pop pop pop
25904 13401 25726 13401 Sln
25637 13246 0
/Helvetica-0 findfont 444 yratio mul scalefont setfont
(0) stringwidth pop add
xratio div
dup 4 3 roll exch 0.000 cos mul sub 3 1 roll 0.000 sin mul sub 2 copy
/fntsize {/Helvetica-0 findfont exch scalefont setfont } def
0.000 444
(0) Stxtl
(0) stringwidth pop xratio div
dup 4 3 roll exch 0.000 cos mul add 3 1 roll 0.000 sin mul add 2 copy
pop pop pop pop
25904 14165 25726 14165 Sln
25637 14010 0
/Helvetica-0 findfont 444 yratio mul scalefont setfont
(1) stringwidth pop add
xratio div
dup 4 3 roll exch 0.000 cos mul sub 3 1 roll 0.000 sin mul sub 2 copy
/fntsize {/Helvetica-0 findfont exch scalefont setfont } def
0.000 444
(1) Stxtl
(1) stringwidth pop xratio div
dup 4 3 roll exch 0.000 cos mul add 3 1 roll 0.000 sin mul add 2 copy
pop pop pop pop
3789 4405 3789 8992 Sln
3789 4686 3611 4686 Sln
3522 4531 0
/Helvetica-0 findfont 444 yratio mul scalefont setfont
(-15) stringwidth pop add
xratio div
dup 4 3 roll exch 0.000 cos mul sub 3 1 roll 0.000 sin mul sub 2 copy
/fntsize {/Helvetica-0 findfont exch scalefont setfont } def
0.000 444
(-15) Stxtl
(-15) stringwidth pop xratio div
dup 4 3 roll exch 0.000 cos mul add 3 1 roll 0.000 sin mul add 2 copy
pop pop pop pop
3789 5692 3611 5692 Sln
3522 5537 0
/Helvetica-0 findfont 444 yratio mul scalefont setfont
(-10) stringwidth pop add
xratio div
dup 4 3 roll exch 0.000 cos mul sub 3 1 roll 0.000 sin mul sub 2 copy
/fntsize {/Helvetica-0 findfont exch scalefont setfont } def
0.000 444
(-10) Stxtl
(-10) stringwidth pop xratio div
dup 4 3 roll exch 0.000 cos mul add 3 1 roll 0.000 sin mul add 2 copy
pop pop pop pop
3789 6698 3611 6698 Sln
3522 6543 0
/Helvetica-0 findfont 444 yratio mul scalefont setfont
(-5) stringwidth pop add
xratio div
dup 4 3 roll exch 0.000 cos mul sub 3 1 roll 0.000 sin mul sub 2 copy
/fntsize {/Helvetica-0 findfont exch scalefont setfont } def
0.000 444
(-5) Stxtl
(-5) stringwidth pop xratio div
dup 4 3 roll exch 0.000 cos mul add 3 1 roll 0.000 sin mul add 2 copy
pop pop pop pop
3789 7704 3611 7704 Sln
3522 7549 0
/Helvetica-0 findfont 444 yratio mul scalefont setfont
(0) stringwidth pop add
xratio div
dup 4 3 roll exch 0.000 cos mul sub 3 1 roll 0.000 sin mul sub 2 copy
/fntsize {/Helvetica-0 findfont exch scalefont setfont } def
0.000 444
(0) Stxtl
(0) stringwidth pop xratio div
dup 4 3 roll exch 0.000 cos mul add 3 1 roll 0.000 sin mul add 2 copy
pop pop pop pop
3789 8710 3611 8710 Sln
3522 8555 0
/Helvetica-0 findfont 444 yratio mul scalefont setfont
(5) stringwidth pop add
xratio div
dup 4 3 roll exch 0.000 cos mul sub 3 1 roll 0.000 sin mul sub 2 copy
/fntsize {/Helvetica-0 findfont exch scalefont setfont } def
0.000 444
(5) Stxtl
(5) stringwidth pop xratio div
dup 4 3 roll exch 0.000 cos mul add 3 1 roll 0.000 sin mul add 2 copy
pop pop pop pop
10936 4405 10936 8992 Sln
10936 4955 10758 4955 Sln
10669 4800 0
/Helvetica-0 findfont 444 yratio mul scalefont setfont
(-600) stringwidth pop add
xratio div
dup 4 3 roll exch 0.000 cos mul sub 3 1 roll 0.000 sin mul sub 2 copy
/fntsize {/Helvetica-0 findfont exch scalefont setfont } def
0.000 444
(-600) Stxtl
(-600) stringwidth pop xratio div
dup 4 3 roll exch 0.000 cos mul add 3 1 roll 0.000 sin mul add 2 copy
pop pop pop pop
10936 5706 10758 5706 Sln
10669 5551 0
/Helvetica-0 findfont 444 yratio mul scalefont setfont
(-400) stringwidth pop add
xratio div
dup 4 3 roll exch 0.000 cos mul sub 3 1 roll 0.000 sin mul sub 2 copy
/fntsize {/Helvetica-0 findfont exch scalefont setfont } def
0.000 444
(-400) Stxtl
(-400) stringwidth pop xratio div
dup 4 3 roll exch 0.000 cos mul add 3 1 roll 0.000 sin mul add 2 copy
pop pop pop pop
10936 6457 10758 6457 Sln
10669 6302 0
/Helvetica-0 findfont 444 yratio mul scalefont setfont
(-200) stringwidth pop add
xratio div
dup 4 3 roll exch 0.000 cos mul sub 3 1 roll 0.000 sin mul sub 2 copy
/fntsize {/Helvetica-0 findfont exch scalefont setfont } def
0.000 444
(-200) Stxtl
(-200) stringwidth pop xratio div
dup 4 3 roll exch 0.000 cos mul add 3 1 roll 0.000 sin mul add 2 copy
pop pop pop pop
10936 7208 10758 7208 Sln
10669 7053 0
/Helvetica-0 findfont 444 yratio mul scalefont setfont
(0) stringwidth pop add
xratio div
dup 4 3 roll exch 0.000 cos mul sub 3 1 roll 0.000 sin mul sub 2 copy
/fntsize {/Helvetica-0 findfont exch scalefont setfont } def
0.000 444
(0) Stxtl
(0) stringwidth pop xratio div
dup 4 3 roll exch 0.000 cos mul add 3 1 roll 0.000 sin mul add 2 copy
pop pop pop pop
10936 7959 10758 7959 Sln
10669 7804 0
/Helvetica-0 findfont 444 yratio mul scalefont setfont
(200) stringwidth pop add
xratio div
dup 4 3 roll exch 0.000 cos mul sub 3 1 roll 0.000 sin mul sub 2 copy
/fntsize {/Helvetica-0 findfont exch scalefont setfont } def
0.000 444
(200) Stxtl
(200) stringwidth pop xratio div
dup 4 3 roll exch 0.000 cos mul add 3 1 roll 0.000 sin mul add 2 copy
pop pop pop pop
10936 8710 10758 8710 Sln
10669 8555 0
/Helvetica-0 findfont 444 yratio mul scalefont setfont
(400) stringwidth pop add
xratio div
dup 4 3 roll exch 0.000 cos mul sub 3 1 roll 0.000 sin mul sub 2 copy
/fntsize {/Helvetica-0 findfont exch scalefont setfont } def
0.000 444
(400) Stxtl
(400) stringwidth pop xratio div
dup 4 3 roll exch 0.000 cos mul add 3 1 roll 0.000 sin mul add 2 copy
pop pop pop pop
19146 4405 19146 8992 Sln
19146 4686 18968 4686 Sln
18879 4531 0
/Helvetica-0 findfont 444 yratio mul scalefont setfont
(-200) stringwidth pop add
xratio div
dup 4 3 roll exch 0.000 cos mul sub 3 1 roll 0.000 sin mul sub 2 copy
/fntsize {/Helvetica-0 findfont exch scalefont setfont } def
0.000 444
(-200) Stxtl
(-200) stringwidth pop xratio div
dup 4 3 roll exch 0.000 cos mul add 3 1 roll 0.000 sin mul add 2 copy
pop pop pop pop
19146 5692 18968 5692 Sln
18879 5537 0
/Helvetica-0 findfont 444 yratio mul scalefont setfont
(-100) stringwidth pop add
xratio div
dup 4 3 roll exch 0.000 cos mul sub 3 1 roll 0.000 sin mul sub 2 copy
/fntsize {/Helvetica-0 findfont exch scalefont setfont } def
0.000 444
(-100) Stxtl
(-100) stringwidth pop xratio div
dup 4 3 roll exch 0.000 cos mul add 3 1 roll 0.000 sin mul add 2 copy
pop pop pop pop
19146 6698 18968 6698 Sln
18879 6543 0
/Helvetica-0 findfont 444 yratio mul scalefont setfont
(0) stringwidth pop add
xratio div
dup 4 3 roll exch 0.000 cos mul sub 3 1 roll 0.000 sin mul sub 2 copy
/fntsize {/Helvetica-0 findfont exch scalefont setfont } def
0.000 444
(0) Stxtl
(0) stringwidth pop xratio div
dup 4 3 roll exch 0.000 cos mul add 3 1 roll 0.000 sin mul add 2 copy
pop pop pop pop
19146 7704 18968 7704 Sln
18879 7549 0
/Helvetica-0 findfont 444 yratio mul scalefont setfont
(100) stringwidth pop add
xratio div
dup 4 3 roll exch 0.000 cos mul sub 3 1 roll 0.000 sin mul sub 2 copy
/fntsize {/Helvetica-0 findfont exch scalefont setfont } def
0.000 444
(100) Stxtl
(100) stringwidth pop xratio div
dup 4 3 roll exch 0.000 cos mul add 3 1 roll 0.000 sin mul add 2 copy
pop pop pop pop
19146 8710 18968 8710 Sln
18879 8555 0
/Helvetica-0 findfont 444 yratio mul scalefont setfont
(200) stringwidth pop add
xratio div
dup 4 3 roll exch 0.000 cos mul sub 3 1 roll 0.000 sin mul sub 2 copy
/fntsize {/Helvetica-0 findfont exch scalefont setfont } def
0.000 444
(200) Stxtl
(200) stringwidth pop xratio div
dup 4 3 roll exch 0.000 cos mul add 3 1 roll 0.000 sin mul add 2 copy
pop pop pop pop
25904 4405 25904 8992 Sln
25904 4686 25726 4686 Sln
25637 4531 0
/Helvetica-0 findfont 444 yratio mul scalefont setfont
(-.4) stringwidth pop add
xratio div
dup 4 3 roll exch 0.000 cos mul sub 3 1 roll 0.000 sin mul sub 2 copy
/fntsize {/Helvetica-0 findfont exch scalefont setfont } def
0.000 444
(-.4) Stxtl
(-.4) stringwidth pop xratio div
dup 4 3 roll exch 0.000 cos mul add 3 1 roll 0.000 sin mul add 2 copy
pop pop pop pop
25904 5644 25726 5644 Sln
25637 5489 0
/Helvetica-0 findfont 444 yratio mul scalefont setfont
(-.2) stringwidth pop add
xratio div
dup 4 3 roll exch 0.000 cos mul sub 3 1 roll 0.000 sin mul sub 2 copy
/fntsize {/Helvetica-0 findfont exch scalefont setfont } def
0.000 444
(-.2) Stxtl
(-.2) stringwidth pop xratio div
dup 4 3 roll exch 0.000 cos mul add 3 1 roll 0.000 sin mul add 2 copy
pop pop pop pop
25904 6601 25726 6601 Sln
25637 6446 0
/Helvetica-0 findfont 444 yratio mul scalefont setfont
(0) stringwidth pop add
xratio div
dup 4 3 roll exch 0.000 cos mul sub 3 1 roll 0.000 sin mul sub 2 copy
/fntsize {/Helvetica-0 findfont exch scalefont setfont } def
0.000 444
(0) Stxtl
(0) stringwidth pop xratio div
dup 4 3 roll exch 0.000 cos mul add 3 1 roll 0.000 sin mul add 2 copy
pop pop pop pop
25904 7558 25726 7558 Sln
25637 7403 0
/Helvetica-0 findfont 444 yratio mul scalefont setfont
(.2) stringwidth pop add
xratio div
dup 4 3 roll exch 0.000 cos mul sub 3 1 roll 0.000 sin mul sub 2 copy
/fntsize {/Helvetica-0 findfont exch scalefont setfont } def
0.000 444
(.2) Stxtl
(.2) stringwidth pop xratio div
dup 4 3 roll exch 0.000 cos mul add 3 1 roll 0.000 sin mul add 2 copy
pop pop pop pop
25904 8516 25726 8516 Sln
25637 8361 0
/Helvetica-0 findfont 444 yratio mul scalefont setfont
(.4) stringwidth pop add
xratio div
dup 4 3 roll exch 0.000 cos mul sub 3 1 roll 0.000 sin mul sub 2 copy
/fntsize {/Helvetica-0 findfont exch scalefont setfont } def
0.000 444
(.4) Stxtl
(.4) stringwidth pop xratio div
dup 4 3 roll exch 0.000 cos mul add 3 1 roll 0.000 sin mul add 2 copy
pop pop pop pop
3789 4405 9133 4405 Sln
4323 4405 4323 4227 Sln
4479 4138 0
/Helvetica-0 findfont 444 yratio mul scalefont setfont
(0-1) stringwidth pop add
xratio div
dup 4 3 roll exch 90.000 cos mul sub 3 1 roll 90.000 sin mul sub 2 copy
/fntsize {/Helvetica-0 findfont exch scalefont setfont } def
90.000 444
(0-1) Stxtl
(0-1) stringwidth pop xratio div
dup 4 3 roll exch 90.000 cos mul add 3 1 roll 90.000 sin mul add 2 copy
pop pop pop pop
5392 4405 5392 4227 Sln
5548 4138 0
/Helvetica-0 findfont 444 yratio mul scalefont setfont
(2-4) stringwidth pop add
xratio div
dup 4 3 roll exch 90.000 cos mul sub 3 1 roll 90.000 sin mul sub 2 copy
/fntsize {/Helvetica-0 findfont exch scalefont setfont } def
90.000 444
(2-4) Stxtl
(2-4) stringwidth pop xratio div
dup 4 3 roll exch 90.000 cos mul add 3 1 roll 90.000 sin mul add 2 copy
pop pop pop pop
6461 4405 6461 4227 Sln
6617 4138 0
/Helvetica-0 findfont 444 yratio mul scalefont setfont
(5-7) stringwidth pop add
xratio div
dup 4 3 roll exch 90.000 cos mul sub 3 1 roll 90.000 sin mul sub 2 copy
/fntsize {/Helvetica-0 findfont exch scalefont setfont } def
90.000 444
(5-7) Stxtl
(5-7) stringwidth pop xratio div
dup 4 3 roll exch 90.000 cos mul add 3 1 roll 90.000 sin mul add 2 copy
pop pop pop pop
7530 4405 7530 4227 Sln
7686 4138 0
/Helvetica-0 findfont 444 yratio mul scalefont setfont
(8-10) stringwidth pop add
xratio div
dup 4 3 roll exch 90.000 cos mul sub 3 1 roll 90.000 sin mul sub 2 copy
/fntsize {/Helvetica-0 findfont exch scalefont setfont } def
90.000 444
(8-10) Stxtl
(8-10) stringwidth pop xratio div
dup 4 3 roll exch 90.000 cos mul add 3 1 roll 90.000 sin mul add 2 copy
pop pop pop pop
8599 4405 8599 4227 Sln
8755 4138 0
/Helvetica-0 findfont 444 yratio mul scalefont setfont
(11-15) stringwidth pop add
xratio div
dup 4 3 roll exch 90.000 cos mul sub 3 1 roll 90.000 sin mul sub 2 copy
/fntsize {/Helvetica-0 findfont exch scalefont setfont } def
90.000 444
(11-15) Stxtl
(11-15) stringwidth pop xratio div
dup 4 3 roll exch 90.000 cos mul add 3 1 roll 90.000 sin mul add 2 copy
pop pop pop pop
10936 4405 16280 4405 Sln
11470 4405 11470 4227 Sln
11626 4138 0
/Helvetica-0 findfont 444 yratio mul scalefont setfont
(0-1) stringwidth pop add
xratio div
dup 4 3 roll exch 90.000 cos mul sub 3 1 roll 90.000 sin mul sub 2 copy
/fntsize {/Helvetica-0 findfont exch scalefont setfont } def
90.000 444
(0-1) Stxtl
(0-1) stringwidth pop xratio div
dup 4 3 roll exch 90.000 cos mul add 3 1 roll 90.000 sin mul add 2 copy
pop pop pop pop
12539 4405 12539 4227 Sln
12695 4138 0
/Helvetica-0 findfont 444 yratio mul scalefont setfont
(2-4) stringwidth pop add
xratio div
dup 4 3 roll exch 90.000 cos mul sub 3 1 roll 90.000 sin mul sub 2 copy
/fntsize {/Helvetica-0 findfont exch scalefont setfont } def
90.000 444
(2-4) Stxtl
(2-4) stringwidth pop xratio div
dup 4 3 roll exch 90.000 cos mul add 3 1 roll 90.000 sin mul add 2 copy
pop pop pop pop
13608 4405 13608 4227 Sln
13764 4138 0
/Helvetica-0 findfont 444 yratio mul scalefont setfont
(5-7) stringwidth pop add
xratio div
dup 4 3 roll exch 90.000 cos mul sub 3 1 roll 90.000 sin mul sub 2 copy
/fntsize {/Helvetica-0 findfont exch scalefont setfont } def
90.000 444
(5-7) Stxtl
(5-7) stringwidth pop xratio div
dup 4 3 roll exch 90.000 cos mul add 3 1 roll 90.000 sin mul add 2 copy
pop pop pop pop
14677 4405 14677 4227 Sln
14833 4138 0
/Helvetica-0 findfont 444 yratio mul scalefont setfont
(8-10) stringwidth pop add
xratio div
dup 4 3 roll exch 90.000 cos mul sub 3 1 roll 90.000 sin mul sub 2 copy
/fntsize {/Helvetica-0 findfont exch scalefont setfont } def
90.000 444
(8-10) Stxtl
(8-10) stringwidth pop xratio div
dup 4 3 roll exch 90.000 cos mul add 3 1 roll 90.000 sin mul add 2 copy
pop pop pop pop
15746 4405 15746 4227 Sln
15902 4138 0
/Helvetica-0 findfont 444 yratio mul scalefont setfont
(11-15) stringwidth pop add
xratio div
dup 4 3 roll exch 90.000 cos mul sub 3 1 roll 90.000 sin mul sub 2 copy
/fntsize {/Helvetica-0 findfont exch scalefont setfont } def
90.000 444
(11-15) Stxtl
(11-15) stringwidth pop xratio div
dup 4 3 roll exch 90.000 cos mul add 3 1 roll 90.000 sin mul add 2 copy
pop pop pop pop
19146 4405 24490 4405 Sln
19680 4405 19680 4227 Sln
19836 4138 0
/Helvetica-0 findfont 444 yratio mul scalefont setfont
(0-1) stringwidth pop add
xratio div
dup 4 3 roll exch 90.000 cos mul sub 3 1 roll 90.000 sin mul sub 2 copy
/fntsize {/Helvetica-0 findfont exch scalefont setfont } def
90.000 444
(0-1) Stxtl
(0-1) stringwidth pop xratio div
dup 4 3 roll exch 90.000 cos mul add 3 1 roll 90.000 sin mul add 2 copy
pop pop pop pop
20749 4405 20749 4227 Sln
20905 4138 0
/Helvetica-0 findfont 444 yratio mul scalefont setfont
(2-4) stringwidth pop add
xratio div
dup 4 3 roll exch 90.000 cos mul sub 3 1 roll 90.000 sin mul sub 2 copy
/fntsize {/Helvetica-0 findfont exch scalefont setfont } def
90.000 444
(2-4) Stxtl
(2-4) stringwidth pop xratio div
dup 4 3 roll exch 90.000 cos mul add 3 1 roll 90.000 sin mul add 2 copy
pop pop pop pop
21818 4405 21818 4227 Sln
21974 4138 0
/Helvetica-0 findfont 444 yratio mul scalefont setfont
(5-7) stringwidth pop add
xratio div
dup 4 3 roll exch 90.000 cos mul sub 3 1 roll 90.000 sin mul sub 2 copy
/fntsize {/Helvetica-0 findfont exch scalefont setfont } def
90.000 444
(5-7) Stxtl
(5-7) stringwidth pop xratio div
dup 4 3 roll exch 90.000 cos mul add 3 1 roll 90.000 sin mul add 2 copy
pop pop pop pop
22887 4405 22887 4227 Sln
23043 4138 0
/Helvetica-0 findfont 444 yratio mul scalefont setfont
(8-10) stringwidth pop add
xratio div
dup 4 3 roll exch 90.000 cos mul sub 3 1 roll 90.000 sin mul sub 2 copy
/fntsize {/Helvetica-0 findfont exch scalefont setfont } def
90.000 444
(8-10) Stxtl
(8-10) stringwidth pop xratio div
dup 4 3 roll exch 90.000 cos mul add 3 1 roll 90.000 sin mul add 2 copy
pop pop pop pop
23956 4405 23956 4227 Sln
24112 4138 0
/Helvetica-0 findfont 444 yratio mul scalefont setfont
(11-15) stringwidth pop add
xratio div
dup 4 3 roll exch 90.000 cos mul sub 3 1 roll 90.000 sin mul sub 2 copy
/fntsize {/Helvetica-0 findfont exch scalefont setfont } def
90.000 444
(11-15) Stxtl
(11-15) stringwidth pop xratio div
dup 4 3 roll exch 90.000 cos mul add 3 1 roll 90.000 sin mul add 2 copy
pop pop pop pop
25904 4405 31248 4405 Sln
26438 4405 26438 4227 Sln
26594 4138 0
/Helvetica-0 findfont 444 yratio mul scalefont setfont
(0-1) stringwidth pop add
xratio div
dup 4 3 roll exch 90.000 cos mul sub 3 1 roll 90.000 sin mul sub 2 copy
/fntsize {/Helvetica-0 findfont exch scalefont setfont } def
90.000 444
(0-1) Stxtl
(0-1) stringwidth pop xratio div
dup 4 3 roll exch 90.000 cos mul add 3 1 roll 90.000 sin mul add 2 copy
pop pop pop pop
27507 4405 27507 4227 Sln
27663 4138 0
/Helvetica-0 findfont 444 yratio mul scalefont setfont
(2-4) stringwidth pop add
xratio div
dup 4 3 roll exch 90.000 cos mul sub 3 1 roll 90.000 sin mul sub 2 copy
/fntsize {/Helvetica-0 findfont exch scalefont setfont } def
90.000 444
(2-4) Stxtl
(2-4) stringwidth pop xratio div
dup 4 3 roll exch 90.000 cos mul add 3 1 roll 90.000 sin mul add 2 copy
pop pop pop pop
28576 4405 28576 4227 Sln
28732 4138 0
/Helvetica-0 findfont 444 yratio mul scalefont setfont
(5-7) stringwidth pop add
xratio div
dup 4 3 roll exch 90.000 cos mul sub 3 1 roll 90.000 sin mul sub 2 copy
/fntsize {/Helvetica-0 findfont exch scalefont setfont } def
90.000 444
(5-7) Stxtl
(5-7) stringwidth pop xratio div
dup 4 3 roll exch 90.000 cos mul add 3 1 roll 90.000 sin mul add 2 copy
pop pop pop pop
29645 4405 29645 4227 Sln
29801 4138 0
/Helvetica-0 findfont 444 yratio mul scalefont setfont
(8-10) stringwidth pop add
xratio div
dup 4 3 roll exch 90.000 cos mul sub 3 1 roll 90.000 sin mul sub 2 copy
/fntsize {/Helvetica-0 findfont exch scalefont setfont } def
90.000 444
(8-10) Stxtl
(8-10) stringwidth pop xratio div
dup 4 3 roll exch 90.000 cos mul add 3 1 roll 90.000 sin mul add 2 copy
pop pop pop pop
30714 4405 30714 4227 Sln
30870 4138 0
/Helvetica-0 findfont 444 yratio mul scalefont setfont
(11-15) stringwidth pop add
xratio div
dup 4 3 roll exch 90.000 cos mul sub 3 1 roll 90.000 sin mul sub 2 copy
/fntsize {/Helvetica-0 findfont exch scalefont setfont } def
90.000 444
(11-15) Stxtl
(11-15) stringwidth pop xratio div
dup 4 3 roll exch 90.000 cos mul add 3 1 roll 90.000 sin mul add 2 copy
pop pop pop pop
/Ssrgb {0.816 0.816 0.816} def
3789 14606 9133 15248 0 1 Srect
3802 14619 9120 15235 1 0 Srect
6461 14829 0
/Helvetica-0 findfont 489 yratio mul scalefont setfont
(Employed) stringwidth pop add
2 div xratio div
dup 4 3 roll exch 0.000 cos mul sub 3 1 roll 0.000 sin mul sub 2 copy
/fntsize {/Helvetica-0 findfont exch scalefont setfont } def
0.000 489
(Employed) Stxtl
(Employed) stringwidth pop xratio div
dup 4 3 roll exch 0.000 cos mul add 3 1 roll 0.000 sin mul add 2 copy
pop pop pop pop
10936 14606 16280 15248 0 1 Srect
10949 14619 16267 15235 1 0 Srect
13608 14829 0
/Helvetica-0 findfont 489 yratio mul scalefont setfont
(Smoking) stringwidth pop add
2 div xratio div
dup 4 3 roll exch 0.000 cos mul sub 3 1 roll 0.000 sin mul sub 2 copy
/fntsize {/Helvetica-0 findfont exch scalefont setfont } def
0.000 489
(Smoking) Stxtl
(Smoking) stringwidth pop xratio div
dup 4 3 roll exch 0.000 cos mul add 3 1 roll 0.000 sin mul add 2 copy
pop pop pop pop
19146 14606 24490 15248 0 1 Srect
19159 14619 24477 15235 1 0 Srect
21818 14829 0
/Helvetica-0 findfont 489 yratio mul scalefont setfont
(Alcohol) stringwidth pop add
2 div xratio div
dup 4 3 roll exch 0.000 cos mul sub 3 1 roll 0.000 sin mul sub 2 copy
/fntsize {/Helvetica-0 findfont exch scalefont setfont } def
0.000 489
(Alcohol) Stxtl
(Alcohol) stringwidth pop xratio div
dup 4 3 roll exch 0.000 cos mul add 3 1 roll 0.000 sin mul add 2 copy
pop pop pop pop
25904 14606 31248 15248 0 1 Srect
25917 14619 31235 15235 1 0 Srect
28576 14829 0
/Helvetica-0 findfont 489 yratio mul scalefont setfont
(BMI) stringwidth pop add
2 div xratio div
dup 4 3 roll exch 0.000 cos mul sub 3 1 roll 0.000 sin mul sub 2 copy
/fntsize {/Helvetica-0 findfont exch scalefont setfont } def
0.000 489
(BMI) Stxtl
(BMI) stringwidth pop xratio div
dup 4 3 roll exch 0.000 cos mul add 3 1 roll 0.000 sin mul add 2 copy
pop pop pop pop
3789 8992 9133 9634 0 1 Srect
3802 9005 9120 9621 1 0 Srect
6461 9216 0
/Helvetica-0 findfont 489 yratio mul scalefont setfont
(Waist \(cm\)) stringwidth pop add
2 div xratio div
dup 4 3 roll exch 0.000 cos mul sub 3 1 roll 0.000 sin mul sub 2 copy
/fntsize {/Helvetica-0 findfont exch scalefont setfont } def
0.000 489
(Waist \(cm\)) Stxtl
(Waist \(cm\)) stringwidth pop xratio div
dup 4 3 roll exch 0.000 cos mul add 3 1 roll 0.000 sin mul add 2 copy
pop pop pop pop
10936 8992 16280 9634 0 1 Srect
10949 9005 16267 9621 1 0 Srect
13608 9216 0
/Helvetica-0 findfont 489 yratio mul scalefont setfont
(Kcal) stringwidth pop add
2 div xratio div
dup 4 3 roll exch 0.000 cos mul sub 3 1 roll 0.000 sin mul sub 2 copy
/fntsize {/Helvetica-0 findfont exch scalefont setfont } def
0.000 489
(Kcal) Stxtl
(Kcal) stringwidth pop xratio div
dup 4 3 roll exch 0.000 cos mul add 3 1 roll 0.000 sin mul add 2 copy
pop pop pop pop
19146 8992 24490 9634 0 1 Srect
19159 9005 24477 9621 1 0 Srect
21818 9216 0
/Helvetica-0 findfont 489 yratio mul scalefont setfont
(PA) stringwidth pop add
2 div xratio div
dup 4 3 roll exch 0.000 cos mul sub 3 1 roll 0.000 sin mul sub 2 copy
/fntsize {/Helvetica-0 findfont exch scalefont setfont } def
0.000 489
(PA) Stxtl
(PA) stringwidth pop xratio div
dup 4 3 roll exch 0.000 cos mul add 3 1 roll 0.000 sin mul add 2 copy
pop pop pop pop
25904 8992 31248 9634 0 1 Srect
25917 9005 31235 9621 1 0 Srect
28576 9216 0
/Helvetica-0 findfont 489 yratio mul scalefont setfont
(Hypertension) stringwidth pop add
2 div xratio div
dup 4 3 roll exch 0.000 cos mul sub 3 1 roll 0.000 sin mul sub 2 copy
/fntsize {/Helvetica-0 findfont exch scalefont setfont } def
0.000 489
(Hypertension) Stxtl
(Hypertension) stringwidth pop xratio div
dup 4 3 roll exch 0.000 cos mul add 3 1 roll 0.000 sin mul add 2 copy
pop pop pop pop
/Ssrgb {1.000 1.000 1.000} def
/Slw 0.576 def
11729 752 20827 1788 0 1 Srect
11745 768 20811 1772 1 0 Srect
/Slrgb {0.376 0.376 0.376} def
11969 1270 14049 1270 Sln
/Slrgb {0.627 0.627 0.627} def
16294 1270 16422 1270 Sln
16534 1270 16662 1270 Sln
16774 1270 16902 1270 Sln
17015 1270 17143 1270 Sln
17255 1270 17383 1270 Sln
17495 1270 17623 1270 Sln
17735 1270 17863 1270 Sln
17976 1270 18104 1270 Sln
18216 1270 18344 1270 Sln
14382 1076 2 copy
/fntsize {/Helvetica-0 findfont exch scalefont setfont } def
0.000 556
(men) Stxtl
(men) stringwidth pop xratio div
dup 4 3 roll exch 0.000 cos mul add 3 1 roll 0.000 sin mul add 2 copy
pop pop pop pop
18707 1076 2 copy
/fntsize {/Helvetica-0 findfont exch scalefont setfont } def
0.000 556
(women) Stxtl
(women) stringwidth pop xratio div
dup 4 3 roll exch 0.000 cos mul add 3 1 roll 0.000 sin mul add 2 copy
pop pop pop pop
949 8988 0
/Helvetica-0 findfont 556 yratio mul scalefont setfont
(Marginal effect) stringwidth pop add
2 div xratio div
dup 4 3 roll exch 90.000 cos mul sub 3 1 roll 90.000 sin mul sub 2 copy
/fntsize {/Helvetica-0 findfont exch scalefont setfont } def
90.000 556
(Marginal effect) Stxtl
(Marginal effect) stringwidth pop xratio div
dup 4 3 roll exch 90.000 cos mul add 3 1 roll 90.000 sin mul add 2 copy
pop pop pop pop
16278 2147 0
/Helvetica-0 findfont 556 yratio mul scalefont setfont
(Years after diagnosis) stringwidth pop add
2 div xratio div
dup 4 3 roll exch 0.000 cos mul sub 3 1 roll 0.000 sin mul sub 2 copy
/fntsize {/Helvetica-0 findfont exch scalefont setfont } def
0.000 556
(Years after diagnosis) Stxtl
(Years after diagnosis) stringwidth pop xratio div
dup 4 3 roll exch 0.000 cos mul add 3 1 roll 0.000 sin mul add 2 copy
pop pop pop pop
S showpage
%%EOF
