%!PS-Adobe-2.0 EPSF-2.0
%% This is a Stata generated postscript file
%%BoundingBox: 0 0 1008 576
%%HiResBoundingBox: 0.000 0.000 1008.000 576.000
%%DocumentNeededResources: font Helvetica
/xratio 0.031500 def
/yratio 0.031501 def
/Sbgfill {
	/y1 exch def
	/x1 exch def
	/y0 exch def
	/x0 exch def
	x0 y0 moveto
	x0 y1 lineto x1 y1 lineto x1 y0 lineto x0 y0 lineto
	fill
} def
/Spt {
	yratio mul
	/yp exch def
	xratio mul
	/xp exch def
	Slrgb setrgbcolor
	xp yp .5 0 360 arc fill
} def
/Sln {
	yratio mul
	/y1p exch def
	xratio mul
	/x1p exch def
	yratio mul
	/y0p exch def
	xratio mul
	/x0p exch def
	Slw setlinewidth
	Slrgb setrgbcolor
	x0p y0p M x1p y1p lineto S
} def
/Scrv {
	yratio mul
	/y3p exch def
	xratio mul
	/x3p exch def
	yratio mul
	/y2p exch def
	xratio mul
	/x2p exch def
	yratio mul
	/y1p exch def
	xratio mul
	/x1p exch def
	Slw setlinewidth
	Slrgb setrgbcolor
	x1p y1p x2p y2p x3p y3p curveto
	stroke
} def
/Stxtl {
	/sp exch def
	yratio mul
	/sizep exch def
	dup
	/anglep exch def
	0 exch sub
	/angle2p exch def
	yratio mul
	/y0p exch def
	xratio mul
	/x0p exch def
	Strgb setrgbcolor
	x0p y0p M anglep rotate sizep fntsize sp show stroke angle2p rotate
} def
/Stxtc {
	/sp exch def
	yratio mul
	/sizep exch def
	dup
	/anglep exch def
	0 exch sub
	/angle2p exch def
	yratio mul
	/y0p exch def
	xratio mul
	/x0p exch def
	Strgb setrgbcolor
	x0p y0p M anglep rotate sizep fntsize sp stringwidth exch -2 div exch rm sp show stroke angle2p rotate
} def
/Stxtr {
	/sp exch def
	yratio mul
	/sizep exch def
	dup
	/anglep exch def
	0 exch sub
	/angle2p exch def
	yratio mul
	/y0p exch def
	xratio mul
	/x0p exch def
	Strgb setrgbcolor
	x0p y0p M anglep rotate sizep fntsize sp stringwidth 1 index -1 mul exch rm pop sp show stroke angle2p rotate
} def
/Srect {
	/sfill exch def
	/sstroke exch def
	yratio mul
	/y1 exch def
	xratio mul
	/x1 exch def
	yratio mul
	/y0 exch def
	xratio mul
	/x0 exch def
	newpath x0 y0 moveto x0 y1 lineto x1 y1 lineto x1 y0 lineto x0 y0 lineto closepath
	sfill Sfill
	sstroke Sstroke
} def
/Sellipse {
	/sfill exch def
	/sstroke exch def
	yratio mul
	/yrad exch def
	xratio mul
	/xrad exch def
	yratio mul
	/y exch def
	xratio mul
	/x exch def
	/savematrix matrix currentmatrix def
	x y translate
	xrad yrad scale
	0 0 1 0 360 arc
	savematrix setmatrix
	sfill Sfill
	sstroke Sstroke
} def
/Stri {
	/sfill exch def
	/sstroke exch def
	xratio mul
	/r exch def
	yratio mul
	/y0 exch def
	xratio mul
	/x0 exch def
	/xcen x0 def
	y0 r add
	/ytop exch def
	r 2 div
	y0 exch sub
	/ybot exch def
	r 3 sqrt 2 div mul dup
	xcen exch sub
	/xleft exch def
	xcen add
	/xright exch def
	newpath xcen ytop moveto xright ybot lineto xleft ybot lineto xcen ytop lineto closepath
	sfill Sfill
	sstroke Sstroke
} def
/Soldtri {
	/sfill exch def
	xratio mul
	/r exch def
	yratio mul
	/y0 exch def
	xratio mul
	/x0 exch def
	x0 r sub
	/x1 exch def
	y0 r sub
	/y1 exch def
	x0 r add
	/x2 exch def
	y0 r sub
	/y2 exch def
	/x3 x0 def
	y0 r add
	/y3 exch def
	newpath x1 y1 moveto x2 y2 lineto x3 y3 lineto x1 y1 lineto closepath
	sfill 1 eq {
		Ssrgb setrgbcolor
		gsave
		fill
		grestore
	} if
	Slw setlinewidth
	Slrgb setrgbcolor
	stroke
} def
/Sdia {
	/sfill exch def
	/sstroke exch def
	xratio mul
	/r exch def
	yratio mul
	/y exch def
	xratio mul
	/x exch def
	x r sub
	/x0 exch def
	/y0 y def
	/x1 x def
	y r sub
	/y1 exch def
	x r add
	/x2 exch def
	/y2 y def
	/x3 x def
	y r add
	/y3 exch def
	newpath x0 y0 moveto x1 y1 lineto x2 y2 lineto x3 y3 lineto closepath
	sfill Sfill
	sstroke Sstroke
} def
/Scc {
	/sfill exch def
	/sstroke exch def
	xratio mul
	/r0 exch def
	yratio mul
	/y0 exch def
	xratio mul
	/x0 exch def
	x0 y0 r0 0 360 arc closepath
	sfill Sfill
	sstroke Sstroke
} def
/Spie {
	/sfill exch def
	/salign exch def
	/a1 exch def
	/a0 exch def
	xratio mul
	/r exch def
	yratio mul
	/y exch def
	xratio mul
	/x exch def
	/Pie {
		x y moveto x y r a0 a1 arc closepath
	} def
	newpath Pie
	sfill Sfill
	Slrgb setrgbcolor
	salign 0 eq {
		gsave
		Slw 2 mul setlinewidth
		clip
		stroke
		grestore
	} if
	salign 1 eq {
		Slw setlinewidth
		stroke
	} if
	salign 2 eq {
		gsave
		Slw 2 mul setlinewidth
		strokepath
		pathbbox
		/ury exch def
		/urx exch def
		/lly exch def
		/llx exch def
		newpath llx lly moveto llx ury lineto urx ury lineto urx lly lineto closepath
		Pie
		eoclip
		newpath Pie
		stroke
		grestore
	} if
	newpath
} def
/Splu {
	xratio mul
	/r exch def
	yratio mul
	/y exch def
	xratio mul
	/x exch def
	x r sub
	/x0 exch def
	x r add
	/x1 exch def
	x0 y M x1 y L
	y r sub
	/y0 exch def
	y r add
	/y1 exch def
	x y0 M x y1 L
} def
/Scro {
	xratio mul
	/r exch def
	yratio mul
	/y exch def
	xratio mul
	/x exch def
	x r sub
	/x0 exch def
	y r sub
	/y0 exch def
	x r add
	/x1 exch def
	y r add
	/y1 exch def
	x0 y0 M x1 y1 L
	x r add
	/x0 exch def
	y r sub
	/y0 exch def
	x r sub
	/x1 exch def
	y r add
	/y1 exch def
	x0 y0 M x1 y1 L
} def
/Sm {
	yratio mul
	/y exch def
	xratio mul
	/x exch def
	x y M
} def
/Sl {
	yratio mul
	/y exch def
	xratio mul
	/x exch def
	x y L
} def
/SPl {
	yratio mul
	/y exch def
	xratio mul
	/x exch def
	x y PL
} def
/Sarr {
	/sfill exch def
	xratio mul
	/r exch def
	yratio mul
	/y exch def
	xratio mul
	/x exch def
	y r add
	/ytop exch def
	y r sub
	/ybot exch def
	gsave
	Slrgb setrgbcolor
	sfill 0 eq {
		r 2 mul 3 div dup
		x exch sub
		/xleft exch def
		x add
		/xright exch def
		newpath xleft y moveto x ytop lineto xright y lineto x ytop moveto x ybot lineto
		Lcs
		1 setlinejoin
	} {
		r 2 div dup
		x exch sub
		/xleft exch def
		x add
		/xright exch def
		newpath xleft y moveto x ytop lineto xright y lineto x ytop closepath moveto x ybot lineto
		gsave
		fill
		grestore
	} ifelse
	Slw setlinewidth
	stroke
	grestore
} def
/Spipe {
	xratio mul
	/r exch def
	yratio mul
	/y exch def
	xratio mul
	/x exch def
	y r sub
	/y0 exch def
	y r add
	/y1 exch def
	x y0 M x y1 L
} def
/Sv {
	xratio mul
	/r exch def
	yratio mul
	/y0 exch def
	xratio mul
	/x0 exch def
	/xcen x0 def
	y0 r add
	/ytop exch def
	r 2 div
	y0 exch sub
	/ybot exch def
	r 3 sqrt 2 div mul dup
	xcen exch sub
	/xleft exch def
	xcen add
	/xright exch def
	newpath xleft ytop moveto xcen ybot lineto xright ytop lineto
	Slw setlinewidth
	Slrgb setrgbcolor
	stroke
} def
/Lcs {
	currentlinecap
	1 setlinecap
} def
/Lcr {
	setlinecap
} def
/Sbp {
	newpath
} def
/Sep {
	/sfill exch def
	closepath
	/salign exch def
	Lcs
	salign 0 eq {
		sfill Sfill
		gsave
		Slw 2 mul setlinewidth
		clip
		Slrgb setrgbcolor
		stroke
		grestore
	} if
	salign 1 eq {
		sfill Sfill
		Slw setlinewidth
		Slrgb setrgbcolor
		stroke
	} if
	salign 2 eq {
		gsave
		Slw 2 mul setlinewidth
		Slrgb setrgbcolor
		stroke
		grestore
		sfill Sfill
	} if
	newpath
	Lcr
} def
/Stransrot {
	/anglep exch def
	yratio mul
	/y exch def
	xratio mul
	/x exch def
	x y translate
	anglep rotate
	x neg y neg translate
} def
/cp {currentpoint} def 
/M {moveto} def 
/rm {rmoveto} def 
/S {stroke} def 
/L {Slw setlinewidth Slrgb setrgbcolor lineto Lcs S Lcr} def 
/PL {Slw setlinewidth Slrgb setrgbcolor lineto} def 
/MF-Helvetica {
  /newfontname exch def
  /fontname exch def
  /fontdict fontname findfont def
  /newfont fontdict maxlength dict def
  fontdict {
  exch dup /FID eq {pop pop} {exch newfont 3 1 roll put} ifelse
  } forall
  newfont /FontName newfontname put
  newfont /Encoding ISOLatin1Encoding put
  newfontname newfont definefont pop
} def
/Helvetica /Helvetica-0 MF-Helvetica
/Slw 0.120 def
1.000 1.000 1.000 setrgbcolor
0 0 1008.000 576.000 Sbgfill
/Sfill {
	/sfill exch def
	sfill 1 eq {
		Ssrgb setrgbcolor
		gsave
		fill
		grestore
	} if
} def
/Sstroke {
	/sstroke exch def
	sstroke 1 eq {
		Slw setlinewidth
		Slrgb setrgbcolor
		stroke
	} if
	newpath
} def
/Slrgb {1.000 1.000 1.000} def
/Strgb {1.000 1.000 1.000} def
/Ssrgb {1.000 1.000 1.000} def
/Slw 1.152 def
0 0 31999 18285 0 1 Srect
18 18 31981 18267 1 0 Srect
/Slw 0.553 def
/Slrgb {0.000 0.000 0.000} def
2472 11358 8875 17204 0 0 Srect
2481 11367 8866 17195 1 0 Srect
/Strgb {0.000 0.000 0.000} def
/Slw 0.829 def
/Slrgb {0.188 0.188 0.188} def
2472 14769 8875 14769 Sln
/Slw 0.553 def
/Slrgb {0.000 0.000 0.000} def
10199 11358 16602 17204 0 0 Srect
10208 11367 16593 17195 1 0 Srect
/Slw 0.829 def
/Slrgb {0.188 0.188 0.188} def
10199 14308 16602 14308 Sln
/Slw 0.553 def
/Slrgb {0.000 0.000 0.000} def
18011 11358 24414 17204 0 0 Srect
18020 11367 24405 17195 1 0 Srect
/Slw 0.829 def
/Slrgb {0.188 0.188 0.188} def
18011 14827 24414 14827 Sln
/Slw 0.553 def
/Slrgb {0.000 0.000 0.000} def
24956 11358 31359 17204 0 0 Srect
24965 11367 31350 17195 1 0 Srect
/Slw 0.829 def
/Slrgb {0.188 0.188 0.188} def
24956 14827 31359 14827 Sln
/Slw 0.553 def
/Slrgb {0.000 0.000 0.000} def
2472 3920 8875 9767 0 0 Srect
2481 3929 8866 9758 1 0 Srect
/Slw 0.829 def
/Slrgb {0.188 0.188 0.188} def
2472 6881 8875 6881 Sln
/Slw 0.553 def
/Slrgb {0.000 0.000 0.000} def
10199 3920 16602 9767 0 0 Srect
10208 3929 16593 9758 1 0 Srect
/Slw 0.829 def
/Slrgb {0.188 0.188 0.188} def
10199 6844 16602 6844 Sln
/Slw 0.553 def
/Slrgb {0.000 0.000 0.000} def
18011 3920 24414 9767 0 0 Srect
18020 3929 24405 9758 1 0 Srect
/Slw 0.829 def
/Slrgb {0.188 0.188 0.188} def
18011 6844 24414 6844 Sln
/Ssrgb {0.502 0.502 0.502} def
/Slrgb {0.376 0.376 0.376} def
2899 14554 2899 16426 Sln
4179 13944 4179 15389 Sln
5460 12740 5460 15436 Sln
6740 13110 6740 16352 Sln
8021 13198 8021 17011 Sln
2898 15490 Sm
4179 14666 Sl
4179 14666 Sm
5459 14088 Sl
5459 14088 Sm
6740 14731 Sl
6740 14731 Sm
8020 15104 Sl
/Ssrgb {0.702 0.702 0.702} def
/Slrgb {0.627 0.627 0.627} def
3326 11813 3326 14439 Sln
4606 12613 4606 14366 Sln
5887 11551 5887 13820 Sln
7167 11642 7167 15461 Sln
8448 11751 8448 16260 Sln
3325 13126 3466 13166 Sln
3589 13201 3730 13241 Sln
3853 13276 3994 13315 Sln
4117 13350 4257 13390 Sln
4381 13425 4521 13465 Sln
4640 13468 4764 13390 Sln
4872 13322 4995 13245 Sln
5104 13177 5227 13099 Sln
5336 13031 5459 12953 Sln
5568 12885 5692 12807 Sln
5800 12739 5886 12685 Sln
5886 12685 5923 12709 Sln
6029 12781 6150 12863 Sln
6256 12935 6377 13017 Sln
6483 13088 6604 13170 Sln
6710 13242 6831 13324 Sln
6937 13395 7058 13477 Sln
7164 13549 7167 13551 Sln
7167 13551 7301 13599 Sln
7422 13641 7560 13690 Sln
7680 13733 7818 13782 Sln
7939 13824 8077 13874 Sln
8197 13917 8335 13965 Sln
/Ssrgb {0.502 0.502 0.502} def
/Slrgb {0.376 0.376 0.376} def
10626 13768 10626 15834 Sln
11906 12910 11906 14505 Sln
13187 11551 13187 14383 Sln
14467 11688 14467 16871 Sln
15748 13532 15748 16916 Sln
10625 14801 Sm
11906 13707 Sl
11906 13707 Sm
13186 12967 Sl
13186 12967 Sm
14467 14279 Sl
14467 14279 Sm
15747 15224 Sl
/Ssrgb {0.702 0.702 0.702} def
/Slrgb {0.627 0.627 0.627} def
11053 13557 11053 14223 Sln
12333 13834 12333 14266 Sln
13614 13860 13614 14878 Sln
14894 13729 14894 15559 Sln
16175 13363 16175 14488 Sln
11052 13890 11197 13908 Sln
11324 13924 11469 13942 Sln
11596 13958 11742 13976 Sln
11869 13991 12014 14010 Sln
12141 14025 12286 14043 Sln
12411 14069 12553 14104 Sln
12677 14135 12819 14171 Sln
12943 14202 13085 14237 Sln
13209 14268 13350 14303 Sln
13474 14334 13613 14368 Sln
13613 14368 13617 14369 Sln
13742 14396 13885 14427 Sln
14010 14454 14152 14485 Sln
14277 14512 14420 14542 Sln
14545 14569 14688 14600 Sln
14813 14627 14894 14644 Sln
14894 14644 14949 14613 Sln
15061 14551 15188 14479 Sln
15300 14416 15427 14344 Sln
15539 14282 15667 14210 Sln
15778 14147 15906 14076 Sln
16018 14013 16145 13941 Sln
/Ssrgb {0.502 0.502 0.502} def
/Slrgb {0.376 0.376 0.376} def
18438 14301 18438 15820 Sln
19719 13694 19719 14774 Sln
20999 13341 20999 14825 Sln
22280 13206 22280 16552 Sln
23560 11562 23560 15581 Sln
18438 15060 Sm
19718 14234 Sl
19718 14234 Sm
20999 14082 Sl
20999 14082 Sm
22279 14879 Sl
22279 14879 Sm
23560 13571 Sl
/Ssrgb {0.702 0.702 0.702} def
/Slrgb {0.627 0.627 0.627} def
18865 14644 18865 14765 Sln
20145 14621 20145 14827 Sln
21426 14632 21426 14965 Sln
22706 14608 22706 14795 Sln
23987 14614 23987 14840 Sln
18864 14704 19010 14706 Sln
19138 14708 19285 14710 Sln
19413 14712 19559 14714 Sln
19687 14716 19833 14718 Sln
19961 14720 20107 14722 Sln
20235 14728 20382 14737 Sln
20510 14744 20656 14752 Sln
20784 14760 20930 14769 Sln
21057 14776 21204 14784 Sln
21331 14792 21425 14798 Sln
21425 14798 21477 14794 Sln
21605 14784 21751 14773 Sln
21878 14763 22024 14752 Sln
22151 14743 22297 14732 Sln
22425 14722 22570 14711 Sln
22698 14701 22706 14701 Sln
22706 14701 22844 14704 Sln
22972 14706 23118 14709 Sln
23246 14712 23392 14715 Sln
23520 14717 23667 14720 Sln
23795 14723 23941 14726 Sln
/Ssrgb {0.502 0.502 0.502} def
/Slrgb {0.376 0.376 0.376} def
25383 13373 25383 15093 Sln
26664 13610 26664 14724 Sln
27944 13046 27944 14967 Sln
29225 12117 29225 14505 Sln
30505 11586 30505 14796 Sln
25383 14233 Sm
26663 14166 Sl
26663 14166 Sm
27944 14006 Sl
27944 14006 Sm
29224 13310 Sl
29224 13310 Sm
30505 13190 Sl
/Ssrgb {0.702 0.702 0.702} def
/Slrgb {0.627 0.627 0.627} def
25810 13754 25810 15598 Sln
27090 13895 27090 15077 Sln
28371 13189 28371 14934 Sln
29651 13030 29651 15611 Sln
30932 12731 30932 16777 Sln
25809 14675 25954 14654 Sln
26080 14635 26225 14614 Sln
26352 14595 26496 14574 Sln
26623 14556 26768 14534 Sln
26894 14515 27039 14494 Sln
27163 14462 27301 14416 Sln
27423 14375 27562 14329 Sln
27683 14289 27822 14242 Sln
27944 14202 28083 14156 Sln
28204 14116 28343 14070 Sln
28468 14080 28611 14110 Sln
28736 14135 28880 14164 Sln
29005 14190 29149 14219 Sln
29274 14244 29417 14273 Sln
29543 14298 29651 14320 Sln
29651 14320 29685 14332 Sln
29806 14372 29944 14419 Sln
30065 14460 30204 14507 Sln
30325 14548 30463 14594 Sln
30584 14635 30722 14682 Sln
30844 14723 30931 14753 Sln
/Ssrgb {0.502 0.502 0.502} def
/Slrgb {0.376 0.376 0.376} def
2899 5135 2899 8018 Sln
4179 5390 4179 7079 Sln
5460 4877 5460 7327 Sln
6740 4114 6740 7236 Sln
8021 5357 8021 9136 Sln
2898 6576 Sm
4179 6234 Sl
4179 6234 Sm
5459 6101 Sl
5459 6101 Sm
6740 5674 Sl
6740 5674 Sm
8020 7246 Sl
/Ssrgb {0.702 0.702 0.702} def
/Slrgb {0.627 0.627 0.627} def
3326 6036 3326 7813 Sln
4606 6050 4606 7086 Sln
5887 6159 5887 7610 Sln
7167 4583 7167 6617 Sln
8448 4573 8448 6784 Sln
3325 6924 3466 6884 Sln
3589 6850 3730 6811 Sln
3853 6777 3994 6738 Sln
4118 6703 4258 6664 Sln
4382 6630 4522 6591 Sln
4646 6578 4788 6613 Sln
4912 6643 5054 6678 Sln
5178 6709 5320 6744 Sln
5444 6775 5586 6810 Sln
5710 6841 5852 6876 Sln
5952 6818 6055 6715 Sln
6145 6624 6249 6521 Sln
6339 6430 6443 6327 Sln
6533 6236 6636 6133 Sln
6726 6042 6829 5939 Sln
6919 5848 7023 5744 Sln
7113 5654 7167 5599 Sln
7167 5599 7236 5603 Sln
7364 5611 7510 5620 Sln
7637 5628 7783 5637 Sln
7910 5645 8056 5654 Sln
8184 5662 8329 5670 Sln
/Ssrgb {0.502 0.502 0.502} def
/Slrgb {0.376 0.376 0.376} def
10626 5349 10626 8037 Sln
11906 5958 11906 7342 Sln
13187 5491 13187 7369 Sln
14467 5160 14467 8721 Sln
15748 4754 15748 7959 Sln
10625 6693 Sm
11906 6649 Sl
11906 6649 Sm
13186 6429 Sl
13186 6429 Sm
14467 6940 Sl
14467 6940 Sm
15747 6356 Sl
/Ssrgb {0.702 0.702 0.702} def
/Slrgb {0.627 0.627 0.627} def
11053 5161 11053 6492 Sln
12333 5632 12333 6810 Sln
13614 5107 13614 6739 Sln
14894 4488 14894 6500 Sln
16175 4582 16175 9303 Sln
11052 5826 11192 5869 Sln
11314 5907 11454 5950 Sln
11576 5987 11715 6030 Sln
11838 6068 11978 6112 Sln
12100 6149 12240 6192 Sln
12363 6214 12505 6181 Sln
12630 6152 12772 6119 Sln
12896 6090 13039 6057 Sln
13163 6028 13306 5995 Sln
13430 5966 13572 5932 Sln
13695 5895 13834 5849 Sln
13955 5808 14094 5762 Sln
14215 5721 14354 5675 Sln
14475 5634 14614 5588 Sln
14735 5547 14874 5501 Sln
14965 5574 15062 5684 Sln
15146 5780 15243 5890 Sln
15328 5986 15425 6095 Sln
15510 6191 15607 6301 Sln
15691 6397 15788 6506 Sln
15873 6602 15970 6712 Sln
16055 6808 16152 6917 Sln
/Ssrgb {0.502 0.502 0.502} def
/Slrgb {0.376 0.376 0.376} def
18438 5443 18438 7491 Sln
19719 6555 19719 7929 Sln
20999 6120 20999 8404 Sln
22280 4570 22280 8890 Sln
23560 4680 23560 9066 Sln
18438 6467 Sm
19718 7241 Sl
19718 7241 Sm
20999 7261 Sl
20999 7261 Sm
22279 6730 Sl
22279 6730 Sm
23560 6873 Sl
/Ssrgb {0.702 0.702 0.702} def
/Slrgb {0.627 0.627 0.627} def
18865 7497 18865 9458 Sln
20145 6861 20145 8107 Sln
21426 6969 21426 8862 Sln
22706 6892 22706 9371 Sln
23987 4927 23987 7044 Sln
18864 8477 18980 8387 Sln
19081 8309 19197 8220 Sln
19298 8141 19414 8052 Sln
19515 7973 19630 7884 Sln
19731 7806 19847 7716 Sln
19948 7638 20063 7548 Sln
20167 7491 20306 7538 Sln
20427 7579 20565 7626 Sln
20686 7667 20825 7713 Sln
20946 7754 21085 7801 Sln
21206 7841 21345 7888 Sln
21468 7922 21612 7946 Sln
21738 7968 21883 7992 Sln
22009 8013 22153 8037 Sln
22279 8059 22423 8083 Sln
22549 8104 22693 8129 Sln
22765 8032 22840 7907 Sln
22905 7797 22980 7672 Sln
23045 7562 23120 7436 Sln
23186 7327 23261 7201 Sln
23326 7091 23401 6966 Sln
23466 6856 23541 6730 Sln
23607 6621 23681 6495 Sln
23747 6385 23822 6260 Sln
23888 6150 23963 6024 Sln
/Slw 0.553 def
/Slrgb {0.000 0.000 0.000} def
2472 11358 2472 17204 Sln
2472 11921 2350 11921 Sln
2289 11836 0
/Helvetica-0 findfont 244 yratio mul scalefont setfont
(-.3) stringwidth pop add
xratio div
dup 4 3 roll exch 0.000 cos mul sub 3 1 roll 0.000 sin mul sub 2 copy
/fntsize {/Helvetica-0 findfont exch scalefont setfont } def
0.000 244
(-.3) Stxtl
(-.3) stringwidth pop xratio div
dup 4 3 roll exch 0.000 cos mul add 3 1 roll 0.000 sin mul add 2 copy
pop pop pop pop
2472 12870 2350 12870 Sln
2289 12785 0
/Helvetica-0 findfont 244 yratio mul scalefont setfont
(-.2) stringwidth pop add
xratio div
dup 4 3 roll exch 0.000 cos mul sub 3 1 roll 0.000 sin mul sub 2 copy
/fntsize {/Helvetica-0 findfont exch scalefont setfont } def
0.000 244
(-.2) Stxtl
(-.2) stringwidth pop xratio div
dup 4 3 roll exch 0.000 cos mul add 3 1 roll 0.000 sin mul add 2 copy
pop pop pop pop
2472 13819 2350 13819 Sln
2289 13734 0
/Helvetica-0 findfont 244 yratio mul scalefont setfont
(-.1) stringwidth pop add
xratio div
dup 4 3 roll exch 0.000 cos mul sub 3 1 roll 0.000 sin mul sub 2 copy
/fntsize {/Helvetica-0 findfont exch scalefont setfont } def
0.000 244
(-.1) Stxtl
(-.1) stringwidth pop xratio div
dup 4 3 roll exch 0.000 cos mul add 3 1 roll 0.000 sin mul add 2 copy
pop pop pop pop
2472 14769 2350 14769 Sln
2289 14684 0
/Helvetica-0 findfont 244 yratio mul scalefont setfont
(0) stringwidth pop add
xratio div
dup 4 3 roll exch 0.000 cos mul sub 3 1 roll 0.000 sin mul sub 2 copy
/fntsize {/Helvetica-0 findfont exch scalefont setfont } def
0.000 244
(0) Stxtl
(0) stringwidth pop xratio div
dup 4 3 roll exch 0.000 cos mul add 3 1 roll 0.000 sin mul add 2 copy
pop pop pop pop
2472 15718 2350 15718 Sln
2289 15633 0
/Helvetica-0 findfont 244 yratio mul scalefont setfont
(.1) stringwidth pop add
xratio div
dup 4 3 roll exch 0.000 cos mul sub 3 1 roll 0.000 sin mul sub 2 copy
/fntsize {/Helvetica-0 findfont exch scalefont setfont } def
0.000 244
(.1) Stxtl
(.1) stringwidth pop xratio div
dup 4 3 roll exch 0.000 cos mul add 3 1 roll 0.000 sin mul add 2 copy
pop pop pop pop
2472 16667 2350 16667 Sln
2289 16582 0
/Helvetica-0 findfont 244 yratio mul scalefont setfont
(.2) stringwidth pop add
xratio div
dup 4 3 roll exch 0.000 cos mul sub 3 1 roll 0.000 sin mul sub 2 copy
/fntsize {/Helvetica-0 findfont exch scalefont setfont } def
0.000 244
(.2) Stxtl
(.2) stringwidth pop xratio div
dup 4 3 roll exch 0.000 cos mul add 3 1 roll 0.000 sin mul add 2 copy
pop pop pop pop
10199 11358 10199 17204 Sln
10199 11604 10077 11604 Sln
10016 11519 0
/Helvetica-0 findfont 244 yratio mul scalefont setfont
(-.3) stringwidth pop add
xratio div
dup 4 3 roll exch 0.000 cos mul sub 3 1 roll 0.000 sin mul sub 2 copy
/fntsize {/Helvetica-0 findfont exch scalefont setfont } def
0.000 244
(-.3) Stxtl
(-.3) stringwidth pop xratio div
dup 4 3 roll exch 0.000 cos mul add 3 1 roll 0.000 sin mul add 2 copy
pop pop pop pop
10199 12505 10077 12505 Sln
10016 12420 0
/Helvetica-0 findfont 244 yratio mul scalefont setfont
(-.2) stringwidth pop add
xratio div
dup 4 3 roll exch 0.000 cos mul sub 3 1 roll 0.000 sin mul sub 2 copy
/fntsize {/Helvetica-0 findfont exch scalefont setfont } def
0.000 244
(-.2) Stxtl
(-.2) stringwidth pop xratio div
dup 4 3 roll exch 0.000 cos mul add 3 1 roll 0.000 sin mul add 2 copy
pop pop pop pop
10199 13406 10077 13406 Sln
10016 13321 0
/Helvetica-0 findfont 244 yratio mul scalefont setfont
(-.1) stringwidth pop add
xratio div
dup 4 3 roll exch 0.000 cos mul sub 3 1 roll 0.000 sin mul sub 2 copy
/fntsize {/Helvetica-0 findfont exch scalefont setfont } def
0.000 244
(-.1) Stxtl
(-.1) stringwidth pop xratio div
dup 4 3 roll exch 0.000 cos mul add 3 1 roll 0.000 sin mul add 2 copy
pop pop pop pop
10199 14308 10077 14308 Sln
10016 14223 0
/Helvetica-0 findfont 244 yratio mul scalefont setfont
(0) stringwidth pop add
xratio div
dup 4 3 roll exch 0.000 cos mul sub 3 1 roll 0.000 sin mul sub 2 copy
/fntsize {/Helvetica-0 findfont exch scalefont setfont } def
0.000 244
(0) Stxtl
(0) stringwidth pop xratio div
dup 4 3 roll exch 0.000 cos mul add 3 1 roll 0.000 sin mul add 2 copy
pop pop pop pop
10199 15209 10077 15209 Sln
10016 15124 0
/Helvetica-0 findfont 244 yratio mul scalefont setfont
(.1) stringwidth pop add
xratio div
dup 4 3 roll exch 0.000 cos mul sub 3 1 roll 0.000 sin mul sub 2 copy
/fntsize {/Helvetica-0 findfont exch scalefont setfont } def
0.000 244
(.1) Stxtl
(.1) stringwidth pop xratio div
dup 4 3 roll exch 0.000 cos mul add 3 1 roll 0.000 sin mul add 2 copy
pop pop pop pop
10199 16110 10077 16110 Sln
10016 16025 0
/Helvetica-0 findfont 244 yratio mul scalefont setfont
(.2) stringwidth pop add
xratio div
dup 4 3 roll exch 0.000 cos mul sub 3 1 roll 0.000 sin mul sub 2 copy
/fntsize {/Helvetica-0 findfont exch scalefont setfont } def
0.000 244
(.2) Stxtl
(.2) stringwidth pop xratio div
dup 4 3 roll exch 0.000 cos mul add 3 1 roll 0.000 sin mul add 2 copy
pop pop pop pop
10199 17011 10077 17011 Sln
10016 16926 0
/Helvetica-0 findfont 244 yratio mul scalefont setfont
(.3) stringwidth pop add
xratio div
dup 4 3 roll exch 0.000 cos mul sub 3 1 roll 0.000 sin mul sub 2 copy
/fntsize {/Helvetica-0 findfont exch scalefont setfont } def
0.000 244
(.3) Stxtl
(.3) stringwidth pop xratio div
dup 4 3 roll exch 0.000 cos mul add 3 1 roll 0.000 sin mul add 2 copy
pop pop pop pop
18011 11358 18011 17204 Sln
18011 11551 17889 11551 Sln
17828 11466 0
/Helvetica-0 findfont 244 yratio mul scalefont setfont
(-.6) stringwidth pop add
xratio div
dup 4 3 roll exch 0.000 cos mul sub 3 1 roll 0.000 sin mul sub 2 copy
/fntsize {/Helvetica-0 findfont exch scalefont setfont } def
0.000 244
(-.6) Stxtl
(-.6) stringwidth pop xratio div
dup 4 3 roll exch 0.000 cos mul add 3 1 roll 0.000 sin mul add 2 copy
pop pop pop pop
18011 12643 17889 12643 Sln
17828 12558 0
/Helvetica-0 findfont 244 yratio mul scalefont setfont
(-.4) stringwidth pop add
xratio div
dup 4 3 roll exch 0.000 cos mul sub 3 1 roll 0.000 sin mul sub 2 copy
/fntsize {/Helvetica-0 findfont exch scalefont setfont } def
0.000 244
(-.4) Stxtl
(-.4) stringwidth pop xratio div
dup 4 3 roll exch 0.000 cos mul add 3 1 roll 0.000 sin mul add 2 copy
pop pop pop pop
18011 13735 17889 13735 Sln
17828 13650 0
/Helvetica-0 findfont 244 yratio mul scalefont setfont
(-.2) stringwidth pop add
xratio div
dup 4 3 roll exch 0.000 cos mul sub 3 1 roll 0.000 sin mul sub 2 copy
/fntsize {/Helvetica-0 findfont exch scalefont setfont } def
0.000 244
(-.2) Stxtl
(-.2) stringwidth pop xratio div
dup 4 3 roll exch 0.000 cos mul add 3 1 roll 0.000 sin mul add 2 copy
pop pop pop pop
18011 14827 17889 14827 Sln
17828 14742 0
/Helvetica-0 findfont 244 yratio mul scalefont setfont
(0) stringwidth pop add
xratio div
dup 4 3 roll exch 0.000 cos mul sub 3 1 roll 0.000 sin mul sub 2 copy
/fntsize {/Helvetica-0 findfont exch scalefont setfont } def
0.000 244
(0) Stxtl
(0) stringwidth pop xratio div
dup 4 3 roll exch 0.000 cos mul add 3 1 roll 0.000 sin mul add 2 copy
pop pop pop pop
18011 15919 17889 15919 Sln
17828 15834 0
/Helvetica-0 findfont 244 yratio mul scalefont setfont
(.2) stringwidth pop add
xratio div
dup 4 3 roll exch 0.000 cos mul sub 3 1 roll 0.000 sin mul sub 2 copy
/fntsize {/Helvetica-0 findfont exch scalefont setfont } def
0.000 244
(.2) Stxtl
(.2) stringwidth pop xratio div
dup 4 3 roll exch 0.000 cos mul add 3 1 roll 0.000 sin mul add 2 copy
pop pop pop pop
18011 17011 17889 17011 Sln
17828 16926 0
/Helvetica-0 findfont 244 yratio mul scalefont setfont
(.4) stringwidth pop add
xratio div
dup 4 3 roll exch 0.000 cos mul sub 3 1 roll 0.000 sin mul sub 2 copy
/fntsize {/Helvetica-0 findfont exch scalefont setfont } def
0.000 244
(.4) Stxtl
(.4) stringwidth pop xratio div
dup 4 3 roll exch 0.000 cos mul add 3 1 roll 0.000 sin mul add 2 copy
pop pop pop pop
24956 11358 24956 17204 Sln
24956 11551 24834 11551 Sln
24773 11466 0
/Helvetica-0 findfont 244 yratio mul scalefont setfont
(-3) stringwidth pop add
xratio div
dup 4 3 roll exch 0.000 cos mul sub 3 1 roll 0.000 sin mul sub 2 copy
/fntsize {/Helvetica-0 findfont exch scalefont setfont } def
0.000 244
(-3) Stxtl
(-3) stringwidth pop xratio div
dup 4 3 roll exch 0.000 cos mul add 3 1 roll 0.000 sin mul add 2 copy
pop pop pop pop
24956 12643 24834 12643 Sln
24773 12558 0
/Helvetica-0 findfont 244 yratio mul scalefont setfont
(-2) stringwidth pop add
xratio div
dup 4 3 roll exch 0.000 cos mul sub 3 1 roll 0.000 sin mul sub 2 copy
/fntsize {/Helvetica-0 findfont exch scalefont setfont } def
0.000 244
(-2) Stxtl
(-2) stringwidth pop xratio div
dup 4 3 roll exch 0.000 cos mul add 3 1 roll 0.000 sin mul add 2 copy
pop pop pop pop
24956 13735 24834 13735 Sln
24773 13650 0
/Helvetica-0 findfont 244 yratio mul scalefont setfont
(-1) stringwidth pop add
xratio div
dup 4 3 roll exch 0.000 cos mul sub 3 1 roll 0.000 sin mul sub 2 copy
/fntsize {/Helvetica-0 findfont exch scalefont setfont } def
0.000 244
(-1) Stxtl
(-1) stringwidth pop xratio div
dup 4 3 roll exch 0.000 cos mul add 3 1 roll 0.000 sin mul add 2 copy
pop pop pop pop
24956 14827 24834 14827 Sln
24773 14742 0
/Helvetica-0 findfont 244 yratio mul scalefont setfont
(0) stringwidth pop add
xratio div
dup 4 3 roll exch 0.000 cos mul sub 3 1 roll 0.000 sin mul sub 2 copy
/fntsize {/Helvetica-0 findfont exch scalefont setfont } def
0.000 244
(0) Stxtl
(0) stringwidth pop xratio div
dup 4 3 roll exch 0.000 cos mul add 3 1 roll 0.000 sin mul add 2 copy
pop pop pop pop
24956 15919 24834 15919 Sln
24773 15834 0
/Helvetica-0 findfont 244 yratio mul scalefont setfont
(1) stringwidth pop add
xratio div
dup 4 3 roll exch 0.000 cos mul sub 3 1 roll 0.000 sin mul sub 2 copy
/fntsize {/Helvetica-0 findfont exch scalefont setfont } def
0.000 244
(1) Stxtl
(1) stringwidth pop xratio div
dup 4 3 roll exch 0.000 cos mul add 3 1 roll 0.000 sin mul add 2 copy
pop pop pop pop
24956 17011 24834 17011 Sln
24773 16926 0
/Helvetica-0 findfont 244 yratio mul scalefont setfont
(2) stringwidth pop add
xratio div
dup 4 3 roll exch 0.000 cos mul sub 3 1 roll 0.000 sin mul sub 2 copy
/fntsize {/Helvetica-0 findfont exch scalefont setfont } def
0.000 244
(2) Stxtl
(2) stringwidth pop xratio div
dup 4 3 roll exch 0.000 cos mul add 3 1 roll 0.000 sin mul add 2 copy
pop pop pop pop
2472 3920 2472 9767 Sln
2472 4187 2350 4187 Sln
2289 4102 0
/Helvetica-0 findfont 244 yratio mul scalefont setfont
(-600) stringwidth pop add
xratio div
dup 4 3 roll exch 0.000 cos mul sub 3 1 roll 0.000 sin mul sub 2 copy
/fntsize {/Helvetica-0 findfont exch scalefont setfont } def
0.000 244
(-600) Stxtl
(-600) stringwidth pop xratio div
dup 4 3 roll exch 0.000 cos mul add 3 1 roll 0.000 sin mul add 2 copy
pop pop pop pop
2472 5085 2350 5085 Sln
2289 5000 0
/Helvetica-0 findfont 244 yratio mul scalefont setfont
(-400) stringwidth pop add
xratio div
dup 4 3 roll exch 0.000 cos mul sub 3 1 roll 0.000 sin mul sub 2 copy
/fntsize {/Helvetica-0 findfont exch scalefont setfont } def
0.000 244
(-400) Stxtl
(-400) stringwidth pop xratio div
dup 4 3 roll exch 0.000 cos mul add 3 1 roll 0.000 sin mul add 2 copy
pop pop pop pop
2472 5983 2350 5983 Sln
2289 5898 0
/Helvetica-0 findfont 244 yratio mul scalefont setfont
(-200) stringwidth pop add
xratio div
dup 4 3 roll exch 0.000 cos mul sub 3 1 roll 0.000 sin mul sub 2 copy
/fntsize {/Helvetica-0 findfont exch scalefont setfont } def
0.000 244
(-200) Stxtl
(-200) stringwidth pop xratio div
dup 4 3 roll exch 0.000 cos mul add 3 1 roll 0.000 sin mul add 2 copy
pop pop pop pop
2472 6881 2350 6881 Sln
2289 6796 0
/Helvetica-0 findfont 244 yratio mul scalefont setfont
(0) stringwidth pop add
xratio div
dup 4 3 roll exch 0.000 cos mul sub 3 1 roll 0.000 sin mul sub 2 copy
/fntsize {/Helvetica-0 findfont exch scalefont setfont } def
0.000 244
(0) Stxtl
(0) stringwidth pop xratio div
dup 4 3 roll exch 0.000 cos mul add 3 1 roll 0.000 sin mul add 2 copy
pop pop pop pop
2472 7778 2350 7778 Sln
2289 7693 0
/Helvetica-0 findfont 244 yratio mul scalefont setfont
(200) stringwidth pop add
xratio div
dup 4 3 roll exch 0.000 cos mul sub 3 1 roll 0.000 sin mul sub 2 copy
/fntsize {/Helvetica-0 findfont exch scalefont setfont } def
0.000 244
(200) Stxtl
(200) stringwidth pop xratio div
dup 4 3 roll exch 0.000 cos mul add 3 1 roll 0.000 sin mul add 2 copy
pop pop pop pop
2472 8676 2350 8676 Sln
2289 8591 0
/Helvetica-0 findfont 244 yratio mul scalefont setfont
(400) stringwidth pop add
xratio div
dup 4 3 roll exch 0.000 cos mul sub 3 1 roll 0.000 sin mul sub 2 copy
/fntsize {/Helvetica-0 findfont exch scalefont setfont } def
0.000 244
(400) Stxtl
(400) stringwidth pop xratio div
dup 4 3 roll exch 0.000 cos mul add 3 1 roll 0.000 sin mul add 2 copy
pop pop pop pop
2472 9574 2350 9574 Sln
2289 9489 0
/Helvetica-0 findfont 244 yratio mul scalefont setfont
(600) stringwidth pop add
xratio div
dup 4 3 roll exch 0.000 cos mul sub 3 1 roll 0.000 sin mul sub 2 copy
/fntsize {/Helvetica-0 findfont exch scalefont setfont } def
0.000 244
(600) Stxtl
(600) stringwidth pop xratio div
dup 4 3 roll exch 0.000 cos mul add 3 1 roll 0.000 sin mul add 2 copy
pop pop pop pop
10199 3920 10199 9767 Sln
10199 4114 10077 4114 Sln
10016 4029 0
/Helvetica-0 findfont 244 yratio mul scalefont setfont
(-150) stringwidth pop add
xratio div
dup 4 3 roll exch 0.000 cos mul sub 3 1 roll 0.000 sin mul sub 2 copy
/fntsize {/Helvetica-0 findfont exch scalefont setfont } def
0.000 244
(-150) Stxtl
(-150) stringwidth pop xratio div
dup 4 3 roll exch 0.000 cos mul add 3 1 roll 0.000 sin mul add 2 copy
pop pop pop pop
10199 5024 10077 5024 Sln
10016 4939 0
/Helvetica-0 findfont 244 yratio mul scalefont setfont
(-100) stringwidth pop add
xratio div
dup 4 3 roll exch 0.000 cos mul sub 3 1 roll 0.000 sin mul sub 2 copy
/fntsize {/Helvetica-0 findfont exch scalefont setfont } def
0.000 244
(-100) Stxtl
(-100) stringwidth pop xratio div
dup 4 3 roll exch 0.000 cos mul add 3 1 roll 0.000 sin mul add 2 copy
pop pop pop pop
10199 5934 10077 5934 Sln
10016 5849 0
/Helvetica-0 findfont 244 yratio mul scalefont setfont
(-50) stringwidth pop add
xratio div
dup 4 3 roll exch 0.000 cos mul sub 3 1 roll 0.000 sin mul sub 2 copy
/fntsize {/Helvetica-0 findfont exch scalefont setfont } def
0.000 244
(-50) Stxtl
(-50) stringwidth pop xratio div
dup 4 3 roll exch 0.000 cos mul add 3 1 roll 0.000 sin mul add 2 copy
pop pop pop pop
10199 6844 10077 6844 Sln
10016 6759 0
/Helvetica-0 findfont 244 yratio mul scalefont setfont
(0) stringwidth pop add
xratio div
dup 4 3 roll exch 0.000 cos mul sub 3 1 roll 0.000 sin mul sub 2 copy
/fntsize {/Helvetica-0 findfont exch scalefont setfont } def
0.000 244
(0) Stxtl
(0) stringwidth pop xratio div
dup 4 3 roll exch 0.000 cos mul add 3 1 roll 0.000 sin mul add 2 copy
pop pop pop pop
10199 7754 10077 7754 Sln
10016 7669 0
/Helvetica-0 findfont 244 yratio mul scalefont setfont
(50) stringwidth pop add
xratio div
dup 4 3 roll exch 0.000 cos mul sub 3 1 roll 0.000 sin mul sub 2 copy
/fntsize {/Helvetica-0 findfont exch scalefont setfont } def
0.000 244
(50) Stxtl
(50) stringwidth pop xratio div
dup 4 3 roll exch 0.000 cos mul add 3 1 roll 0.000 sin mul add 2 copy
pop pop pop pop
10199 8664 10077 8664 Sln
10016 8579 0
/Helvetica-0 findfont 244 yratio mul scalefont setfont
(100) stringwidth pop add
xratio div
dup 4 3 roll exch 0.000 cos mul sub 3 1 roll 0.000 sin mul sub 2 copy
/fntsize {/Helvetica-0 findfont exch scalefont setfont } def
0.000 244
(100) Stxtl
(100) stringwidth pop xratio div
dup 4 3 roll exch 0.000 cos mul add 3 1 roll 0.000 sin mul add 2 copy
pop pop pop pop
10199 9574 10077 9574 Sln
10016 9489 0
/Helvetica-0 findfont 244 yratio mul scalefont setfont
(150) stringwidth pop add
xratio div
dup 4 3 roll exch 0.000 cos mul sub 3 1 roll 0.000 sin mul sub 2 copy
/fntsize {/Helvetica-0 findfont exch scalefont setfont } def
0.000 244
(150) Stxtl
(150) stringwidth pop xratio div
dup 4 3 roll exch 0.000 cos mul add 3 1 roll 0.000 sin mul add 2 copy
pop pop pop pop
18011 3920 18011 9767 Sln
18011 4114 17889 4114 Sln
17828 4029 0
/Helvetica-0 findfont 244 yratio mul scalefont setfont
(-.4) stringwidth pop add
xratio div
dup 4 3 roll exch 0.000 cos mul sub 3 1 roll 0.000 sin mul sub 2 copy
/fntsize {/Helvetica-0 findfont exch scalefont setfont } def
0.000 244
(-.4) Stxtl
(-.4) stringwidth pop xratio div
dup 4 3 roll exch 0.000 cos mul add 3 1 roll 0.000 sin mul add 2 copy
pop pop pop pop
18011 5479 17889 5479 Sln
17828 5394 0
/Helvetica-0 findfont 244 yratio mul scalefont setfont
(-.2) stringwidth pop add
xratio div
dup 4 3 roll exch 0.000 cos mul sub 3 1 roll 0.000 sin mul sub 2 copy
/fntsize {/Helvetica-0 findfont exch scalefont setfont } def
0.000 244
(-.2) Stxtl
(-.2) stringwidth pop xratio div
dup 4 3 roll exch 0.000 cos mul add 3 1 roll 0.000 sin mul add 2 copy
pop pop pop pop
18011 6844 17889 6844 Sln
17828 6759 0
/Helvetica-0 findfont 244 yratio mul scalefont setfont
(0) stringwidth pop add
xratio div
dup 4 3 roll exch 0.000 cos mul sub 3 1 roll 0.000 sin mul sub 2 copy
/fntsize {/Helvetica-0 findfont exch scalefont setfont } def
0.000 244
(0) Stxtl
(0) stringwidth pop xratio div
dup 4 3 roll exch 0.000 cos mul add 3 1 roll 0.000 sin mul add 2 copy
pop pop pop pop
18011 8209 17889 8209 Sln
17828 8124 0
/Helvetica-0 findfont 244 yratio mul scalefont setfont
(.2) stringwidth pop add
xratio div
dup 4 3 roll exch 0.000 cos mul sub 3 1 roll 0.000 sin mul sub 2 copy
/fntsize {/Helvetica-0 findfont exch scalefont setfont } def
0.000 244
(.2) Stxtl
(.2) stringwidth pop xratio div
dup 4 3 roll exch 0.000 cos mul add 3 1 roll 0.000 sin mul add 2 copy
pop pop pop pop
18011 9574 17889 9574 Sln
17828 9489 0
/Helvetica-0 findfont 244 yratio mul scalefont setfont
(.4) stringwidth pop add
xratio div
dup 4 3 roll exch 0.000 cos mul sub 3 1 roll 0.000 sin mul sub 2 copy
/fntsize {/Helvetica-0 findfont exch scalefont setfont } def
0.000 244
(.4) Stxtl
(.4) stringwidth pop xratio div
dup 4 3 roll exch 0.000 cos mul add 3 1 roll 0.000 sin mul add 2 copy
pop pop pop pop
24956 11358 31359 11358 Sln
25596 11358 25596 11236 Sln
25703 11175 0
/Helvetica-0 findfont 305 yratio mul scalefont setfont
(0-1) stringwidth pop add
xratio div
dup 4 3 roll exch 90.000 cos mul sub 3 1 roll 90.000 sin mul sub 2 copy
/fntsize {/Helvetica-0 findfont exch scalefont setfont } def
90.000 305
(0-1) Stxtl
(0-1) stringwidth pop xratio div
dup 4 3 roll exch 90.000 cos mul add 3 1 roll 90.000 sin mul add 2 copy
pop pop pop pop
26877 11358 26877 11236 Sln
26984 11175 0
/Helvetica-0 findfont 305 yratio mul scalefont setfont
(2-4) stringwidth pop add
xratio div
dup 4 3 roll exch 90.000 cos mul sub 3 1 roll 90.000 sin mul sub 2 copy
/fntsize {/Helvetica-0 findfont exch scalefont setfont } def
90.000 305
(2-4) Stxtl
(2-4) stringwidth pop xratio div
dup 4 3 roll exch 90.000 cos mul add 3 1 roll 90.000 sin mul add 2 copy
pop pop pop pop
28157 11358 28157 11236 Sln
28264 11175 0
/Helvetica-0 findfont 305 yratio mul scalefont setfont
(5-7) stringwidth pop add
xratio div
dup 4 3 roll exch 90.000 cos mul sub 3 1 roll 90.000 sin mul sub 2 copy
/fntsize {/Helvetica-0 findfont exch scalefont setfont } def
90.000 305
(5-7) Stxtl
(5-7) stringwidth pop xratio div
dup 4 3 roll exch 90.000 cos mul add 3 1 roll 90.000 sin mul add 2 copy
pop pop pop pop
29438 11358 29438 11236 Sln
29545 11175 0
/Helvetica-0 findfont 305 yratio mul scalefont setfont
(8-10) stringwidth pop add
xratio div
dup 4 3 roll exch 90.000 cos mul sub 3 1 roll 90.000 sin mul sub 2 copy
/fntsize {/Helvetica-0 findfont exch scalefont setfont } def
90.000 305
(8-10) Stxtl
(8-10) stringwidth pop xratio div
dup 4 3 roll exch 90.000 cos mul add 3 1 roll 90.000 sin mul add 2 copy
pop pop pop pop
30719 11358 30719 11236 Sln
30826 11175 0
/Helvetica-0 findfont 305 yratio mul scalefont setfont
(11-14) stringwidth pop add
xratio div
dup 4 3 roll exch 90.000 cos mul sub 3 1 roll 90.000 sin mul sub 2 copy
/fntsize {/Helvetica-0 findfont exch scalefont setfont } def
90.000 305
(11-14) Stxtl
(11-14) stringwidth pop xratio div
dup 4 3 roll exch 90.000 cos mul add 3 1 roll 90.000 sin mul add 2 copy
pop pop pop pop
2472 3920 8875 3920 Sln
3112 3920 3112 3799 Sln
3219 3738 0
/Helvetica-0 findfont 305 yratio mul scalefont setfont
(0-1) stringwidth pop add
xratio div
dup 4 3 roll exch 90.000 cos mul sub 3 1 roll 90.000 sin mul sub 2 copy
/fntsize {/Helvetica-0 findfont exch scalefont setfont } def
90.000 305
(0-1) Stxtl
(0-1) stringwidth pop xratio div
dup 4 3 roll exch 90.000 cos mul add 3 1 roll 90.000 sin mul add 2 copy
pop pop pop pop
4393 3920 4393 3799 Sln
4500 3738 0
/Helvetica-0 findfont 305 yratio mul scalefont setfont
(2-4) stringwidth pop add
xratio div
dup 4 3 roll exch 90.000 cos mul sub 3 1 roll 90.000 sin mul sub 2 copy
/fntsize {/Helvetica-0 findfont exch scalefont setfont } def
90.000 305
(2-4) Stxtl
(2-4) stringwidth pop xratio div
dup 4 3 roll exch 90.000 cos mul add 3 1 roll 90.000 sin mul add 2 copy
pop pop pop pop
5673 3920 5673 3799 Sln
5780 3738 0
/Helvetica-0 findfont 305 yratio mul scalefont setfont
(5-7) stringwidth pop add
xratio div
dup 4 3 roll exch 90.000 cos mul sub 3 1 roll 90.000 sin mul sub 2 copy
/fntsize {/Helvetica-0 findfont exch scalefont setfont } def
90.000 305
(5-7) Stxtl
(5-7) stringwidth pop xratio div
dup 4 3 roll exch 90.000 cos mul add 3 1 roll 90.000 sin mul add 2 copy
pop pop pop pop
6954 3920 6954 3799 Sln
7061 3738 0
/Helvetica-0 findfont 305 yratio mul scalefont setfont
(8-10) stringwidth pop add
xratio div
dup 4 3 roll exch 90.000 cos mul sub 3 1 roll 90.000 sin mul sub 2 copy
/fntsize {/Helvetica-0 findfont exch scalefont setfont } def
90.000 305
(8-10) Stxtl
(8-10) stringwidth pop xratio div
dup 4 3 roll exch 90.000 cos mul add 3 1 roll 90.000 sin mul add 2 copy
pop pop pop pop
8234 3920 8234 3799 Sln
8341 3738 0
/Helvetica-0 findfont 305 yratio mul scalefont setfont
(11-14) stringwidth pop add
xratio div
dup 4 3 roll exch 90.000 cos mul sub 3 1 roll 90.000 sin mul sub 2 copy
/fntsize {/Helvetica-0 findfont exch scalefont setfont } def
90.000 305
(11-14) Stxtl
(11-14) stringwidth pop xratio div
dup 4 3 roll exch 90.000 cos mul add 3 1 roll 90.000 sin mul add 2 copy
pop pop pop pop
10199 3920 16602 3920 Sln
10839 3920 10839 3799 Sln
10946 3738 0
/Helvetica-0 findfont 305 yratio mul scalefont setfont
(0-1) stringwidth pop add
xratio div
dup 4 3 roll exch 90.000 cos mul sub 3 1 roll 90.000 sin mul sub 2 copy
/fntsize {/Helvetica-0 findfont exch scalefont setfont } def
90.000 305
(0-1) Stxtl
(0-1) stringwidth pop xratio div
dup 4 3 roll exch 90.000 cos mul add 3 1 roll 90.000 sin mul add 2 copy
pop pop pop pop
12120 3920 12120 3799 Sln
12227 3738 0
/Helvetica-0 findfont 305 yratio mul scalefont setfont
(2-4) stringwidth pop add
xratio div
dup 4 3 roll exch 90.000 cos mul sub 3 1 roll 90.000 sin mul sub 2 copy
/fntsize {/Helvetica-0 findfont exch scalefont setfont } def
90.000 305
(2-4) Stxtl
(2-4) stringwidth pop xratio div
dup 4 3 roll exch 90.000 cos mul add 3 1 roll 90.000 sin mul add 2 copy
pop pop pop pop
13400 3920 13400 3799 Sln
13507 3738 0
/Helvetica-0 findfont 305 yratio mul scalefont setfont
(5-7) stringwidth pop add
xratio div
dup 4 3 roll exch 90.000 cos mul sub 3 1 roll 90.000 sin mul sub 2 copy
/fntsize {/Helvetica-0 findfont exch scalefont setfont } def
90.000 305
(5-7) Stxtl
(5-7) stringwidth pop xratio div
dup 4 3 roll exch 90.000 cos mul add 3 1 roll 90.000 sin mul add 2 copy
pop pop pop pop
14681 3920 14681 3799 Sln
14788 3738 0
/Helvetica-0 findfont 305 yratio mul scalefont setfont
(8-10) stringwidth pop add
xratio div
dup 4 3 roll exch 90.000 cos mul sub 3 1 roll 90.000 sin mul sub 2 copy
/fntsize {/Helvetica-0 findfont exch scalefont setfont } def
90.000 305
(8-10) Stxtl
(8-10) stringwidth pop xratio div
dup 4 3 roll exch 90.000 cos mul add 3 1 roll 90.000 sin mul add 2 copy
pop pop pop pop
15961 3920 15961 3799 Sln
16068 3738 0
/Helvetica-0 findfont 305 yratio mul scalefont setfont
(11-14) stringwidth pop add
xratio div
dup 4 3 roll exch 90.000 cos mul sub 3 1 roll 90.000 sin mul sub 2 copy
/fntsize {/Helvetica-0 findfont exch scalefont setfont } def
90.000 305
(11-14) Stxtl
(11-14) stringwidth pop xratio div
dup 4 3 roll exch 90.000 cos mul add 3 1 roll 90.000 sin mul add 2 copy
pop pop pop pop
18011 3920 24414 3920 Sln
18651 3920 18651 3799 Sln
18758 3738 0
/Helvetica-0 findfont 305 yratio mul scalefont setfont
(0-1) stringwidth pop add
xratio div
dup 4 3 roll exch 90.000 cos mul sub 3 1 roll 90.000 sin mul sub 2 copy
/fntsize {/Helvetica-0 findfont exch scalefont setfont } def
90.000 305
(0-1) Stxtl
(0-1) stringwidth pop xratio div
dup 4 3 roll exch 90.000 cos mul add 3 1 roll 90.000 sin mul add 2 copy
pop pop pop pop
19932 3920 19932 3799 Sln
20039 3738 0
/Helvetica-0 findfont 305 yratio mul scalefont setfont
(2-4) stringwidth pop add
xratio div
dup 4 3 roll exch 90.000 cos mul sub 3 1 roll 90.000 sin mul sub 2 copy
/fntsize {/Helvetica-0 findfont exch scalefont setfont } def
90.000 305
(2-4) Stxtl
(2-4) stringwidth pop xratio div
dup 4 3 roll exch 90.000 cos mul add 3 1 roll 90.000 sin mul add 2 copy
pop pop pop pop
21213 3920 21213 3799 Sln
21320 3738 0
/Helvetica-0 findfont 305 yratio mul scalefont setfont
(5-7) stringwidth pop add
xratio div
dup 4 3 roll exch 90.000 cos mul sub 3 1 roll 90.000 sin mul sub 2 copy
/fntsize {/Helvetica-0 findfont exch scalefont setfont } def
90.000 305
(5-7) Stxtl
(5-7) stringwidth pop xratio div
dup 4 3 roll exch 90.000 cos mul add 3 1 roll 90.000 sin mul add 2 copy
pop pop pop pop
22493 3920 22493 3799 Sln
22600 3738 0
/Helvetica-0 findfont 305 yratio mul scalefont setfont
(8-10) stringwidth pop add
xratio div
dup 4 3 roll exch 90.000 cos mul sub 3 1 roll 90.000 sin mul sub 2 copy
/fntsize {/Helvetica-0 findfont exch scalefont setfont } def
90.000 305
(8-10) Stxtl
(8-10) stringwidth pop xratio div
dup 4 3 roll exch 90.000 cos mul add 3 1 roll 90.000 sin mul add 2 copy
pop pop pop pop
23774 3920 23774 3799 Sln
23881 3738 0
/Helvetica-0 findfont 305 yratio mul scalefont setfont
(11-14) stringwidth pop add
xratio div
dup 4 3 roll exch 90.000 cos mul sub 3 1 roll 90.000 sin mul sub 2 copy
/fntsize {/Helvetica-0 findfont exch scalefont setfont } def
90.000 305
(11-14) Stxtl
(11-14) stringwidth pop xratio div
dup 4 3 roll exch 90.000 cos mul add 3 1 roll 90.000 sin mul add 2 copy
pop pop pop pop
/Ssrgb {1.000 1.000 1.000} def
/Slrgb {1.000 1.000 1.000} def
2472 17204 8875 17645 0 1 Srect
2481 17213 8866 17636 1 0 Srect
5673 17358 0
/Helvetica-0 findfont 335 yratio mul scalefont setfont
(Employed) stringwidth pop add
2 div xratio div
dup 4 3 roll exch 0.000 cos mul sub 3 1 roll 0.000 sin mul sub 2 copy
/fntsize {/Helvetica-0 findfont exch scalefont setfont } def
0.000 335
(Employed) Stxtl
(Employed) stringwidth pop xratio div
dup 4 3 roll exch 0.000 cos mul add 3 1 roll 0.000 sin mul add 2 copy
pop pop pop pop
10199 17204 16602 17645 0 1 Srect
10208 17213 16593 17636 1 0 Srect
13400 17358 0
/Helvetica-0 findfont 335 yratio mul scalefont setfont
(Smoking) stringwidth pop add
2 div xratio div
dup 4 3 roll exch 0.000 cos mul sub 3 1 roll 0.000 sin mul sub 2 copy
/fntsize {/Helvetica-0 findfont exch scalefont setfont } def
0.000 335
(Smoking) Stxtl
(Smoking) stringwidth pop xratio div
dup 4 3 roll exch 0.000 cos mul add 3 1 roll 0.000 sin mul add 2 copy
pop pop pop pop
18011 17204 24414 17645 0 1 Srect
18020 17213 24405 17636 1 0 Srect
21213 17358 0
/Helvetica-0 findfont 335 yratio mul scalefont setfont
(Alcohol) stringwidth pop add
2 div xratio div
dup 4 3 roll exch 0.000 cos mul sub 3 1 roll 0.000 sin mul sub 2 copy
/fntsize {/Helvetica-0 findfont exch scalefont setfont } def
0.000 335
(Alcohol) Stxtl
(Alcohol) stringwidth pop xratio div
dup 4 3 roll exch 0.000 cos mul add 3 1 roll 0.000 sin mul add 2 copy
pop pop pop pop
24956 17204 31359 17645 0 1 Srect
24965 17213 31350 17636 1 0 Srect
28157 17358 0
/Helvetica-0 findfont 335 yratio mul scalefont setfont
(BMI) stringwidth pop add
2 div xratio div
dup 4 3 roll exch 0.000 cos mul sub 3 1 roll 0.000 sin mul sub 2 copy
/fntsize {/Helvetica-0 findfont exch scalefont setfont } def
0.000 335
(BMI) Stxtl
(BMI) stringwidth pop xratio div
dup 4 3 roll exch 0.000 cos mul add 3 1 roll 0.000 sin mul add 2 copy
pop pop pop pop
2472 9767 8875 10208 0 1 Srect
2481 9776 8866 10199 1 0 Srect
5673 9921 0
/Helvetica-0 findfont 335 yratio mul scalefont setfont
(Kcal) stringwidth pop add
2 div xratio div
dup 4 3 roll exch 0.000 cos mul sub 3 1 roll 0.000 sin mul sub 2 copy
/fntsize {/Helvetica-0 findfont exch scalefont setfont } def
0.000 335
(Kcal) Stxtl
(Kcal) stringwidth pop xratio div
dup 4 3 roll exch 0.000 cos mul add 3 1 roll 0.000 sin mul add 2 copy
pop pop pop pop
10199 9767 16602 10208 0 1 Srect
10208 9776 16593 10199 1 0 Srect
13400 9921 0
/Helvetica-0 findfont 335 yratio mul scalefont setfont
(MET PA) stringwidth pop add
2 div xratio div
dup 4 3 roll exch 0.000 cos mul sub 3 1 roll 0.000 sin mul sub 2 copy
/fntsize {/Helvetica-0 findfont exch scalefont setfont } def
0.000 335
(MET PA) Stxtl
(MET PA) stringwidth pop xratio div
dup 4 3 roll exch 0.000 cos mul add 3 1 roll 0.000 sin mul add 2 copy
pop pop pop pop
18011 9767 24414 10208 0 1 Srect
18020 9776 24405 10199 1 0 Srect
21213 9921 0
/Helvetica-0 findfont 335 yratio mul scalefont setfont
(Hypertension) stringwidth pop add
2 div xratio div
dup 4 3 roll exch 0.000 cos mul sub 3 1 roll 0.000 sin mul sub 2 copy
/fntsize {/Helvetica-0 findfont exch scalefont setfont } def
0.000 335
(Hypertension) Stxtl
(Hypertension) stringwidth pop xratio div
dup 4 3 roll exch 0.000 cos mul add 3 1 roll 0.000 sin mul add 2 copy
pop pop pop pop
/Slw 1.152 def
/Slrgb {0.000 0.000 0.000} def
11399 859 21107 2043 0 1 Srect
11417 877 21089 2025 1 0 Srect
/Slw 1.728 def
/Slrgb {0.376 0.376 0.376} def
11674 1451 14051 1451 Sln
/Slrgb {0.627 0.627 0.627} def
16357 1451 16503 1451 Sln
16631 1451 16777 1451 Sln
16905 1451 17052 1451 Sln
17180 1451 17326 1451 Sln
17454 1451 17600 1451 Sln
17728 1451 17874 1451 Sln
18002 1451 18148 1451 Sln
18276 1451 18423 1451 Sln
18551 1451 18697 1451 Sln
14431 1273 2 copy
/fntsize {/Helvetica-0 findfont exch scalefont setfont } def
0.000 508
(men) Stxtl
(men) stringwidth pop xratio div
dup 4 3 roll exch 0.000 cos mul add 3 1 roll 0.000 sin mul add 2 copy
pop pop pop pop
19115 1273 2 copy
/fntsize {/Helvetica-0 findfont exch scalefont setfont } def
0.000 508
(women) Stxtl
(women) stringwidth pop xratio div
dup 4 3 roll exch 0.000 cos mul add 3 1 roll 0.000 sin mul add 2 copy
pop pop pop pop
996 10208 0
/Helvetica-0 findfont 508 yratio mul scalefont setfont
(Marginal effect) stringwidth pop add
2 div xratio div
dup 4 3 roll exch 90.000 cos mul sub 3 1 roll 90.000 sin mul sub 2 copy
/fntsize {/Helvetica-0 findfont exch scalefont setfont } def
90.000 508
(Marginal effect) Stxtl
(Marginal effect) stringwidth pop xratio div
dup 4 3 roll exch 90.000 cos mul add 3 1 roll 90.000 sin mul add 2 copy
pop pop pop pop
16253 2414 0
/Helvetica-0 findfont 508 yratio mul scalefont setfont
(Years after diagnosis) stringwidth pop add
2 div xratio div
dup 4 3 roll exch 0.000 cos mul sub 3 1 roll 0.000 sin mul sub 2 copy
/fntsize {/Helvetica-0 findfont exch scalefont setfont } def
0.000 508
(Years after diagnosis) Stxtl
(Years after diagnosis) stringwidth pop xratio div
dup 4 3 roll exch 0.000 cos mul add 3 1 roll 0.000 sin mul add 2 copy
pop pop pop pop
S showpage
%%EOF
