%!PS-Adobe-2.0 EPSF-2.0
%% This is a Stata generated postscript file
%%BoundingBox: 0 0 576 288
%%HiResBoundingBox: 0.000 0.000 576.000 288.000
%%DocumentNeededResources: font Helvetica
/xratio 0.018000 def
/yratio 0.018000 def
/Sbgfill {
	/y1 exch def
	/x1 exch def
	/y0 exch def
	/x0 exch def
	x0 y0 moveto
	x0 y1 lineto x1 y1 lineto x1 y0 lineto x0 y0 lineto
	fill
} def
/Spt {
	yratio mul
	/yp exch def
	xratio mul
	/xp exch def
	Slrgb setrgbcolor
	xp yp .5 0 360 arc fill
} def
/Sln {
	yratio mul
	/y1p exch def
	xratio mul
	/x1p exch def
	yratio mul
	/y0p exch def
	xratio mul
	/x0p exch def
	Slw setlinewidth
	Slrgb setrgbcolor
	x0p y0p M x1p y1p lineto S
} def
/Scrv {
	yratio mul
	/y3p exch def
	xratio mul
	/x3p exch def
	yratio mul
	/y2p exch def
	xratio mul
	/x2p exch def
	yratio mul
	/y1p exch def
	xratio mul
	/x1p exch def
	Slw setlinewidth
	Slrgb setrgbcolor
	x1p y1p x2p y2p x3p y3p curveto
	stroke
} def
/Stxtl {
	/sp exch def
	yratio mul
	/sizep exch def
	dup
	/anglep exch def
	0 exch sub
	/angle2p exch def
	yratio mul
	/y0p exch def
	xratio mul
	/x0p exch def
	Strgb setrgbcolor
	x0p y0p M anglep rotate sizep fntsize sp show stroke angle2p rotate
} def
/Stxtc {
	/sp exch def
	yratio mul
	/sizep exch def
	dup
	/anglep exch def
	0 exch sub
	/angle2p exch def
	yratio mul
	/y0p exch def
	xratio mul
	/x0p exch def
	Strgb setrgbcolor
	x0p y0p M anglep rotate sizep fntsize sp stringwidth exch -2 div exch rm sp show stroke angle2p rotate
} def
/Stxtr {
	/sp exch def
	yratio mul
	/sizep exch def
	dup
	/anglep exch def
	0 exch sub
	/angle2p exch def
	yratio mul
	/y0p exch def
	xratio mul
	/x0p exch def
	Strgb setrgbcolor
	x0p y0p M anglep rotate sizep fntsize sp stringwidth 1 index -1 mul exch rm pop sp show stroke angle2p rotate
} def
/Srect {
	/sfill exch def
	yratio mul
	/y1 exch def
	xratio mul
	/x1 exch def
	yratio mul
	/y0 exch def
	xratio mul
	/x0 exch def
	newpath x0 y0 moveto x0 y1 lineto x1 y1 lineto x1 y0 lineto x0 y0 lineto closepath
	sfill 1 eq {
		Ssrgb setrgbcolor
		gsave
		fill
		grestore
	} if
	Slw setlinewidth
	Slrgb setrgbcolor
	stroke
} def
/Sellipse {
	/sfill exch def
	yratio mul
	/yrad exch def
	xratio mul
	/xrad exch def
	yratio mul
	/y exch def
	xratio mul
	/x exch def
	/savematrix matrix currentmatrix def
	x y translate
	xrad yrad scale
	0 0 1 0 360 arc
	savematrix setmatrix
	sfill 1 eq {
		Ssrgb setrgbcolor
		gsave
		fill
		grestore
	} if
	Slw setlinewidth
	Slrgb setrgbcolor
	stroke
} def
/Stri {
	/sfill exch def
	xratio mul
	/r exch def
	yratio mul
	/y0 exch def
	xratio mul
	/x0 exch def
	/xcen x0 def
	y0 r add
	/ytop exch def
	r 2 div
	y0 exch sub
	/ybot exch def
	r 3 sqrt 2 div mul dup
	xcen exch sub
	/xleft exch def
	xcen add
	/xright exch def
	newpath xcen ytop moveto xright ybot lineto xleft ybot lineto xcen ytop lineto closepath
	sfill 1 eq {
		Ssrgb setrgbcolor
		gsave
		fill
		grestore
	} if
	Slw setlinewidth
	Slrgb setrgbcolor
	stroke
} def
/Soldtri {
	/sfill exch def
	xratio mul
	/r exch def
	yratio mul
	/y0 exch def
	xratio mul
	/x0 exch def
	x0 r sub
	/x1 exch def
	y0 r sub
	/y1 exch def
	x0 r add
	/x2 exch def
	y0 r sub
	/y2 exch def
	/x3 x0 def
	y0 r add
	/y3 exch def
	newpath x1 y1 moveto x2 y2 lineto x3 y3 lineto x1 y1 lineto closepath
	sfill 1 eq {
		Ssrgb setrgbcolor
		gsave
		fill
		grestore
	} if
	Slw setlinewidth
	Slrgb setrgbcolor
	stroke
} def
/Sdia {
	/sfill exch def
	xratio mul
	/r exch def
	yratio mul
	/y exch def
	xratio mul
	/x exch def
	x r sub
	/x0 exch def
	/y0 y def
	/x1 x def
	y r sub
	/y1 exch def
	x r add
	/x2 exch def
	/y2 y def
	/x3 x def
	y r add
	/y3 exch def
	newpath x0 y0 moveto x1 y1 lineto x2 y2 lineto x3 y3 lineto x0 y0 lineto closepath
	sfill 1 eq {
		Ssrgb setrgbcolor
		gsave
		fill
		grestore
	} if
	Slw setlinewidth
	Slrgb setrgbcolor
	stroke
} def
/Scc {
	/sfill exch def
	xratio mul
	/r0 exch def
	yratio mul
	/y0 exch def
	xratio mul
	/x0 exch def
	x0 y0 r0 0 360 arc closepath
	sfill 1 eq {
		Ssrgb setrgbcolor
		gsave
		fill
		grestore
	} if
	Slw setlinewidth
	Slrgb setrgbcolor
	stroke
} def
/Spie {
	/sfill exch def
	/a1 exch def
	/a0 exch def
	xratio mul
	/r exch def
	yratio mul
	/y exch def
	xratio mul
	/x exch def
	newpath x y moveto x y r a0 a1 arc closepath
	sfill 1 eq {
		Ssrgb setrgbcolor
		gsave
		fill
		grestore
	} if
	Slw setlinewidth
	Slrgb setrgbcolor
	stroke
} def
/Splu {
	xratio mul
	/r exch def
	yratio mul
	/y exch def
	xratio mul
	/x exch def
	x r sub
	/x0 exch def
	x r add
	/x1 exch def
	x0 y M x1 y L
	y r sub
	/y0 exch def
	y r add
	/y1 exch def
	x y0 M x y1 L
} def
/Scro {
	xratio mul
	/r exch def
	yratio mul
	/y exch def
	xratio mul
	/x exch def
	x r sub
	/x0 exch def
	y r sub
	/y0 exch def
	x r add
	/x1 exch def
	y r add
	/y1 exch def
	x0 y0 M x1 y1 L
	x r add
	/x0 exch def
	y r sub
	/y0 exch def
	x r sub
	/x1 exch def
	y r add
	/y1 exch def
	x0 y0 M x1 y1 L
} def
/Sm {
	yratio mul
	/y exch def
	xratio mul
	/x exch def
	x y M
} def
/Sl {
	yratio mul
	/y exch def
	xratio mul
	/x exch def
	x y L
} def
/SPl {
	yratio mul
	/y exch def
	xratio mul
	/x exch def
	x y PL
} def
/Lcs {
	currentlinecap
	1 setlinecap
} def
/Lcr {
	setlinecap
} def
/Sbp {
	newpath
} def
/Sep {
	/sfill exch def
	closepath
	sfill 1 eq  {
		Ssrgb setrgbcolor
		gsave
		fill
		grestore
	} if
	Slw setlinewidth
	Slrgb setrgbcolor
	Lcs
	stroke
	Lcr
} def
/cp {currentpoint} def 
/M {moveto} def 
/rm {rmoveto} def 
/S {stroke} def 
/L {Slw setlinewidth Slrgb setrgbcolor lineto Lcs S Lcr} def 
/PL {Slw setlinewidth Slrgb setrgbcolor lineto} def 
/MF-Helvetica {
  /newfontname exch def
  /fontname exch def
  /fontdict fontname findfont def
  /newfont fontdict maxlength dict def
  fontdict {
  exch dup /FID eq {pop pop} {exch newfont 3 1 roll put} ifelse
  } forall
  newfont /FontName newfontname put
  newfont /Encoding ISOLatin1Encoding put
  newfontname newfont definefont pop
} def
/Helvetica /Helvetica-0 MF-Helvetica
/Slw 0.120 def
1.000 1.000 1.000 setrgbcolor
0 0 576.000 288.000 Sbgfill
/Slrgb {1.000 1.000 1.000} def
/Strgb {1.000 1.000 1.000} def
/Ssrgb {1.000 1.000 1.000} def
/Slw 0.576 def
0 0 32000 16000 1 Srect
/Slw 0.461 def
/Slrgb {0.000 0.000 0.000} def
2208 10018 9977 14606 0 Srect
/Strgb {0.000 0.000 0.000} def
/Slw 0.691 def
/Slrgb {0.188 0.188 0.188} def
2208 12944 9977 12944 Sln
/Slw 0.461 def
/Slrgb {0.000 0.000 0.000} def
12843 10018 20613 14606 0 Srect
/Slw 0.691 def
/Slrgb {0.188 0.188 0.188} def
12843 13164 20613 13164 Sln
/Slw 0.461 def
/Slrgb {0.000 0.000 0.000} def
23478 10018 31248 14606 0 Srect
/Slw 0.691 def
/Slrgb {0.188 0.188 0.188} def
23478 12281 31248 12281 Sln
/Slw 0.461 def
/Slrgb {0.000 0.000 0.000} def
2208 4405 9977 8992 0 Srect
/Slw 0.691 def
/Slrgb {0.188 0.188 0.188} def
2208 6698 9977 6698 Sln
/Slw 0.461 def
/Slrgb {0.000 0.000 0.000} def
12843 4405 20613 8992 0 Srect
/Slw 0.691 def
/Slrgb {0.188 0.188 0.188} def
12843 6750 20613 6750 Sln
/Slw 0.461 def
/Slrgb {0.000 0.000 0.000} def
23478 4405 31248 8992 0 Srect
/Slw 0.691 def
/Slrgb {0.188 0.188 0.188} def
23478 6750 31248 6750 Sln
/Ssrgb {0.502 0.502 0.502} def
/Slw 0.461 def
/Slrgb {0.376 0.376 0.376} def
2531 12925 2531 13082 Sln
3503 12899 3503 12986 Sln
4474 12867 4474 12967 Sln
5445 12792 5445 12955 Sln
6416 12899 6416 13061 Sln
7387 12743 7387 13046 Sln
8359 12765 8359 13092 Sln
9330 12725 9330 13093 Sln
2531 13003 Sm
3502 12942 Sl
3502 12942 Sm
4473 12916 Sl
4473 12916 Sm
5444 12873 Sl
5444 12873 Sm
6416 12980 Sl
6416 12980 Sm
7387 12894 Sl
7387 12894 Sm
8358 12928 Sl
8358 12928 Sm
9329 12908 Sl
/Ssrgb {0.702 0.702 0.702} def
/Slrgb {0.627 0.627 0.627} def
2855 12107 2855 14324 Sln
3826 12271 3826 12806 Sln
4797 11786 4797 12647 Sln
5769 12170 5769 13026 Sln
6740 11702 6740 12894 Sln
7711 10362 7711 13057 Sln
8682 11760 8682 13283 Sln
9654 11530 9654 13600 Sln
2855 13215 2960 13142 Sln
3052 13078 3157 13004 Sln
3249 12940 3354 12867 Sln
3446 12803 3551 12730 Sln
3643 12666 3747 12593 Sln
3841 12533 3963 12493 Sln
4069 12457 4191 12417 Sln
4297 12382 4419 12341 Sln
4525 12306 4647 12266 Sln
4754 12230 4797 12216 Sln
4797 12216 4873 12246 Sln
4978 12287 5097 12334 Sln
5201 12375 5320 12421 Sln
5425 12462 5544 12509 Sln
5648 12550 5767 12597 Sln
5875 12564 5997 12526 Sln
6104 12493 6226 12455 Sln
6334 12422 6456 12384 Sln
6563 12352 6685 12314 Sln
6787 12268 6896 12202 Sln
6992 12144 7102 12077 Sln
7198 12019 7307 11953 Sln
7403 11895 7513 11829 Sln
7609 11771 7711 11709 Sln
7711 11709 7718 11715 Sln
7804 11787 7902 11869 Sln
7988 11941 8086 12023 Sln
8172 12095 8270 12177 Sln
8356 12249 8455 12331 Sln
8541 12403 8639 12485 Sln
8738 12523 8866 12529 Sln
8979 12534 9107 12540 Sln
9219 12545 9347 12551 Sln
9459 12556 9587 12562 Sln
/Ssrgb {0.502 0.502 0.502} def
/Slrgb {0.376 0.376 0.376} def
13167 11672 13167 14206 Sln
14138 12441 14138 13200 Sln
15109 12346 15109 13289 Sln
16080 12037 16080 13425 Sln
17052 11000 17052 13204 Sln
18023 11775 18023 14324 Sln
18994 11836 18994 14220 Sln
13166 12939 Sm
14137 12820 Sl
14137 12820 Sm
15109 12817 Sl
15109 12817 Sm
16080 12730 Sl
16080 12730 Sm
17051 12101 Sl
17051 12101 Sm
18022 13049 Sl
18022 13049 Sm
18993 13028 Sl
/Ssrgb {0.702 0.702 0.702} def
/Slrgb {0.627 0.627 0.627} def
/Ssrgb {0.502 0.502 0.502} def
/Slrgb {0.376 0.376 0.376} def
23802 11044 23802 13827 Sln
24773 11358 24773 12006 Sln
25744 11462 25744 12230 Sln
26716 11306 26716 12327 Sln
27687 10897 27687 12402 Sln
28658 11449 28658 14324 Sln
29629 10360 29629 12543 Sln
23801 12435 Sm
24773 11681 Sl
24773 11681 Sm
25744 11846 Sl
25744 11846 Sm
26715 11816 Sl
26715 11816 Sm
27686 11649 Sl
27686 11649 Sm
28658 12886 Sl
28658 12886 Sm
29629 11451 Sl
/Ssrgb {0.702 0.702 0.702} def
/Slrgb {0.627 0.627 0.627} def
/Ssrgb {0.502 0.502 0.502} def
/Slrgb {0.376 0.376 0.376} def
2531 5626 2531 6658 Sln
3503 6211 3503 6712 Sln
4474 6074 4474 6665 Sln
5445 5829 5445 6540 Sln
6416 5809 6416 6720 Sln
7387 4867 7387 6247 Sln
8359 5546 8359 6958 Sln
2531 6141 Sm
3502 6461 Sl
3502 6461 Sm
4473 6369 Sl
4473 6369 Sm
5444 6184 Sl
5444 6184 Sm
6416 6264 Sl
6416 6264 Sm
7387 5556 Sl
7387 5556 Sm
8358 6251 Sl
/Ssrgb {0.702 0.702 0.702} def
/Slrgb {0.627 0.627 0.627} def
2855 5850 2855 8090 Sln
3826 6410 3826 7118 Sln
4797 6098 4797 6999 Sln
5769 6196 5769 6880 Sln
6740 5763 6740 6649 Sln
7711 5392 7711 7024 Sln
8682 5426 8682 7536 Sln
2855 6970 2980 6944 Sln
3090 6920 3215 6893 Sln
3325 6870 3450 6843 Sln
3559 6819 3684 6793 Sln
3794 6770 3826 6763 Sln
3826 6763 3919 6742 Sln
4029 6718 4154 6690 Sln
4264 6666 4389 6639 Sln
4499 6615 4624 6587 Sln
4733 6562 4797 6548 Sln
4797 6548 4860 6548 Sln
4972 6547 5100 6545 Sln
5212 6544 5340 6542 Sln
5452 6541 5580 6540 Sln
5693 6539 5768 6538 Sln
5768 6538 5818 6521 Sln
5924 6484 6045 6443 Sln
6151 6406 6272 6365 Sln
6379 6329 6500 6287 Sln
6606 6251 6727 6209 Sln
6839 6205 6967 6206 Sln
7079 6206 7207 6206 Sln
7319 6206 7447 6207 Sln
7559 6207 7687 6207 Sln
7796 6231 7919 6266 Sln
8027 6297 8150 6332 Sln
8258 6362 8381 6397 Sln
8489 6427 8612 6462 Sln
/Ssrgb {0.502 0.502 0.502} def
/Slrgb {0.376 0.376 0.376} def
13167 5951 13167 7422 Sln
14138 6238 14138 6886 Sln
15109 6070 15109 6603 Sln
16080 6174 16080 6953 Sln
17052 5546 17052 7109 Sln
18023 4686 18023 6551 Sln
18994 5160 18994 7057 Sln
13166 6686 Sm
14137 6561 Sl
14137 6561 Sm
15109 6336 Sl
15109 6336 Sm
16080 6563 Sl
16080 6563 Sm
17051 6327 Sl
17051 6327 Sm
18022 5618 Sl
18022 5618 Sm
18993 6108 Sl
/Ssrgb {0.702 0.702 0.702} def
/Slrgb {0.627 0.627 0.627} def
13490 5119 13490 8468 Sln
14462 6565 14462 7121 Sln
15433 6462 15433 7378 Sln
16404 6354 16404 7187 Sln
17375 6039 17375 6865 Sln
18346 5899 18346 7852 Sln
19318 5093 19318 7093 Sln
13490 6793 13618 6799 Sln
13730 6805 13858 6812 Sln
13971 6817 14099 6824 Sln
14211 6829 14338 6836 Sln
14451 6842 14461 6842 Sln
14461 6842 14578 6851 Sln
14690 6860 14817 6871 Sln
14929 6880 15057 6890 Sln
15168 6899 15296 6909 Sln
15408 6918 15432 6920 Sln
15432 6920 15535 6904 Sln
15646 6887 15772 6867 Sln
15883 6850 16009 6831 Sln
16120 6814 16247 6794 Sln
16357 6778 16404 6770 Sln
16404 6770 16481 6745 Sln
16588 6710 16709 6670 Sln
16816 6635 16938 6595 Sln
17045 6560 17166 6521 Sln
17273 6486 17375 6452 Sln
17375 6452 17394 6461 Sln
17497 6505 17614 6557 Sln
17717 6601 17834 6653 Sln
17937 6697 18054 6749 Sln
18157 6793 18275 6845 Sln
18373 6853 18472 6773 Sln
18560 6702 18659 6622 Sln
18747 6552 18847 6471 Sln
18934 6401 19033 6321 Sln
19121 6250 19220 6170 Sln
19308 6100 19317 6092 Sln
/Ssrgb {0.502 0.502 0.502} def
/Slrgb {0.376 0.376 0.376} def
23802 5509 23802 8537 Sln
24773 5576 24773 6636 Sln
25744 5633 25744 6629 Sln
26716 5566 26716 6945 Sln
27687 5146 27687 6627 Sln
28658 4686 28658 6919 Sln
29629 5678 29629 7766 Sln
23801 7023 Sm
24773 6106 Sl
24773 6106 Sm
25744 6130 Sl
25744 6130 Sm
26715 6255 Sl
26715 6255 Sm
27686 5886 Sl
27686 5886 Sm
28658 5802 Sl
28658 5802 Sm
29629 6721 Sl
/Ssrgb {0.702 0.702 0.702} def
/Slrgb {0.627 0.627 0.627} def
24126 5523 24126 7309 Sln
25097 6318 25097 6998 Sln
26068 6254 26068 7042 Sln
27039 6131 27039 6977 Sln
28011 5757 28011 7129 Sln
28982 6129 28982 7835 Sln
29953 5803 29953 7617 Sln
24125 6416 24249 6447 Sln
24358 6474 24482 6505 Sln
24591 6532 24715 6562 Sln
24824 6590 24948 6620 Sln
25056 6647 25096 6657 Sln
25096 6657 25184 6656 Sln
25296 6655 25424 6654 Sln
25536 6653 25664 6651 Sln
25776 6650 25904 6649 Sln
26016 6648 26068 6647 Sln
26068 6647 26144 6640 Sln
26256 6629 26383 6617 Sln
26495 6606 26623 6593 Sln
26734 6583 26862 6570 Sln
26974 6560 27039 6553 Sln
27039 6553 27101 6546 Sln
27212 6533 27339 6519 Sln
27451 6506 27578 6491 Sln
27689 6478 27816 6464 Sln
27928 6451 28010 6442 Sln
28010 6442 28049 6464 Sln
28147 6519 28259 6581 Sln
28357 6635 28469 6697 Sln
28567 6752 28678 6814 Sln
28776 6869 28889 6931 Sln
28988 6980 29111 6945 Sln
29219 6915 29342 6881 Sln
29450 6851 29573 6816 Sln
29681 6786 29804 6752 Sln
29912 6721 29953 6710 Sln
/Slrgb {0.000 0.000 0.000} def
2208 10018 2208 14606 Sln
2208 10300 2030 10300 Sln
1941 10145 0
/Helvetica-0 findfont 444 yratio mul scalefont setfont
(-4) stringwidth pop add
xratio div
dup 4 3 roll exch 0.000 cos mul sub 3 1 roll 0.000 sin mul sub 2 copy
/fntsize {/Helvetica-0 findfont exch scalefont setfont } def
0.000 444
(-4) Stxtl
(-4) stringwidth pop xratio div
dup 4 3 roll exch 0.000 cos mul add 3 1 roll 0.000 sin mul add 2 copy
pop pop pop pop
2208 10961 2030 10961 Sln
1941 10806 0
/Helvetica-0 findfont 444 yratio mul scalefont setfont
(-3) stringwidth pop add
xratio div
dup 4 3 roll exch 0.000 cos mul sub 3 1 roll 0.000 sin mul sub 2 copy
/fntsize {/Helvetica-0 findfont exch scalefont setfont } def
0.000 444
(-3) Stxtl
(-3) stringwidth pop xratio div
dup 4 3 roll exch 0.000 cos mul add 3 1 roll 0.000 sin mul add 2 copy
pop pop pop pop
2208 11622 2030 11622 Sln
1941 11467 0
/Helvetica-0 findfont 444 yratio mul scalefont setfont
(-2) stringwidth pop add
xratio div
dup 4 3 roll exch 0.000 cos mul sub 3 1 roll 0.000 sin mul sub 2 copy
/fntsize {/Helvetica-0 findfont exch scalefont setfont } def
0.000 444
(-2) Stxtl
(-2) stringwidth pop xratio div
dup 4 3 roll exch 0.000 cos mul add 3 1 roll 0.000 sin mul add 2 copy
pop pop pop pop
2208 12283 2030 12283 Sln
1941 12128 0
/Helvetica-0 findfont 444 yratio mul scalefont setfont
(-1) stringwidth pop add
xratio div
dup 4 3 roll exch 0.000 cos mul sub 3 1 roll 0.000 sin mul sub 2 copy
/fntsize {/Helvetica-0 findfont exch scalefont setfont } def
0.000 444
(-1) Stxtl
(-1) stringwidth pop xratio div
dup 4 3 roll exch 0.000 cos mul add 3 1 roll 0.000 sin mul add 2 copy
pop pop pop pop
2208 12944 2030 12944 Sln
1941 12789 0
/Helvetica-0 findfont 444 yratio mul scalefont setfont
(0) stringwidth pop add
xratio div
dup 4 3 roll exch 0.000 cos mul sub 3 1 roll 0.000 sin mul sub 2 copy
/fntsize {/Helvetica-0 findfont exch scalefont setfont } def
0.000 444
(0) Stxtl
(0) stringwidth pop xratio div
dup 4 3 roll exch 0.000 cos mul add 3 1 roll 0.000 sin mul add 2 copy
pop pop pop pop
2208 13605 2030 13605 Sln
1941 13450 0
/Helvetica-0 findfont 444 yratio mul scalefont setfont
(1) stringwidth pop add
xratio div
dup 4 3 roll exch 0.000 cos mul sub 3 1 roll 0.000 sin mul sub 2 copy
/fntsize {/Helvetica-0 findfont exch scalefont setfont } def
0.000 444
(1) Stxtl
(1) stringwidth pop xratio div
dup 4 3 roll exch 0.000 cos mul add 3 1 roll 0.000 sin mul add 2 copy
pop pop pop pop
2208 14266 2030 14266 Sln
1941 14111 0
/Helvetica-0 findfont 444 yratio mul scalefont setfont
(2) stringwidth pop add
xratio div
dup 4 3 roll exch 0.000 cos mul sub 3 1 roll 0.000 sin mul sub 2 copy
/fntsize {/Helvetica-0 findfont exch scalefont setfont } def
0.000 444
(2) Stxtl
(2) stringwidth pop xratio div
dup 4 3 roll exch 0.000 cos mul add 3 1 roll 0.000 sin mul add 2 copy
pop pop pop pop
12843 10018 12843 14606 Sln
12843 10300 12665 10300 Sln
12576 10145 0
/Helvetica-0 findfont 444 yratio mul scalefont setfont
(-.6) stringwidth pop add
xratio div
dup 4 3 roll exch 0.000 cos mul sub 3 1 roll 0.000 sin mul sub 2 copy
/fntsize {/Helvetica-0 findfont exch scalefont setfont } def
0.000 444
(-.6) Stxtl
(-.6) stringwidth pop xratio div
dup 4 3 roll exch 0.000 cos mul add 3 1 roll 0.000 sin mul add 2 copy
pop pop pop pop
12843 11255 12665 11255 Sln
12576 11100 0
/Helvetica-0 findfont 444 yratio mul scalefont setfont
(-.4) stringwidth pop add
xratio div
dup 4 3 roll exch 0.000 cos mul sub 3 1 roll 0.000 sin mul sub 2 copy
/fntsize {/Helvetica-0 findfont exch scalefont setfont } def
0.000 444
(-.4) Stxtl
(-.4) stringwidth pop xratio div
dup 4 3 roll exch 0.000 cos mul add 3 1 roll 0.000 sin mul add 2 copy
pop pop pop pop
12843 12209 12665 12209 Sln
12576 12054 0
/Helvetica-0 findfont 444 yratio mul scalefont setfont
(-.2) stringwidth pop add
xratio div
dup 4 3 roll exch 0.000 cos mul sub 3 1 roll 0.000 sin mul sub 2 copy
/fntsize {/Helvetica-0 findfont exch scalefont setfont } def
0.000 444
(-.2) Stxtl
(-.2) stringwidth pop xratio div
dup 4 3 roll exch 0.000 cos mul add 3 1 roll 0.000 sin mul add 2 copy
pop pop pop pop
12843 13164 12665 13164 Sln
12576 13009 0
/Helvetica-0 findfont 444 yratio mul scalefont setfont
(0) stringwidth pop add
xratio div
dup 4 3 roll exch 0.000 cos mul sub 3 1 roll 0.000 sin mul sub 2 copy
/fntsize {/Helvetica-0 findfont exch scalefont setfont } def
0.000 444
(0) Stxtl
(0) stringwidth pop xratio div
dup 4 3 roll exch 0.000 cos mul add 3 1 roll 0.000 sin mul add 2 copy
pop pop pop pop
12843 14118 12665 14118 Sln
12576 13963 0
/Helvetica-0 findfont 444 yratio mul scalefont setfont
(.2) stringwidth pop add
xratio div
dup 4 3 roll exch 0.000 cos mul sub 3 1 roll 0.000 sin mul sub 2 copy
/fntsize {/Helvetica-0 findfont exch scalefont setfont } def
0.000 444
(.2) Stxtl
(.2) stringwidth pop xratio div
dup 4 3 roll exch 0.000 cos mul add 3 1 roll 0.000 sin mul add 2 copy
pop pop pop pop
23478 10018 23478 14606 Sln
23478 10300 23300 10300 Sln
23211 10145 0
/Helvetica-0 findfont 444 yratio mul scalefont setfont
(-.4) stringwidth pop add
xratio div
dup 4 3 roll exch 0.000 cos mul sub 3 1 roll 0.000 sin mul sub 2 copy
/fntsize {/Helvetica-0 findfont exch scalefont setfont } def
0.000 444
(-.4) Stxtl
(-.4) stringwidth pop xratio div
dup 4 3 roll exch 0.000 cos mul add 3 1 roll 0.000 sin mul add 2 copy
pop pop pop pop
23478 11290 23300 11290 Sln
23211 11135 0
/Helvetica-0 findfont 444 yratio mul scalefont setfont
(-.2) stringwidth pop add
xratio div
dup 4 3 roll exch 0.000 cos mul sub 3 1 roll 0.000 sin mul sub 2 copy
/fntsize {/Helvetica-0 findfont exch scalefont setfont } def
0.000 444
(-.2) Stxtl
(-.2) stringwidth pop xratio div
dup 4 3 roll exch 0.000 cos mul add 3 1 roll 0.000 sin mul add 2 copy
pop pop pop pop
23478 12281 23300 12281 Sln
23211 12126 0
/Helvetica-0 findfont 444 yratio mul scalefont setfont
(0) stringwidth pop add
xratio div
dup 4 3 roll exch 0.000 cos mul sub 3 1 roll 0.000 sin mul sub 2 copy
/fntsize {/Helvetica-0 findfont exch scalefont setfont } def
0.000 444
(0) Stxtl
(0) stringwidth pop xratio div
dup 4 3 roll exch 0.000 cos mul add 3 1 roll 0.000 sin mul add 2 copy
pop pop pop pop
23478 13271 23300 13271 Sln
23211 13116 0
/Helvetica-0 findfont 444 yratio mul scalefont setfont
(.2) stringwidth pop add
xratio div
dup 4 3 roll exch 0.000 cos mul sub 3 1 roll 0.000 sin mul sub 2 copy
/fntsize {/Helvetica-0 findfont exch scalefont setfont } def
0.000 444
(.2) Stxtl
(.2) stringwidth pop xratio div
dup 4 3 roll exch 0.000 cos mul add 3 1 roll 0.000 sin mul add 2 copy
pop pop pop pop
23478 14262 23300 14262 Sln
23211 14107 0
/Helvetica-0 findfont 444 yratio mul scalefont setfont
(.4) stringwidth pop add
xratio div
dup 4 3 roll exch 0.000 cos mul sub 3 1 roll 0.000 sin mul sub 2 copy
/fntsize {/Helvetica-0 findfont exch scalefont setfont } def
0.000 444
(.4) Stxtl
(.4) stringwidth pop xratio div
dup 4 3 roll exch 0.000 cos mul add 3 1 roll 0.000 sin mul add 2 copy
pop pop pop pop
2208 4405 2208 8992 Sln
2208 4686 2030 4686 Sln
1941 4531 0
/Helvetica-0 findfont 444 yratio mul scalefont setfont
(-4) stringwidth pop add
xratio div
dup 4 3 roll exch 0.000 cos mul sub 3 1 roll 0.000 sin mul sub 2 copy
/fntsize {/Helvetica-0 findfont exch scalefont setfont } def
0.000 444
(-4) Stxtl
(-4) stringwidth pop xratio div
dup 4 3 roll exch 0.000 cos mul add 3 1 roll 0.000 sin mul add 2 copy
pop pop pop pop
2208 5692 2030 5692 Sln
1941 5537 0
/Helvetica-0 findfont 444 yratio mul scalefont setfont
(-2) stringwidth pop add
xratio div
dup 4 3 roll exch 0.000 cos mul sub 3 1 roll 0.000 sin mul sub 2 copy
/fntsize {/Helvetica-0 findfont exch scalefont setfont } def
0.000 444
(-2) Stxtl
(-2) stringwidth pop xratio div
dup 4 3 roll exch 0.000 cos mul add 3 1 roll 0.000 sin mul add 2 copy
pop pop pop pop
2208 6698 2030 6698 Sln
1941 6543 0
/Helvetica-0 findfont 444 yratio mul scalefont setfont
(0) stringwidth pop add
xratio div
dup 4 3 roll exch 0.000 cos mul sub 3 1 roll 0.000 sin mul sub 2 copy
/fntsize {/Helvetica-0 findfont exch scalefont setfont } def
0.000 444
(0) Stxtl
(0) stringwidth pop xratio div
dup 4 3 roll exch 0.000 cos mul add 3 1 roll 0.000 sin mul add 2 copy
pop pop pop pop
2208 7704 2030 7704 Sln
1941 7549 0
/Helvetica-0 findfont 444 yratio mul scalefont setfont
(2) stringwidth pop add
xratio div
dup 4 3 roll exch 0.000 cos mul sub 3 1 roll 0.000 sin mul sub 2 copy
/fntsize {/Helvetica-0 findfont exch scalefont setfont } def
0.000 444
(2) Stxtl
(2) stringwidth pop xratio div
dup 4 3 roll exch 0.000 cos mul add 3 1 roll 0.000 sin mul add 2 copy
pop pop pop pop
2208 8710 2030 8710 Sln
1941 8555 0
/Helvetica-0 findfont 444 yratio mul scalefont setfont
(4) stringwidth pop add
xratio div
dup 4 3 roll exch 0.000 cos mul sub 3 1 roll 0.000 sin mul sub 2 copy
/fntsize {/Helvetica-0 findfont exch scalefont setfont } def
0.000 444
(4) Stxtl
(4) stringwidth pop xratio div
dup 4 3 roll exch 0.000 cos mul add 3 1 roll 0.000 sin mul add 2 copy
pop pop pop pop
12843 4405 12843 8992 Sln
12843 4790 12665 4790 Sln
12576 4635 0
/Helvetica-0 findfont 444 yratio mul scalefont setfont
(-10) stringwidth pop add
xratio div
dup 4 3 roll exch 0.000 cos mul sub 3 1 roll 0.000 sin mul sub 2 copy
/fntsize {/Helvetica-0 findfont exch scalefont setfont } def
0.000 444
(-10) Stxtl
(-10) stringwidth pop xratio div
dup 4 3 roll exch 0.000 cos mul add 3 1 roll 0.000 sin mul add 2 copy
pop pop pop pop
12843 5770 12665 5770 Sln
12576 5615 0
/Helvetica-0 findfont 444 yratio mul scalefont setfont
(-5) stringwidth pop add
xratio div
dup 4 3 roll exch 0.000 cos mul sub 3 1 roll 0.000 sin mul sub 2 copy
/fntsize {/Helvetica-0 findfont exch scalefont setfont } def
0.000 444
(-5) Stxtl
(-5) stringwidth pop xratio div
dup 4 3 roll exch 0.000 cos mul add 3 1 roll 0.000 sin mul add 2 copy
pop pop pop pop
12843 6750 12665 6750 Sln
12576 6595 0
/Helvetica-0 findfont 444 yratio mul scalefont setfont
(0) stringwidth pop add
xratio div
dup 4 3 roll exch 0.000 cos mul sub 3 1 roll 0.000 sin mul sub 2 copy
/fntsize {/Helvetica-0 findfont exch scalefont setfont } def
0.000 444
(0) Stxtl
(0) stringwidth pop xratio div
dup 4 3 roll exch 0.000 cos mul add 3 1 roll 0.000 sin mul add 2 copy
pop pop pop pop
12843 7730 12665 7730 Sln
12576 7575 0
/Helvetica-0 findfont 444 yratio mul scalefont setfont
(5) stringwidth pop add
xratio div
dup 4 3 roll exch 0.000 cos mul sub 3 1 roll 0.000 sin mul sub 2 copy
/fntsize {/Helvetica-0 findfont exch scalefont setfont } def
0.000 444
(5) Stxtl
(5) stringwidth pop xratio div
dup 4 3 roll exch 0.000 cos mul add 3 1 roll 0.000 sin mul add 2 copy
pop pop pop pop
12843 8710 12665 8710 Sln
12576 8555 0
/Helvetica-0 findfont 444 yratio mul scalefont setfont
(10) stringwidth pop add
xratio div
dup 4 3 roll exch 0.000 cos mul sub 3 1 roll 0.000 sin mul sub 2 copy
/fntsize {/Helvetica-0 findfont exch scalefont setfont } def
0.000 444
(10) Stxtl
(10) stringwidth pop xratio div
dup 4 3 roll exch 0.000 cos mul add 3 1 roll 0.000 sin mul add 2 copy
pop pop pop pop
23478 4405 23478 8992 Sln
23478 4790 23300 4790 Sln
23211 4635 0
/Helvetica-0 findfont 444 yratio mul scalefont setfont
(-600) stringwidth pop add
xratio div
dup 4 3 roll exch 0.000 cos mul sub 3 1 roll 0.000 sin mul sub 2 copy
/fntsize {/Helvetica-0 findfont exch scalefont setfont } def
0.000 444
(-600) Stxtl
(-600) stringwidth pop xratio div
dup 4 3 roll exch 0.000 cos mul add 3 1 roll 0.000 sin mul add 2 copy
pop pop pop pop
23478 5443 23300 5443 Sln
23211 5288 0
/Helvetica-0 findfont 444 yratio mul scalefont setfont
(-400) stringwidth pop add
xratio div
dup 4 3 roll exch 0.000 cos mul sub 3 1 roll 0.000 sin mul sub 2 copy
/fntsize {/Helvetica-0 findfont exch scalefont setfont } def
0.000 444
(-400) Stxtl
(-400) stringwidth pop xratio div
dup 4 3 roll exch 0.000 cos mul add 3 1 roll 0.000 sin mul add 2 copy
pop pop pop pop
23478 6097 23300 6097 Sln
23211 5942 0
/Helvetica-0 findfont 444 yratio mul scalefont setfont
(-200) stringwidth pop add
xratio div
dup 4 3 roll exch 0.000 cos mul sub 3 1 roll 0.000 sin mul sub 2 copy
/fntsize {/Helvetica-0 findfont exch scalefont setfont } def
0.000 444
(-200) Stxtl
(-200) stringwidth pop xratio div
dup 4 3 roll exch 0.000 cos mul add 3 1 roll 0.000 sin mul add 2 copy
pop pop pop pop
23478 6750 23300 6750 Sln
23211 6595 0
/Helvetica-0 findfont 444 yratio mul scalefont setfont
(0) stringwidth pop add
xratio div
dup 4 3 roll exch 0.000 cos mul sub 3 1 roll 0.000 sin mul sub 2 copy
/fntsize {/Helvetica-0 findfont exch scalefont setfont } def
0.000 444
(0) Stxtl
(0) stringwidth pop xratio div
dup 4 3 roll exch 0.000 cos mul add 3 1 roll 0.000 sin mul add 2 copy
pop pop pop pop
23478 7404 23300 7404 Sln
23211 7249 0
/Helvetica-0 findfont 444 yratio mul scalefont setfont
(200) stringwidth pop add
xratio div
dup 4 3 roll exch 0.000 cos mul sub 3 1 roll 0.000 sin mul sub 2 copy
/fntsize {/Helvetica-0 findfont exch scalefont setfont } def
0.000 444
(200) Stxtl
(200) stringwidth pop xratio div
dup 4 3 roll exch 0.000 cos mul add 3 1 roll 0.000 sin mul add 2 copy
pop pop pop pop
23478 8057 23300 8057 Sln
23211 7902 0
/Helvetica-0 findfont 444 yratio mul scalefont setfont
(400) stringwidth pop add
xratio div
dup 4 3 roll exch 0.000 cos mul sub 3 1 roll 0.000 sin mul sub 2 copy
/fntsize {/Helvetica-0 findfont exch scalefont setfont } def
0.000 444
(400) Stxtl
(400) stringwidth pop xratio div
dup 4 3 roll exch 0.000 cos mul add 3 1 roll 0.000 sin mul add 2 copy
pop pop pop pop
23478 8710 23300 8710 Sln
23211 8555 0
/Helvetica-0 findfont 444 yratio mul scalefont setfont
(600) stringwidth pop add
xratio div
dup 4 3 roll exch 0.000 cos mul sub 3 1 roll 0.000 sin mul sub 2 copy
/fntsize {/Helvetica-0 findfont exch scalefont setfont } def
0.000 444
(600) Stxtl
(600) stringwidth pop xratio div
dup 4 3 roll exch 0.000 cos mul add 3 1 roll 0.000 sin mul add 2 copy
pop pop pop pop
2208 4405 9977 4405 Sln
2693 4405 2693 4227 Sln
2849 4138 0
/Helvetica-0 findfont 444 yratio mul scalefont setfont
(0) stringwidth pop add
xratio div
dup 4 3 roll exch 90.000 cos mul sub 3 1 roll 90.000 sin mul sub 2 copy
/fntsize {/Helvetica-0 findfont exch scalefont setfont } def
90.000 444
(0) Stxtl
(0) stringwidth pop xratio div
dup 4 3 roll exch 90.000 cos mul add 3 1 roll 90.000 sin mul add 2 copy
pop pop pop pop
3664 4405 3664 4227 Sln
3820 4138 0
/Helvetica-0 findfont 444 yratio mul scalefont setfont
(1-2) stringwidth pop add
xratio div
dup 4 3 roll exch 90.000 cos mul sub 3 1 roll 90.000 sin mul sub 2 copy
/fntsize {/Helvetica-0 findfont exch scalefont setfont } def
90.000 444
(1-2) Stxtl
(1-2) stringwidth pop xratio div
dup 4 3 roll exch 90.000 cos mul add 3 1 roll 90.000 sin mul add 2 copy
pop pop pop pop
4636 4405 4636 4227 Sln
4792 4138 0
/Helvetica-0 findfont 444 yratio mul scalefont setfont
(3-4) stringwidth pop add
xratio div
dup 4 3 roll exch 90.000 cos mul sub 3 1 roll 90.000 sin mul sub 2 copy
/fntsize {/Helvetica-0 findfont exch scalefont setfont } def
90.000 444
(3-4) Stxtl
(3-4) stringwidth pop xratio div
dup 4 3 roll exch 90.000 cos mul add 3 1 roll 90.000 sin mul add 2 copy
pop pop pop pop
5607 4405 5607 4227 Sln
5763 4138 0
/Helvetica-0 findfont 444 yratio mul scalefont setfont
(5-6) stringwidth pop add
xratio div
dup 4 3 roll exch 90.000 cos mul sub 3 1 roll 90.000 sin mul sub 2 copy
/fntsize {/Helvetica-0 findfont exch scalefont setfont } def
90.000 444
(5-6) Stxtl
(5-6) stringwidth pop xratio div
dup 4 3 roll exch 90.000 cos mul add 3 1 roll 90.000 sin mul add 2 copy
pop pop pop pop
6578 4405 6578 4227 Sln
6734 4138 0
/Helvetica-0 findfont 444 yratio mul scalefont setfont
(7-8) stringwidth pop add
xratio div
dup 4 3 roll exch 90.000 cos mul sub 3 1 roll 90.000 sin mul sub 2 copy
/fntsize {/Helvetica-0 findfont exch scalefont setfont } def
90.000 444
(7-8) Stxtl
(7-8) stringwidth pop xratio div
dup 4 3 roll exch 90.000 cos mul add 3 1 roll 90.000 sin mul add 2 copy
pop pop pop pop
7549 4405 7549 4227 Sln
7705 4138 0
/Helvetica-0 findfont 444 yratio mul scalefont setfont
(9-10) stringwidth pop add
xratio div
dup 4 3 roll exch 90.000 cos mul sub 3 1 roll 90.000 sin mul sub 2 copy
/fntsize {/Helvetica-0 findfont exch scalefont setfont } def
90.000 444
(9-10) Stxtl
(9-10) stringwidth pop xratio div
dup 4 3 roll exch 90.000 cos mul add 3 1 roll 90.000 sin mul add 2 copy
pop pop pop pop
8521 4405 8521 4227 Sln
8677 4138 0
/Helvetica-0 findfont 444 yratio mul scalefont setfont
(11-12) stringwidth pop add
xratio div
dup 4 3 roll exch 90.000 cos mul sub 3 1 roll 90.000 sin mul sub 2 copy
/fntsize {/Helvetica-0 findfont exch scalefont setfont } def
90.000 444
(11-12) Stxtl
(11-12) stringwidth pop xratio div
dup 4 3 roll exch 90.000 cos mul add 3 1 roll 90.000 sin mul add 2 copy
pop pop pop pop
9492 4405 9492 4227 Sln
9648 4138 0
/Helvetica-0 findfont 444 yratio mul scalefont setfont
(13-14) stringwidth pop add
xratio div
dup 4 3 roll exch 90.000 cos mul sub 3 1 roll 90.000 sin mul sub 2 copy
/fntsize {/Helvetica-0 findfont exch scalefont setfont } def
90.000 444
(13-14) Stxtl
(13-14) stringwidth pop xratio div
dup 4 3 roll exch 90.000 cos mul add 3 1 roll 90.000 sin mul add 2 copy
pop pop pop pop
12843 4405 20613 4405 Sln
13328 4405 13328 4227 Sln
13484 4138 0
/Helvetica-0 findfont 444 yratio mul scalefont setfont
(0) stringwidth pop add
xratio div
dup 4 3 roll exch 90.000 cos mul sub 3 1 roll 90.000 sin mul sub 2 copy
/fntsize {/Helvetica-0 findfont exch scalefont setfont } def
90.000 444
(0) Stxtl
(0) stringwidth pop xratio div
dup 4 3 roll exch 90.000 cos mul add 3 1 roll 90.000 sin mul add 2 copy
pop pop pop pop
14300 4405 14300 4227 Sln
14456 4138 0
/Helvetica-0 findfont 444 yratio mul scalefont setfont
(1-2) stringwidth pop add
xratio div
dup 4 3 roll exch 90.000 cos mul sub 3 1 roll 90.000 sin mul sub 2 copy
/fntsize {/Helvetica-0 findfont exch scalefont setfont } def
90.000 444
(1-2) Stxtl
(1-2) stringwidth pop xratio div
dup 4 3 roll exch 90.000 cos mul add 3 1 roll 90.000 sin mul add 2 copy
pop pop pop pop
15271 4405 15271 4227 Sln
15427 4138 0
/Helvetica-0 findfont 444 yratio mul scalefont setfont
(3-4) stringwidth pop add
xratio div
dup 4 3 roll exch 90.000 cos mul sub 3 1 roll 90.000 sin mul sub 2 copy
/fntsize {/Helvetica-0 findfont exch scalefont setfont } def
90.000 444
(3-4) Stxtl
(3-4) stringwidth pop xratio div
dup 4 3 roll exch 90.000 cos mul add 3 1 roll 90.000 sin mul add 2 copy
pop pop pop pop
16242 4405 16242 4227 Sln
16398 4138 0
/Helvetica-0 findfont 444 yratio mul scalefont setfont
(5-6) stringwidth pop add
xratio div
dup 4 3 roll exch 90.000 cos mul sub 3 1 roll 90.000 sin mul sub 2 copy
/fntsize {/Helvetica-0 findfont exch scalefont setfont } def
90.000 444
(5-6) Stxtl
(5-6) stringwidth pop xratio div
dup 4 3 roll exch 90.000 cos mul add 3 1 roll 90.000 sin mul add 2 copy
pop pop pop pop
17213 4405 17213 4227 Sln
17369 4138 0
/Helvetica-0 findfont 444 yratio mul scalefont setfont
(7-8) stringwidth pop add
xratio div
dup 4 3 roll exch 90.000 cos mul sub 3 1 roll 90.000 sin mul sub 2 copy
/fntsize {/Helvetica-0 findfont exch scalefont setfont } def
90.000 444
(7-8) Stxtl
(7-8) stringwidth pop xratio div
dup 4 3 roll exch 90.000 cos mul add 3 1 roll 90.000 sin mul add 2 copy
pop pop pop pop
18185 4405 18185 4227 Sln
18341 4138 0
/Helvetica-0 findfont 444 yratio mul scalefont setfont
(9-10) stringwidth pop add
xratio div
dup 4 3 roll exch 90.000 cos mul sub 3 1 roll 90.000 sin mul sub 2 copy
/fntsize {/Helvetica-0 findfont exch scalefont setfont } def
90.000 444
(9-10) Stxtl
(9-10) stringwidth pop xratio div
dup 4 3 roll exch 90.000 cos mul add 3 1 roll 90.000 sin mul add 2 copy
pop pop pop pop
19156 4405 19156 4227 Sln
19312 4138 0
/Helvetica-0 findfont 444 yratio mul scalefont setfont
(11-12) stringwidth pop add
xratio div
dup 4 3 roll exch 90.000 cos mul sub 3 1 roll 90.000 sin mul sub 2 copy
/fntsize {/Helvetica-0 findfont exch scalefont setfont } def
90.000 444
(11-12) Stxtl
(11-12) stringwidth pop xratio div
dup 4 3 roll exch 90.000 cos mul add 3 1 roll 90.000 sin mul add 2 copy
pop pop pop pop
20127 4405 20127 4227 Sln
20283 4138 0
/Helvetica-0 findfont 444 yratio mul scalefont setfont
(13-14) stringwidth pop add
xratio div
dup 4 3 roll exch 90.000 cos mul sub 3 1 roll 90.000 sin mul sub 2 copy
/fntsize {/Helvetica-0 findfont exch scalefont setfont } def
90.000 444
(13-14) Stxtl
(13-14) stringwidth pop xratio div
dup 4 3 roll exch 90.000 cos mul add 3 1 roll 90.000 sin mul add 2 copy
pop pop pop pop
23478 4405 31248 4405 Sln
23964 4405 23964 4227 Sln
24120 4138 0
/Helvetica-0 findfont 444 yratio mul scalefont setfont
(0) stringwidth pop add
xratio div
dup 4 3 roll exch 90.000 cos mul sub 3 1 roll 90.000 sin mul sub 2 copy
/fntsize {/Helvetica-0 findfont exch scalefont setfont } def
90.000 444
(0) Stxtl
(0) stringwidth pop xratio div
dup 4 3 roll exch 90.000 cos mul add 3 1 roll 90.000 sin mul add 2 copy
pop pop pop pop
24935 4405 24935 4227 Sln
25091 4138 0
/Helvetica-0 findfont 444 yratio mul scalefont setfont
(1-2) stringwidth pop add
xratio div
dup 4 3 roll exch 90.000 cos mul sub 3 1 roll 90.000 sin mul sub 2 copy
/fntsize {/Helvetica-0 findfont exch scalefont setfont } def
90.000 444
(1-2) Stxtl
(1-2) stringwidth pop xratio div
dup 4 3 roll exch 90.000 cos mul add 3 1 roll 90.000 sin mul add 2 copy
pop pop pop pop
25906 4405 25906 4227 Sln
26062 4138 0
/Helvetica-0 findfont 444 yratio mul scalefont setfont
(3-4) stringwidth pop add
xratio div
dup 4 3 roll exch 90.000 cos mul sub 3 1 roll 90.000 sin mul sub 2 copy
/fntsize {/Helvetica-0 findfont exch scalefont setfont } def
90.000 444
(3-4) Stxtl
(3-4) stringwidth pop xratio div
dup 4 3 roll exch 90.000 cos mul add 3 1 roll 90.000 sin mul add 2 copy
pop pop pop pop
26877 4405 26877 4227 Sln
27033 4138 0
/Helvetica-0 findfont 444 yratio mul scalefont setfont
(5-6) stringwidth pop add
xratio div
dup 4 3 roll exch 90.000 cos mul sub 3 1 roll 90.000 sin mul sub 2 copy
/fntsize {/Helvetica-0 findfont exch scalefont setfont } def
90.000 444
(5-6) Stxtl
(5-6) stringwidth pop xratio div
dup 4 3 roll exch 90.000 cos mul add 3 1 roll 90.000 sin mul add 2 copy
pop pop pop pop
27849 4405 27849 4227 Sln
28005 4138 0
/Helvetica-0 findfont 444 yratio mul scalefont setfont
(7-8) stringwidth pop add
xratio div
dup 4 3 roll exch 90.000 cos mul sub 3 1 roll 90.000 sin mul sub 2 copy
/fntsize {/Helvetica-0 findfont exch scalefont setfont } def
90.000 444
(7-8) Stxtl
(7-8) stringwidth pop xratio div
dup 4 3 roll exch 90.000 cos mul add 3 1 roll 90.000 sin mul add 2 copy
pop pop pop pop
28820 4405 28820 4227 Sln
28976 4138 0
/Helvetica-0 findfont 444 yratio mul scalefont setfont
(9-10) stringwidth pop add
xratio div
dup 4 3 roll exch 90.000 cos mul sub 3 1 roll 90.000 sin mul sub 2 copy
/fntsize {/Helvetica-0 findfont exch scalefont setfont } def
90.000 444
(9-10) Stxtl
(9-10) stringwidth pop xratio div
dup 4 3 roll exch 90.000 cos mul add 3 1 roll 90.000 sin mul add 2 copy
pop pop pop pop
29791 4405 29791 4227 Sln
29947 4138 0
/Helvetica-0 findfont 444 yratio mul scalefont setfont
(11-12) stringwidth pop add
xratio div
dup 4 3 roll exch 90.000 cos mul sub 3 1 roll 90.000 sin mul sub 2 copy
/fntsize {/Helvetica-0 findfont exch scalefont setfont } def
90.000 444
(11-12) Stxtl
(11-12) stringwidth pop xratio div
dup 4 3 roll exch 90.000 cos mul add 3 1 roll 90.000 sin mul add 2 copy
pop pop pop pop
30762 4405 30762 4227 Sln
30918 4138 0
/Helvetica-0 findfont 444 yratio mul scalefont setfont
(13-14) stringwidth pop add
xratio div
dup 4 3 roll exch 90.000 cos mul sub 3 1 roll 90.000 sin mul sub 2 copy
/fntsize {/Helvetica-0 findfont exch scalefont setfont } def
90.000 444
(13-14) Stxtl
(13-14) stringwidth pop xratio div
dup 4 3 roll exch 90.000 cos mul add 3 1 roll 90.000 sin mul add 2 copy
pop pop pop pop
/Ssrgb {0.816 0.816 0.816} def
2208 14606 9977 15248 1 Srect
6092 14829 0
/Helvetica-0 findfont 489 yratio mul scalefont setfont
(Employed) stringwidth pop add
2 div xratio div
dup 4 3 roll exch 0.000 cos mul sub 3 1 roll 0.000 sin mul sub 2 copy
/fntsize {/Helvetica-0 findfont exch scalefont setfont } def
0.000 489
(Employed) Stxtl
(Employed) stringwidth pop xratio div
dup 4 3 roll exch 0.000 cos mul add 3 1 roll 0.000 sin mul add 2 copy
pop pop pop pop
12843 14606 20613 15248 1 Srect
16728 14829 0
/Helvetica-0 findfont 489 yratio mul scalefont setfont
(Smoking) stringwidth pop add
2 div xratio div
dup 4 3 roll exch 0.000 cos mul sub 3 1 roll 0.000 sin mul sub 2 copy
/fntsize {/Helvetica-0 findfont exch scalefont setfont } def
0.000 489
(Smoking) Stxtl
(Smoking) stringwidth pop xratio div
dup 4 3 roll exch 0.000 cos mul add 3 1 roll 0.000 sin mul add 2 copy
pop pop pop pop
23478 14606 31248 15248 1 Srect
27363 14829 0
/Helvetica-0 findfont 489 yratio mul scalefont setfont
(Alcohol) stringwidth pop add
2 div xratio div
dup 4 3 roll exch 0.000 cos mul sub 3 1 roll 0.000 sin mul sub 2 copy
/fntsize {/Helvetica-0 findfont exch scalefont setfont } def
0.000 489
(Alcohol) Stxtl
(Alcohol) stringwidth pop xratio div
dup 4 3 roll exch 0.000 cos mul add 3 1 roll 0.000 sin mul add 2 copy
pop pop pop pop
2208 8992 9977 9634 1 Srect
6092 9216 0
/Helvetica-0 findfont 489 yratio mul scalefont setfont
(BMI) stringwidth pop add
2 div xratio div
dup 4 3 roll exch 0.000 cos mul sub 3 1 roll 0.000 sin mul sub 2 copy
/fntsize {/Helvetica-0 findfont exch scalefont setfont } def
0.000 489
(BMI) Stxtl
(BMI) stringwidth pop xratio div
dup 4 3 roll exch 0.000 cos mul add 3 1 roll 0.000 sin mul add 2 copy
pop pop pop pop
12843 8992 20613 9634 1 Srect
16728 9216 0
/Helvetica-0 findfont 489 yratio mul scalefont setfont
(Waist \(cm\)) stringwidth pop add
2 div xratio div
dup 4 3 roll exch 0.000 cos mul sub 3 1 roll 0.000 sin mul sub 2 copy
/fntsize {/Helvetica-0 findfont exch scalefont setfont } def
0.000 489
(Waist \(cm\)) Stxtl
(Waist \(cm\)) stringwidth pop xratio div
dup 4 3 roll exch 0.000 cos mul add 3 1 roll 0.000 sin mul add 2 copy
pop pop pop pop
23478 8992 31248 9634 1 Srect
27363 9216 0
/Helvetica-0 findfont 489 yratio mul scalefont setfont
(Kcal) stringwidth pop add
2 div xratio div
dup 4 3 roll exch 0.000 cos mul sub 3 1 roll 0.000 sin mul sub 2 copy
/fntsize {/Helvetica-0 findfont exch scalefont setfont } def
0.000 489
(Kcal) Stxtl
(Kcal) stringwidth pop xratio div
dup 4 3 roll exch 0.000 cos mul add 3 1 roll 0.000 sin mul add 2 copy
pop pop pop pop
/Ssrgb {1.000 1.000 1.000} def
/Slw 0.576 def
11729 752 20827 1788 1 Srect
/Slrgb {0.376 0.376 0.376} def
11969 1270 14049 1270 Sln
/Slrgb {0.627 0.627 0.627} def
16294 1270 16422 1270 Sln
16534 1270 16662 1270 Sln
16774 1270 16902 1270 Sln
17015 1270 17143 1270 Sln
17255 1270 17383 1270 Sln
17495 1270 17623 1270 Sln
17735 1270 17863 1270 Sln
17976 1270 18104 1270 Sln
18216 1270 18344 1270 Sln
14382 1076 2 copy
/fntsize {/Helvetica-0 findfont exch scalefont setfont } def
0.000 556
(men) Stxtl
(men) stringwidth pop xratio div
dup 4 3 roll exch 0.000 cos mul add 3 1 roll 0.000 sin mul add 2 copy
pop pop pop pop
18707 1076 2 copy
/fntsize {/Helvetica-0 findfont exch scalefont setfont } def
0.000 556
(women) Stxtl
(women) stringwidth pop xratio div
dup 4 3 roll exch 0.000 cos mul add 3 1 roll 0.000 sin mul add 2 copy
pop pop pop pop
949 8988 0
/Helvetica-0 findfont 556 yratio mul scalefont setfont
(Marginal effect) stringwidth pop add
2 div xratio div
dup 4 3 roll exch 90.000 cos mul sub 3 1 roll 90.000 sin mul sub 2 copy
/fntsize {/Helvetica-0 findfont exch scalefont setfont } def
90.000 556
(Marginal effect) Stxtl
(Marginal effect) stringwidth pop xratio div
dup 4 3 roll exch 90.000 cos mul add 3 1 roll 90.000 sin mul add 2 copy
pop pop pop pop
16278 2147 0
/Helvetica-0 findfont 556 yratio mul scalefont setfont
(Years after diagnosis) stringwidth pop add
2 div xratio div
dup 4 3 roll exch 0.000 cos mul sub 3 1 roll 0.000 sin mul sub 2 copy
/fntsize {/Helvetica-0 findfont exch scalefont setfont } def
0.000 556
(Years after diagnosis) Stxtl
(Years after diagnosis) stringwidth pop xratio div
dup 4 3 roll exch 0.000 cos mul add 3 1 roll 0.000 sin mul add 2 copy
pop pop pop pop
S showpage
%%EOF
