%!PS-Adobe-2.0 EPSF-2.0
%% This is a Stata generated postscript file
%%BoundingBox: 0 0 1008 576
%%HiResBoundingBox: 0.000 0.000 1008.000 576.000
%%DocumentNeededResources: font Helvetica
/xratio 0.031500 def
/yratio 0.031501 def
/Sbgfill {
	/y1 exch def
	/x1 exch def
	/y0 exch def
	/x0 exch def
	x0 y0 moveto
	x0 y1 lineto x1 y1 lineto x1 y0 lineto x0 y0 lineto
	fill
} def
/Spt {
	yratio mul
	/yp exch def
	xratio mul
	/xp exch def
	Slrgb setrgbcolor
	xp yp .5 0 360 arc fill
} def
/Sln {
	yratio mul
	/y1p exch def
	xratio mul
	/x1p exch def
	yratio mul
	/y0p exch def
	xratio mul
	/x0p exch def
	Slw setlinewidth
	Slrgb setrgbcolor
	x0p y0p M x1p y1p lineto S
} def
/Scrv {
	yratio mul
	/y3p exch def
	xratio mul
	/x3p exch def
	yratio mul
	/y2p exch def
	xratio mul
	/x2p exch def
	yratio mul
	/y1p exch def
	xratio mul
	/x1p exch def
	Slw setlinewidth
	Slrgb setrgbcolor
	x1p y1p x2p y2p x3p y3p curveto
	stroke
} def
/Stxtl {
	/sp exch def
	yratio mul
	/sizep exch def
	dup
	/anglep exch def
	0 exch sub
	/angle2p exch def
	yratio mul
	/y0p exch def
	xratio mul
	/x0p exch def
	Strgb setrgbcolor
	x0p y0p M anglep rotate sizep fntsize sp show stroke angle2p rotate
} def
/Stxtc {
	/sp exch def
	yratio mul
	/sizep exch def
	dup
	/anglep exch def
	0 exch sub
	/angle2p exch def
	yratio mul
	/y0p exch def
	xratio mul
	/x0p exch def
	Strgb setrgbcolor
	x0p y0p M anglep rotate sizep fntsize sp stringwidth exch -2 div exch rm sp show stroke angle2p rotate
} def
/Stxtr {
	/sp exch def
	yratio mul
	/sizep exch def
	dup
	/anglep exch def
	0 exch sub
	/angle2p exch def
	yratio mul
	/y0p exch def
	xratio mul
	/x0p exch def
	Strgb setrgbcolor
	x0p y0p M anglep rotate sizep fntsize sp stringwidth 1 index -1 mul exch rm pop sp show stroke angle2p rotate
} def
/Srect {
	/sfill exch def
	/sstroke exch def
	yratio mul
	/y1 exch def
	xratio mul
	/x1 exch def
	yratio mul
	/y0 exch def
	xratio mul
	/x0 exch def
	newpath x0 y0 moveto x0 y1 lineto x1 y1 lineto x1 y0 lineto x0 y0 lineto closepath
	sfill Sfill
	sstroke Sstroke
} def
/Sellipse {
	/sfill exch def
	/sstroke exch def
	yratio mul
	/yrad exch def
	xratio mul
	/xrad exch def
	yratio mul
	/y exch def
	xratio mul
	/x exch def
	/savematrix matrix currentmatrix def
	x y translate
	xrad yrad scale
	0 0 1 0 360 arc
	savematrix setmatrix
	sfill Sfill
	sstroke Sstroke
} def
/Stri {
	/sfill exch def
	/sstroke exch def
	xratio mul
	/r exch def
	yratio mul
	/y0 exch def
	xratio mul
	/x0 exch def
	/xcen x0 def
	y0 r add
	/ytop exch def
	r 2 div
	y0 exch sub
	/ybot exch def
	r 3 sqrt 2 div mul dup
	xcen exch sub
	/xleft exch def
	xcen add
	/xright exch def
	newpath xcen ytop moveto xright ybot lineto xleft ybot lineto xcen ytop lineto closepath
	sfill Sfill
	sstroke Sstroke
} def
/Soldtri {
	/sfill exch def
	xratio mul
	/r exch def
	yratio mul
	/y0 exch def
	xratio mul
	/x0 exch def
	x0 r sub
	/x1 exch def
	y0 r sub
	/y1 exch def
	x0 r add
	/x2 exch def
	y0 r sub
	/y2 exch def
	/x3 x0 def
	y0 r add
	/y3 exch def
	newpath x1 y1 moveto x2 y2 lineto x3 y3 lineto x1 y1 lineto closepath
	sfill 1 eq {
		Ssrgb setrgbcolor
		gsave
		fill
		grestore
	} if
	Slw setlinewidth
	Slrgb setrgbcolor
	stroke
} def
/Sdia {
	/sfill exch def
	/sstroke exch def
	xratio mul
	/r exch def
	yratio mul
	/y exch def
	xratio mul
	/x exch def
	x r sub
	/x0 exch def
	/y0 y def
	/x1 x def
	y r sub
	/y1 exch def
	x r add
	/x2 exch def
	/y2 y def
	/x3 x def
	y r add
	/y3 exch def
	newpath x0 y0 moveto x1 y1 lineto x2 y2 lineto x3 y3 lineto closepath
	sfill Sfill
	sstroke Sstroke
} def
/Scc {
	/sfill exch def
	/sstroke exch def
	xratio mul
	/r0 exch def
	yratio mul
	/y0 exch def
	xratio mul
	/x0 exch def
	x0 y0 r0 0 360 arc closepath
	sfill Sfill
	sstroke Sstroke
} def
/Spie {
	/sfill exch def
	/salign exch def
	/a1 exch def
	/a0 exch def
	xratio mul
	/r exch def
	yratio mul
	/y exch def
	xratio mul
	/x exch def
	/Pie {
		x y moveto x y r a0 a1 arc closepath
	} def
	newpath Pie
	sfill Sfill
	Slrgb setrgbcolor
	salign 0 eq {
		gsave
		Slw 2 mul setlinewidth
		clip
		stroke
		grestore
	} if
	salign 1 eq {
		Slw setlinewidth
		stroke
	} if
	salign 2 eq {
		gsave
		Slw 2 mul setlinewidth
		strokepath
		pathbbox
		/ury exch def
		/urx exch def
		/lly exch def
		/llx exch def
		newpath llx lly moveto llx ury lineto urx ury lineto urx lly lineto closepath
		Pie
		eoclip
		newpath Pie
		stroke
		grestore
	} if
	newpath
} def
/Splu {
	xratio mul
	/r exch def
	yratio mul
	/y exch def
	xratio mul
	/x exch def
	x r sub
	/x0 exch def
	x r add
	/x1 exch def
	x0 y M x1 y L
	y r sub
	/y0 exch def
	y r add
	/y1 exch def
	x y0 M x y1 L
} def
/Scro {
	xratio mul
	/r exch def
	yratio mul
	/y exch def
	xratio mul
	/x exch def
	x r sub
	/x0 exch def
	y r sub
	/y0 exch def
	x r add
	/x1 exch def
	y r add
	/y1 exch def
	x0 y0 M x1 y1 L
	x r add
	/x0 exch def
	y r sub
	/y0 exch def
	x r sub
	/x1 exch def
	y r add
	/y1 exch def
	x0 y0 M x1 y1 L
} def
/Sm {
	yratio mul
	/y exch def
	xratio mul
	/x exch def
	x y M
} def
/Sl {
	yratio mul
	/y exch def
	xratio mul
	/x exch def
	x y L
} def
/SPl {
	yratio mul
	/y exch def
	xratio mul
	/x exch def
	x y PL
} def
/Sarr {
	/sfill exch def
	xratio mul
	/r exch def
	yratio mul
	/y exch def
	xratio mul
	/x exch def
	y r add
	/ytop exch def
	y r sub
	/ybot exch def
	gsave
	Slrgb setrgbcolor
	sfill 0 eq {
		r 2 mul 3 div dup
		x exch sub
		/xleft exch def
		x add
		/xright exch def
		newpath xleft y moveto x ytop lineto xright y lineto x ytop moveto x ybot lineto
		Lcs
		1 setlinejoin
	} {
		r 2 div dup
		x exch sub
		/xleft exch def
		x add
		/xright exch def
		newpath xleft y moveto x ytop lineto xright y lineto x ytop closepath moveto x ybot lineto
		gsave
		fill
		grestore
	} ifelse
	Slw setlinewidth
	stroke
	grestore
} def
/Spipe {
	xratio mul
	/r exch def
	yratio mul
	/y exch def
	xratio mul
	/x exch def
	y r sub
	/y0 exch def
	y r add
	/y1 exch def
	x y0 M x y1 L
} def
/Sv {
	xratio mul
	/r exch def
	yratio mul
	/y0 exch def
	xratio mul
	/x0 exch def
	/xcen x0 def
	y0 r add
	/ytop exch def
	r 2 div
	y0 exch sub
	/ybot exch def
	r 3 sqrt 2 div mul dup
	xcen exch sub
	/xleft exch def
	xcen add
	/xright exch def
	newpath xleft ytop moveto xcen ybot lineto xright ytop lineto
	Slw setlinewidth
	Slrgb setrgbcolor
	stroke
} def
/Lcs {
	currentlinecap
	1 setlinecap
} def
/Lcr {
	setlinecap
} def
/Sbp {
	newpath
} def
/Sep {
	/sfill exch def
	closepath
	/salign exch def
	Lcs
	salign 0 eq {
		sfill Sfill
		gsave
		Slw 2 mul setlinewidth
		clip
		Slrgb setrgbcolor
		stroke
		grestore
	} if
	salign 1 eq {
		sfill Sfill
		Slw setlinewidth
		Slrgb setrgbcolor
		stroke
	} if
	salign 2 eq {
		gsave
		Slw 2 mul setlinewidth
		Slrgb setrgbcolor
		stroke
		grestore
		sfill Sfill
	} if
	newpath
	Lcr
} def
/Stransrot {
	/anglep exch def
	yratio mul
	/y exch def
	xratio mul
	/x exch def
	x y translate
	anglep rotate
	x neg y neg translate
} def
/cp {currentpoint} def 
/M {moveto} def 
/rm {rmoveto} def 
/S {stroke} def 
/L {Slw setlinewidth Slrgb setrgbcolor lineto Lcs S Lcr} def 
/PL {Slw setlinewidth Slrgb setrgbcolor lineto} def 
/MF-Helvetica {
  /newfontname exch def
  /fontname exch def
  /fontdict fontname findfont def
  /newfont fontdict maxlength dict def
  fontdict {
  exch dup /FID eq {pop pop} {exch newfont 3 1 roll put} ifelse
  } forall
  newfont /FontName newfontname put
  newfont /Encoding ISOLatin1Encoding put
  newfontname newfont definefont pop
} def
/Helvetica /Helvetica-0 MF-Helvetica
/Slw 0.120 def
1.000 1.000 1.000 setrgbcolor
0 0 1008.000 576.000 Sbgfill
/Sfill {
	/sfill exch def
	sfill 1 eq {
		Ssrgb setrgbcolor
		gsave
		fill
		grestore
	} if
} def
/Sstroke {
	/sstroke exch def
	sstroke 1 eq {
		Slw setlinewidth
		Slrgb setrgbcolor
		stroke
	} if
	newpath
} def
/Slrgb {1.000 1.000 1.000} def
/Strgb {1.000 1.000 1.000} def
/Ssrgb {1.000 1.000 1.000} def
/Slw 1.152 def
0 0 31999 18285 0 1 Srect
18 18 31981 18267 1 0 Srect
/Slw 0.588 def
/Slrgb {0.000 0.000 0.000} def
2555 3992 8678 17177 0 0 Srect
2564 4001 8669 17168 1 0 Srect
/Strgb {0.000 0.000 0.000} def
/Slw 0.881 def
/Slrgb {0.188 0.188 0.188} def
2555 10979 8678 10979 Sln
/Slw 0.588 def
/Slrgb {0.000 0.000 0.000} def
10085 3992 16208 17177 0 0 Srect
10094 4001 16199 17168 1 0 Srect
/Slw 0.881 def
/Slrgb {0.188 0.188 0.188} def
10085 10260 16208 10260 Sln
/Slw 0.588 def
/Slrgb {0.000 0.000 0.000} def
17706 3992 23829 17177 0 0 Srect
17715 4001 23820 17168 1 0 Srect
/Slw 0.881 def
/Slrgb {0.188 0.188 0.188} def
17706 10585 23829 10585 Sln
/Slw 0.588 def
/Slrgb {0.000 0.000 0.000} def
25236 3992 31359 17177 0 0 Srect
25245 4001 31350 17168 1 0 Srect
/Slw 0.881 def
/Slrgb {0.188 0.188 0.188} def
25236 10585 31359 10585 Sln
/Ssrgb {0.502 0.502 0.502} def
/Slrgb {0.376 0.376 0.376} def
2963 10836 2963 13953 Sln
4188 9343 4188 12196 Sln
5412 7154 5412 12232 Sln
6637 7794 6637 13933 Sln
7861 7693 7861 15929 Sln
2963 12394 Sm
4187 10769 Sl
4187 10769 Sm
5412 9693 Sl
5412 9693 Sm
6636 10863 Sl
6636 10863 Sm
7861 11811 Sl
/Ssrgb {0.702 0.702 0.702} def
/Slrgb {0.627 0.627 0.627} def
3371 4783 3371 10734 Sln
4596 6758 4596 10390 Sln
5820 4197 5820 9594 Sln
7045 4893 7045 12777 Sln
8270 5171 8270 14006 Sln
3371 7758 3492 7839 Sln
3599 7910 3720 7991 Sln
3827 8062 3948 8143 Sln
4055 8214 4176 8295 Sln
4283 8366 4404 8447 Sln
4511 8518 4595 8574 Sln
4595 8574 4622 8538 Sln
4697 8434 4783 8316 Sln
4859 8213 4945 8095 Sln
5020 7991 5106 7873 Sln
5182 7770 5268 7651 Sln
5343 7548 5429 7430 Sln
5504 7327 5591 7208 Sln
5666 7105 5753 6987 Sln
5827 6907 5906 7030 Sln
5974 7138 6052 7262 Sln
6121 7370 6199 7494 Sln
6267 7602 6345 7726 Sln
6413 7834 6492 7958 Sln
6560 8066 6638 8190 Sln
6706 8298 6784 8421 Sln
6852 8530 6930 8653 Sln
6999 8762 7045 8835 Sln
7045 8835 7096 8866 Sln
7204 8933 7329 9010 Sln
7438 9077 7562 9153 Sln
7671 9220 7796 9297 Sln
7905 9364 8030 9441 Sln
8138 9508 8263 9585 Sln
/Ssrgb {0.502 0.502 0.502} def
/Slrgb {0.376 0.376 0.376} def
10493 9104 10493 13621 Sln
11718 7204 11718 10668 Sln
12942 4197 12942 10342 Sln
14167 4519 14167 15848 Sln
15392 8043 15392 16972 Sln
10493 11362 Sm
11717 8936 Sl
11717 8936 Sm
12942 7269 Sl
12942 7269 Sm
14166 10183 Sl
14166 10183 Sm
15391 12507 Sl
/Ssrgb {0.702 0.702 0.702} def
/Slrgb {0.627 0.627 0.627} def
/Ssrgb {0.502 0.502 0.502} def
/Slrgb {0.376 0.376 0.376} def
18114 9208 18114 13391 Sln
19338 7739 19338 10400 Sln
20563 7098 20563 10515 Sln
21788 6380 21788 14873 Sln
23012 4361 23012 11266 Sln
18113 11299 Sm
19338 9069 Sl
19338 9069 Sm
20563 8806 Sl
20563 8806 Sm
21787 10626 Sl
21787 10626 Sm
23012 7813 Sl
/Ssrgb {0.702 0.702 0.702} def
/Slrgb {0.627 0.627 0.627} def
/Ssrgb {0.502 0.502 0.502} def
/Slrgb {0.376 0.376 0.376} def
25644 7504 25644 11941 Sln
26869 9650 26869 12931 Sln
28093 8671 28093 14273 Sln
29318 4780 29318 15468 Sln
30542 4996 30542 16627 Sln
25643 9722 Sm
26868 11290 Sl
26868 11290 Sm
28093 11472 Sl
28093 11472 Sm
29317 10123 Sl
29317 10123 Sm
30542 10811 Sl
/Ssrgb {0.702 0.702 0.702} def
/Slrgb {0.627 0.627 0.627} def
26052 11034 26052 16543 Sln
27277 10172 27277 12837 Sln
28501 10078 28501 14300 Sln
29726 9542 29726 15728 Sln
30951 7397 30951 10386 Sln
26052 13788 26121 13659 Sln
26181 13546 26250 13417 Sln
26311 13305 26380 13176 Sln
26440 13063 26509 12934 Sln
26570 12821 26639 12692 Sln
26699 12579 26768 12450 Sln
26829 12338 26898 12209 Sln
26958 12096 27027 11967 Sln
27088 11854 27157 11725 Sln
27218 11613 27276 11504 Sln
27276 11504 27296 11516 Sln
27408 11578 27535 11649 Sln
27647 11712 27775 11783 Sln
27886 11846 28014 11917 Sln
28126 11979 28254 12050 Sln
28366 12113 28493 12184 Sln
28613 12229 28750 12279 Sln
28870 12323 29008 12373 Sln
29128 12417 29265 12467 Sln
29385 12511 29523 12561 Sln
29643 12605 29725 12635 Sln
29725 12635 29743 12579 Sln
29783 12458 29828 12319 Sln
29868 12197 29914 12059 Sln
29953 11937 29999 11798 Sln
30039 11677 30084 11538 Sln
30124 11416 30169 11277 Sln
30209 11156 30254 11017 Sln
30294 10895 30339 10756 Sln
30379 10635 30425 10496 Sln
30464 10374 30510 10236 Sln
30550 10114 30595 9975 Sln
30635 9854 30680 9715 Sln
30720 9593 30765 9454 Sln
30805 9333 30850 9194 Sln
30890 9072 30936 8933 Sln
/Slw 0.588 def
/Slrgb {0.000 0.000 0.000} def
2555 3992 2555 17177 Sln
2555 4987 2425 4987 Sln
2361 4897 0
/Helvetica-0 findfont 259 yratio mul scalefont setfont
(-.3) stringwidth pop add
xratio div
dup 4 3 roll exch 0.000 cos mul sub 3 1 roll 0.000 sin mul sub 2 copy
/fntsize {/Helvetica-0 findfont exch scalefont setfont } def
0.000 259
(-.3) Stxtl
(-.3) stringwidth pop xratio div
dup 4 3 roll exch 0.000 cos mul add 3 1 roll 0.000 sin mul add 2 copy
pop pop pop pop
2555 6984 2425 6984 Sln
2361 6894 0
/Helvetica-0 findfont 259 yratio mul scalefont setfont
(-.2) stringwidth pop add
xratio div
dup 4 3 roll exch 0.000 cos mul sub 3 1 roll 0.000 sin mul sub 2 copy
/fntsize {/Helvetica-0 findfont exch scalefont setfont } def
0.000 259
(-.2) Stxtl
(-.2) stringwidth pop xratio div
dup 4 3 roll exch 0.000 cos mul add 3 1 roll 0.000 sin mul add 2 copy
pop pop pop pop
2555 8982 2425 8982 Sln
2361 8892 0
/Helvetica-0 findfont 259 yratio mul scalefont setfont
(-.1) stringwidth pop add
xratio div
dup 4 3 roll exch 0.000 cos mul sub 3 1 roll 0.000 sin mul sub 2 copy
/fntsize {/Helvetica-0 findfont exch scalefont setfont } def
0.000 259
(-.1) Stxtl
(-.1) stringwidth pop xratio div
dup 4 3 roll exch 0.000 cos mul add 3 1 roll 0.000 sin mul add 2 copy
pop pop pop pop
2555 10979 2425 10979 Sln
2361 10889 0
/Helvetica-0 findfont 259 yratio mul scalefont setfont
(0) stringwidth pop add
xratio div
dup 4 3 roll exch 0.000 cos mul sub 3 1 roll 0.000 sin mul sub 2 copy
/fntsize {/Helvetica-0 findfont exch scalefont setfont } def
0.000 259
(0) Stxtl
(0) stringwidth pop xratio div
dup 4 3 roll exch 0.000 cos mul add 3 1 roll 0.000 sin mul add 2 copy
pop pop pop pop
2555 12977 2425 12977 Sln
2361 12887 0
/Helvetica-0 findfont 259 yratio mul scalefont setfont
(.1) stringwidth pop add
xratio div
dup 4 3 roll exch 0.000 cos mul sub 3 1 roll 0.000 sin mul sub 2 copy
/fntsize {/Helvetica-0 findfont exch scalefont setfont } def
0.000 259
(.1) Stxtl
(.1) stringwidth pop xratio div
dup 4 3 roll exch 0.000 cos mul add 3 1 roll 0.000 sin mul add 2 copy
pop pop pop pop
2555 14974 2425 14974 Sln
2361 14884 0
/Helvetica-0 findfont 259 yratio mul scalefont setfont
(.2) stringwidth pop add
xratio div
dup 4 3 roll exch 0.000 cos mul sub 3 1 roll 0.000 sin mul sub 2 copy
/fntsize {/Helvetica-0 findfont exch scalefont setfont } def
0.000 259
(.2) Stxtl
(.2) stringwidth pop xratio div
dup 4 3 roll exch 0.000 cos mul add 3 1 roll 0.000 sin mul add 2 copy
pop pop pop pop
2555 16972 2425 16972 Sln
2361 16882 0
/Helvetica-0 findfont 259 yratio mul scalefont setfont
(.3) stringwidth pop add
xratio div
dup 4 3 roll exch 0.000 cos mul sub 3 1 roll 0.000 sin mul sub 2 copy
/fntsize {/Helvetica-0 findfont exch scalefont setfont } def
0.000 259
(.3) Stxtl
(.3) stringwidth pop xratio div
dup 4 3 roll exch 0.000 cos mul add 3 1 roll 0.000 sin mul add 2 copy
pop pop pop pop
10085 3992 10085 17177 Sln
10085 4271 9955 4271 Sln
9891 4181 0
/Helvetica-0 findfont 259 yratio mul scalefont setfont
(-.3) stringwidth pop add
xratio div
dup 4 3 roll exch 0.000 cos mul sub 3 1 roll 0.000 sin mul sub 2 copy
/fntsize {/Helvetica-0 findfont exch scalefont setfont } def
0.000 259
(-.3) Stxtl
(-.3) stringwidth pop xratio div
dup 4 3 roll exch 0.000 cos mul add 3 1 roll 0.000 sin mul add 2 copy
pop pop pop pop
10085 6268 9955 6268 Sln
9891 6178 0
/Helvetica-0 findfont 259 yratio mul scalefont setfont
(-.2) stringwidth pop add
xratio div
dup 4 3 roll exch 0.000 cos mul sub 3 1 roll 0.000 sin mul sub 2 copy
/fntsize {/Helvetica-0 findfont exch scalefont setfont } def
0.000 259
(-.2) Stxtl
(-.2) stringwidth pop xratio div
dup 4 3 roll exch 0.000 cos mul add 3 1 roll 0.000 sin mul add 2 copy
pop pop pop pop
10085 8264 9955 8264 Sln
9891 8174 0
/Helvetica-0 findfont 259 yratio mul scalefont setfont
(-.1) stringwidth pop add
xratio div
dup 4 3 roll exch 0.000 cos mul sub 3 1 roll 0.000 sin mul sub 2 copy
/fntsize {/Helvetica-0 findfont exch scalefont setfont } def
0.000 259
(-.1) Stxtl
(-.1) stringwidth pop xratio div
dup 4 3 roll exch 0.000 cos mul add 3 1 roll 0.000 sin mul add 2 copy
pop pop pop pop
10085 10260 9955 10260 Sln
9891 10170 0
/Helvetica-0 findfont 259 yratio mul scalefont setfont
(0) stringwidth pop add
xratio div
dup 4 3 roll exch 0.000 cos mul sub 3 1 roll 0.000 sin mul sub 2 copy
/fntsize {/Helvetica-0 findfont exch scalefont setfont } def
0.000 259
(0) Stxtl
(0) stringwidth pop xratio div
dup 4 3 roll exch 0.000 cos mul add 3 1 roll 0.000 sin mul add 2 copy
pop pop pop pop
10085 12256 9955 12256 Sln
9891 12166 0
/Helvetica-0 findfont 259 yratio mul scalefont setfont
(.1) stringwidth pop add
xratio div
dup 4 3 roll exch 0.000 cos mul sub 3 1 roll 0.000 sin mul sub 2 copy
/fntsize {/Helvetica-0 findfont exch scalefont setfont } def
0.000 259
(.1) Stxtl
(.1) stringwidth pop xratio div
dup 4 3 roll exch 0.000 cos mul add 3 1 roll 0.000 sin mul add 2 copy
pop pop pop pop
10085 14253 9955 14253 Sln
9891 14163 0
/Helvetica-0 findfont 259 yratio mul scalefont setfont
(.2) stringwidth pop add
xratio div
dup 4 3 roll exch 0.000 cos mul sub 3 1 roll 0.000 sin mul sub 2 copy
/fntsize {/Helvetica-0 findfont exch scalefont setfont } def
0.000 259
(.2) Stxtl
(.2) stringwidth pop xratio div
dup 4 3 roll exch 0.000 cos mul add 3 1 roll 0.000 sin mul add 2 copy
pop pop pop pop
10085 16249 9955 16249 Sln
9891 16159 0
/Helvetica-0 findfont 259 yratio mul scalefont setfont
(.3) stringwidth pop add
xratio div
dup 4 3 roll exch 0.000 cos mul sub 3 1 roll 0.000 sin mul sub 2 copy
/fntsize {/Helvetica-0 findfont exch scalefont setfont } def
0.000 259
(.3) Stxtl
(.3) stringwidth pop xratio div
dup 4 3 roll exch 0.000 cos mul add 3 1 roll 0.000 sin mul add 2 copy
pop pop pop pop
17706 3992 17706 17177 Sln
17706 4197 17576 4197 Sln
17511 4107 0
/Helvetica-0 findfont 259 yratio mul scalefont setfont
(-.4) stringwidth pop add
xratio div
dup 4 3 roll exch 0.000 cos mul sub 3 1 roll 0.000 sin mul sub 2 copy
/fntsize {/Helvetica-0 findfont exch scalefont setfont } def
0.000 259
(-.4) Stxtl
(-.4) stringwidth pop xratio div
dup 4 3 roll exch 0.000 cos mul add 3 1 roll 0.000 sin mul add 2 copy
pop pop pop pop
17706 7391 17576 7391 Sln
17511 7301 0
/Helvetica-0 findfont 259 yratio mul scalefont setfont
(-.2) stringwidth pop add
xratio div
dup 4 3 roll exch 0.000 cos mul sub 3 1 roll 0.000 sin mul sub 2 copy
/fntsize {/Helvetica-0 findfont exch scalefont setfont } def
0.000 259
(-.2) Stxtl
(-.2) stringwidth pop xratio div
dup 4 3 roll exch 0.000 cos mul add 3 1 roll 0.000 sin mul add 2 copy
pop pop pop pop
17706 10585 17576 10585 Sln
17511 10495 0
/Helvetica-0 findfont 259 yratio mul scalefont setfont
(0) stringwidth pop add
xratio div
dup 4 3 roll exch 0.000 cos mul sub 3 1 roll 0.000 sin mul sub 2 copy
/fntsize {/Helvetica-0 findfont exch scalefont setfont } def
0.000 259
(0) Stxtl
(0) stringwidth pop xratio div
dup 4 3 roll exch 0.000 cos mul add 3 1 roll 0.000 sin mul add 2 copy
pop pop pop pop
17706 13778 17576 13778 Sln
17511 13688 0
/Helvetica-0 findfont 259 yratio mul scalefont setfont
(.2) stringwidth pop add
xratio div
dup 4 3 roll exch 0.000 cos mul sub 3 1 roll 0.000 sin mul sub 2 copy
/fntsize {/Helvetica-0 findfont exch scalefont setfont } def
0.000 259
(.2) Stxtl
(.2) stringwidth pop xratio div
dup 4 3 roll exch 0.000 cos mul add 3 1 roll 0.000 sin mul add 2 copy
pop pop pop pop
17706 16972 17576 16972 Sln
17511 16882 0
/Helvetica-0 findfont 259 yratio mul scalefont setfont
(.4) stringwidth pop add
xratio div
dup 4 3 roll exch 0.000 cos mul sub 3 1 roll 0.000 sin mul sub 2 copy
/fntsize {/Helvetica-0 findfont exch scalefont setfont } def
0.000 259
(.4) Stxtl
(.4) stringwidth pop xratio div
dup 4 3 roll exch 0.000 cos mul add 3 1 roll 0.000 sin mul add 2 copy
pop pop pop pop
25236 3992 25236 17177 Sln
25236 4197 25106 4197 Sln
25042 4107 0
/Helvetica-0 findfont 259 yratio mul scalefont setfont
(-.3) stringwidth pop add
xratio div
dup 4 3 roll exch 0.000 cos mul sub 3 1 roll 0.000 sin mul sub 2 copy
/fntsize {/Helvetica-0 findfont exch scalefont setfont } def
0.000 259
(-.3) Stxtl
(-.3) stringwidth pop xratio div
dup 4 3 roll exch 0.000 cos mul add 3 1 roll 0.000 sin mul add 2 copy
pop pop pop pop
25236 6327 25106 6327 Sln
25042 6237 0
/Helvetica-0 findfont 259 yratio mul scalefont setfont
(-.2) stringwidth pop add
xratio div
dup 4 3 roll exch 0.000 cos mul sub 3 1 roll 0.000 sin mul sub 2 copy
/fntsize {/Helvetica-0 findfont exch scalefont setfont } def
0.000 259
(-.2) Stxtl
(-.2) stringwidth pop xratio div
dup 4 3 roll exch 0.000 cos mul add 3 1 roll 0.000 sin mul add 2 copy
pop pop pop pop
25236 8456 25106 8456 Sln
25042 8366 0
/Helvetica-0 findfont 259 yratio mul scalefont setfont
(-.1) stringwidth pop add
xratio div
dup 4 3 roll exch 0.000 cos mul sub 3 1 roll 0.000 sin mul sub 2 copy
/fntsize {/Helvetica-0 findfont exch scalefont setfont } def
0.000 259
(-.1) Stxtl
(-.1) stringwidth pop xratio div
dup 4 3 roll exch 0.000 cos mul add 3 1 roll 0.000 sin mul add 2 copy
pop pop pop pop
25236 10585 25106 10585 Sln
25042 10495 0
/Helvetica-0 findfont 259 yratio mul scalefont setfont
(0) stringwidth pop add
xratio div
dup 4 3 roll exch 0.000 cos mul sub 3 1 roll 0.000 sin mul sub 2 copy
/fntsize {/Helvetica-0 findfont exch scalefont setfont } def
0.000 259
(0) Stxtl
(0) stringwidth pop xratio div
dup 4 3 roll exch 0.000 cos mul add 3 1 roll 0.000 sin mul add 2 copy
pop pop pop pop
25236 12714 25106 12714 Sln
25042 12624 0
/Helvetica-0 findfont 259 yratio mul scalefont setfont
(.1) stringwidth pop add
xratio div
dup 4 3 roll exch 0.000 cos mul sub 3 1 roll 0.000 sin mul sub 2 copy
/fntsize {/Helvetica-0 findfont exch scalefont setfont } def
0.000 259
(.1) Stxtl
(.1) stringwidth pop xratio div
dup 4 3 roll exch 0.000 cos mul add 3 1 roll 0.000 sin mul add 2 copy
pop pop pop pop
25236 14843 25106 14843 Sln
25042 14753 0
/Helvetica-0 findfont 259 yratio mul scalefont setfont
(.2) stringwidth pop add
xratio div
dup 4 3 roll exch 0.000 cos mul sub 3 1 roll 0.000 sin mul sub 2 copy
/fntsize {/Helvetica-0 findfont exch scalefont setfont } def
0.000 259
(.2) Stxtl
(.2) stringwidth pop xratio div
dup 4 3 roll exch 0.000 cos mul add 3 1 roll 0.000 sin mul add 2 copy
pop pop pop pop
25236 16972 25106 16972 Sln
25042 16882 0
/Helvetica-0 findfont 259 yratio mul scalefont setfont
(.3) stringwidth pop add
xratio div
dup 4 3 roll exch 0.000 cos mul sub 3 1 roll 0.000 sin mul sub 2 copy
/fntsize {/Helvetica-0 findfont exch scalefont setfont } def
0.000 259
(.3) Stxtl
(.3) stringwidth pop xratio div
dup 4 3 roll exch 0.000 cos mul add 3 1 roll 0.000 sin mul add 2 copy
pop pop pop pop
2555 3992 8678 3992 Sln
3167 3992 3167 3863 Sln
3281 3798 0
/Helvetica-0 findfont 324 yratio mul scalefont setfont
(0-1) stringwidth pop add
xratio div
dup 4 3 roll exch 90.000 cos mul sub 3 1 roll 90.000 sin mul sub 2 copy
/fntsize {/Helvetica-0 findfont exch scalefont setfont } def
90.000 324
(0-1) Stxtl
(0-1) stringwidth pop xratio div
dup 4 3 roll exch 90.000 cos mul add 3 1 roll 90.000 sin mul add 2 copy
pop pop pop pop
4392 3992 4392 3863 Sln
4506 3798 0
/Helvetica-0 findfont 324 yratio mul scalefont setfont
(2-4) stringwidth pop add
xratio div
dup 4 3 roll exch 90.000 cos mul sub 3 1 roll 90.000 sin mul sub 2 copy
/fntsize {/Helvetica-0 findfont exch scalefont setfont } def
90.000 324
(2-4) Stxtl
(2-4) stringwidth pop xratio div
dup 4 3 roll exch 90.000 cos mul add 3 1 roll 90.000 sin mul add 2 copy
pop pop pop pop
5616 3992 5616 3863 Sln
5730 3798 0
/Helvetica-0 findfont 324 yratio mul scalefont setfont
(5-7) stringwidth pop add
xratio div
dup 4 3 roll exch 90.000 cos mul sub 3 1 roll 90.000 sin mul sub 2 copy
/fntsize {/Helvetica-0 findfont exch scalefont setfont } def
90.000 324
(5-7) Stxtl
(5-7) stringwidth pop xratio div
dup 4 3 roll exch 90.000 cos mul add 3 1 roll 90.000 sin mul add 2 copy
pop pop pop pop
6841 3992 6841 3863 Sln
6955 3798 0
/Helvetica-0 findfont 324 yratio mul scalefont setfont
(8-10) stringwidth pop add
xratio div
dup 4 3 roll exch 90.000 cos mul sub 3 1 roll 90.000 sin mul sub 2 copy
/fntsize {/Helvetica-0 findfont exch scalefont setfont } def
90.000 324
(8-10) Stxtl
(8-10) stringwidth pop xratio div
dup 4 3 roll exch 90.000 cos mul add 3 1 roll 90.000 sin mul add 2 copy
pop pop pop pop
8066 3992 8066 3863 Sln
8180 3798 0
/Helvetica-0 findfont 324 yratio mul scalefont setfont
(11-14) stringwidth pop add
xratio div
dup 4 3 roll exch 90.000 cos mul sub 3 1 roll 90.000 sin mul sub 2 copy
/fntsize {/Helvetica-0 findfont exch scalefont setfont } def
90.000 324
(11-14) Stxtl
(11-14) stringwidth pop xratio div
dup 4 3 roll exch 90.000 cos mul add 3 1 roll 90.000 sin mul add 2 copy
pop pop pop pop
10085 3992 16208 3992 Sln
10697 3992 10697 3863 Sln
10811 3798 0
/Helvetica-0 findfont 324 yratio mul scalefont setfont
(0-1) stringwidth pop add
xratio div
dup 4 3 roll exch 90.000 cos mul sub 3 1 roll 90.000 sin mul sub 2 copy
/fntsize {/Helvetica-0 findfont exch scalefont setfont } def
90.000 324
(0-1) Stxtl
(0-1) stringwidth pop xratio div
dup 4 3 roll exch 90.000 cos mul add 3 1 roll 90.000 sin mul add 2 copy
pop pop pop pop
11922 3992 11922 3863 Sln
12036 3798 0
/Helvetica-0 findfont 324 yratio mul scalefont setfont
(2-4) stringwidth pop add
xratio div
dup 4 3 roll exch 90.000 cos mul sub 3 1 roll 90.000 sin mul sub 2 copy
/fntsize {/Helvetica-0 findfont exch scalefont setfont } def
90.000 324
(2-4) Stxtl
(2-4) stringwidth pop xratio div
dup 4 3 roll exch 90.000 cos mul add 3 1 roll 90.000 sin mul add 2 copy
pop pop pop pop
13146 3992 13146 3863 Sln
13260 3798 0
/Helvetica-0 findfont 324 yratio mul scalefont setfont
(5-7) stringwidth pop add
xratio div
dup 4 3 roll exch 90.000 cos mul sub 3 1 roll 90.000 sin mul sub 2 copy
/fntsize {/Helvetica-0 findfont exch scalefont setfont } def
90.000 324
(5-7) Stxtl
(5-7) stringwidth pop xratio div
dup 4 3 roll exch 90.000 cos mul add 3 1 roll 90.000 sin mul add 2 copy
pop pop pop pop
14371 3992 14371 3863 Sln
14485 3798 0
/Helvetica-0 findfont 324 yratio mul scalefont setfont
(8-10) stringwidth pop add
xratio div
dup 4 3 roll exch 90.000 cos mul sub 3 1 roll 90.000 sin mul sub 2 copy
/fntsize {/Helvetica-0 findfont exch scalefont setfont } def
90.000 324
(8-10) Stxtl
(8-10) stringwidth pop xratio div
dup 4 3 roll exch 90.000 cos mul add 3 1 roll 90.000 sin mul add 2 copy
pop pop pop pop
15596 3992 15596 3863 Sln
15710 3798 0
/Helvetica-0 findfont 324 yratio mul scalefont setfont
(11-14) stringwidth pop add
xratio div
dup 4 3 roll exch 90.000 cos mul sub 3 1 roll 90.000 sin mul sub 2 copy
/fntsize {/Helvetica-0 findfont exch scalefont setfont } def
90.000 324
(11-14) Stxtl
(11-14) stringwidth pop xratio div
dup 4 3 roll exch 90.000 cos mul add 3 1 roll 90.000 sin mul add 2 copy
pop pop pop pop
17706 3992 23829 3992 Sln
18318 3992 18318 3863 Sln
18432 3798 0
/Helvetica-0 findfont 324 yratio mul scalefont setfont
(0-1) stringwidth pop add
xratio div
dup 4 3 roll exch 90.000 cos mul sub 3 1 roll 90.000 sin mul sub 2 copy
/fntsize {/Helvetica-0 findfont exch scalefont setfont } def
90.000 324
(0-1) Stxtl
(0-1) stringwidth pop xratio div
dup 4 3 roll exch 90.000 cos mul add 3 1 roll 90.000 sin mul add 2 copy
pop pop pop pop
19543 3992 19543 3863 Sln
19657 3798 0
/Helvetica-0 findfont 324 yratio mul scalefont setfont
(2-4) stringwidth pop add
xratio div
dup 4 3 roll exch 90.000 cos mul sub 3 1 roll 90.000 sin mul sub 2 copy
/fntsize {/Helvetica-0 findfont exch scalefont setfont } def
90.000 324
(2-4) Stxtl
(2-4) stringwidth pop xratio div
dup 4 3 roll exch 90.000 cos mul add 3 1 roll 90.000 sin mul add 2 copy
pop pop pop pop
20767 3992 20767 3863 Sln
20881 3798 0
/Helvetica-0 findfont 324 yratio mul scalefont setfont
(5-7) stringwidth pop add
xratio div
dup 4 3 roll exch 90.000 cos mul sub 3 1 roll 90.000 sin mul sub 2 copy
/fntsize {/Helvetica-0 findfont exch scalefont setfont } def
90.000 324
(5-7) Stxtl
(5-7) stringwidth pop xratio div
dup 4 3 roll exch 90.000 cos mul add 3 1 roll 90.000 sin mul add 2 copy
pop pop pop pop
21992 3992 21992 3863 Sln
22106 3798 0
/Helvetica-0 findfont 324 yratio mul scalefont setfont
(8-10) stringwidth pop add
xratio div
dup 4 3 roll exch 90.000 cos mul sub 3 1 roll 90.000 sin mul sub 2 copy
/fntsize {/Helvetica-0 findfont exch scalefont setfont } def
90.000 324
(8-10) Stxtl
(8-10) stringwidth pop xratio div
dup 4 3 roll exch 90.000 cos mul add 3 1 roll 90.000 sin mul add 2 copy
pop pop pop pop
23216 3992 23216 3863 Sln
23330 3798 0
/Helvetica-0 findfont 324 yratio mul scalefont setfont
(11-14) stringwidth pop add
xratio div
dup 4 3 roll exch 90.000 cos mul sub 3 1 roll 90.000 sin mul sub 2 copy
/fntsize {/Helvetica-0 findfont exch scalefont setfont } def
90.000 324
(11-14) Stxtl
(11-14) stringwidth pop xratio div
dup 4 3 roll exch 90.000 cos mul add 3 1 roll 90.000 sin mul add 2 copy
pop pop pop pop
25236 3992 31359 3992 Sln
25848 3992 25848 3863 Sln
25962 3798 0
/Helvetica-0 findfont 324 yratio mul scalefont setfont
(0-1) stringwidth pop add
xratio div
dup 4 3 roll exch 90.000 cos mul sub 3 1 roll 90.000 sin mul sub 2 copy
/fntsize {/Helvetica-0 findfont exch scalefont setfont } def
90.000 324
(0-1) Stxtl
(0-1) stringwidth pop xratio div
dup 4 3 roll exch 90.000 cos mul add 3 1 roll 90.000 sin mul add 2 copy
pop pop pop pop
27073 3992 27073 3863 Sln
27187 3798 0
/Helvetica-0 findfont 324 yratio mul scalefont setfont
(2-4) stringwidth pop add
xratio div
dup 4 3 roll exch 90.000 cos mul sub 3 1 roll 90.000 sin mul sub 2 copy
/fntsize {/Helvetica-0 findfont exch scalefont setfont } def
90.000 324
(2-4) Stxtl
(2-4) stringwidth pop xratio div
dup 4 3 roll exch 90.000 cos mul add 3 1 roll 90.000 sin mul add 2 copy
pop pop pop pop
28297 3992 28297 3863 Sln
28411 3798 0
/Helvetica-0 findfont 324 yratio mul scalefont setfont
(5-7) stringwidth pop add
xratio div
dup 4 3 roll exch 90.000 cos mul sub 3 1 roll 90.000 sin mul sub 2 copy
/fntsize {/Helvetica-0 findfont exch scalefont setfont } def
90.000 324
(5-7) Stxtl
(5-7) stringwidth pop xratio div
dup 4 3 roll exch 90.000 cos mul add 3 1 roll 90.000 sin mul add 2 copy
pop pop pop pop
29522 3992 29522 3863 Sln
29636 3798 0
/Helvetica-0 findfont 324 yratio mul scalefont setfont
(8-10) stringwidth pop add
xratio div
dup 4 3 roll exch 90.000 cos mul sub 3 1 roll 90.000 sin mul sub 2 copy
/fntsize {/Helvetica-0 findfont exch scalefont setfont } def
90.000 324
(8-10) Stxtl
(8-10) stringwidth pop xratio div
dup 4 3 roll exch 90.000 cos mul add 3 1 roll 90.000 sin mul add 2 copy
pop pop pop pop
30746 3992 30746 3863 Sln
30860 3798 0
/Helvetica-0 findfont 324 yratio mul scalefont setfont
(11-14) stringwidth pop add
xratio div
dup 4 3 roll exch 90.000 cos mul sub 3 1 roll 90.000 sin mul sub 2 copy
/fntsize {/Helvetica-0 findfont exch scalefont setfont } def
90.000 324
(11-14) Stxtl
(11-14) stringwidth pop xratio div
dup 4 3 roll exch 90.000 cos mul add 3 1 roll 90.000 sin mul add 2 copy
pop pop pop pop
/Ssrgb {1.000 1.000 1.000} def
/Slrgb {1.000 1.000 1.000} def
2555 17177 8678 17645 0 1 Srect
2564 17186 8669 17636 1 0 Srect
5616 17340 0
/Helvetica-0 findfont 356 yratio mul scalefont setfont
(Employed) stringwidth pop add
2 div xratio div
dup 4 3 roll exch 0.000 cos mul sub 3 1 roll 0.000 sin mul sub 2 copy
/fntsize {/Helvetica-0 findfont exch scalefont setfont } def
0.000 356
(Employed) Stxtl
(Employed) stringwidth pop xratio div
dup 4 3 roll exch 0.000 cos mul add 3 1 roll 0.000 sin mul add 2 copy
pop pop pop pop
10085 17177 16208 17645 0 1 Srect
10094 17186 16199 17636 1 0 Srect
13146 17340 0
/Helvetica-0 findfont 356 yratio mul scalefont setfont
(Smoking) stringwidth pop add
2 div xratio div
dup 4 3 roll exch 0.000 cos mul sub 3 1 roll 0.000 sin mul sub 2 copy
/fntsize {/Helvetica-0 findfont exch scalefont setfont } def
0.000 356
(Smoking) Stxtl
(Smoking) stringwidth pop xratio div
dup 4 3 roll exch 0.000 cos mul add 3 1 roll 0.000 sin mul add 2 copy
pop pop pop pop
17706 17177 23829 17645 0 1 Srect
17715 17186 23820 17636 1 0 Srect
20767 17340 0
/Helvetica-0 findfont 356 yratio mul scalefont setfont
(Alcohol) stringwidth pop add
2 div xratio div
dup 4 3 roll exch 0.000 cos mul sub 3 1 roll 0.000 sin mul sub 2 copy
/fntsize {/Helvetica-0 findfont exch scalefont setfont } def
0.000 356
(Alcohol) Stxtl
(Alcohol) stringwidth pop xratio div
dup 4 3 roll exch 0.000 cos mul add 3 1 roll 0.000 sin mul add 2 copy
pop pop pop pop
25236 17177 31359 17645 0 1 Srect
25245 17186 31350 17636 1 0 Srect
28297 17340 0
/Helvetica-0 findfont 356 yratio mul scalefont setfont
(Hypertension) stringwidth pop add
2 div xratio div
dup 4 3 roll exch 0.000 cos mul sub 3 1 roll 0.000 sin mul sub 2 copy
/fntsize {/Helvetica-0 findfont exch scalefont setfont } def
0.000 356
(Hypertension) Stxtl
(Hypertension) stringwidth pop xratio div
dup 4 3 roll exch 0.000 cos mul add 3 1 roll 0.000 sin mul add 2 copy
pop pop pop pop
/Slw 1.152 def
/Slrgb {0.000 0.000 0.000} def
11399 859 21107 2043 0 1 Srect
11417 877 21089 2025 1 0 Srect
/Slw 1.728 def
/Slrgb {0.376 0.376 0.376} def
11674 1451 14051 1451 Sln
/Slrgb {0.627 0.627 0.627} def
16357 1451 16503 1451 Sln
16631 1451 16777 1451 Sln
16905 1451 17052 1451 Sln
17180 1451 17326 1451 Sln
17454 1451 17600 1451 Sln
17728 1451 17874 1451 Sln
18002 1451 18148 1451 Sln
18276 1451 18423 1451 Sln
18551 1451 18697 1451 Sln
14431 1273 2 copy
/fntsize {/Helvetica-0 findfont exch scalefont setfont } def
0.000 508
(men) Stxtl
(men) stringwidth pop xratio div
dup 4 3 roll exch 0.000 cos mul add 3 1 roll 0.000 sin mul add 2 copy
pop pop pop pop
19115 1273 2 copy
/fntsize {/Helvetica-0 findfont exch scalefont setfont } def
0.000 508
(women) Stxtl
(women) stringwidth pop xratio div
dup 4 3 roll exch 0.000 cos mul add 3 1 roll 0.000 sin mul add 2 copy
pop pop pop pop
996 10208 0
/Helvetica-0 findfont 508 yratio mul scalefont setfont
(Marginal effect) stringwidth pop add
2 div xratio div
dup 4 3 roll exch 90.000 cos mul sub 3 1 roll 90.000 sin mul sub 2 copy
/fntsize {/Helvetica-0 findfont exch scalefont setfont } def
90.000 508
(Marginal effect) Stxtl
(Marginal effect) stringwidth pop xratio div
dup 4 3 roll exch 90.000 cos mul add 3 1 roll 90.000 sin mul add 2 copy
pop pop pop pop
16253 2414 0
/Helvetica-0 findfont 508 yratio mul scalefont setfont
(Years after diagnosis) stringwidth pop add
2 div xratio div
dup 4 3 roll exch 0.000 cos mul sub 3 1 roll 0.000 sin mul sub 2 copy
/fntsize {/Helvetica-0 findfont exch scalefont setfont } def
0.000 508
(Years after diagnosis) Stxtl
(Years after diagnosis) stringwidth pop xratio div
dup 4 3 roll exch 0.000 cos mul add 3 1 roll 0.000 sin mul add 2 copy
pop pop pop pop
S showpage
%%EOF
