%!PS-Adobe-2.0 EPSF-2.0
%% This is a Stata generated postscript file
%%BoundingBox: 0 0 576 288
%%HiResBoundingBox: 0.000 0.000 576.000 288.000
%%DocumentNeededResources: font Helvetica
/xratio 0.018000 def
/yratio 0.018000 def
/Sbgfill {
	/y1 exch def
	/x1 exch def
	/y0 exch def
	/x0 exch def
	x0 y0 moveto
	x0 y1 lineto x1 y1 lineto x1 y0 lineto x0 y0 lineto
	fill
} def
/Spt {
	yratio mul
	/yp exch def
	xratio mul
	/xp exch def
	Slrgb setrgbcolor
	newpath
	xp yp moveto
	xp Slw add yp
	lineto
	currentlinecap
	1 setlinecap
	stroke
	setlinecap
} def
/Sln {
	yratio mul
	/y1p exch def
	xratio mul
	/x1p exch def
	yratio mul
	/y0p exch def
	xratio mul
	/x0p exch def
	Slw setlinewidth
	Slrgb setrgbcolor
	x0p y0p M x1p y1p lineto S
} def
/Scrv {
	yratio mul
	/y3p exch def
	xratio mul
	/x3p exch def
	yratio mul
	/y2p exch def
	xratio mul
	/x2p exch def
	yratio mul
	/y1p exch def
	xratio mul
	/x1p exch def
	Slw setlinewidth
	Slrgb setrgbcolor
	x1p y1p x2p y2p x3p y3p curveto
	stroke
} def
/Stxtl {
	/sp exch def
	yratio mul
	/sizep exch def
	dup
	/anglep exch def
	0 exch sub
	/angle2p exch def
	yratio mul
	/y0p exch def
	xratio mul
	/x0p exch def
	Strgb setrgbcolor
	x0p y0p M anglep rotate sizep fntsize sp show stroke angle2p rotate
} def
/Stxtc {
	/sp exch def
	yratio mul
	/sizep exch def
	dup
	/anglep exch def
	0 exch sub
	/angle2p exch def
	yratio mul
	/y0p exch def
	xratio mul
	/x0p exch def
	Strgb setrgbcolor
	x0p y0p M anglep rotate sizep fntsize sp stringwidth exch -2 div exch rm sp show stroke angle2p rotate
} def
/Stxtr {
	/sp exch def
	yratio mul
	/sizep exch def
	dup
	/anglep exch def
	0 exch sub
	/angle2p exch def
	yratio mul
	/y0p exch def
	xratio mul
	/x0p exch def
	Strgb setrgbcolor
	x0p y0p M anglep rotate sizep fntsize sp stringwidth 1 index -1 mul exch rm pop sp show stroke angle2p rotate
} def
/Srect {
	/sfill exch def
	yratio mul
	/y1 exch def
	xratio mul
	/x1 exch def
	yratio mul
	/y0 exch def
	xratio mul
	/x0 exch def
	sfill 1 eq {
		Ssrgb setrgbcolor
		x0 y0 moveto
		x0 y1 lineto x1 y1 lineto x1 y0 lineto x0 y0 lineto
		fill
	} if
	Slw setlinewidth
	Slrgb setrgbcolor
	x0 y0 moveto
	x0 y1 lineto x1 y1 lineto x1 y0 lineto x0 y0 lineto
	stroke
} def
/Sellipse {
	/sfill exch def
	yratio mul
	/yrad exch def
	xratio mul
	/xrad exch def
	yratio mul
	/y exch def
	xratio mul
	/x exch def
	sfill 1 eq {
		Ssrgb setrgbcolor
		/savematrix matrix currentmatrix def
		x y translate
		xrad yrad scale
		0 0 1 0 360 arc
		savematrix setmatrix
		fill
	} if
	Slw setlinewidth
	Slrgb setrgbcolor
		/savematrix matrix currentmatrix def
		x y translate
		xrad yrad scale
		0 0 1 0 360 arc
		savematrix setmatrix
	stroke
} def
/Stri {
	/sfill exch def
	xratio mul
	/r exch def
	yratio mul
	/y0 exch def
	xratio mul
	/x0 exch def
	/xcen x0 def
	y0 r add
	/ytop exch def
	r 2 div
	y0 exch sub
	/ybot exch def
	r 3 sqrt 2 div mul dup
	xcen exch sub
	/xleft exch def
	xcen add
	/xright exch def
	sfill 1 eq {
		Ssrgb setrgbcolor
		xcen ytop moveto xright ybot lineto xleft ybot lineto xcen ytop lineto fill
	} if
	Slw setlinewidth
	Slrgb setrgbcolor
	xcen ytop moveto xright ybot lineto xleft ybot lineto xcen ytop lineto stroke
} def
/Soldtri {
	/sfill exch def
	xratio mul
	/r exch def
	yratio mul
	/y0 exch def
	xratio mul
	/x0 exch def
	x0 r sub
	/x1 exch def
	y0 r sub
	/y1 exch def
	x0 r add
	/x2 exch def
	y0 r sub
	/y2 exch def
	/x3 x0 def
	y0 r add
	/y3 exch def
	sfill 1 eq {
		Ssrgb setrgbcolor
		x1 y1 moveto x2 y2 lineto x3 y3 lineto x1 y1 lineto fill
	} if
	Slw setlinewidth
	Slrgb setrgbcolor
	x1 y1 moveto x2 y2 lineto x3 y3 lineto x1 y1 lineto stroke
} def
/Sdia {
	/sfill exch def
	xratio mul
	/r exch def
	yratio mul
	/y exch def
	xratio mul
	/x exch def
	x r sub
	/x0 exch def
	/y0 y def
	/x1 x def
	y r sub
	/y1 exch def
	x r add
	/x2 exch def
	/y2 y def
	/x3 x def
	y r add
	/y3 exch def
	sfill 1 eq  {
		Ssrgb setrgbcolor
		x0 y0 moveto x1 y1 lineto x2 y2 lineto x3 y3 lineto x0 y0 lineto fill
	} if
	Slw setlinewidth
	Slrgb setrgbcolor
	x0 y0 moveto x1 y1 lineto x2 y2 lineto x3 y3 lineto x0 y0 lineto stroke
} def
/Scc {
	/sfill exch def
	xratio mul
	/r0 exch def
	yratio mul
	/y0 exch def
	xratio mul
	/x0 exch def
	sfill 1 eq {
		Ssrgb setrgbcolor
		x0 y0 r0 0 360 arc fill
	} if
	Slw setlinewidth
	Slrgb setrgbcolor
	x0 y0 r0 0 360 arc stroke
} def
/Spie {
	/sfill exch def
	/a1 exch def
	/a0 exch def
	xratio mul
	/r exch def
	yratio mul
	/y exch def
	xratio mul
	/x exch def
	sfill 1 eq {
		Ssrgb setrgbcolor
		newpath x y moveto x y r a0 a1 arc closepath
		fill
	} if
	Slw setlinewidth
	Slrgb setrgbcolor
	newpath x y moveto x y r a0 a1 arc closepath
	stroke
} def
/Splu {
	xratio mul
	/r exch def
	yratio mul
	/y exch def
	xratio mul
	/x exch def
	x r sub
	/x0 exch def
	x r add
	/x1 exch def
	x0 y M x1 y L
	y r sub
	/y0 exch def
	y r add
	/y1 exch def
	x y0 M x y1 L
} def
/Scro {
	xratio mul
	/r exch def
	yratio mul
	/y exch def
	xratio mul
	/x exch def
	x r sub
	/x0 exch def
	y r sub
	/y0 exch def
	x r add
	/x1 exch def
	y r add
	/y1 exch def
	x0 y0 M x1 y1 L
	x r add
	/x0 exch def
	y r sub
	/y0 exch def
	x r sub
	/x1 exch def
	y r add
	/y1 exch def
	x0 y0 M x1 y1 L
} def
/Sm {
	yratio mul
	/y exch def
	xratio mul
	/x exch def
	x y M
} def
/Sl {
	yratio mul
	/y exch def
	xratio mul
	/x exch def
	x y L
} def
/SPl {
	yratio mul
	/y exch def
	xratio mul
	/x exch def
	x y PL
} def
/Lcs {
	currentlinecap
	1 setlinecap
} def
/Lcr {
	setlinecap
} def
/Sbp {
	newpath
} def
/Sep {
	/sfill exch def
	closepath
	sfill 1 eq  {
		Ssrgb setrgbcolor
		gsave
		fill
		grestore
	} if
	Slw setlinewidth
	Slrgb setrgbcolor
	Lcs
	stroke
	Lcr
} def
/cp {currentpoint} def 
/M {moveto} def 
/rm {rmoveto} def 
/S {stroke} def 
/L {Slw setlinewidth Slrgb setrgbcolor lineto Lcs S Lcr} def 
/PL {Slw setlinewidth Slrgb setrgbcolor lineto} def 
/MF-Helvetica {
  /newfontname exch def
  /fontname exch def
  /fontdict fontname findfont def
  /newfont fontdict maxlength dict def
  fontdict {
  exch dup /FID eq {pop pop} {exch newfont 3 1 roll put} ifelse
  } forall
  newfont /FontName newfontname put
  newfont /Encoding ISOLatin1Encoding put
  newfontname newfont definefont pop
} def
/Helvetica /Helvetica-0 MF-Helvetica
/Slw 0.120 def
1.000 1.000 1.000 setrgbcolor
0 0 576.000 288.000 Sbgfill
/Slrgb {1.000 1.000 1.000} def
/Strgb {1.000 1.000 1.000} def
/Ssrgb {1.000 1.000 1.000} def
/Slw 0.576 def
0 0 32000 16000 1 Srect
/Slw 0.461 def
/Slrgb {0.000 0.000 0.000} def
3633 10018 8427 14606 0 Srect
/Strgb {0.000 0.000 0.000} def
/Slw 0.691 def
/Slrgb {0.188 0.188 0.188} def
3633 12335 8427 12335 Sln
/Slw 0.461 def
/Slrgb {0.000 0.000 0.000} def
11137 10018 15930 14606 0 Srect
/Slw 0.691 def
/Slrgb {0.188 0.188 0.188} def
11137 12312 15930 12312 Sln
/Slw 0.461 def
/Slrgb {0.000 0.000 0.000} def
18796 10018 23589 14606 0 Srect
/Slw 0.691 def
/Slrgb {0.188 0.188 0.188} def
18796 12714 23589 12714 Sln
/Slw 0.461 def
/Slrgb {0.000 0.000 0.000} def
26455 10018 31248 14606 0 Srect
/Slw 0.691 def
/Slrgb {0.188 0.188 0.188} def
26455 12805 31248 12805 Sln
/Slw 0.461 def
/Slrgb {0.000 0.000 0.000} def
3633 4405 8427 8992 0 Srect
/Slw 0.691 def
/Slrgb {0.188 0.188 0.188} def
3633 7444 8427 7444 Sln
/Slw 0.461 def
/Slrgb {0.000 0.000 0.000} def
11137 4405 15930 8992 0 Srect
/Slw 0.691 def
/Slrgb {0.188 0.188 0.188} def
11137 6661 15930 6661 Sln
/Slw 0.461 def
/Slrgb {0.000 0.000 0.000} def
18796 4405 23589 8992 0 Srect
/Slw 0.691 def
/Slrgb {0.188 0.188 0.188} def
18796 6698 23589 6698 Sln
/Slw 0.461 def
/Slrgb {0.000 0.000 0.000} def
26455 4405 31248 8992 0 Srect
/Slw 0.691 def
/Slrgb {0.188 0.188 0.188} def
26455 6698 31248 6698 Sln
/Ssrgb {0.502 0.502 0.502} def
/Slw 0.461 def
/Slrgb {0.376 0.376 0.376} def
3953 11895 3953 13248 Sln
4912 11661 4912 12615 Sln
5870 10894 5870 12584 Sln
6829 10783 6829 13364 Sln
7788 10724 7788 14062 Sln
3953 12571 Sm
4911 12138 Sl
4911 12138 Sm
5870 11739 Sl
5870 11739 Sm
6829 12073 Sl
6829 12073 Sm
7787 12393 Sl
/Ssrgb {0.702 0.702 0.702} def
/Slrgb {0.627 0.627 0.627} def
4273 10349 4273 12103 Sln
5231 10722 5231 11874 Sln
6190 10300 6190 11865 Sln
7149 10338 7149 12856 Sln
8107 10302 8107 13292 Sln
4272 11226 4400 11235 Sln
4512 11244 4639 11254 Sln
4751 11262 4878 11271 Sln
4990 11280 5118 11290 Sln
5229 11298 5231 11298 Sln
5231 11298 5354 11270 Sln
5464 11245 5589 11217 Sln
5698 11193 5823 11165 Sln
5932 11140 6057 11112 Sln
6167 11087 6189 11082 Sln
6189 11082 6282 11132 Sln
6381 11185 6494 11245 Sln
6592 11298 6705 11359 Sln
6804 11412 6917 11473 Sln
7016 11525 7129 11585 Sln
7236 11615 7362 11641 Sln
7472 11664 7597 11690 Sln
7707 11713 7832 11739 Sln
7942 11762 8067 11788 Sln
/Ssrgb {0.502 0.502 0.502} def
/Slrgb {0.376 0.376 0.376} def
11456 11437 11456 13211 Sln
12415 11211 12415 12296 Sln
13374 10658 13374 12496 Sln
14332 10405 14332 13817 Sln
15291 11408 15291 14186 Sln
11456 12324 Sm
12415 11753 Sl
12415 11753 Sm
13373 11576 Sl
13373 11576 Sm
14332 12110 Sl
14332 12110 Sm
15291 12797 Sl
/Ssrgb {0.702 0.702 0.702} def
/Slrgb {0.627 0.627 0.627} def
11776 11737 11776 12239 Sln
12735 11926 12735 12285 Sln
13693 11881 13693 12720 Sln
14652 11794 14652 13232 Sln
15611 11633 15611 12445 Sln
11775 11988 11902 12003 Sln
12013 12017 12140 12032 Sln
12252 12046 12379 12062 Sln
12490 12075 12617 12091 Sln
12728 12104 12734 12105 Sln
12734 12105 12854 12129 Sln
12963 12151 13089 12177 Sln
13199 12199 13324 12225 Sln
13435 12247 13560 12273 Sln
13670 12295 13693 12300 Sln
13693 12300 13795 12322 Sln
13904 12347 14029 12375 Sln
14139 12399 14264 12427 Sln
14374 12451 14499 12479 Sln
14608 12504 14651 12513 Sln
14651 12513 14726 12476 Sln
14827 12426 14942 12369 Sln
15042 12320 15157 12263 Sln
15257 12213 15372 12156 Sln
15472 12106 15587 12050 Sln
/Ssrgb {0.502 0.502 0.502} def
/Slrgb {0.376 0.376 0.376} def
19115 12017 19115 13046 Sln
20074 11892 20074 12541 Sln
21033 11696 21033 12706 Sln
21991 11755 21991 13831 Sln
22950 10574 22950 13393 Sln
19115 12531 Sm
20073 12216 Sl
20073 12216 Sm
21032 12201 Sl
21032 12201 Sm
21991 12793 Sl
21991 12793 Sm
22949 11983 Sl
/Ssrgb {0.702 0.702 0.702} def
/Slrgb {0.627 0.627 0.627} def
19435 12584 19435 12662 Sln
20393 12556 20393 12718 Sln
21352 12557 21352 12833 Sln
22311 12548 22311 12680 Sln
23270 12476 23270 12840 Sln
19434 12622 19562 12624 Sln
19674 12625 19802 12627 Sln
19914 12629 20042 12631 Sln
20155 12633 20283 12635 Sln
20395 12636 20522 12644 Sln
20635 12651 20762 12659 Sln
20874 12666 21002 12673 Sln
21114 12680 21242 12688 Sln
21354 12695 21481 12684 Sln
21593 12674 21721 12664 Sln
21832 12654 21960 12643 Sln
22072 12634 22199 12623 Sln
22311 12613 22439 12619 Sln
22551 12624 22679 12630 Sln
22791 12635 22919 12641 Sln
23032 12646 23159 12652 Sln
/Ssrgb {0.502 0.502 0.502} def
/Slrgb {0.376 0.376 0.376} def
26774 11737 26774 12750 Sln
27733 11988 27733 12725 Sln
28691 11635 28691 12745 Sln
29650 10425 29650 12315 Sln
30609 10300 30609 12627 Sln
26774 12243 Sm
27732 12356 Sl
27732 12356 Sm
28691 12189 Sl
28691 12189 Sm
29650 11370 Sl
29650 11370 Sm
30608 11463 Sl
/Ssrgb {0.702 0.702 0.702} def
/Slrgb {0.627 0.627 0.627} def
27094 12154 27094 13415 Sln
28052 12129 28052 12951 Sln
29011 11403 29011 12573 Sln
29970 11372 29970 13220 Sln
30928 11071 30928 14054 Sln
27093 12784 27217 12753 Sln
27326 12725 27450 12693 Sln
27559 12665 27683 12634 Sln
27792 12606 27916 12574 Sln
28025 12546 28052 12539 Sln
28052 12539 28138 12489 Sln
28236 12433 28347 12369 Sln
28444 12313 28555 12249 Sln
28652 12193 28763 12129 Sln
28861 12074 28971 12010 Sln
29074 12007 29196 12047 Sln
29303 12081 29425 12121 Sln
29532 12155 29653 12194 Sln
29760 12229 29882 12268 Sln
29989 12301 30112 12336 Sln
30221 12366 30344 12400 Sln
30453 12430 30576 12465 Sln
30685 12495 30808 12529 Sln
30916 12559 30928 12562 Sln
/Ssrgb {0.502 0.502 0.502} def
/Slrgb {0.376 0.376 0.376} def
3953 6747 3953 7897 Sln
4912 6710 4912 7505 Sln
5870 6817 5870 7986 Sln
6829 5477 6829 7956 Sln
7788 4686 7788 8084 Sln
3953 7321 Sm
4911 7107 Sl
4911 7107 Sm
5870 7401 Sl
5870 7401 Sm
6829 6716 Sl
6829 6716 Sm
7787 6385 Sl
/Ssrgb {0.702 0.702 0.702} def
/Slrgb {0.627 0.627 0.627} def
4273 7068 4273 8358 Sln
5231 7006 5231 7953 Sln
6190 6220 6190 7567 Sln
7149 6004 7149 7873 Sln
8107 5349 8107 8319 Sln
4272 7713 4397 7682 Sln
4506 7656 4630 7625 Sln
4739 7599 4864 7569 Sln
4972 7542 5097 7512 Sln
5206 7485 5231 7479 Sln
5231 7479 5318 7425 Sln
5413 7367 5523 7300 Sln
5619 7241 5728 7174 Sln
5824 7116 5933 7049 Sln
6029 6990 6139 6924 Sln
6242 6895 6370 6901 Sln
6482 6907 6610 6912 Sln
6722 6918 6850 6924 Sln
6963 6929 7091 6935 Sln
7202 6932 7329 6918 Sln
7441 6906 7568 6892 Sln
7680 6880 7808 6866 Sln
7919 6854 8047 6840 Sln
/Ssrgb {0.502 0.502 0.502} def
/Slrgb {0.376 0.376 0.376} def
11456 5876 11456 6781 Sln
12415 6013 12415 6639 Sln
13374 5915 13374 6701 Sln
14332 5702 14332 6812 Sln
15291 5091 15291 8710 Sln
11456 6328 Sm
12415 6325 Sl
12415 6325 Sm
13373 6307 Sl
13373 6307 Sm
14332 6256 Sl
14332 6256 Sm
15291 6900 Sl
/Ssrgb {0.702 0.702 0.702} def
/Slrgb {0.627 0.627 0.627} def
11776 6315 11776 7023 Sln
12735 6320 12735 6789 Sln
13693 6354 13693 7050 Sln
14652 5685 14652 6607 Sln
15611 5824 15611 6821 Sln
11775 6669 11902 6654 Sln
12013 6640 12140 6625 Sln
12252 6612 12379 6596 Sln
12490 6583 12617 6568 Sln
12728 6555 12734 6554 Sln
12734 6554 12855 6573 Sln
12965 6590 13092 6609 Sln
13203 6626 13329 6646 Sln
13440 6663 13567 6683 Sln
13677 6699 13693 6702 Sln
13693 6702 13790 6645 Sln
13887 6589 13998 6524 Sln
14095 6468 14206 6404 Sln
14303 6347 14413 6283 Sln
14510 6227 14621 6163 Sln
14727 6159 14853 6182 Sln
14963 6203 15089 6226 Sln
15200 6246 15326 6270 Sln
15436 6290 15562 6313 Sln
/Ssrgb {0.502 0.502 0.502} def
/Slrgb {0.376 0.376 0.376} def
19115 5615 19115 7342 Sln
20074 6056 20074 6912 Sln
21033 5675 21033 6860 Sln
21991 5425 21991 8108 Sln
22950 4809 22950 7460 Sln
19115 6478 Sm
20073 6484 Sl
20073 6484 Sm
21032 6267 Sl
21032 6267 Sm
21991 6766 Sl
21991 6766 Sm
22949 6134 Sl
/Ssrgb {0.702 0.702 0.702} def
/Slrgb {0.627 0.627 0.627} def
19435 5459 19435 6324 Sln
20393 5753 20393 6618 Sln
21352 5475 21352 6645 Sln
22311 4972 22311 6480 Sln
23270 5075 23270 8508 Sln
19434 5891 19556 5928 Sln
19664 5961 19786 5999 Sln
19894 6032 20016 6069 Sln
20123 6102 20246 6140 Sln
20353 6173 20393 6185 Sln
20393 6185 20478 6174 Sln
20589 6159 20716 6142 Sln
20828 6127 20955 6111 Sln
21066 6096 21193 6080 Sln
21304 6065 21352 6059 Sln
21352 6059 21427 6033 Sln
21533 5996 21654 5954 Sln
21760 5917 21881 5875 Sln
21987 5838 22108 5796 Sln
22214 5760 22310 5726 Sln
22310 5726 22327 5745 Sln
22402 5828 22488 5923 Sln
22563 6007 22649 6102 Sln
22724 6185 22810 6280 Sln
22884 6364 22970 6459 Sln
23045 6542 23131 6637 Sln
23205 6720 23269 6791 Sln
/Ssrgb {0.502 0.502 0.502} def
/Slrgb {0.376 0.376 0.376} def
26774 5743 26774 7170 Sln
27733 6533 27733 7480 Sln
28691 6120 28691 7636 Sln
29650 4704 29650 7481 Sln
30609 5233 30609 8061 Sln
26774 6456 Sm
27732 7006 Sl
27732 7006 Sm
28691 6877 Sl
28691 6877 Sm
29650 6092 Sl
29650 6092 Sm
30608 6646 Sl
/Ssrgb {0.702 0.702 0.702} def
/Slrgb {0.627 0.627 0.627} def
27094 7153 27094 8484 Sln
28052 6713 28052 7580 Sln
29011 6595 29011 7941 Sln
29970 6613 29970 8404 Sln
30928 5204 30928 6573 Sln
27093 7818 27198 7744 Sln
27290 7680 27395 7607 Sln
27487 7542 27592 7469 Sln
27684 7404 27789 7331 Sln
27881 7266 27985 7193 Sln
28082 7150 28209 7166 Sln
28320 7180 28448 7197 Sln
28559 7211 28686 7227 Sln
28797 7241 28924 7257 Sln
29035 7274 29159 7305 Sln
29268 7332 29392 7363 Sln
29501 7391 29625 7422 Sln
29734 7449 29858 7480 Sln
29967 7508 29969 7508 Sln
29969 7508 30033 7400 Sln
30090 7304 30155 7194 Sln
30212 7097 30277 6987 Sln
30335 6890 30400 6780 Sln
30457 6684 30522 6573 Sln
30579 6477 30645 6367 Sln
30702 6270 30767 6160 Sln
30824 6063 30890 5953 Sln
/Slrgb {0.000 0.000 0.000} def
3633 10018 3633 14606 Sln
3633 10345 3456 10345 Sln
3367 10190 0
/Helvetica-0 findfont 444 yratio mul scalefont setfont
(-.3) stringwidth pop add
xratio div
dup 4 3 roll exch 0.000 cos mul sub 3 1 roll 0.000 sin mul sub 2 copy
/fntsize {/Helvetica-0 findfont exch scalefont setfont } def
0.000 444
(-.3) Stxtl
(-.3) stringwidth pop xratio div
dup 4 3 roll exch 0.000 cos mul add 3 1 roll 0.000 sin mul add 2 copy
pop pop pop pop
3633 11008 3456 11008 Sln
3367 10853 0
/Helvetica-0 findfont 444 yratio mul scalefont setfont
(-.2) stringwidth pop add
xratio div
dup 4 3 roll exch 0.000 cos mul sub 3 1 roll 0.000 sin mul sub 2 copy
/fntsize {/Helvetica-0 findfont exch scalefont setfont } def
0.000 444
(-.2) Stxtl
(-.2) stringwidth pop xratio div
dup 4 3 roll exch 0.000 cos mul add 3 1 roll 0.000 sin mul add 2 copy
pop pop pop pop
3633 11672 3456 11672 Sln
3367 11517 0
/Helvetica-0 findfont 444 yratio mul scalefont setfont
(-.1) stringwidth pop add
xratio div
dup 4 3 roll exch 0.000 cos mul sub 3 1 roll 0.000 sin mul sub 2 copy
/fntsize {/Helvetica-0 findfont exch scalefont setfont } def
0.000 444
(-.1) Stxtl
(-.1) stringwidth pop xratio div
dup 4 3 roll exch 0.000 cos mul add 3 1 roll 0.000 sin mul add 2 copy
pop pop pop pop
3633 12335 3456 12335 Sln
3367 12180 0
/Helvetica-0 findfont 444 yratio mul scalefont setfont
(0) stringwidth pop add
xratio div
dup 4 3 roll exch 0.000 cos mul sub 3 1 roll 0.000 sin mul sub 2 copy
/fntsize {/Helvetica-0 findfont exch scalefont setfont } def
0.000 444
(0) Stxtl
(0) stringwidth pop xratio div
dup 4 3 roll exch 0.000 cos mul add 3 1 roll 0.000 sin mul add 2 copy
pop pop pop pop
3633 12998 3456 12998 Sln
3367 12843 0
/Helvetica-0 findfont 444 yratio mul scalefont setfont
(.1) stringwidth pop add
xratio div
dup 4 3 roll exch 0.000 cos mul sub 3 1 roll 0.000 sin mul sub 2 copy
/fntsize {/Helvetica-0 findfont exch scalefont setfont } def
0.000 444
(.1) Stxtl
(.1) stringwidth pop xratio div
dup 4 3 roll exch 0.000 cos mul add 3 1 roll 0.000 sin mul add 2 copy
pop pop pop pop
3633 13661 3456 13661 Sln
3367 13506 0
/Helvetica-0 findfont 444 yratio mul scalefont setfont
(.2) stringwidth pop add
xratio div
dup 4 3 roll exch 0.000 cos mul sub 3 1 roll 0.000 sin mul sub 2 copy
/fntsize {/Helvetica-0 findfont exch scalefont setfont } def
0.000 444
(.2) Stxtl
(.2) stringwidth pop xratio div
dup 4 3 roll exch 0.000 cos mul add 3 1 roll 0.000 sin mul add 2 copy
pop pop pop pop
3633 14324 3456 14324 Sln
3367 14169 0
/Helvetica-0 findfont 444 yratio mul scalefont setfont
(.3) stringwidth pop add
xratio div
dup 4 3 roll exch 0.000 cos mul sub 3 1 roll 0.000 sin mul sub 2 copy
/fntsize {/Helvetica-0 findfont exch scalefont setfont } def
0.000 444
(.3) Stxtl
(.3) stringwidth pop xratio div
dup 4 3 roll exch 0.000 cos mul add 3 1 roll 0.000 sin mul add 2 copy
pop pop pop pop
11137 10018 11137 14606 Sln
11137 10300 10959 10300 Sln
10870 10145 0
/Helvetica-0 findfont 444 yratio mul scalefont setfont
(-.3) stringwidth pop add
xratio div
dup 4 3 roll exch 0.000 cos mul sub 3 1 roll 0.000 sin mul sub 2 copy
/fntsize {/Helvetica-0 findfont exch scalefont setfont } def
0.000 444
(-.3) Stxtl
(-.3) stringwidth pop xratio div
dup 4 3 roll exch 0.000 cos mul add 3 1 roll 0.000 sin mul add 2 copy
pop pop pop pop
11137 10971 10959 10971 Sln
10870 10816 0
/Helvetica-0 findfont 444 yratio mul scalefont setfont
(-.2) stringwidth pop add
xratio div
dup 4 3 roll exch 0.000 cos mul sub 3 1 roll 0.000 sin mul sub 2 copy
/fntsize {/Helvetica-0 findfont exch scalefont setfont } def
0.000 444
(-.2) Stxtl
(-.2) stringwidth pop xratio div
dup 4 3 roll exch 0.000 cos mul add 3 1 roll 0.000 sin mul add 2 copy
pop pop pop pop
11137 11641 10959 11641 Sln
10870 11486 0
/Helvetica-0 findfont 444 yratio mul scalefont setfont
(-.1) stringwidth pop add
xratio div
dup 4 3 roll exch 0.000 cos mul sub 3 1 roll 0.000 sin mul sub 2 copy
/fntsize {/Helvetica-0 findfont exch scalefont setfont } def
0.000 444
(-.1) Stxtl
(-.1) stringwidth pop xratio div
dup 4 3 roll exch 0.000 cos mul add 3 1 roll 0.000 sin mul add 2 copy
pop pop pop pop
11137 12312 10959 12312 Sln
10870 12157 0
/Helvetica-0 findfont 444 yratio mul scalefont setfont
(0) stringwidth pop add
xratio div
dup 4 3 roll exch 0.000 cos mul sub 3 1 roll 0.000 sin mul sub 2 copy
/fntsize {/Helvetica-0 findfont exch scalefont setfont } def
0.000 444
(0) Stxtl
(0) stringwidth pop xratio div
dup 4 3 roll exch 0.000 cos mul add 3 1 roll 0.000 sin mul add 2 copy
pop pop pop pop
11137 12983 10959 12983 Sln
10870 12828 0
/Helvetica-0 findfont 444 yratio mul scalefont setfont
(.1) stringwidth pop add
xratio div
dup 4 3 roll exch 0.000 cos mul sub 3 1 roll 0.000 sin mul sub 2 copy
/fntsize {/Helvetica-0 findfont exch scalefont setfont } def
0.000 444
(.1) Stxtl
(.1) stringwidth pop xratio div
dup 4 3 roll exch 0.000 cos mul add 3 1 roll 0.000 sin mul add 2 copy
pop pop pop pop
11137 13653 10959 13653 Sln
10870 13498 0
/Helvetica-0 findfont 444 yratio mul scalefont setfont
(.2) stringwidth pop add
xratio div
dup 4 3 roll exch 0.000 cos mul sub 3 1 roll 0.000 sin mul sub 2 copy
/fntsize {/Helvetica-0 findfont exch scalefont setfont } def
0.000 444
(.2) Stxtl
(.2) stringwidth pop xratio div
dup 4 3 roll exch 0.000 cos mul add 3 1 roll 0.000 sin mul add 2 copy
pop pop pop pop
11137 14324 10959 14324 Sln
10870 14169 0
/Helvetica-0 findfont 444 yratio mul scalefont setfont
(.3) stringwidth pop add
xratio div
dup 4 3 roll exch 0.000 cos mul sub 3 1 roll 0.000 sin mul sub 2 copy
/fntsize {/Helvetica-0 findfont exch scalefont setfont } def
0.000 444
(.3) Stxtl
(.3) stringwidth pop xratio div
dup 4 3 roll exch 0.000 cos mul add 3 1 roll 0.000 sin mul add 2 copy
pop pop pop pop
18796 10018 18796 14606 Sln
18796 10300 18618 10300 Sln
18529 10145 0
/Helvetica-0 findfont 444 yratio mul scalefont setfont
(-.6) stringwidth pop add
xratio div
dup 4 3 roll exch 0.000 cos mul sub 3 1 roll 0.000 sin mul sub 2 copy
/fntsize {/Helvetica-0 findfont exch scalefont setfont } def
0.000 444
(-.6) Stxtl
(-.6) stringwidth pop xratio div
dup 4 3 roll exch 0.000 cos mul add 3 1 roll 0.000 sin mul add 2 copy
pop pop pop pop
18796 11105 18618 11105 Sln
18529 10950 0
/Helvetica-0 findfont 444 yratio mul scalefont setfont
(-.4) stringwidth pop add
xratio div
dup 4 3 roll exch 0.000 cos mul sub 3 1 roll 0.000 sin mul sub 2 copy
/fntsize {/Helvetica-0 findfont exch scalefont setfont } def
0.000 444
(-.4) Stxtl
(-.4) stringwidth pop xratio div
dup 4 3 roll exch 0.000 cos mul add 3 1 roll 0.000 sin mul add 2 copy
pop pop pop pop
18796 11910 18618 11910 Sln
18529 11755 0
/Helvetica-0 findfont 444 yratio mul scalefont setfont
(-.2) stringwidth pop add
xratio div
dup 4 3 roll exch 0.000 cos mul sub 3 1 roll 0.000 sin mul sub 2 copy
/fntsize {/Helvetica-0 findfont exch scalefont setfont } def
0.000 444
(-.2) Stxtl
(-.2) stringwidth pop xratio div
dup 4 3 roll exch 0.000 cos mul add 3 1 roll 0.000 sin mul add 2 copy
pop pop pop pop
18796 12714 18618 12714 Sln
18529 12559 0
/Helvetica-0 findfont 444 yratio mul scalefont setfont
(0) stringwidth pop add
xratio div
dup 4 3 roll exch 0.000 cos mul sub 3 1 roll 0.000 sin mul sub 2 copy
/fntsize {/Helvetica-0 findfont exch scalefont setfont } def
0.000 444
(0) Stxtl
(0) stringwidth pop xratio div
dup 4 3 roll exch 0.000 cos mul add 3 1 roll 0.000 sin mul add 2 copy
pop pop pop pop
18796 13519 18618 13519 Sln
18529 13364 0
/Helvetica-0 findfont 444 yratio mul scalefont setfont
(.2) stringwidth pop add
xratio div
dup 4 3 roll exch 0.000 cos mul sub 3 1 roll 0.000 sin mul sub 2 copy
/fntsize {/Helvetica-0 findfont exch scalefont setfont } def
0.000 444
(.2) Stxtl
(.2) stringwidth pop xratio div
dup 4 3 roll exch 0.000 cos mul add 3 1 roll 0.000 sin mul add 2 copy
pop pop pop pop
18796 14324 18618 14324 Sln
18529 14169 0
/Helvetica-0 findfont 444 yratio mul scalefont setfont
(.4) stringwidth pop add
xratio div
dup 4 3 roll exch 0.000 cos mul sub 3 1 roll 0.000 sin mul sub 2 copy
/fntsize {/Helvetica-0 findfont exch scalefont setfont } def
0.000 444
(.4) Stxtl
(.4) stringwidth pop xratio div
dup 4 3 roll exch 0.000 cos mul add 3 1 roll 0.000 sin mul add 2 copy
pop pop pop pop
26455 10018 26455 14606 Sln
26455 10527 26277 10527 Sln
26188 10372 0
/Helvetica-0 findfont 444 yratio mul scalefont setfont
(-3) stringwidth pop add
xratio div
dup 4 3 roll exch 0.000 cos mul sub 3 1 roll 0.000 sin mul sub 2 copy
/fntsize {/Helvetica-0 findfont exch scalefont setfont } def
0.000 444
(-3) Stxtl
(-3) stringwidth pop xratio div
dup 4 3 roll exch 0.000 cos mul add 3 1 roll 0.000 sin mul add 2 copy
pop pop pop pop
26455 11287 26277 11287 Sln
26188 11132 0
/Helvetica-0 findfont 444 yratio mul scalefont setfont
(-2) stringwidth pop add
xratio div
dup 4 3 roll exch 0.000 cos mul sub 3 1 roll 0.000 sin mul sub 2 copy
/fntsize {/Helvetica-0 findfont exch scalefont setfont } def
0.000 444
(-2) Stxtl
(-2) stringwidth pop xratio div
dup 4 3 roll exch 0.000 cos mul add 3 1 roll 0.000 sin mul add 2 copy
pop pop pop pop
26455 12046 26277 12046 Sln
26188 11891 0
/Helvetica-0 findfont 444 yratio mul scalefont setfont
(-1) stringwidth pop add
xratio div
dup 4 3 roll exch 0.000 cos mul sub 3 1 roll 0.000 sin mul sub 2 copy
/fntsize {/Helvetica-0 findfont exch scalefont setfont } def
0.000 444
(-1) Stxtl
(-1) stringwidth pop xratio div
dup 4 3 roll exch 0.000 cos mul add 3 1 roll 0.000 sin mul add 2 copy
pop pop pop pop
26455 12805 26277 12805 Sln
26188 12650 0
/Helvetica-0 findfont 444 yratio mul scalefont setfont
(0) stringwidth pop add
xratio div
dup 4 3 roll exch 0.000 cos mul sub 3 1 roll 0.000 sin mul sub 2 copy
/fntsize {/Helvetica-0 findfont exch scalefont setfont } def
0.000 444
(0) Stxtl
(0) stringwidth pop xratio div
dup 4 3 roll exch 0.000 cos mul add 3 1 roll 0.000 sin mul add 2 copy
pop pop pop pop
26455 13565 26277 13565 Sln
26188 13410 0
/Helvetica-0 findfont 444 yratio mul scalefont setfont
(1) stringwidth pop add
xratio div
dup 4 3 roll exch 0.000 cos mul sub 3 1 roll 0.000 sin mul sub 2 copy
/fntsize {/Helvetica-0 findfont exch scalefont setfont } def
0.000 444
(1) Stxtl
(1) stringwidth pop xratio div
dup 4 3 roll exch 0.000 cos mul add 3 1 roll 0.000 sin mul add 2 copy
pop pop pop pop
26455 14324 26277 14324 Sln
26188 14169 0
/Helvetica-0 findfont 444 yratio mul scalefont setfont
(2) stringwidth pop add
xratio div
dup 4 3 roll exch 0.000 cos mul sub 3 1 roll 0.000 sin mul sub 2 copy
/fntsize {/Helvetica-0 findfont exch scalefont setfont } def
0.000 444
(2) Stxtl
(2) stringwidth pop xratio div
dup 4 3 roll exch 0.000 cos mul add 3 1 roll 0.000 sin mul add 2 copy
pop pop pop pop
3633 4405 3633 8992 Sln
3633 4911 3456 4911 Sln
3367 4756 0
/Helvetica-0 findfont 444 yratio mul scalefont setfont
(-10) stringwidth pop add
xratio div
dup 4 3 roll exch 0.000 cos mul sub 3 1 roll 0.000 sin mul sub 2 copy
/fntsize {/Helvetica-0 findfont exch scalefont setfont } def
0.000 444
(-10) Stxtl
(-10) stringwidth pop xratio div
dup 4 3 roll exch 0.000 cos mul add 3 1 roll 0.000 sin mul add 2 copy
pop pop pop pop
3633 6177 3456 6177 Sln
3367 6022 0
/Helvetica-0 findfont 444 yratio mul scalefont setfont
(-5) stringwidth pop add
xratio div
dup 4 3 roll exch 0.000 cos mul sub 3 1 roll 0.000 sin mul sub 2 copy
/fntsize {/Helvetica-0 findfont exch scalefont setfont } def
0.000 444
(-5) Stxtl
(-5) stringwidth pop xratio div
dup 4 3 roll exch 0.000 cos mul add 3 1 roll 0.000 sin mul add 2 copy
pop pop pop pop
3633 7444 3456 7444 Sln
3367 7289 0
/Helvetica-0 findfont 444 yratio mul scalefont setfont
(0) stringwidth pop add
xratio div
dup 4 3 roll exch 0.000 cos mul sub 3 1 roll 0.000 sin mul sub 2 copy
/fntsize {/Helvetica-0 findfont exch scalefont setfont } def
0.000 444
(0) Stxtl
(0) stringwidth pop xratio div
dup 4 3 roll exch 0.000 cos mul add 3 1 roll 0.000 sin mul add 2 copy
pop pop pop pop
3633 8710 3456 8710 Sln
3367 8555 0
/Helvetica-0 findfont 444 yratio mul scalefont setfont
(5) stringwidth pop add
xratio div
dup 4 3 roll exch 0.000 cos mul sub 3 1 roll 0.000 sin mul sub 2 copy
/fntsize {/Helvetica-0 findfont exch scalefont setfont } def
0.000 444
(5) Stxtl
(5) stringwidth pop xratio div
dup 4 3 roll exch 0.000 cos mul add 3 1 roll 0.000 sin mul add 2 copy
pop pop pop pop
11137 4405 11137 8992 Sln
11137 4686 10959 4686 Sln
10870 4531 0
/Helvetica-0 findfont 444 yratio mul scalefont setfont
(-1000) stringwidth pop add
xratio div
dup 4 3 roll exch 0.000 cos mul sub 3 1 roll 0.000 sin mul sub 2 copy
/fntsize {/Helvetica-0 findfont exch scalefont setfont } def
0.000 444
(-1000) Stxtl
(-1000) stringwidth pop xratio div
dup 4 3 roll exch 0.000 cos mul add 3 1 roll 0.000 sin mul add 2 copy
pop pop pop pop
11137 5674 10959 5674 Sln
10870 5519 0
/Helvetica-0 findfont 444 yratio mul scalefont setfont
(-500) stringwidth pop add
xratio div
dup 4 3 roll exch 0.000 cos mul sub 3 1 roll 0.000 sin mul sub 2 copy
/fntsize {/Helvetica-0 findfont exch scalefont setfont } def
0.000 444
(-500) Stxtl
(-500) stringwidth pop xratio div
dup 4 3 roll exch 0.000 cos mul add 3 1 roll 0.000 sin mul add 2 copy
pop pop pop pop
11137 6661 10959 6661 Sln
10870 6506 0
/Helvetica-0 findfont 444 yratio mul scalefont setfont
(0) stringwidth pop add
xratio div
dup 4 3 roll exch 0.000 cos mul sub 3 1 roll 0.000 sin mul sub 2 copy
/fntsize {/Helvetica-0 findfont exch scalefont setfont } def
0.000 444
(0) Stxtl
(0) stringwidth pop xratio div
dup 4 3 roll exch 0.000 cos mul add 3 1 roll 0.000 sin mul add 2 copy
pop pop pop pop
11137 7649 10959 7649 Sln
10870 7494 0
/Helvetica-0 findfont 444 yratio mul scalefont setfont
(500) stringwidth pop add
xratio div
dup 4 3 roll exch 0.000 cos mul sub 3 1 roll 0.000 sin mul sub 2 copy
/fntsize {/Helvetica-0 findfont exch scalefont setfont } def
0.000 444
(500) Stxtl
(500) stringwidth pop xratio div
dup 4 3 roll exch 0.000 cos mul add 3 1 roll 0.000 sin mul add 2 copy
pop pop pop pop
11137 8636 10959 8636 Sln
10870 8481 0
/Helvetica-0 findfont 444 yratio mul scalefont setfont
(1000) stringwidth pop add
xratio div
dup 4 3 roll exch 0.000 cos mul sub 3 1 roll 0.000 sin mul sub 2 copy
/fntsize {/Helvetica-0 findfont exch scalefont setfont } def
0.000 444
(1000) Stxtl
(1000) stringwidth pop xratio div
dup 4 3 roll exch 0.000 cos mul add 3 1 roll 0.000 sin mul add 2 copy
pop pop pop pop
18796 4405 18796 8992 Sln
18796 4686 18618 4686 Sln
18529 4531 0
/Helvetica-0 findfont 444 yratio mul scalefont setfont
(-150) stringwidth pop add
xratio div
dup 4 3 roll exch 0.000 cos mul sub 3 1 roll 0.000 sin mul sub 2 copy
/fntsize {/Helvetica-0 findfont exch scalefont setfont } def
0.000 444
(-150) Stxtl
(-150) stringwidth pop xratio div
dup 4 3 roll exch 0.000 cos mul add 3 1 roll 0.000 sin mul add 2 copy
pop pop pop pop
18796 5357 18618 5357 Sln
18529 5202 0
/Helvetica-0 findfont 444 yratio mul scalefont setfont
(-100) stringwidth pop add
xratio div
dup 4 3 roll exch 0.000 cos mul sub 3 1 roll 0.000 sin mul sub 2 copy
/fntsize {/Helvetica-0 findfont exch scalefont setfont } def
0.000 444
(-100) Stxtl
(-100) stringwidth pop xratio div
dup 4 3 roll exch 0.000 cos mul add 3 1 roll 0.000 sin mul add 2 copy
pop pop pop pop
18796 6028 18618 6028 Sln
18529 5873 0
/Helvetica-0 findfont 444 yratio mul scalefont setfont
(-50) stringwidth pop add
xratio div
dup 4 3 roll exch 0.000 cos mul sub 3 1 roll 0.000 sin mul sub 2 copy
/fntsize {/Helvetica-0 findfont exch scalefont setfont } def
0.000 444
(-50) Stxtl
(-50) stringwidth pop xratio div
dup 4 3 roll exch 0.000 cos mul add 3 1 roll 0.000 sin mul add 2 copy
pop pop pop pop
18796 6698 18618 6698 Sln
18529 6543 0
/Helvetica-0 findfont 444 yratio mul scalefont setfont
(0) stringwidth pop add
xratio div
dup 4 3 roll exch 0.000 cos mul sub 3 1 roll 0.000 sin mul sub 2 copy
/fntsize {/Helvetica-0 findfont exch scalefont setfont } def
0.000 444
(0) Stxtl
(0) stringwidth pop xratio div
dup 4 3 roll exch 0.000 cos mul add 3 1 roll 0.000 sin mul add 2 copy
pop pop pop pop
18796 7369 18618 7369 Sln
18529 7214 0
/Helvetica-0 findfont 444 yratio mul scalefont setfont
(50) stringwidth pop add
xratio div
dup 4 3 roll exch 0.000 cos mul sub 3 1 roll 0.000 sin mul sub 2 copy
/fntsize {/Helvetica-0 findfont exch scalefont setfont } def
0.000 444
(50) Stxtl
(50) stringwidth pop xratio div
dup 4 3 roll exch 0.000 cos mul add 3 1 roll 0.000 sin mul add 2 copy
pop pop pop pop
18796 8040 18618 8040 Sln
18529 7885 0
/Helvetica-0 findfont 444 yratio mul scalefont setfont
(100) stringwidth pop add
xratio div
dup 4 3 roll exch 0.000 cos mul sub 3 1 roll 0.000 sin mul sub 2 copy
/fntsize {/Helvetica-0 findfont exch scalefont setfont } def
0.000 444
(100) Stxtl
(100) stringwidth pop xratio div
dup 4 3 roll exch 0.000 cos mul add 3 1 roll 0.000 sin mul add 2 copy
pop pop pop pop
18796 8710 18618 8710 Sln
18529 8555 0
/Helvetica-0 findfont 444 yratio mul scalefont setfont
(150) stringwidth pop add
xratio div
dup 4 3 roll exch 0.000 cos mul sub 3 1 roll 0.000 sin mul sub 2 copy
/fntsize {/Helvetica-0 findfont exch scalefont setfont } def
0.000 444
(150) Stxtl
(150) stringwidth pop xratio div
dup 4 3 roll exch 0.000 cos mul add 3 1 roll 0.000 sin mul add 2 copy
pop pop pop pop
26455 4405 26455 8992 Sln
26455 4686 26277 4686 Sln
26188 4531 0
/Helvetica-0 findfont 444 yratio mul scalefont setfont
(-.4) stringwidth pop add
xratio div
dup 4 3 roll exch 0.000 cos mul sub 3 1 roll 0.000 sin mul sub 2 copy
/fntsize {/Helvetica-0 findfont exch scalefont setfont } def
0.000 444
(-.4) Stxtl
(-.4) stringwidth pop xratio div
dup 4 3 roll exch 0.000 cos mul add 3 1 roll 0.000 sin mul add 2 copy
pop pop pop pop
26455 5692 26277 5692 Sln
26188 5537 0
/Helvetica-0 findfont 444 yratio mul scalefont setfont
(-.2) stringwidth pop add
xratio div
dup 4 3 roll exch 0.000 cos mul sub 3 1 roll 0.000 sin mul sub 2 copy
/fntsize {/Helvetica-0 findfont exch scalefont setfont } def
0.000 444
(-.2) Stxtl
(-.2) stringwidth pop xratio div
dup 4 3 roll exch 0.000 cos mul add 3 1 roll 0.000 sin mul add 2 copy
pop pop pop pop
26455 6698 26277 6698 Sln
26188 6543 0
/Helvetica-0 findfont 444 yratio mul scalefont setfont
(0) stringwidth pop add
xratio div
dup 4 3 roll exch 0.000 cos mul sub 3 1 roll 0.000 sin mul sub 2 copy
/fntsize {/Helvetica-0 findfont exch scalefont setfont } def
0.000 444
(0) Stxtl
(0) stringwidth pop xratio div
dup 4 3 roll exch 0.000 cos mul add 3 1 roll 0.000 sin mul add 2 copy
pop pop pop pop
26455 7704 26277 7704 Sln
26188 7549 0
/Helvetica-0 findfont 444 yratio mul scalefont setfont
(.2) stringwidth pop add
xratio div
dup 4 3 roll exch 0.000 cos mul sub 3 1 roll 0.000 sin mul sub 2 copy
/fntsize {/Helvetica-0 findfont exch scalefont setfont } def
0.000 444
(.2) Stxtl
(.2) stringwidth pop xratio div
dup 4 3 roll exch 0.000 cos mul add 3 1 roll 0.000 sin mul add 2 copy
pop pop pop pop
26455 8710 26277 8710 Sln
26188 8555 0
/Helvetica-0 findfont 444 yratio mul scalefont setfont
(.4) stringwidth pop add
xratio div
dup 4 3 roll exch 0.000 cos mul sub 3 1 roll 0.000 sin mul sub 2 copy
/fntsize {/Helvetica-0 findfont exch scalefont setfont } def
0.000 444
(.4) Stxtl
(.4) stringwidth pop xratio div
dup 4 3 roll exch 0.000 cos mul add 3 1 roll 0.000 sin mul add 2 copy
pop pop pop pop
3633 4405 8427 4405 Sln
4113 4405 4113 4227 Sln
4269 4138 0
/Helvetica-0 findfont 444 yratio mul scalefont setfont
(0-1) stringwidth pop add
xratio div
dup 4 3 roll exch 90.000 cos mul sub 3 1 roll 90.000 sin mul sub 2 copy
/fntsize {/Helvetica-0 findfont exch scalefont setfont } def
90.000 444
(0-1) Stxtl
(0-1) stringwidth pop xratio div
dup 4 3 roll exch 90.000 cos mul add 3 1 roll 90.000 sin mul add 2 copy
pop pop pop pop
5071 4405 5071 4227 Sln
5227 4138 0
/Helvetica-0 findfont 444 yratio mul scalefont setfont
(2-4) stringwidth pop add
xratio div
dup 4 3 roll exch 90.000 cos mul sub 3 1 roll 90.000 sin mul sub 2 copy
/fntsize {/Helvetica-0 findfont exch scalefont setfont } def
90.000 444
(2-4) Stxtl
(2-4) stringwidth pop xratio div
dup 4 3 roll exch 90.000 cos mul add 3 1 roll 90.000 sin mul add 2 copy
pop pop pop pop
6030 4405 6030 4227 Sln
6186 4138 0
/Helvetica-0 findfont 444 yratio mul scalefont setfont
(5-7) stringwidth pop add
xratio div
dup 4 3 roll exch 90.000 cos mul sub 3 1 roll 90.000 sin mul sub 2 copy
/fntsize {/Helvetica-0 findfont exch scalefont setfont } def
90.000 444
(5-7) Stxtl
(5-7) stringwidth pop xratio div
dup 4 3 roll exch 90.000 cos mul add 3 1 roll 90.000 sin mul add 2 copy
pop pop pop pop
6989 4405 6989 4227 Sln
7145 4138 0
/Helvetica-0 findfont 444 yratio mul scalefont setfont
(8-10) stringwidth pop add
xratio div
dup 4 3 roll exch 90.000 cos mul sub 3 1 roll 90.000 sin mul sub 2 copy
/fntsize {/Helvetica-0 findfont exch scalefont setfont } def
90.000 444
(8-10) Stxtl
(8-10) stringwidth pop xratio div
dup 4 3 roll exch 90.000 cos mul add 3 1 roll 90.000 sin mul add 2 copy
pop pop pop pop
7948 4405 7948 4227 Sln
8104 4138 0
/Helvetica-0 findfont 444 yratio mul scalefont setfont
(11-15) stringwidth pop add
xratio div
dup 4 3 roll exch 90.000 cos mul sub 3 1 roll 90.000 sin mul sub 2 copy
/fntsize {/Helvetica-0 findfont exch scalefont setfont } def
90.000 444
(11-15) Stxtl
(11-15) stringwidth pop xratio div
dup 4 3 roll exch 90.000 cos mul add 3 1 roll 90.000 sin mul add 2 copy
pop pop pop pop
11137 4405 15930 4405 Sln
11616 4405 11616 4227 Sln
11772 4138 0
/Helvetica-0 findfont 444 yratio mul scalefont setfont
(0-1) stringwidth pop add
xratio div
dup 4 3 roll exch 90.000 cos mul sub 3 1 roll 90.000 sin mul sub 2 copy
/fntsize {/Helvetica-0 findfont exch scalefont setfont } def
90.000 444
(0-1) Stxtl
(0-1) stringwidth pop xratio div
dup 4 3 roll exch 90.000 cos mul add 3 1 roll 90.000 sin mul add 2 copy
pop pop pop pop
12575 4405 12575 4227 Sln
12731 4138 0
/Helvetica-0 findfont 444 yratio mul scalefont setfont
(2-4) stringwidth pop add
xratio div
dup 4 3 roll exch 90.000 cos mul sub 3 1 roll 90.000 sin mul sub 2 copy
/fntsize {/Helvetica-0 findfont exch scalefont setfont } def
90.000 444
(2-4) Stxtl
(2-4) stringwidth pop xratio div
dup 4 3 roll exch 90.000 cos mul add 3 1 roll 90.000 sin mul add 2 copy
pop pop pop pop
13533 4405 13533 4227 Sln
13689 4138 0
/Helvetica-0 findfont 444 yratio mul scalefont setfont
(5-7) stringwidth pop add
xratio div
dup 4 3 roll exch 90.000 cos mul sub 3 1 roll 90.000 sin mul sub 2 copy
/fntsize {/Helvetica-0 findfont exch scalefont setfont } def
90.000 444
(5-7) Stxtl
(5-7) stringwidth pop xratio div
dup 4 3 roll exch 90.000 cos mul add 3 1 roll 90.000 sin mul add 2 copy
pop pop pop pop
14492 4405 14492 4227 Sln
14648 4138 0
/Helvetica-0 findfont 444 yratio mul scalefont setfont
(8-10) stringwidth pop add
xratio div
dup 4 3 roll exch 90.000 cos mul sub 3 1 roll 90.000 sin mul sub 2 copy
/fntsize {/Helvetica-0 findfont exch scalefont setfont } def
90.000 444
(8-10) Stxtl
(8-10) stringwidth pop xratio div
dup 4 3 roll exch 90.000 cos mul add 3 1 roll 90.000 sin mul add 2 copy
pop pop pop pop
15451 4405 15451 4227 Sln
15607 4138 0
/Helvetica-0 findfont 444 yratio mul scalefont setfont
(11-15) stringwidth pop add
xratio div
dup 4 3 roll exch 90.000 cos mul sub 3 1 roll 90.000 sin mul sub 2 copy
/fntsize {/Helvetica-0 findfont exch scalefont setfont } def
90.000 444
(11-15) Stxtl
(11-15) stringwidth pop xratio div
dup 4 3 roll exch 90.000 cos mul add 3 1 roll 90.000 sin mul add 2 copy
pop pop pop pop
18796 4405 23589 4405 Sln
19275 4405 19275 4227 Sln
19431 4138 0
/Helvetica-0 findfont 444 yratio mul scalefont setfont
(0-1) stringwidth pop add
xratio div
dup 4 3 roll exch 90.000 cos mul sub 3 1 roll 90.000 sin mul sub 2 copy
/fntsize {/Helvetica-0 findfont exch scalefont setfont } def
90.000 444
(0-1) Stxtl
(0-1) stringwidth pop xratio div
dup 4 3 roll exch 90.000 cos mul add 3 1 roll 90.000 sin mul add 2 copy
pop pop pop pop
20234 4405 20234 4227 Sln
20390 4138 0
/Helvetica-0 findfont 444 yratio mul scalefont setfont
(2-4) stringwidth pop add
xratio div
dup 4 3 roll exch 90.000 cos mul sub 3 1 roll 90.000 sin mul sub 2 copy
/fntsize {/Helvetica-0 findfont exch scalefont setfont } def
90.000 444
(2-4) Stxtl
(2-4) stringwidth pop xratio div
dup 4 3 roll exch 90.000 cos mul add 3 1 roll 90.000 sin mul add 2 copy
pop pop pop pop
21192 4405 21192 4227 Sln
21348 4138 0
/Helvetica-0 findfont 444 yratio mul scalefont setfont
(5-7) stringwidth pop add
xratio div
dup 4 3 roll exch 90.000 cos mul sub 3 1 roll 90.000 sin mul sub 2 copy
/fntsize {/Helvetica-0 findfont exch scalefont setfont } def
90.000 444
(5-7) Stxtl
(5-7) stringwidth pop xratio div
dup 4 3 roll exch 90.000 cos mul add 3 1 roll 90.000 sin mul add 2 copy
pop pop pop pop
22151 4405 22151 4227 Sln
22307 4138 0
/Helvetica-0 findfont 444 yratio mul scalefont setfont
(8-10) stringwidth pop add
xratio div
dup 4 3 roll exch 90.000 cos mul sub 3 1 roll 90.000 sin mul sub 2 copy
/fntsize {/Helvetica-0 findfont exch scalefont setfont } def
90.000 444
(8-10) Stxtl
(8-10) stringwidth pop xratio div
dup 4 3 roll exch 90.000 cos mul add 3 1 roll 90.000 sin mul add 2 copy
pop pop pop pop
23110 4405 23110 4227 Sln
23266 4138 0
/Helvetica-0 findfont 444 yratio mul scalefont setfont
(11-15) stringwidth pop add
xratio div
dup 4 3 roll exch 90.000 cos mul sub 3 1 roll 90.000 sin mul sub 2 copy
/fntsize {/Helvetica-0 findfont exch scalefont setfont } def
90.000 444
(11-15) Stxtl
(11-15) stringwidth pop xratio div
dup 4 3 roll exch 90.000 cos mul add 3 1 roll 90.000 sin mul add 2 copy
pop pop pop pop
26455 4405 31248 4405 Sln
26934 4405 26934 4227 Sln
27090 4138 0
/Helvetica-0 findfont 444 yratio mul scalefont setfont
(0-1) stringwidth pop add
xratio div
dup 4 3 roll exch 90.000 cos mul sub 3 1 roll 90.000 sin mul sub 2 copy
/fntsize {/Helvetica-0 findfont exch scalefont setfont } def
90.000 444
(0-1) Stxtl
(0-1) stringwidth pop xratio div
dup 4 3 roll exch 90.000 cos mul add 3 1 roll 90.000 sin mul add 2 copy
pop pop pop pop
27893 4405 27893 4227 Sln
28049 4138 0
/Helvetica-0 findfont 444 yratio mul scalefont setfont
(2-4) stringwidth pop add
xratio div
dup 4 3 roll exch 90.000 cos mul sub 3 1 roll 90.000 sin mul sub 2 copy
/fntsize {/Helvetica-0 findfont exch scalefont setfont } def
90.000 444
(2-4) Stxtl
(2-4) stringwidth pop xratio div
dup 4 3 roll exch 90.000 cos mul add 3 1 roll 90.000 sin mul add 2 copy
pop pop pop pop
28851 4405 28851 4227 Sln
29007 4138 0
/Helvetica-0 findfont 444 yratio mul scalefont setfont
(5-7) stringwidth pop add
xratio div
dup 4 3 roll exch 90.000 cos mul sub 3 1 roll 90.000 sin mul sub 2 copy
/fntsize {/Helvetica-0 findfont exch scalefont setfont } def
90.000 444
(5-7) Stxtl
(5-7) stringwidth pop xratio div
dup 4 3 roll exch 90.000 cos mul add 3 1 roll 90.000 sin mul add 2 copy
pop pop pop pop
29810 4405 29810 4227 Sln
29966 4138 0
/Helvetica-0 findfont 444 yratio mul scalefont setfont
(8-10) stringwidth pop add
xratio div
dup 4 3 roll exch 90.000 cos mul sub 3 1 roll 90.000 sin mul sub 2 copy
/fntsize {/Helvetica-0 findfont exch scalefont setfont } def
90.000 444
(8-10) Stxtl
(8-10) stringwidth pop xratio div
dup 4 3 roll exch 90.000 cos mul add 3 1 roll 90.000 sin mul add 2 copy
pop pop pop pop
30769 4405 30769 4227 Sln
30925 4138 0
/Helvetica-0 findfont 444 yratio mul scalefont setfont
(11-15) stringwidth pop add
xratio div
dup 4 3 roll exch 90.000 cos mul sub 3 1 roll 90.000 sin mul sub 2 copy
/fntsize {/Helvetica-0 findfont exch scalefont setfont } def
90.000 444
(11-15) Stxtl
(11-15) stringwidth pop xratio div
dup 4 3 roll exch 90.000 cos mul add 3 1 roll 90.000 sin mul add 2 copy
pop pop pop pop
/Ssrgb {0.816 0.816 0.816} def
3633 14606 8427 15248 1 Srect
6030 14829 0
/Helvetica-0 findfont 489 yratio mul scalefont setfont
(Employed) stringwidth pop add
2 div xratio div
dup 4 3 roll exch 0.000 cos mul sub 3 1 roll 0.000 sin mul sub 2 copy
/fntsize {/Helvetica-0 findfont exch scalefont setfont } def
0.000 489
(Employed) Stxtl
(Employed) stringwidth pop xratio div
dup 4 3 roll exch 0.000 cos mul add 3 1 roll 0.000 sin mul add 2 copy
pop pop pop pop
11137 14606 15930 15248 1 Srect
13533 14829 0
/Helvetica-0 findfont 489 yratio mul scalefont setfont
(Smoking) stringwidth pop add
2 div xratio div
dup 4 3 roll exch 0.000 cos mul sub 3 1 roll 0.000 sin mul sub 2 copy
/fntsize {/Helvetica-0 findfont exch scalefont setfont } def
0.000 489
(Smoking) Stxtl
(Smoking) stringwidth pop xratio div
dup 4 3 roll exch 0.000 cos mul add 3 1 roll 0.000 sin mul add 2 copy
pop pop pop pop
18796 14606 23589 15248 1 Srect
21192 14829 0
/Helvetica-0 findfont 489 yratio mul scalefont setfont
(Alcohol) stringwidth pop add
2 div xratio div
dup 4 3 roll exch 0.000 cos mul sub 3 1 roll 0.000 sin mul sub 2 copy
/fntsize {/Helvetica-0 findfont exch scalefont setfont } def
0.000 489
(Alcohol) Stxtl
(Alcohol) stringwidth pop xratio div
dup 4 3 roll exch 0.000 cos mul add 3 1 roll 0.000 sin mul add 2 copy
pop pop pop pop
26455 14606 31248 15248 1 Srect
28851 14829 0
/Helvetica-0 findfont 489 yratio mul scalefont setfont
(BMI) stringwidth pop add
2 div xratio div
dup 4 3 roll exch 0.000 cos mul sub 3 1 roll 0.000 sin mul sub 2 copy
/fntsize {/Helvetica-0 findfont exch scalefont setfont } def
0.000 489
(BMI) Stxtl
(BMI) stringwidth pop xratio div
dup 4 3 roll exch 0.000 cos mul add 3 1 roll 0.000 sin mul add 2 copy
pop pop pop pop
3633 8992 8427 9634 1 Srect
6030 9216 0
/Helvetica-0 findfont 489 yratio mul scalefont setfont
(Waist \(cm\)) stringwidth pop add
2 div xratio div
dup 4 3 roll exch 0.000 cos mul sub 3 1 roll 0.000 sin mul sub 2 copy
/fntsize {/Helvetica-0 findfont exch scalefont setfont } def
0.000 489
(Waist \(cm\)) Stxtl
(Waist \(cm\)) stringwidth pop xratio div
dup 4 3 roll exch 0.000 cos mul add 3 1 roll 0.000 sin mul add 2 copy
pop pop pop pop
11137 8992 15930 9634 1 Srect
13533 9216 0
/Helvetica-0 findfont 489 yratio mul scalefont setfont
(Kcal) stringwidth pop add
2 div xratio div
dup 4 3 roll exch 0.000 cos mul sub 3 1 roll 0.000 sin mul sub 2 copy
/fntsize {/Helvetica-0 findfont exch scalefont setfont } def
0.000 489
(Kcal) Stxtl
(Kcal) stringwidth pop xratio div
dup 4 3 roll exch 0.000 cos mul add 3 1 roll 0.000 sin mul add 2 copy
pop pop pop pop
18796 8992 23589 9634 1 Srect
21192 9216 0
/Helvetica-0 findfont 489 yratio mul scalefont setfont
(MET PA) stringwidth pop add
2 div xratio div
dup 4 3 roll exch 0.000 cos mul sub 3 1 roll 0.000 sin mul sub 2 copy
/fntsize {/Helvetica-0 findfont exch scalefont setfont } def
0.000 489
(MET PA) Stxtl
(MET PA) stringwidth pop xratio div
dup 4 3 roll exch 0.000 cos mul add 3 1 roll 0.000 sin mul add 2 copy
pop pop pop pop
26455 8992 31248 9634 1 Srect
28851 9216 0
/Helvetica-0 findfont 489 yratio mul scalefont setfont
(Hypertension) stringwidth pop add
2 div xratio div
dup 4 3 roll exch 0.000 cos mul sub 3 1 roll 0.000 sin mul sub 2 copy
/fntsize {/Helvetica-0 findfont exch scalefont setfont } def
0.000 489
(Hypertension) Stxtl
(Hypertension) stringwidth pop xratio div
dup 4 3 roll exch 0.000 cos mul add 3 1 roll 0.000 sin mul add 2 copy
pop pop pop pop
/Ssrgb {1.000 1.000 1.000} def
/Slw 0.576 def
11729 752 20827 1788 1 Srect
/Slrgb {0.376 0.376 0.376} def
11969 1270 14049 1270 Sln
/Slrgb {0.627 0.627 0.627} def
16294 1270 16422 1270 Sln
16534 1270 16662 1270 Sln
16774 1270 16902 1270 Sln
17015 1270 17143 1270 Sln
17255 1270 17383 1270 Sln
17495 1270 17623 1270 Sln
17735 1270 17863 1270 Sln
17976 1270 18104 1270 Sln
18216 1270 18344 1270 Sln
14382 1076 2 copy
/fntsize {/Helvetica-0 findfont exch scalefont setfont } def
0.000 556
(men) Stxtl
(men) stringwidth pop xratio div
dup 4 3 roll exch 0.000 cos mul add 3 1 roll 0.000 sin mul add 2 copy
pop pop pop pop
18707 1076 2 copy
/fntsize {/Helvetica-0 findfont exch scalefont setfont } def
0.000 556
(women) Stxtl
(women) stringwidth pop xratio div
dup 4 3 roll exch 0.000 cos mul add 3 1 roll 0.000 sin mul add 2 copy
pop pop pop pop
949 8988 0
/Helvetica-0 findfont 556 yratio mul scalefont setfont
(Marginal effect) stringwidth pop add
2 div xratio div
dup 4 3 roll exch 90.000 cos mul sub 3 1 roll 90.000 sin mul sub 2 copy
/fntsize {/Helvetica-0 findfont exch scalefont setfont } def
90.000 556
(Marginal effect) Stxtl
(Marginal effect) stringwidth pop xratio div
dup 4 3 roll exch 90.000 cos mul add 3 1 roll 90.000 sin mul add 2 copy
pop pop pop pop
16278 2147 0
/Helvetica-0 findfont 556 yratio mul scalefont setfont
(Years after diagnosis) stringwidth pop add
2 div xratio div
dup 4 3 roll exch 0.000 cos mul sub 3 1 roll 0.000 sin mul sub 2 copy
/fntsize {/Helvetica-0 findfont exch scalefont setfont } def
0.000 556
(Years after diagnosis) Stxtl
(Years after diagnosis) stringwidth pop xratio div
dup 4 3 roll exch 0.000 cos mul add 3 1 roll 0.000 sin mul add 2 copy
pop pop pop pop
S showpage
%%EOF
