%!PS-Adobe-2.0 EPSF-2.0
%% This is a Stata generated postscript file
%%BoundingBox: 0 0 1008 576
%%HiResBoundingBox: 0.000 0.000 1008.000 576.000
%%DocumentNeededResources: font Helvetica
/xratio 0.031500 def
/yratio 0.031501 def
/Sbgfill {
	/y1 exch def
	/x1 exch def
	/y0 exch def
	/x0 exch def
	x0 y0 moveto
	x0 y1 lineto x1 y1 lineto x1 y0 lineto x0 y0 lineto
	fill
} def
/Spt {
	yratio mul
	/yp exch def
	xratio mul
	/xp exch def
	Slrgb setrgbcolor
	xp yp .5 0 360 arc fill
} def
/Sln {
	yratio mul
	/y1p exch def
	xratio mul
	/x1p exch def
	yratio mul
	/y0p exch def
	xratio mul
	/x0p exch def
	Slw setlinewidth
	Slrgb setrgbcolor
	x0p y0p M x1p y1p lineto S
} def
/Scrv {
	yratio mul
	/y3p exch def
	xratio mul
	/x3p exch def
	yratio mul
	/y2p exch def
	xratio mul
	/x2p exch def
	yratio mul
	/y1p exch def
	xratio mul
	/x1p exch def
	Slw setlinewidth
	Slrgb setrgbcolor
	x1p y1p x2p y2p x3p y3p curveto
	stroke
} def
/Stxtl {
	/sp exch def
	yratio mul
	/sizep exch def
	dup
	/anglep exch def
	0 exch sub
	/angle2p exch def
	yratio mul
	/y0p exch def
	xratio mul
	/x0p exch def
	Strgb setrgbcolor
	x0p y0p M anglep rotate sizep fntsize sp show stroke angle2p rotate
} def
/Stxtc {
	/sp exch def
	yratio mul
	/sizep exch def
	dup
	/anglep exch def
	0 exch sub
	/angle2p exch def
	yratio mul
	/y0p exch def
	xratio mul
	/x0p exch def
	Strgb setrgbcolor
	x0p y0p M anglep rotate sizep fntsize sp stringwidth exch -2 div exch rm sp show stroke angle2p rotate
} def
/Stxtr {
	/sp exch def
	yratio mul
	/sizep exch def
	dup
	/anglep exch def
	0 exch sub
	/angle2p exch def
	yratio mul
	/y0p exch def
	xratio mul
	/x0p exch def
	Strgb setrgbcolor
	x0p y0p M anglep rotate sizep fntsize sp stringwidth 1 index -1 mul exch rm pop sp show stroke angle2p rotate
} def
/Srect {
	/sfill exch def
	/sstroke exch def
	yratio mul
	/y1 exch def
	xratio mul
	/x1 exch def
	yratio mul
	/y0 exch def
	xratio mul
	/x0 exch def
	newpath x0 y0 moveto x0 y1 lineto x1 y1 lineto x1 y0 lineto x0 y0 lineto closepath
	sfill Sfill
	sstroke Sstroke
} def
/Sellipse {
	/sfill exch def
	/sstroke exch def
	yratio mul
	/yrad exch def
	xratio mul
	/xrad exch def
	yratio mul
	/y exch def
	xratio mul
	/x exch def
	/savematrix matrix currentmatrix def
	x y translate
	xrad yrad scale
	0 0 1 0 360 arc
	savematrix setmatrix
	sfill Sfill
	sstroke Sstroke
} def
/Stri {
	/sfill exch def
	/sstroke exch def
	xratio mul
	/r exch def
	yratio mul
	/y0 exch def
	xratio mul
	/x0 exch def
	/xcen x0 def
	y0 r add
	/ytop exch def
	r 2 div
	y0 exch sub
	/ybot exch def
	r 3 sqrt 2 div mul dup
	xcen exch sub
	/xleft exch def
	xcen add
	/xright exch def
	newpath xcen ytop moveto xright ybot lineto xleft ybot lineto xcen ytop lineto closepath
	sfill Sfill
	sstroke Sstroke
} def
/Soldtri {
	/sfill exch def
	xratio mul
	/r exch def
	yratio mul
	/y0 exch def
	xratio mul
	/x0 exch def
	x0 r sub
	/x1 exch def
	y0 r sub
	/y1 exch def
	x0 r add
	/x2 exch def
	y0 r sub
	/y2 exch def
	/x3 x0 def
	y0 r add
	/y3 exch def
	newpath x1 y1 moveto x2 y2 lineto x3 y3 lineto x1 y1 lineto closepath
	sfill 1 eq {
		Ssrgb setrgbcolor
		gsave
		fill
		grestore
	} if
	Slw setlinewidth
	Slrgb setrgbcolor
	stroke
} def
/Sdia {
	/sfill exch def
	/sstroke exch def
	xratio mul
	/r exch def
	yratio mul
	/y exch def
	xratio mul
	/x exch def
	x r sub
	/x0 exch def
	/y0 y def
	/x1 x def
	y r sub
	/y1 exch def
	x r add
	/x2 exch def
	/y2 y def
	/x3 x def
	y r add
	/y3 exch def
	newpath x0 y0 moveto x1 y1 lineto x2 y2 lineto x3 y3 lineto closepath
	sfill Sfill
	sstroke Sstroke
} def
/Scc {
	/sfill exch def
	/sstroke exch def
	xratio mul
	/r0 exch def
	yratio mul
	/y0 exch def
	xratio mul
	/x0 exch def
	x0 y0 r0 0 360 arc closepath
	sfill Sfill
	sstroke Sstroke
} def
/Spie {
	/sfill exch def
	/salign exch def
	/a1 exch def
	/a0 exch def
	xratio mul
	/r exch def
	yratio mul
	/y exch def
	xratio mul
	/x exch def
	/Pie {
		x y moveto x y r a0 a1 arc closepath
	} def
	newpath Pie
	sfill Sfill
	Slrgb setrgbcolor
	salign 0 eq {
		gsave
		Slw 2 mul setlinewidth
		clip
		stroke
		grestore
	} if
	salign 1 eq {
		Slw setlinewidth
		stroke
	} if
	salign 2 eq {
		gsave
		Slw 2 mul setlinewidth
		strokepath
		pathbbox
		/ury exch def
		/urx exch def
		/lly exch def
		/llx exch def
		newpath llx lly moveto llx ury lineto urx ury lineto urx lly lineto closepath
		Pie
		eoclip
		newpath Pie
		stroke
		grestore
	} if
	newpath
} def
/Splu {
	xratio mul
	/r exch def
	yratio mul
	/y exch def
	xratio mul
	/x exch def
	x r sub
	/x0 exch def
	x r add
	/x1 exch def
	x0 y M x1 y L
	y r sub
	/y0 exch def
	y r add
	/y1 exch def
	x y0 M x y1 L
} def
/Scro {
	xratio mul
	/r exch def
	yratio mul
	/y exch def
	xratio mul
	/x exch def
	x r sub
	/x0 exch def
	y r sub
	/y0 exch def
	x r add
	/x1 exch def
	y r add
	/y1 exch def
	x0 y0 M x1 y1 L
	x r add
	/x0 exch def
	y r sub
	/y0 exch def
	x r sub
	/x1 exch def
	y r add
	/y1 exch def
	x0 y0 M x1 y1 L
} def
/Sm {
	yratio mul
	/y exch def
	xratio mul
	/x exch def
	x y M
} def
/Sl {
	yratio mul
	/y exch def
	xratio mul
	/x exch def
	x y L
} def
/SPl {
	yratio mul
	/y exch def
	xratio mul
	/x exch def
	x y PL
} def
/Sarr {
	/sfill exch def
	xratio mul
	/r exch def
	yratio mul
	/y exch def
	xratio mul
	/x exch def
	y r add
	/ytop exch def
	y r sub
	/ybot exch def
	gsave
	Slrgb setrgbcolor
	sfill 0 eq {
		r 2 mul 3 div dup
		x exch sub
		/xleft exch def
		x add
		/xright exch def
		newpath xleft y moveto x ytop lineto xright y lineto x ytop moveto x ybot lineto
		Lcs
		1 setlinejoin
	} {
		r 2 div dup
		x exch sub
		/xleft exch def
		x add
		/xright exch def
		newpath xleft y moveto x ytop lineto xright y lineto x ytop closepath moveto x ybot lineto
		gsave
		fill
		grestore
	} ifelse
	Slw setlinewidth
	stroke
	grestore
} def
/Spipe {
	xratio mul
	/r exch def
	yratio mul
	/y exch def
	xratio mul
	/x exch def
	y r sub
	/y0 exch def
	y r add
	/y1 exch def
	x y0 M x y1 L
} def
/Sv {
	xratio mul
	/r exch def
	yratio mul
	/y0 exch def
	xratio mul
	/x0 exch def
	/xcen x0 def
	y0 r add
	/ytop exch def
	r 2 div
	y0 exch sub
	/ybot exch def
	r 3 sqrt 2 div mul dup
	xcen exch sub
	/xleft exch def
	xcen add
	/xright exch def
	newpath xleft ytop moveto xcen ybot lineto xright ytop lineto
	Slw setlinewidth
	Slrgb setrgbcolor
	stroke
} def
/Lcs {
	currentlinecap
	1 setlinecap
} def
/Lcr {
	setlinecap
} def
/Sbp {
	newpath
} def
/Sep {
	/sfill exch def
	closepath
	/salign exch def
	Lcs
	salign 0 eq {
		sfill Sfill
		gsave
		Slw 2 mul setlinewidth
		clip
		Slrgb setrgbcolor
		stroke
		grestore
	} if
	salign 1 eq {
		sfill Sfill
		Slw setlinewidth
		Slrgb setrgbcolor
		stroke
	} if
	salign 2 eq {
		gsave
		Slw 2 mul setlinewidth
		Slrgb setrgbcolor
		stroke
		grestore
		sfill Sfill
	} if
	newpath
	Lcr
} def
/Stransrot {
	/anglep exch def
	yratio mul
	/y exch def
	xratio mul
	/x exch def
	x y translate
	anglep rotate
	x neg y neg translate
} def
/cp {currentpoint} def 
/M {moveto} def 
/rm {rmoveto} def 
/S {stroke} def 
/L {Slw setlinewidth Slrgb setrgbcolor lineto Lcs S Lcr} def 
/PL {Slw setlinewidth Slrgb setrgbcolor lineto} def 
/MF-Helvetica {
  /newfontname exch def
  /fontname exch def
  /fontdict fontname findfont def
  /newfont fontdict maxlength dict def
  fontdict {
  exch dup /FID eq {pop pop} {exch newfont 3 1 roll put} ifelse
  } forall
  newfont /FontName newfontname put
  newfont /Encoding ISOLatin1Encoding put
  newfontname newfont definefont pop
} def
/Helvetica /Helvetica-0 MF-Helvetica
/Slw 0.120 def
1.000 1.000 1.000 setrgbcolor
0 0 1008.000 576.000 Sbgfill
/Sfill {
	/sfill exch def
	sfill 1 eq {
		Ssrgb setrgbcolor
		gsave
		fill
		grestore
	} if
} def
/Sstroke {
	/sstroke exch def
	sstroke 1 eq {
		Slw setlinewidth
		Slrgb setrgbcolor
		stroke
	} if
	newpath
} def
/Slrgb {1.000 1.000 1.000} def
/Strgb {1.000 1.000 1.000} def
/Ssrgb {1.000 1.000 1.000} def
/Slw 1.152 def
0 0 31999 18285 0 1 Srect
18 18 31981 18267 1 0 Srect
/Slw 0.553 def
/Slrgb {0.000 0.000 0.000} def
2472 11358 8875 17204 0 0 Srect
2481 11367 8866 17195 1 0 Srect
/Strgb {0.000 0.000 0.000} def
/Slw 0.829 def
/Slrgb {0.188 0.188 0.188} def
2472 14860 8875 14860 Sln
/Slw 0.553 def
/Slrgb {0.000 0.000 0.000} def
10199 11358 16602 17204 0 0 Srect
10208 11367 16593 17195 1 0 Srect
/Slw 0.829 def
/Slrgb {0.188 0.188 0.188} def
10199 14281 16602 14281 Sln
/Slw 0.553 def
/Slrgb {0.000 0.000 0.000} def
18011 11358 24414 17204 0 0 Srect
18020 11367 24405 17195 1 0 Srect
/Slw 0.829 def
/Slrgb {0.188 0.188 0.188} def
18011 14827 24414 14827 Sln
/Slw 0.553 def
/Slrgb {0.000 0.000 0.000} def
24956 11358 31359 17204 0 0 Srect
24965 11367 31350 17195 1 0 Srect
/Slw 0.829 def
/Slrgb {0.188 0.188 0.188} def
24956 14842 31359 14842 Sln
/Slw 0.553 def
/Slrgb {0.000 0.000 0.000} def
2472 3920 8875 9767 0 0 Srect
2481 3929 8866 9758 1 0 Srect
/Slw 0.829 def
/Slrgb {0.188 0.188 0.188} def
2472 7254 8875 7254 Sln
/Slw 0.553 def
/Slrgb {0.000 0.000 0.000} def
10199 3920 16602 9767 0 0 Srect
10208 3929 16593 9758 1 0 Srect
/Slw 0.829 def
/Slrgb {0.188 0.188 0.188} def
10199 6844 16602 6844 Sln
/Slw 0.553 def
/Slrgb {0.000 0.000 0.000} def
18011 3920 24414 9767 0 0 Srect
18020 3929 24405 9758 1 0 Srect
/Slw 0.829 def
/Slrgb {0.188 0.188 0.188} def
18011 6844 24414 6844 Sln
/Ssrgb {0.502 0.502 0.502} def
/Slrgb {0.376 0.376 0.376} def
2899 14313 2899 16270 Sln
4179 13952 4179 15326 Sln
5460 13031 5460 15460 Sln
6740 12530 6740 16285 Sln
8021 12489 8021 17011 Sln
2898 15291 Sm
4179 14639 Sl
4179 14639 Sm
5459 14245 Sl
5459 14245 Sm
6740 14407 Sl
6740 14407 Sm
8020 14750 Sl
/Ssrgb {0.702 0.702 0.702} def
/Slrgb {0.627 0.627 0.627} def
3326 11696 3326 14269 Sln
4606 12407 4606 14128 Sln
5887 11572 5887 13909 Sln
7167 11551 7167 15408 Sln
8448 11778 8448 16294 Sln
3325 12982 3468 13014 Sln
3593 13042 3736 13074 Sln
3861 13101 4003 13133 Sln
4128 13161 4271 13193 Sln
4396 13220 4539 13252 Sln
4661 13245 4797 13189 Sln
4915 13140 5050 13085 Sln
5168 13036 5304 12980 Sln
5422 12931 5557 12876 Sln
5675 12827 5811 12771 Sln
5926 12763 6053 12836 Sln
6164 12900 6290 12973 Sln
6401 13037 6528 13110 Sln
6638 13174 6765 13247 Sln
6876 13311 7002 13384 Sln
7113 13448 7167 13479 Sln
7167 13479 7244 13512 Sln
7361 13564 7495 13622 Sln
7612 13673 7746 13731 Sln
7864 13782 7998 13840 Sln
8115 13891 8249 13949 Sln
8367 14000 8447 14035 Sln
/Ssrgb {0.502 0.502 0.502} def
/Slrgb {0.376 0.376 0.376} def
10626 13477 10626 15758 Sln
11906 12896 11906 14299 Sln
13187 11988 13187 14457 Sln
14467 11682 14467 16318 Sln
15748 12937 15748 16766 Sln
10625 14617 Sm
11906 13597 Sl
11906 13597 Sm
13186 13222 Sl
13186 13222 Sm
14467 14000 Sl
14467 14000 Sm
15747 14851 Sl
/Ssrgb {0.702 0.702 0.702} def
/Slrgb {0.627 0.627 0.627} def
11053 13529 11053 14204 Sln
12333 13776 12333 14246 Sln
13614 13802 13614 14886 Sln
14894 13707 14894 15584 Sln
16175 13359 16175 14455 Sln
11052 13866 11197 13882 Sln
11324 13896 11469 13913 Sln
11596 13927 11742 13944 Sln
11869 13958 12014 13975 Sln
12141 13989 12286 14006 Sln
12411 14031 12552 14068 Sln
12676 14100 12818 14137 Sln
12942 14169 13084 14206 Sln
13208 14238 13349 14274 Sln
13473 14306 13613 14343 Sln
13613 14343 13615 14343 Sln
13739 14373 13882 14406 Sln
14006 14436 14148 14469 Sln
14273 14499 14415 14532 Sln
14540 14562 14682 14595 Sln
14807 14624 14894 14645 Sln
14894 14645 14943 14617 Sln
15054 14553 15180 14480 Sln
15291 14416 15418 14343 Sln
15528 14279 15655 14206 Sln
15766 14142 15892 14069 Sln
16003 14005 16129 13932 Sln
/Ssrgb {0.502 0.502 0.502} def
/Slrgb {0.376 0.376 0.376} def
18438 13995 18438 15350 Sln
19719 13699 19719 14530 Sln
20999 13407 20999 14744 Sln
22280 13540 22280 16364 Sln
23560 12046 23560 15792 Sln
18438 14672 Sm
19718 14114 Sl
19718 14114 Sm
20999 14075 Sl
20999 14075 Sm
22279 14951 Sl
22279 14951 Sm
23560 13919 Sl
/Ssrgb {0.702 0.702 0.702} def
/Slrgb {0.627 0.627 0.627} def
18865 14649 18865 14769 Sln
20145 14605 20145 14826 Sln
21426 14631 21426 14978 Sln
22706 14601 22706 14797 Sln
23987 14610 23987 14842 Sln
18864 14708 19010 14709 Sln
19138 14710 19285 14711 Sln
19413 14711 19559 14712 Sln
19687 14713 19833 14714 Sln
19961 14714 20107 14715 Sln
20235 14721 20381 14732 Sln
20509 14741 20654 14751 Sln
20782 14760 20928 14770 Sln
21055 14779 21201 14788 Sln
21328 14797 21425 14804 Sln
21425 14804 21474 14800 Sln
21602 14789 21748 14777 Sln
21875 14767 22021 14754 Sln
22148 14744 22294 14732 Sln
22422 14721 22567 14709 Sln
22695 14699 22706 14698 Sln
22706 14698 22841 14701 Sln
22969 14703 23115 14706 Sln
23243 14709 23390 14712 Sln
23518 14715 23664 14718 Sln
23792 14721 23938 14724 Sln
/Ssrgb {0.502 0.502 0.502} def
/Slrgb {0.376 0.376 0.376} def
25383 13376 25383 14951 Sln
26664 13633 26664 14690 Sln
27944 13100 27944 14709 Sln
29225 11551 29225 13953 Sln
30505 11574 30505 14430 Sln
25383 14163 Sm
26663 14161 Sl
26663 14161 Sm
27944 13904 Sl
27944 13904 Sm
29224 12752 Sl
29224 12752 Sm
30505 13001 Sl
/Ssrgb {0.702 0.702 0.702} def
/Slrgb {0.627 0.627 0.627} def
25810 13868 25810 15625 Sln
27090 13946 27090 15071 Sln
28371 13257 28371 14929 Sln
29651 13167 29651 15713 Sln
30932 12791 30932 16724 Sln
25809 14746 25953 14720 Sln
26079 14696 26223 14669 Sln
26349 14646 26493 14619 Sln
26619 14595 26762 14569 Sln
26888 14545 27032 14519 Sln
27156 14487 27295 14441 Sln
27416 14402 27555 14357 Sln
27677 14317 27815 14272 Sln
27937 14233 28076 14187 Sln
28198 14148 28337 14103 Sln
28460 14116 28601 14154 Sln
28725 14188 28866 14226 Sln
28990 14260 29131 14298 Sln
29254 14332 29396 14370 Sln
29519 14403 29651 14439 Sln
29651 14439 29660 14441 Sln
29784 14472 29926 14507 Sln
30050 14538 30192 14574 Sln
30316 14605 30458 14640 Sln
30582 14670 30723 14706 Sln
30848 14736 30931 14757 Sln
/Ssrgb {0.502 0.502 0.502} def
/Slrgb {0.376 0.376 0.376} def
2899 5058 2899 7408 Sln
4179 5423 4179 7066 Sln
5460 5166 5460 7458 Sln
6740 4427 6740 7564 Sln
8021 5387 8021 9574 Sln
2898 6233 Sm
4179 6244 Sl
4179 6244 Sm
5459 6311 Sl
5459 6311 Sm
6740 5995 Sl
6740 5995 Sm
8020 7480 Sl
/Ssrgb {0.702 0.702 0.702} def
/Slrgb {0.627 0.627 0.627} def
3326 6136 3326 7996 Sln
4606 6251 4606 7448 Sln
5887 6323 5887 8034 Sln
7167 4569 7167 6889 Sln
8448 4646 8448 7180 Sln
3325 7066 3469 7041 Sln
3595 7020 3740 6996 Sln
3866 6975 4010 6950 Sln
4136 6929 4280 6904 Sln
4407 6883 4551 6858 Sln
4675 6867 4817 6903 Sln
4941 6935 5083 6972 Sln
5207 7004 5349 7040 Sln
5473 7072 5615 7108 Sln
5739 7140 5880 7176 Sln
5967 7086 6064 6976 Sln
6148 6880 6245 6771 Sln
6330 6675 6427 6566 Sln
6512 6470 6609 6361 Sln
6693 6265 6790 6155 Sln
6875 6059 6972 5950 Sln
7057 5854 7154 5744 Sln
7274 5744 7419 5765 Sln
7545 5783 7690 5804 Sln
7816 5822 7961 5843 Sln
8088 5861 8232 5882 Sln
8359 5900 8447 5913 Sln
/Ssrgb {0.502 0.502 0.502} def
/Slrgb {0.376 0.376 0.376} def
10626 5230 10626 7661 Sln
11906 6010 11906 7181 Sln
13187 5587 13187 7191 Sln
14467 5157 14467 8684 Sln
15748 4572 15748 7452 Sln
10625 6445 Sm
11906 6595 Sl
11906 6595 Sm
13186 6389 Sl
13186 6389 Sm
14467 6920 Sl
14467 6920 Sm
15747 6012 Sl
/Ssrgb {0.702 0.702 0.702} def
/Slrgb {0.627 0.627 0.627} def
11053 5178 11053 6386 Sln
12333 5592 12333 6794 Sln
13614 5073 13614 6731 Sln
14894 4508 14894 6453 Sln
16175 4547 16175 9292 Sln
11052 5781 11191 5826 Sln
11313 5865 11453 5910 Sln
11575 5950 11714 5994 Sln
11836 6034 11975 6079 Sln
12097 6118 12237 6163 Sln
12359 6187 12502 6155 Sln
12627 6126 12769 6094 Sln
12894 6065 13037 6033 Sln
13162 6004 13305 5972 Sln
13430 5943 13572 5911 Sln
13695 5875 13834 5829 Sln
13955 5789 14094 5743 Sln
14216 5703 14355 5658 Sln
14476 5618 14615 5572 Sln
14737 5532 14876 5486 Sln
14966 5561 15063 5670 Sln
15148 5766 15245 5875 Sln
15330 5971 15427 6080 Sln
15513 6176 15610 6285 Sln
15695 6380 15792 6490 Sln
15877 6585 15974 6694 Sln
16059 6790 16156 6899 Sln
/Ssrgb {0.502 0.502 0.502} def
/Slrgb {0.376 0.376 0.376} def
18438 5667 18438 7528 Sln
19719 6724 19719 7947 Sln
20999 6209 20999 8273 Sln
22280 4531 22280 8053 Sln
23560 5096 23560 9162 Sln
18438 6597 Sm
19718 7335 Sl
19718 7335 Sm
20999 7240 Sl
20999 7240 Sm
22279 6291 Sl
22279 6291 Sm
23560 7128 Sl
/Ssrgb {0.702 0.702 0.702} def
/Slrgb {0.627 0.627 0.627} def
18865 7595 18865 9420 Sln
20145 7030 20145 8294 Sln
21426 6940 21426 8778 Sln
22706 6941 22706 9364 Sln
23987 4917 23987 6993 Sln
18864 8507 18986 8426 Sln
19093 8356 19215 8275 Sln
19322 8205 19444 8124 Sln
19551 8054 19673 7973 Sln
19780 7903 19902 7822 Sln
20009 7751 20131 7670 Sln
20255 7678 20399 7700 Sln
20526 7719 20670 7742 Sln
20797 7761 20941 7783 Sln
21068 7803 21212 7825 Sln
21339 7845 21425 7858 Sln
21425 7858 21482 7872 Sln
21607 7900 21749 7933 Sln
21874 7961 22016 7994 Sln
22141 8022 22283 8055 Sln
22408 8084 22550 8116 Sln
22675 8145 22706 8152 Sln
22706 8152 22764 8054 Sln
22828 7943 22902 7816 Sln
22966 7706 23040 7579 Sln
23104 7468 23178 7342 Sln
23242 7231 23316 7104 Sln
23380 6994 23454 6867 Sln
23519 6756 23592 6630 Sln
23657 6519 23731 6393 Sln
23795 6282 23869 6155 Sln
23933 6045 23986 5954 Sln
/Slw 0.553 def
/Slrgb {0.000 0.000 0.000} def
2472 11358 2472 17204 Sln
2472 11961 2350 11961 Sln
2289 11876 0
/Helvetica-0 findfont 244 yratio mul scalefont setfont
(-.3) stringwidth pop add
xratio div
dup 4 3 roll exch 0.000 cos mul sub 3 1 roll 0.000 sin mul sub 2 copy
/fntsize {/Helvetica-0 findfont exch scalefont setfont } def
0.000 244
(-.3) Stxtl
(-.3) stringwidth pop xratio div
dup 4 3 roll exch 0.000 cos mul add 3 1 roll 0.000 sin mul add 2 copy
pop pop pop pop
2472 12927 2350 12927 Sln
2289 12842 0
/Helvetica-0 findfont 244 yratio mul scalefont setfont
(-.2) stringwidth pop add
xratio div
dup 4 3 roll exch 0.000 cos mul sub 3 1 roll 0.000 sin mul sub 2 copy
/fntsize {/Helvetica-0 findfont exch scalefont setfont } def
0.000 244
(-.2) Stxtl
(-.2) stringwidth pop xratio div
dup 4 3 roll exch 0.000 cos mul add 3 1 roll 0.000 sin mul add 2 copy
pop pop pop pop
2472 13893 2350 13893 Sln
2289 13808 0
/Helvetica-0 findfont 244 yratio mul scalefont setfont
(-.1) stringwidth pop add
xratio div
dup 4 3 roll exch 0.000 cos mul sub 3 1 roll 0.000 sin mul sub 2 copy
/fntsize {/Helvetica-0 findfont exch scalefont setfont } def
0.000 244
(-.1) Stxtl
(-.1) stringwidth pop xratio div
dup 4 3 roll exch 0.000 cos mul add 3 1 roll 0.000 sin mul add 2 copy
pop pop pop pop
2472 14860 2350 14860 Sln
2289 14775 0
/Helvetica-0 findfont 244 yratio mul scalefont setfont
(0) stringwidth pop add
xratio div
dup 4 3 roll exch 0.000 cos mul sub 3 1 roll 0.000 sin mul sub 2 copy
/fntsize {/Helvetica-0 findfont exch scalefont setfont } def
0.000 244
(0) Stxtl
(0) stringwidth pop xratio div
dup 4 3 roll exch 0.000 cos mul add 3 1 roll 0.000 sin mul add 2 copy
pop pop pop pop
2472 15826 2350 15826 Sln
2289 15741 0
/Helvetica-0 findfont 244 yratio mul scalefont setfont
(.1) stringwidth pop add
xratio div
dup 4 3 roll exch 0.000 cos mul sub 3 1 roll 0.000 sin mul sub 2 copy
/fntsize {/Helvetica-0 findfont exch scalefont setfont } def
0.000 244
(.1) Stxtl
(.1) stringwidth pop xratio div
dup 4 3 roll exch 0.000 cos mul add 3 1 roll 0.000 sin mul add 2 copy
pop pop pop pop
2472 16792 2350 16792 Sln
2289 16707 0
/Helvetica-0 findfont 244 yratio mul scalefont setfont
(.2) stringwidth pop add
xratio div
dup 4 3 roll exch 0.000 cos mul sub 3 1 roll 0.000 sin mul sub 2 copy
/fntsize {/Helvetica-0 findfont exch scalefont setfont } def
0.000 244
(.2) Stxtl
(.2) stringwidth pop xratio div
dup 4 3 roll exch 0.000 cos mul add 3 1 roll 0.000 sin mul add 2 copy
pop pop pop pop
10199 11358 10199 17204 Sln
10199 11551 10077 11551 Sln
10016 11466 0
/Helvetica-0 findfont 244 yratio mul scalefont setfont
(-.3) stringwidth pop add
xratio div
dup 4 3 roll exch 0.000 cos mul sub 3 1 roll 0.000 sin mul sub 2 copy
/fntsize {/Helvetica-0 findfont exch scalefont setfont } def
0.000 244
(-.3) Stxtl
(-.3) stringwidth pop xratio div
dup 4 3 roll exch 0.000 cos mul add 3 1 roll 0.000 sin mul add 2 copy
pop pop pop pop
10199 12461 10077 12461 Sln
10016 12376 0
/Helvetica-0 findfont 244 yratio mul scalefont setfont
(-.2) stringwidth pop add
xratio div
dup 4 3 roll exch 0.000 cos mul sub 3 1 roll 0.000 sin mul sub 2 copy
/fntsize {/Helvetica-0 findfont exch scalefont setfont } def
0.000 244
(-.2) Stxtl
(-.2) stringwidth pop xratio div
dup 4 3 roll exch 0.000 cos mul add 3 1 roll 0.000 sin mul add 2 copy
pop pop pop pop
10199 13371 10077 13371 Sln
10016 13286 0
/Helvetica-0 findfont 244 yratio mul scalefont setfont
(-.1) stringwidth pop add
xratio div
dup 4 3 roll exch 0.000 cos mul sub 3 1 roll 0.000 sin mul sub 2 copy
/fntsize {/Helvetica-0 findfont exch scalefont setfont } def
0.000 244
(-.1) Stxtl
(-.1) stringwidth pop xratio div
dup 4 3 roll exch 0.000 cos mul add 3 1 roll 0.000 sin mul add 2 copy
pop pop pop pop
10199 14281 10077 14281 Sln
10016 14196 0
/Helvetica-0 findfont 244 yratio mul scalefont setfont
(0) stringwidth pop add
xratio div
dup 4 3 roll exch 0.000 cos mul sub 3 1 roll 0.000 sin mul sub 2 copy
/fntsize {/Helvetica-0 findfont exch scalefont setfont } def
0.000 244
(0) Stxtl
(0) stringwidth pop xratio div
dup 4 3 roll exch 0.000 cos mul add 3 1 roll 0.000 sin mul add 2 copy
pop pop pop pop
10199 15191 10077 15191 Sln
10016 15106 0
/Helvetica-0 findfont 244 yratio mul scalefont setfont
(.1) stringwidth pop add
xratio div
dup 4 3 roll exch 0.000 cos mul sub 3 1 roll 0.000 sin mul sub 2 copy
/fntsize {/Helvetica-0 findfont exch scalefont setfont } def
0.000 244
(.1) Stxtl
(.1) stringwidth pop xratio div
dup 4 3 roll exch 0.000 cos mul add 3 1 roll 0.000 sin mul add 2 copy
pop pop pop pop
10199 16101 10077 16101 Sln
10016 16016 0
/Helvetica-0 findfont 244 yratio mul scalefont setfont
(.2) stringwidth pop add
xratio div
dup 4 3 roll exch 0.000 cos mul sub 3 1 roll 0.000 sin mul sub 2 copy
/fntsize {/Helvetica-0 findfont exch scalefont setfont } def
0.000 244
(.2) Stxtl
(.2) stringwidth pop xratio div
dup 4 3 roll exch 0.000 cos mul add 3 1 roll 0.000 sin mul add 2 copy
pop pop pop pop
10199 17011 10077 17011 Sln
10016 16926 0
/Helvetica-0 findfont 244 yratio mul scalefont setfont
(.3) stringwidth pop add
xratio div
dup 4 3 roll exch 0.000 cos mul sub 3 1 roll 0.000 sin mul sub 2 copy
/fntsize {/Helvetica-0 findfont exch scalefont setfont } def
0.000 244
(.3) Stxtl
(.3) stringwidth pop xratio div
dup 4 3 roll exch 0.000 cos mul add 3 1 roll 0.000 sin mul add 2 copy
pop pop pop pop
18011 11358 18011 17204 Sln
18011 11551 17889 11551 Sln
17828 11466 0
/Helvetica-0 findfont 244 yratio mul scalefont setfont
(-.6) stringwidth pop add
xratio div
dup 4 3 roll exch 0.000 cos mul sub 3 1 roll 0.000 sin mul sub 2 copy
/fntsize {/Helvetica-0 findfont exch scalefont setfont } def
0.000 244
(-.6) Stxtl
(-.6) stringwidth pop xratio div
dup 4 3 roll exch 0.000 cos mul add 3 1 roll 0.000 sin mul add 2 copy
pop pop pop pop
18011 12643 17889 12643 Sln
17828 12558 0
/Helvetica-0 findfont 244 yratio mul scalefont setfont
(-.4) stringwidth pop add
xratio div
dup 4 3 roll exch 0.000 cos mul sub 3 1 roll 0.000 sin mul sub 2 copy
/fntsize {/Helvetica-0 findfont exch scalefont setfont } def
0.000 244
(-.4) Stxtl
(-.4) stringwidth pop xratio div
dup 4 3 roll exch 0.000 cos mul add 3 1 roll 0.000 sin mul add 2 copy
pop pop pop pop
18011 13735 17889 13735 Sln
17828 13650 0
/Helvetica-0 findfont 244 yratio mul scalefont setfont
(-.2) stringwidth pop add
xratio div
dup 4 3 roll exch 0.000 cos mul sub 3 1 roll 0.000 sin mul sub 2 copy
/fntsize {/Helvetica-0 findfont exch scalefont setfont } def
0.000 244
(-.2) Stxtl
(-.2) stringwidth pop xratio div
dup 4 3 roll exch 0.000 cos mul add 3 1 roll 0.000 sin mul add 2 copy
pop pop pop pop
18011 14827 17889 14827 Sln
17828 14742 0
/Helvetica-0 findfont 244 yratio mul scalefont setfont
(0) stringwidth pop add
xratio div
dup 4 3 roll exch 0.000 cos mul sub 3 1 roll 0.000 sin mul sub 2 copy
/fntsize {/Helvetica-0 findfont exch scalefont setfont } def
0.000 244
(0) Stxtl
(0) stringwidth pop xratio div
dup 4 3 roll exch 0.000 cos mul add 3 1 roll 0.000 sin mul add 2 copy
pop pop pop pop
18011 15919 17889 15919 Sln
17828 15834 0
/Helvetica-0 findfont 244 yratio mul scalefont setfont
(.2) stringwidth pop add
xratio div
dup 4 3 roll exch 0.000 cos mul sub 3 1 roll 0.000 sin mul sub 2 copy
/fntsize {/Helvetica-0 findfont exch scalefont setfont } def
0.000 244
(.2) Stxtl
(.2) stringwidth pop xratio div
dup 4 3 roll exch 0.000 cos mul add 3 1 roll 0.000 sin mul add 2 copy
pop pop pop pop
18011 17011 17889 17011 Sln
17828 16926 0
/Helvetica-0 findfont 244 yratio mul scalefont setfont
(.4) stringwidth pop add
xratio div
dup 4 3 roll exch 0.000 cos mul sub 3 1 roll 0.000 sin mul sub 2 copy
/fntsize {/Helvetica-0 findfont exch scalefont setfont } def
0.000 244
(.4) Stxtl
(.4) stringwidth pop xratio div
dup 4 3 roll exch 0.000 cos mul add 3 1 roll 0.000 sin mul add 2 copy
pop pop pop pop
24956 11358 24956 17204 Sln
24956 11588 24834 11588 Sln
24773 11503 0
/Helvetica-0 findfont 244 yratio mul scalefont setfont
(-3) stringwidth pop add
xratio div
dup 4 3 roll exch 0.000 cos mul sub 3 1 roll 0.000 sin mul sub 2 copy
/fntsize {/Helvetica-0 findfont exch scalefont setfont } def
0.000 244
(-3) Stxtl
(-3) stringwidth pop xratio div
dup 4 3 roll exch 0.000 cos mul add 3 1 roll 0.000 sin mul add 2 copy
pop pop pop pop
24956 12673 24834 12673 Sln
24773 12588 0
/Helvetica-0 findfont 244 yratio mul scalefont setfont
(-2) stringwidth pop add
xratio div
dup 4 3 roll exch 0.000 cos mul sub 3 1 roll 0.000 sin mul sub 2 copy
/fntsize {/Helvetica-0 findfont exch scalefont setfont } def
0.000 244
(-2) Stxtl
(-2) stringwidth pop xratio div
dup 4 3 roll exch 0.000 cos mul add 3 1 roll 0.000 sin mul add 2 copy
pop pop pop pop
24956 13757 24834 13757 Sln
24773 13672 0
/Helvetica-0 findfont 244 yratio mul scalefont setfont
(-1) stringwidth pop add
xratio div
dup 4 3 roll exch 0.000 cos mul sub 3 1 roll 0.000 sin mul sub 2 copy
/fntsize {/Helvetica-0 findfont exch scalefont setfont } def
0.000 244
(-1) Stxtl
(-1) stringwidth pop xratio div
dup 4 3 roll exch 0.000 cos mul add 3 1 roll 0.000 sin mul add 2 copy
pop pop pop pop
24956 14842 24834 14842 Sln
24773 14757 0
/Helvetica-0 findfont 244 yratio mul scalefont setfont
(0) stringwidth pop add
xratio div
dup 4 3 roll exch 0.000 cos mul sub 3 1 roll 0.000 sin mul sub 2 copy
/fntsize {/Helvetica-0 findfont exch scalefont setfont } def
0.000 244
(0) Stxtl
(0) stringwidth pop xratio div
dup 4 3 roll exch 0.000 cos mul add 3 1 roll 0.000 sin mul add 2 copy
pop pop pop pop
24956 15927 24834 15927 Sln
24773 15842 0
/Helvetica-0 findfont 244 yratio mul scalefont setfont
(1) stringwidth pop add
xratio div
dup 4 3 roll exch 0.000 cos mul sub 3 1 roll 0.000 sin mul sub 2 copy
/fntsize {/Helvetica-0 findfont exch scalefont setfont } def
0.000 244
(1) Stxtl
(1) stringwidth pop xratio div
dup 4 3 roll exch 0.000 cos mul add 3 1 roll 0.000 sin mul add 2 copy
pop pop pop pop
24956 17011 24834 17011 Sln
24773 16926 0
/Helvetica-0 findfont 244 yratio mul scalefont setfont
(2) stringwidth pop add
xratio div
dup 4 3 roll exch 0.000 cos mul sub 3 1 roll 0.000 sin mul sub 2 copy
/fntsize {/Helvetica-0 findfont exch scalefont setfont } def
0.000 244
(2) Stxtl
(2) stringwidth pop xratio div
dup 4 3 roll exch 0.000 cos mul add 3 1 roll 0.000 sin mul add 2 copy
pop pop pop pop
2472 3920 2472 9767 Sln
2472 4114 2350 4114 Sln
2289 4029 0
/Helvetica-0 findfont 244 yratio mul scalefont setfont
(-600) stringwidth pop add
xratio div
dup 4 3 roll exch 0.000 cos mul sub 3 1 roll 0.000 sin mul sub 2 copy
/fntsize {/Helvetica-0 findfont exch scalefont setfont } def
0.000 244
(-600) Stxtl
(-600) stringwidth pop xratio div
dup 4 3 roll exch 0.000 cos mul add 3 1 roll 0.000 sin mul add 2 copy
pop pop pop pop
2472 5160 2350 5160 Sln
2289 5075 0
/Helvetica-0 findfont 244 yratio mul scalefont setfont
(-400) stringwidth pop add
xratio div
dup 4 3 roll exch 0.000 cos mul sub 3 1 roll 0.000 sin mul sub 2 copy
/fntsize {/Helvetica-0 findfont exch scalefont setfont } def
0.000 244
(-400) Stxtl
(-400) stringwidth pop xratio div
dup 4 3 roll exch 0.000 cos mul add 3 1 roll 0.000 sin mul add 2 copy
pop pop pop pop
2472 6207 2350 6207 Sln
2289 6122 0
/Helvetica-0 findfont 244 yratio mul scalefont setfont
(-200) stringwidth pop add
xratio div
dup 4 3 roll exch 0.000 cos mul sub 3 1 roll 0.000 sin mul sub 2 copy
/fntsize {/Helvetica-0 findfont exch scalefont setfont } def
0.000 244
(-200) Stxtl
(-200) stringwidth pop xratio div
dup 4 3 roll exch 0.000 cos mul add 3 1 roll 0.000 sin mul add 2 copy
pop pop pop pop
2472 7254 2350 7254 Sln
2289 7169 0
/Helvetica-0 findfont 244 yratio mul scalefont setfont
(0) stringwidth pop add
xratio div
dup 4 3 roll exch 0.000 cos mul sub 3 1 roll 0.000 sin mul sub 2 copy
/fntsize {/Helvetica-0 findfont exch scalefont setfont } def
0.000 244
(0) Stxtl
(0) stringwidth pop xratio div
dup 4 3 roll exch 0.000 cos mul add 3 1 roll 0.000 sin mul add 2 copy
pop pop pop pop
2472 8301 2350 8301 Sln
2289 8216 0
/Helvetica-0 findfont 244 yratio mul scalefont setfont
(200) stringwidth pop add
xratio div
dup 4 3 roll exch 0.000 cos mul sub 3 1 roll 0.000 sin mul sub 2 copy
/fntsize {/Helvetica-0 findfont exch scalefont setfont } def
0.000 244
(200) Stxtl
(200) stringwidth pop xratio div
dup 4 3 roll exch 0.000 cos mul add 3 1 roll 0.000 sin mul add 2 copy
pop pop pop pop
2472 9348 2350 9348 Sln
2289 9263 0
/Helvetica-0 findfont 244 yratio mul scalefont setfont
(400) stringwidth pop add
xratio div
dup 4 3 roll exch 0.000 cos mul sub 3 1 roll 0.000 sin mul sub 2 copy
/fntsize {/Helvetica-0 findfont exch scalefont setfont } def
0.000 244
(400) Stxtl
(400) stringwidth pop xratio div
dup 4 3 roll exch 0.000 cos mul add 3 1 roll 0.000 sin mul add 2 copy
pop pop pop pop
10199 3920 10199 9767 Sln
10199 4114 10077 4114 Sln
10016 4029 0
/Helvetica-0 findfont 244 yratio mul scalefont setfont
(-150) stringwidth pop add
xratio div
dup 4 3 roll exch 0.000 cos mul sub 3 1 roll 0.000 sin mul sub 2 copy
/fntsize {/Helvetica-0 findfont exch scalefont setfont } def
0.000 244
(-150) Stxtl
(-150) stringwidth pop xratio div
dup 4 3 roll exch 0.000 cos mul add 3 1 roll 0.000 sin mul add 2 copy
pop pop pop pop
10199 5024 10077 5024 Sln
10016 4939 0
/Helvetica-0 findfont 244 yratio mul scalefont setfont
(-100) stringwidth pop add
xratio div
dup 4 3 roll exch 0.000 cos mul sub 3 1 roll 0.000 sin mul sub 2 copy
/fntsize {/Helvetica-0 findfont exch scalefont setfont } def
0.000 244
(-100) Stxtl
(-100) stringwidth pop xratio div
dup 4 3 roll exch 0.000 cos mul add 3 1 roll 0.000 sin mul add 2 copy
pop pop pop pop
10199 5934 10077 5934 Sln
10016 5849 0
/Helvetica-0 findfont 244 yratio mul scalefont setfont
(-50) stringwidth pop add
xratio div
dup 4 3 roll exch 0.000 cos mul sub 3 1 roll 0.000 sin mul sub 2 copy
/fntsize {/Helvetica-0 findfont exch scalefont setfont } def
0.000 244
(-50) Stxtl
(-50) stringwidth pop xratio div
dup 4 3 roll exch 0.000 cos mul add 3 1 roll 0.000 sin mul add 2 copy
pop pop pop pop
10199 6844 10077 6844 Sln
10016 6759 0
/Helvetica-0 findfont 244 yratio mul scalefont setfont
(0) stringwidth pop add
xratio div
dup 4 3 roll exch 0.000 cos mul sub 3 1 roll 0.000 sin mul sub 2 copy
/fntsize {/Helvetica-0 findfont exch scalefont setfont } def
0.000 244
(0) Stxtl
(0) stringwidth pop xratio div
dup 4 3 roll exch 0.000 cos mul add 3 1 roll 0.000 sin mul add 2 copy
pop pop pop pop
10199 7754 10077 7754 Sln
10016 7669 0
/Helvetica-0 findfont 244 yratio mul scalefont setfont
(50) stringwidth pop add
xratio div
dup 4 3 roll exch 0.000 cos mul sub 3 1 roll 0.000 sin mul sub 2 copy
/fntsize {/Helvetica-0 findfont exch scalefont setfont } def
0.000 244
(50) Stxtl
(50) stringwidth pop xratio div
dup 4 3 roll exch 0.000 cos mul add 3 1 roll 0.000 sin mul add 2 copy
pop pop pop pop
10199 8664 10077 8664 Sln
10016 8579 0
/Helvetica-0 findfont 244 yratio mul scalefont setfont
(100) stringwidth pop add
xratio div
dup 4 3 roll exch 0.000 cos mul sub 3 1 roll 0.000 sin mul sub 2 copy
/fntsize {/Helvetica-0 findfont exch scalefont setfont } def
0.000 244
(100) Stxtl
(100) stringwidth pop xratio div
dup 4 3 roll exch 0.000 cos mul add 3 1 roll 0.000 sin mul add 2 copy
pop pop pop pop
10199 9574 10077 9574 Sln
10016 9489 0
/Helvetica-0 findfont 244 yratio mul scalefont setfont
(150) stringwidth pop add
xratio div
dup 4 3 roll exch 0.000 cos mul sub 3 1 roll 0.000 sin mul sub 2 copy
/fntsize {/Helvetica-0 findfont exch scalefont setfont } def
0.000 244
(150) Stxtl
(150) stringwidth pop xratio div
dup 4 3 roll exch 0.000 cos mul add 3 1 roll 0.000 sin mul add 2 copy
pop pop pop pop
18011 3920 18011 9767 Sln
18011 4114 17889 4114 Sln
17828 4029 0
/Helvetica-0 findfont 244 yratio mul scalefont setfont
(-.4) stringwidth pop add
xratio div
dup 4 3 roll exch 0.000 cos mul sub 3 1 roll 0.000 sin mul sub 2 copy
/fntsize {/Helvetica-0 findfont exch scalefont setfont } def
0.000 244
(-.4) Stxtl
(-.4) stringwidth pop xratio div
dup 4 3 roll exch 0.000 cos mul add 3 1 roll 0.000 sin mul add 2 copy
pop pop pop pop
18011 5479 17889 5479 Sln
17828 5394 0
/Helvetica-0 findfont 244 yratio mul scalefont setfont
(-.2) stringwidth pop add
xratio div
dup 4 3 roll exch 0.000 cos mul sub 3 1 roll 0.000 sin mul sub 2 copy
/fntsize {/Helvetica-0 findfont exch scalefont setfont } def
0.000 244
(-.2) Stxtl
(-.2) stringwidth pop xratio div
dup 4 3 roll exch 0.000 cos mul add 3 1 roll 0.000 sin mul add 2 copy
pop pop pop pop
18011 6844 17889 6844 Sln
17828 6759 0
/Helvetica-0 findfont 244 yratio mul scalefont setfont
(0) stringwidth pop add
xratio div
dup 4 3 roll exch 0.000 cos mul sub 3 1 roll 0.000 sin mul sub 2 copy
/fntsize {/Helvetica-0 findfont exch scalefont setfont } def
0.000 244
(0) Stxtl
(0) stringwidth pop xratio div
dup 4 3 roll exch 0.000 cos mul add 3 1 roll 0.000 sin mul add 2 copy
pop pop pop pop
18011 8209 17889 8209 Sln
17828 8124 0
/Helvetica-0 findfont 244 yratio mul scalefont setfont
(.2) stringwidth pop add
xratio div
dup 4 3 roll exch 0.000 cos mul sub 3 1 roll 0.000 sin mul sub 2 copy
/fntsize {/Helvetica-0 findfont exch scalefont setfont } def
0.000 244
(.2) Stxtl
(.2) stringwidth pop xratio div
dup 4 3 roll exch 0.000 cos mul add 3 1 roll 0.000 sin mul add 2 copy
pop pop pop pop
18011 9574 17889 9574 Sln
17828 9489 0
/Helvetica-0 findfont 244 yratio mul scalefont setfont
(.4) stringwidth pop add
xratio div
dup 4 3 roll exch 0.000 cos mul sub 3 1 roll 0.000 sin mul sub 2 copy
/fntsize {/Helvetica-0 findfont exch scalefont setfont } def
0.000 244
(.4) Stxtl
(.4) stringwidth pop xratio div
dup 4 3 roll exch 0.000 cos mul add 3 1 roll 0.000 sin mul add 2 copy
pop pop pop pop
24956 11358 31359 11358 Sln
25596 11358 25596 11236 Sln
25703 11175 0
/Helvetica-0 findfont 305 yratio mul scalefont setfont
(0-1) stringwidth pop add
xratio div
dup 4 3 roll exch 90.000 cos mul sub 3 1 roll 90.000 sin mul sub 2 copy
/fntsize {/Helvetica-0 findfont exch scalefont setfont } def
90.000 305
(0-1) Stxtl
(0-1) stringwidth pop xratio div
dup 4 3 roll exch 90.000 cos mul add 3 1 roll 90.000 sin mul add 2 copy
pop pop pop pop
26877 11358 26877 11236 Sln
26984 11175 0
/Helvetica-0 findfont 305 yratio mul scalefont setfont
(2-4) stringwidth pop add
xratio div
dup 4 3 roll exch 90.000 cos mul sub 3 1 roll 90.000 sin mul sub 2 copy
/fntsize {/Helvetica-0 findfont exch scalefont setfont } def
90.000 305
(2-4) Stxtl
(2-4) stringwidth pop xratio div
dup 4 3 roll exch 90.000 cos mul add 3 1 roll 90.000 sin mul add 2 copy
pop pop pop pop
28157 11358 28157 11236 Sln
28264 11175 0
/Helvetica-0 findfont 305 yratio mul scalefont setfont
(5-7) stringwidth pop add
xratio div
dup 4 3 roll exch 90.000 cos mul sub 3 1 roll 90.000 sin mul sub 2 copy
/fntsize {/Helvetica-0 findfont exch scalefont setfont } def
90.000 305
(5-7) Stxtl
(5-7) stringwidth pop xratio div
dup 4 3 roll exch 90.000 cos mul add 3 1 roll 90.000 sin mul add 2 copy
pop pop pop pop
29438 11358 29438 11236 Sln
29545 11175 0
/Helvetica-0 findfont 305 yratio mul scalefont setfont
(8-10) stringwidth pop add
xratio div
dup 4 3 roll exch 90.000 cos mul sub 3 1 roll 90.000 sin mul sub 2 copy
/fntsize {/Helvetica-0 findfont exch scalefont setfont } def
90.000 305
(8-10) Stxtl
(8-10) stringwidth pop xratio div
dup 4 3 roll exch 90.000 cos mul add 3 1 roll 90.000 sin mul add 2 copy
pop pop pop pop
30719 11358 30719 11236 Sln
30826 11175 0
/Helvetica-0 findfont 305 yratio mul scalefont setfont
(11-14) stringwidth pop add
xratio div
dup 4 3 roll exch 90.000 cos mul sub 3 1 roll 90.000 sin mul sub 2 copy
/fntsize {/Helvetica-0 findfont exch scalefont setfont } def
90.000 305
(11-14) Stxtl
(11-14) stringwidth pop xratio div
dup 4 3 roll exch 90.000 cos mul add 3 1 roll 90.000 sin mul add 2 copy
pop pop pop pop
2472 3920 8875 3920 Sln
3112 3920 3112 3799 Sln
3219 3738 0
/Helvetica-0 findfont 305 yratio mul scalefont setfont
(0-1) stringwidth pop add
xratio div
dup 4 3 roll exch 90.000 cos mul sub 3 1 roll 90.000 sin mul sub 2 copy
/fntsize {/Helvetica-0 findfont exch scalefont setfont } def
90.000 305
(0-1) Stxtl
(0-1) stringwidth pop xratio div
dup 4 3 roll exch 90.000 cos mul add 3 1 roll 90.000 sin mul add 2 copy
pop pop pop pop
4393 3920 4393 3799 Sln
4500 3738 0
/Helvetica-0 findfont 305 yratio mul scalefont setfont
(2-4) stringwidth pop add
xratio div
dup 4 3 roll exch 90.000 cos mul sub 3 1 roll 90.000 sin mul sub 2 copy
/fntsize {/Helvetica-0 findfont exch scalefont setfont } def
90.000 305
(2-4) Stxtl
(2-4) stringwidth pop xratio div
dup 4 3 roll exch 90.000 cos mul add 3 1 roll 90.000 sin mul add 2 copy
pop pop pop pop
5673 3920 5673 3799 Sln
5780 3738 0
/Helvetica-0 findfont 305 yratio mul scalefont setfont
(5-7) stringwidth pop add
xratio div
dup 4 3 roll exch 90.000 cos mul sub 3 1 roll 90.000 sin mul sub 2 copy
/fntsize {/Helvetica-0 findfont exch scalefont setfont } def
90.000 305
(5-7) Stxtl
(5-7) stringwidth pop xratio div
dup 4 3 roll exch 90.000 cos mul add 3 1 roll 90.000 sin mul add 2 copy
pop pop pop pop
6954 3920 6954 3799 Sln
7061 3738 0
/Helvetica-0 findfont 305 yratio mul scalefont setfont
(8-10) stringwidth pop add
xratio div
dup 4 3 roll exch 90.000 cos mul sub 3 1 roll 90.000 sin mul sub 2 copy
/fntsize {/Helvetica-0 findfont exch scalefont setfont } def
90.000 305
(8-10) Stxtl
(8-10) stringwidth pop xratio div
dup 4 3 roll exch 90.000 cos mul add 3 1 roll 90.000 sin mul add 2 copy
pop pop pop pop
8234 3920 8234 3799 Sln
8341 3738 0
/Helvetica-0 findfont 305 yratio mul scalefont setfont
(11-14) stringwidth pop add
xratio div
dup 4 3 roll exch 90.000 cos mul sub 3 1 roll 90.000 sin mul sub 2 copy
/fntsize {/Helvetica-0 findfont exch scalefont setfont } def
90.000 305
(11-14) Stxtl
(11-14) stringwidth pop xratio div
dup 4 3 roll exch 90.000 cos mul add 3 1 roll 90.000 sin mul add 2 copy
pop pop pop pop
10199 3920 16602 3920 Sln
10839 3920 10839 3799 Sln
10946 3738 0
/Helvetica-0 findfont 305 yratio mul scalefont setfont
(0-1) stringwidth pop add
xratio div
dup 4 3 roll exch 90.000 cos mul sub 3 1 roll 90.000 sin mul sub 2 copy
/fntsize {/Helvetica-0 findfont exch scalefont setfont } def
90.000 305
(0-1) Stxtl
(0-1) stringwidth pop xratio div
dup 4 3 roll exch 90.000 cos mul add 3 1 roll 90.000 sin mul add 2 copy
pop pop pop pop
12120 3920 12120 3799 Sln
12227 3738 0
/Helvetica-0 findfont 305 yratio mul scalefont setfont
(2-4) stringwidth pop add
xratio div
dup 4 3 roll exch 90.000 cos mul sub 3 1 roll 90.000 sin mul sub 2 copy
/fntsize {/Helvetica-0 findfont exch scalefont setfont } def
90.000 305
(2-4) Stxtl
(2-4) stringwidth pop xratio div
dup 4 3 roll exch 90.000 cos mul add 3 1 roll 90.000 sin mul add 2 copy
pop pop pop pop
13400 3920 13400 3799 Sln
13507 3738 0
/Helvetica-0 findfont 305 yratio mul scalefont setfont
(5-7) stringwidth pop add
xratio div
dup 4 3 roll exch 90.000 cos mul sub 3 1 roll 90.000 sin mul sub 2 copy
/fntsize {/Helvetica-0 findfont exch scalefont setfont } def
90.000 305
(5-7) Stxtl
(5-7) stringwidth pop xratio div
dup 4 3 roll exch 90.000 cos mul add 3 1 roll 90.000 sin mul add 2 copy
pop pop pop pop
14681 3920 14681 3799 Sln
14788 3738 0
/Helvetica-0 findfont 305 yratio mul scalefont setfont
(8-10) stringwidth pop add
xratio div
dup 4 3 roll exch 90.000 cos mul sub 3 1 roll 90.000 sin mul sub 2 copy
/fntsize {/Helvetica-0 findfont exch scalefont setfont } def
90.000 305
(8-10) Stxtl
(8-10) stringwidth pop xratio div
dup 4 3 roll exch 90.000 cos mul add 3 1 roll 90.000 sin mul add 2 copy
pop pop pop pop
15961 3920 15961 3799 Sln
16068 3738 0
/Helvetica-0 findfont 305 yratio mul scalefont setfont
(11-14) stringwidth pop add
xratio div
dup 4 3 roll exch 90.000 cos mul sub 3 1 roll 90.000 sin mul sub 2 copy
/fntsize {/Helvetica-0 findfont exch scalefont setfont } def
90.000 305
(11-14) Stxtl
(11-14) stringwidth pop xratio div
dup 4 3 roll exch 90.000 cos mul add 3 1 roll 90.000 sin mul add 2 copy
pop pop pop pop
18011 3920 24414 3920 Sln
18651 3920 18651 3799 Sln
18758 3738 0
/Helvetica-0 findfont 305 yratio mul scalefont setfont
(0-1) stringwidth pop add
xratio div
dup 4 3 roll exch 90.000 cos mul sub 3 1 roll 90.000 sin mul sub 2 copy
/fntsize {/Helvetica-0 findfont exch scalefont setfont } def
90.000 305
(0-1) Stxtl
(0-1) stringwidth pop xratio div
dup 4 3 roll exch 90.000 cos mul add 3 1 roll 90.000 sin mul add 2 copy
pop pop pop pop
19932 3920 19932 3799 Sln
20039 3738 0
/Helvetica-0 findfont 305 yratio mul scalefont setfont
(2-4) stringwidth pop add
xratio div
dup 4 3 roll exch 90.000 cos mul sub 3 1 roll 90.000 sin mul sub 2 copy
/fntsize {/Helvetica-0 findfont exch scalefont setfont } def
90.000 305
(2-4) Stxtl
(2-4) stringwidth pop xratio div
dup 4 3 roll exch 90.000 cos mul add 3 1 roll 90.000 sin mul add 2 copy
pop pop pop pop
21213 3920 21213 3799 Sln
21320 3738 0
/Helvetica-0 findfont 305 yratio mul scalefont setfont
(5-7) stringwidth pop add
xratio div
dup 4 3 roll exch 90.000 cos mul sub 3 1 roll 90.000 sin mul sub 2 copy
/fntsize {/Helvetica-0 findfont exch scalefont setfont } def
90.000 305
(5-7) Stxtl
(5-7) stringwidth pop xratio div
dup 4 3 roll exch 90.000 cos mul add 3 1 roll 90.000 sin mul add 2 copy
pop pop pop pop
22493 3920 22493 3799 Sln
22600 3738 0
/Helvetica-0 findfont 305 yratio mul scalefont setfont
(8-10) stringwidth pop add
xratio div
dup 4 3 roll exch 90.000 cos mul sub 3 1 roll 90.000 sin mul sub 2 copy
/fntsize {/Helvetica-0 findfont exch scalefont setfont } def
90.000 305
(8-10) Stxtl
(8-10) stringwidth pop xratio div
dup 4 3 roll exch 90.000 cos mul add 3 1 roll 90.000 sin mul add 2 copy
pop pop pop pop
23774 3920 23774 3799 Sln
23881 3738 0
/Helvetica-0 findfont 305 yratio mul scalefont setfont
(11-14) stringwidth pop add
xratio div
dup 4 3 roll exch 90.000 cos mul sub 3 1 roll 90.000 sin mul sub 2 copy
/fntsize {/Helvetica-0 findfont exch scalefont setfont } def
90.000 305
(11-14) Stxtl
(11-14) stringwidth pop xratio div
dup 4 3 roll exch 90.000 cos mul add 3 1 roll 90.000 sin mul add 2 copy
pop pop pop pop
/Ssrgb {1.000 1.000 1.000} def
/Slrgb {1.000 1.000 1.000} def
2472 17204 8875 17645 0 1 Srect
2481 17213 8866 17636 1 0 Srect
5673 17358 0
/Helvetica-0 findfont 335 yratio mul scalefont setfont
(Employed) stringwidth pop add
2 div xratio div
dup 4 3 roll exch 0.000 cos mul sub 3 1 roll 0.000 sin mul sub 2 copy
/fntsize {/Helvetica-0 findfont exch scalefont setfont } def
0.000 335
(Employed) Stxtl
(Employed) stringwidth pop xratio div
dup 4 3 roll exch 0.000 cos mul add 3 1 roll 0.000 sin mul add 2 copy
pop pop pop pop
10199 17204 16602 17645 0 1 Srect
10208 17213 16593 17636 1 0 Srect
13400 17358 0
/Helvetica-0 findfont 335 yratio mul scalefont setfont
(Smoking) stringwidth pop add
2 div xratio div
dup 4 3 roll exch 0.000 cos mul sub 3 1 roll 0.000 sin mul sub 2 copy
/fntsize {/Helvetica-0 findfont exch scalefont setfont } def
0.000 335
(Smoking) Stxtl
(Smoking) stringwidth pop xratio div
dup 4 3 roll exch 0.000 cos mul add 3 1 roll 0.000 sin mul add 2 copy
pop pop pop pop
18011 17204 24414 17645 0 1 Srect
18020 17213 24405 17636 1 0 Srect
21213 17358 0
/Helvetica-0 findfont 335 yratio mul scalefont setfont
(Alcohol) stringwidth pop add
2 div xratio div
dup 4 3 roll exch 0.000 cos mul sub 3 1 roll 0.000 sin mul sub 2 copy
/fntsize {/Helvetica-0 findfont exch scalefont setfont } def
0.000 335
(Alcohol) Stxtl
(Alcohol) stringwidth pop xratio div
dup 4 3 roll exch 0.000 cos mul add 3 1 roll 0.000 sin mul add 2 copy
pop pop pop pop
24956 17204 31359 17645 0 1 Srect
24965 17213 31350 17636 1 0 Srect
28157 17358 0
/Helvetica-0 findfont 335 yratio mul scalefont setfont
(BMI) stringwidth pop add
2 div xratio div
dup 4 3 roll exch 0.000 cos mul sub 3 1 roll 0.000 sin mul sub 2 copy
/fntsize {/Helvetica-0 findfont exch scalefont setfont } def
0.000 335
(BMI) Stxtl
(BMI) stringwidth pop xratio div
dup 4 3 roll exch 0.000 cos mul add 3 1 roll 0.000 sin mul add 2 copy
pop pop pop pop
2472 9767 8875 10208 0 1 Srect
2481 9776 8866 10199 1 0 Srect
5673 9921 0
/Helvetica-0 findfont 335 yratio mul scalefont setfont
(Kcal) stringwidth pop add
2 div xratio div
dup 4 3 roll exch 0.000 cos mul sub 3 1 roll 0.000 sin mul sub 2 copy
/fntsize {/Helvetica-0 findfont exch scalefont setfont } def
0.000 335
(Kcal) Stxtl
(Kcal) stringwidth pop xratio div
dup 4 3 roll exch 0.000 cos mul add 3 1 roll 0.000 sin mul add 2 copy
pop pop pop pop
10199 9767 16602 10208 0 1 Srect
10208 9776 16593 10199 1 0 Srect
13400 9921 0
/Helvetica-0 findfont 335 yratio mul scalefont setfont
(MET PA) stringwidth pop add
2 div xratio div
dup 4 3 roll exch 0.000 cos mul sub 3 1 roll 0.000 sin mul sub 2 copy
/fntsize {/Helvetica-0 findfont exch scalefont setfont } def
0.000 335
(MET PA) Stxtl
(MET PA) stringwidth pop xratio div
dup 4 3 roll exch 0.000 cos mul add 3 1 roll 0.000 sin mul add 2 copy
pop pop pop pop
18011 9767 24414 10208 0 1 Srect
18020 9776 24405 10199 1 0 Srect
21213 9921 0
/Helvetica-0 findfont 335 yratio mul scalefont setfont
(Hypertension) stringwidth pop add
2 div xratio div
dup 4 3 roll exch 0.000 cos mul sub 3 1 roll 0.000 sin mul sub 2 copy
/fntsize {/Helvetica-0 findfont exch scalefont setfont } def
0.000 335
(Hypertension) Stxtl
(Hypertension) stringwidth pop xratio div
dup 4 3 roll exch 0.000 cos mul add 3 1 roll 0.000 sin mul add 2 copy
pop pop pop pop
/Slw 1.152 def
/Slrgb {0.000 0.000 0.000} def
11399 859 21107 2043 0 1 Srect
11417 877 21089 2025 1 0 Srect
/Slw 1.728 def
/Slrgb {0.376 0.376 0.376} def
11674 1451 14051 1451 Sln
/Slrgb {0.627 0.627 0.627} def
16357 1451 16503 1451 Sln
16631 1451 16777 1451 Sln
16905 1451 17052 1451 Sln
17180 1451 17326 1451 Sln
17454 1451 17600 1451 Sln
17728 1451 17874 1451 Sln
18002 1451 18148 1451 Sln
18276 1451 18423 1451 Sln
18551 1451 18697 1451 Sln
14431 1273 2 copy
/fntsize {/Helvetica-0 findfont exch scalefont setfont } def
0.000 508
(men) Stxtl
(men) stringwidth pop xratio div
dup 4 3 roll exch 0.000 cos mul add 3 1 roll 0.000 sin mul add 2 copy
pop pop pop pop
19115 1273 2 copy
/fntsize {/Helvetica-0 findfont exch scalefont setfont } def
0.000 508
(women) Stxtl
(women) stringwidth pop xratio div
dup 4 3 roll exch 0.000 cos mul add 3 1 roll 0.000 sin mul add 2 copy
pop pop pop pop
996 10208 0
/Helvetica-0 findfont 508 yratio mul scalefont setfont
(Marginal effect) stringwidth pop add
2 div xratio div
dup 4 3 roll exch 90.000 cos mul sub 3 1 roll 90.000 sin mul sub 2 copy
/fntsize {/Helvetica-0 findfont exch scalefont setfont } def
90.000 508
(Marginal effect) Stxtl
(Marginal effect) stringwidth pop xratio div
dup 4 3 roll exch 90.000 cos mul add 3 1 roll 90.000 sin mul add 2 copy
pop pop pop pop
16253 2414 0
/Helvetica-0 findfont 508 yratio mul scalefont setfont
(Years after diagnosis) stringwidth pop add
2 div xratio div
dup 4 3 roll exch 0.000 cos mul sub 3 1 roll 0.000 sin mul sub 2 copy
/fntsize {/Helvetica-0 findfont exch scalefont setfont } def
0.000 508
(Years after diagnosis) Stxtl
(Years after diagnosis) stringwidth pop xratio div
dup 4 3 roll exch 0.000 cos mul add 3 1 roll 0.000 sin mul add 2 copy
pop pop pop pop
S showpage
%%EOF
