%!PS-Adobe-2.0 EPSF-2.0
%% This is a Stata generated postscript file
%%BoundingBox: 0 0 576 288
%%HiResBoundingBox: 0.000 0.000 576.000 288.000
%%DocumentNeededResources: font Helvetica
/xratio 0.018000 def
/yratio 0.018000 def
/Sbgfill {
	/y1 exch def
	/x1 exch def
	/y0 exch def
	/x0 exch def
	x0 y0 moveto
	x0 y1 lineto x1 y1 lineto x1 y0 lineto x0 y0 lineto
	fill
} def
/Spt {
	yratio mul
	/yp exch def
	xratio mul
	/xp exch def
	Slrgb setrgbcolor
	xp yp .5 0 360 arc fill
} def
/Sln {
	yratio mul
	/y1p exch def
	xratio mul
	/x1p exch def
	yratio mul
	/y0p exch def
	xratio mul
	/x0p exch def
	Slw setlinewidth
	Slrgb setrgbcolor
	x0p y0p M x1p y1p lineto S
} def
/Scrv {
	yratio mul
	/y3p exch def
	xratio mul
	/x3p exch def
	yratio mul
	/y2p exch def
	xratio mul
	/x2p exch def
	yratio mul
	/y1p exch def
	xratio mul
	/x1p exch def
	Slw setlinewidth
	Slrgb setrgbcolor
	x1p y1p x2p y2p x3p y3p curveto
	stroke
} def
/Stxtl {
	/sp exch def
	yratio mul
	/sizep exch def
	dup
	/anglep exch def
	0 exch sub
	/angle2p exch def
	yratio mul
	/y0p exch def
	xratio mul
	/x0p exch def
	Strgb setrgbcolor
	x0p y0p M anglep rotate sizep fntsize sp show stroke angle2p rotate
} def
/Stxtc {
	/sp exch def
	yratio mul
	/sizep exch def
	dup
	/anglep exch def
	0 exch sub
	/angle2p exch def
	yratio mul
	/y0p exch def
	xratio mul
	/x0p exch def
	Strgb setrgbcolor
	x0p y0p M anglep rotate sizep fntsize sp stringwidth exch -2 div exch rm sp show stroke angle2p rotate
} def
/Stxtr {
	/sp exch def
	yratio mul
	/sizep exch def
	dup
	/anglep exch def
	0 exch sub
	/angle2p exch def
	yratio mul
	/y0p exch def
	xratio mul
	/x0p exch def
	Strgb setrgbcolor
	x0p y0p M anglep rotate sizep fntsize sp stringwidth 1 index -1 mul exch rm pop sp show stroke angle2p rotate
} def
/Srect {
	/sfill exch def
	yratio mul
	/y1 exch def
	xratio mul
	/x1 exch def
	yratio mul
	/y0 exch def
	xratio mul
	/x0 exch def
	newpath x0 y0 moveto x0 y1 lineto x1 y1 lineto x1 y0 lineto x0 y0 lineto closepath
	sfill 1 eq {
		Ssrgb setrgbcolor
		gsave
		fill
		grestore
	} if
	Slw setlinewidth
	Slrgb setrgbcolor
	stroke
} def
/Sellipse {
	/sfill exch def
	yratio mul
	/yrad exch def
	xratio mul
	/xrad exch def
	yratio mul
	/y exch def
	xratio mul
	/x exch def
	/savematrix matrix currentmatrix def
	x y translate
	xrad yrad scale
	0 0 1 0 360 arc
	savematrix setmatrix
	sfill 1 eq {
		Ssrgb setrgbcolor
		gsave
		fill
		grestore
	} if
	Slw setlinewidth
	Slrgb setrgbcolor
	stroke
} def
/Stri {
	/sfill exch def
	xratio mul
	/r exch def
	yratio mul
	/y0 exch def
	xratio mul
	/x0 exch def
	/xcen x0 def
	y0 r add
	/ytop exch def
	r 2 div
	y0 exch sub
	/ybot exch def
	r 3 sqrt 2 div mul dup
	xcen exch sub
	/xleft exch def
	xcen add
	/xright exch def
	newpath xcen ytop moveto xright ybot lineto xleft ybot lineto xcen ytop lineto closepath
	sfill 1 eq {
		Ssrgb setrgbcolor
		gsave
		fill
		grestore
	} if
	Slw setlinewidth
	Slrgb setrgbcolor
	stroke
} def
/Soldtri {
	/sfill exch def
	xratio mul
	/r exch def
	yratio mul
	/y0 exch def
	xratio mul
	/x0 exch def
	x0 r sub
	/x1 exch def
	y0 r sub
	/y1 exch def
	x0 r add
	/x2 exch def
	y0 r sub
	/y2 exch def
	/x3 x0 def
	y0 r add
	/y3 exch def
	newpath x1 y1 moveto x2 y2 lineto x3 y3 lineto x1 y1 lineto closepath
	sfill 1 eq {
		Ssrgb setrgbcolor
		gsave
		fill
		grestore
	} if
	Slw setlinewidth
	Slrgb setrgbcolor
	stroke
} def
/Sdia {
	/sfill exch def
	xratio mul
	/r exch def
	yratio mul
	/y exch def
	xratio mul
	/x exch def
	x r sub
	/x0 exch def
	/y0 y def
	/x1 x def
	y r sub
	/y1 exch def
	x r add
	/x2 exch def
	/y2 y def
	/x3 x def
	y r add
	/y3 exch def
	newpath x0 y0 moveto x1 y1 lineto x2 y2 lineto x3 y3 lineto x0 y0 lineto closepath
	sfill 1 eq {
		Ssrgb setrgbcolor
		gsave
		fill
		grestore
	} if
	Slw setlinewidth
	Slrgb setrgbcolor
	stroke
} def
/Scc {
	/sfill exch def
	xratio mul
	/r0 exch def
	yratio mul
	/y0 exch def
	xratio mul
	/x0 exch def
	x0 y0 r0 0 360 arc closepath
	sfill 1 eq {
		Ssrgb setrgbcolor
		gsave
		fill
		grestore
	} if
	Slw setlinewidth
	Slrgb setrgbcolor
	stroke
} def
/Spie {
	/sfill exch def
	/a1 exch def
	/a0 exch def
	xratio mul
	/r exch def
	yratio mul
	/y exch def
	xratio mul
	/x exch def
	newpath x y moveto x y r a0 a1 arc closepath
	sfill 1 eq {
		Ssrgb setrgbcolor
		gsave
		fill
		grestore
	} if
	Slw setlinewidth
	Slrgb setrgbcolor
	stroke
} def
/Splu {
	xratio mul
	/r exch def
	yratio mul
	/y exch def
	xratio mul
	/x exch def
	x r sub
	/x0 exch def
	x r add
	/x1 exch def
	x0 y M x1 y L
	y r sub
	/y0 exch def
	y r add
	/y1 exch def
	x y0 M x y1 L
} def
/Scro {
	xratio mul
	/r exch def
	yratio mul
	/y exch def
	xratio mul
	/x exch def
	x r sub
	/x0 exch def
	y r sub
	/y0 exch def
	x r add
	/x1 exch def
	y r add
	/y1 exch def
	x0 y0 M x1 y1 L
	x r add
	/x0 exch def
	y r sub
	/y0 exch def
	x r sub
	/x1 exch def
	y r add
	/y1 exch def
	x0 y0 M x1 y1 L
} def
/Sm {
	yratio mul
	/y exch def
	xratio mul
	/x exch def
	x y M
} def
/Sl {
	yratio mul
	/y exch def
	xratio mul
	/x exch def
	x y L
} def
/SPl {
	yratio mul
	/y exch def
	xratio mul
	/x exch def
	x y PL
} def
/Lcs {
	currentlinecap
	1 setlinecap
} def
/Lcr {
	setlinecap
} def
/Sbp {
	newpath
} def
/Sep {
	/sfill exch def
	closepath
	sfill 1 eq  {
		Ssrgb setrgbcolor
		gsave
		fill
		grestore
	} if
	Slw setlinewidth
	Slrgb setrgbcolor
	Lcs
	stroke
	Lcr
} def
/cp {currentpoint} def 
/M {moveto} def 
/rm {rmoveto} def 
/S {stroke} def 
/L {Slw setlinewidth Slrgb setrgbcolor lineto Lcs S Lcr} def 
/PL {Slw setlinewidth Slrgb setrgbcolor lineto} def 
/MF-Helvetica {
  /newfontname exch def
  /fontname exch def
  /fontdict fontname findfont def
  /newfont fontdict maxlength dict def
  fontdict {
  exch dup /FID eq {pop pop} {exch newfont 3 1 roll put} ifelse
  } forall
  newfont /FontName newfontname put
  newfont /Encoding ISOLatin1Encoding put
  newfontname newfont definefont pop
} def
/Helvetica /Helvetica-0 MF-Helvetica
/Slw 0.120 def
1.000 1.000 1.000 setrgbcolor
0 0 576.000 288.000 Sbgfill
/Slrgb {1.000 1.000 1.000} def
/Strgb {1.000 1.000 1.000} def
/Ssrgb {1.000 1.000 1.000} def
/Slw 0.576 def
0 0 32000 16000 1 Srect
/Slw 0.490 def
/Slrgb {0.000 0.000 0.000} def
3944 4510 16086 14565 0 Srect
/Strgb {0.000 0.000 0.000} def
/Slw 0.734 def
/Slrgb {0.188 0.188 0.188} def
3944 10483 16086 10483 Sln
/Slw 0.490 def
/Slrgb {0.000 0.000 0.000} def
19106 4510 31248 14565 0 Srect
/Slw 0.734 def
/Slrgb {0.188 0.188 0.188} def
19106 9352 31248 9352 Sln
/Ssrgb {0.502 0.502 0.502} def
/Slw 0.490 def
/Slrgb {0.376 0.376 0.376} def
4450 7934 4450 12450 Sln
5968 9242 5968 10806 Sln
7485 8579 7485 10665 Sln
9003 7902 9003 10876 Sln
10521 6188 10521 11162 Sln
12039 7505 12039 12706 Sln
13556 8014 13556 12934 Sln
4449 10191 Sm
5967 10024 Sl
5967 10024 Sm
7485 9621 Sl
7485 9621 Sm
9003 9389 Sl
9003 9389 Sm
10520 8675 Sl
10520 8675 Sm
12038 10105 Sl
12038 10105 Sm
13556 10474 Sl
/Ssrgb {0.702 0.702 0.702} def
/Slrgb {0.627 0.627 0.627} def
/Ssrgb {0.502 0.502 0.502} def
/Slrgb {0.376 0.376 0.376} def
19612 7130 19612 11467 Sln
21130 8165 21130 9873 Sln
22648 8148 22648 10404 Sln
24165 7452 24165 10662 Sln
25683 5006 25683 10357 Sln
27201 6334 27201 12462 Sln
28718 5411 28718 12348 Sln
30236 8659 30236 14266 Sln
19612 9298 Sm
21129 9019 Sl
21129 9019 Sm
22647 9275 Sl
22647 9275 Sm
24165 9057 Sl
24165 9057 Sm
25683 7681 Sl
25683 7681 Sm
27200 9397 Sl
27200 9397 Sm
28718 8879 Sl
28718 8879 Sm
30236 11462 Sl
/Ssrgb {0.702 0.702 0.702} def
/Slrgb {0.627 0.627 0.627} def
20118 9030 20118 9333 Sln
21636 8712 21636 9285 Sln
23154 8755 23154 9443 Sln
24671 7943 24671 9641 Sln
26189 8811 26189 10217 Sln
27707 8853 27707 10402 Sln
29224 7372 29224 9734 Sln
30742 8649 30742 9454 Sln
20118 9181 20245 9166 Sln
20356 9152 20483 9137 Sln
20595 9124 20722 9109 Sln
20833 9095 20960 9080 Sln
21071 9066 21198 9051 Sln
21310 9037 21437 9022 Sln
21548 9008 21635 8998 Sln
21635 8998 21675 9000 Sln
21787 9008 21915 9016 Sln
22026 9024 22154 9032 Sln
22266 9039 22393 9048 Sln
22505 9055 22633 9064 Sln
22745 9071 22873 9080 Sln
22985 9088 23112 9096 Sln
23223 9085 23349 9059 Sln
23458 9037 23584 9011 Sln
23694 8989 23819 8963 Sln
23929 8941 24055 8916 Sln
24165 8894 24290 8868 Sln
24400 8846 24526 8821 Sln
24636 8799 24671 8791 Sln
24671 8791 24754 8831 Sln
24855 8879 24971 8934 Sln
25072 8982 25188 9037 Sln
25289 9086 25405 9141 Sln
25506 9189 25622 9244 Sln
25724 9292 25839 9347 Sln
25941 9396 26056 9450 Sln
26158 9499 26188 9513 Sln
26188 9513 26282 9520 Sln
26394 9528 26521 9538 Sln
26633 9546 26760 9556 Sln
26872 9565 27000 9574 Sln
27111 9582 27239 9592 Sln
27351 9600 27478 9610 Sln
27590 9618 27706 9627 Sln
27706 9627 27716 9620 Sln
27808 9555 27912 9481 Sln
28003 9416 28108 9343 Sln
28199 9278 28304 9204 Sln
28395 9139 28500 9065 Sln
28591 9000 28696 8926 Sln
28787 8861 28892 8787 Sln
28983 8723 29088 8649 Sln
29180 8584 29224 8553 Sln
29224 8553 29294 8576 Sln
29401 8611 29523 8651 Sln
29630 8686 29751 8726 Sln
29858 8761 29980 8800 Sln
30086 8835 30208 8875 Sln
30315 8910 30436 8950 Sln
30543 8985 30664 9025 Sln
/Slrgb {0.000 0.000 0.000} def
3944 4510 3944 14565 Sln
3944 4809 3755 4809 Sln
3661 4644 0
/Helvetica-0 findfont 472 yratio mul scalefont setfont
(-.6) stringwidth pop add
xratio div
dup 4 3 roll exch 0.000 cos mul sub 3 1 roll 0.000 sin mul sub 2 copy
/fntsize {/Helvetica-0 findfont exch scalefont setfont } def
0.000 472
(-.6) Stxtl
(-.6) stringwidth pop xratio div
dup 4 3 roll exch 0.000 cos mul add 3 1 roll 0.000 sin mul add 2 copy
pop pop pop pop
3944 6700 3755 6700 Sln
3661 6535 0
/Helvetica-0 findfont 472 yratio mul scalefont setfont
(-.4) stringwidth pop add
xratio div
dup 4 3 roll exch 0.000 cos mul sub 3 1 roll 0.000 sin mul sub 2 copy
/fntsize {/Helvetica-0 findfont exch scalefont setfont } def
0.000 472
(-.4) Stxtl
(-.4) stringwidth pop xratio div
dup 4 3 roll exch 0.000 cos mul add 3 1 roll 0.000 sin mul add 2 copy
pop pop pop pop
3944 8592 3755 8592 Sln
3661 8427 0
/Helvetica-0 findfont 472 yratio mul scalefont setfont
(-.2) stringwidth pop add
xratio div
dup 4 3 roll exch 0.000 cos mul sub 3 1 roll 0.000 sin mul sub 2 copy
/fntsize {/Helvetica-0 findfont exch scalefont setfont } def
0.000 472
(-.2) Stxtl
(-.2) stringwidth pop xratio div
dup 4 3 roll exch 0.000 cos mul add 3 1 roll 0.000 sin mul add 2 copy
pop pop pop pop
3944 10483 3755 10483 Sln
3661 10318 0
/Helvetica-0 findfont 472 yratio mul scalefont setfont
(0) stringwidth pop add
xratio div
dup 4 3 roll exch 0.000 cos mul sub 3 1 roll 0.000 sin mul sub 2 copy
/fntsize {/Helvetica-0 findfont exch scalefont setfont } def
0.000 472
(0) Stxtl
(0) stringwidth pop xratio div
dup 4 3 roll exch 0.000 cos mul add 3 1 roll 0.000 sin mul add 2 copy
pop pop pop pop
3944 12375 3755 12375 Sln
3661 12210 0
/Helvetica-0 findfont 472 yratio mul scalefont setfont
(.2) stringwidth pop add
xratio div
dup 4 3 roll exch 0.000 cos mul sub 3 1 roll 0.000 sin mul sub 2 copy
/fntsize {/Helvetica-0 findfont exch scalefont setfont } def
0.000 472
(.2) Stxtl
(.2) stringwidth pop xratio div
dup 4 3 roll exch 0.000 cos mul add 3 1 roll 0.000 sin mul add 2 copy
pop pop pop pop
3944 14266 3755 14266 Sln
3661 14101 0
/Helvetica-0 findfont 472 yratio mul scalefont setfont
(.4) stringwidth pop add
xratio div
dup 4 3 roll exch 0.000 cos mul sub 3 1 roll 0.000 sin mul sub 2 copy
/fntsize {/Helvetica-0 findfont exch scalefont setfont } def
0.000 472
(.4) Stxtl
(.4) stringwidth pop xratio div
dup 4 3 roll exch 0.000 cos mul add 3 1 roll 0.000 sin mul add 2 copy
pop pop pop pop
19106 4510 19106 14565 Sln
19106 4809 18917 4809 Sln
18823 4644 0
/Helvetica-0 findfont 472 yratio mul scalefont setfont
(-.4) stringwidth pop add
xratio div
dup 4 3 roll exch 0.000 cos mul sub 3 1 roll 0.000 sin mul sub 2 copy
/fntsize {/Helvetica-0 findfont exch scalefont setfont } def
0.000 472
(-.4) Stxtl
(-.4) stringwidth pop xratio div
dup 4 3 roll exch 0.000 cos mul add 3 1 roll 0.000 sin mul add 2 copy
pop pop pop pop
19106 7080 18917 7080 Sln
18823 6915 0
/Helvetica-0 findfont 472 yratio mul scalefont setfont
(-.2) stringwidth pop add
xratio div
dup 4 3 roll exch 0.000 cos mul sub 3 1 roll 0.000 sin mul sub 2 copy
/fntsize {/Helvetica-0 findfont exch scalefont setfont } def
0.000 472
(-.2) Stxtl
(-.2) stringwidth pop xratio div
dup 4 3 roll exch 0.000 cos mul add 3 1 roll 0.000 sin mul add 2 copy
pop pop pop pop
19106 9352 18917 9352 Sln
18823 9187 0
/Helvetica-0 findfont 472 yratio mul scalefont setfont
(0) stringwidth pop add
xratio div
dup 4 3 roll exch 0.000 cos mul sub 3 1 roll 0.000 sin mul sub 2 copy
/fntsize {/Helvetica-0 findfont exch scalefont setfont } def
0.000 472
(0) Stxtl
(0) stringwidth pop xratio div
dup 4 3 roll exch 0.000 cos mul add 3 1 roll 0.000 sin mul add 2 copy
pop pop pop pop
19106 11624 18917 11624 Sln
18823 11459 0
/Helvetica-0 findfont 472 yratio mul scalefont setfont
(.2) stringwidth pop add
xratio div
dup 4 3 roll exch 0.000 cos mul sub 3 1 roll 0.000 sin mul sub 2 copy
/fntsize {/Helvetica-0 findfont exch scalefont setfont } def
0.000 472
(.2) Stxtl
(.2) stringwidth pop xratio div
dup 4 3 roll exch 0.000 cos mul add 3 1 roll 0.000 sin mul add 2 copy
pop pop pop pop
19106 13895 18917 13895 Sln
18823 13730 0
/Helvetica-0 findfont 472 yratio mul scalefont setfont
(.4) stringwidth pop add
xratio div
dup 4 3 roll exch 0.000 cos mul sub 3 1 roll 0.000 sin mul sub 2 copy
/fntsize {/Helvetica-0 findfont exch scalefont setfont } def
0.000 472
(.4) Stxtl
(.4) stringwidth pop xratio div
dup 4 3 roll exch 0.000 cos mul add 3 1 roll 0.000 sin mul add 2 copy
pop pop pop pop
3944 4510 16086 4510 Sln
4703 4510 4703 4321 Sln
4868 4226 0
/Helvetica-0 findfont 472 yratio mul scalefont setfont
(0) stringwidth pop add
xratio div
dup 4 3 roll exch 90.000 cos mul sub 3 1 roll 90.000 sin mul sub 2 copy
/fntsize {/Helvetica-0 findfont exch scalefont setfont } def
90.000 472
(0) Stxtl
(0) stringwidth pop xratio div
dup 4 3 roll exch 90.000 cos mul add 3 1 roll 90.000 sin mul add 2 copy
pop pop pop pop
6221 4510 6221 4321 Sln
6386 4226 0
/Helvetica-0 findfont 472 yratio mul scalefont setfont
(1-2) stringwidth pop add
xratio div
dup 4 3 roll exch 90.000 cos mul sub 3 1 roll 90.000 sin mul sub 2 copy
/fntsize {/Helvetica-0 findfont exch scalefont setfont } def
90.000 472
(1-2) Stxtl
(1-2) stringwidth pop xratio div
dup 4 3 roll exch 90.000 cos mul add 3 1 roll 90.000 sin mul add 2 copy
pop pop pop pop
7738 4510 7738 4321 Sln
7903 4226 0
/Helvetica-0 findfont 472 yratio mul scalefont setfont
(3-4) stringwidth pop add
xratio div
dup 4 3 roll exch 90.000 cos mul sub 3 1 roll 90.000 sin mul sub 2 copy
/fntsize {/Helvetica-0 findfont exch scalefont setfont } def
90.000 472
(3-4) Stxtl
(3-4) stringwidth pop xratio div
dup 4 3 roll exch 90.000 cos mul add 3 1 roll 90.000 sin mul add 2 copy
pop pop pop pop
9256 4510 9256 4321 Sln
9421 4226 0
/Helvetica-0 findfont 472 yratio mul scalefont setfont
(5-6) stringwidth pop add
xratio div
dup 4 3 roll exch 90.000 cos mul sub 3 1 roll 90.000 sin mul sub 2 copy
/fntsize {/Helvetica-0 findfont exch scalefont setfont } def
90.000 472
(5-6) Stxtl
(5-6) stringwidth pop xratio div
dup 4 3 roll exch 90.000 cos mul add 3 1 roll 90.000 sin mul add 2 copy
pop pop pop pop
10774 4510 10774 4321 Sln
10939 4226 0
/Helvetica-0 findfont 472 yratio mul scalefont setfont
(7-8) stringwidth pop add
xratio div
dup 4 3 roll exch 90.000 cos mul sub 3 1 roll 90.000 sin mul sub 2 copy
/fntsize {/Helvetica-0 findfont exch scalefont setfont } def
90.000 472
(7-8) Stxtl
(7-8) stringwidth pop xratio div
dup 4 3 roll exch 90.000 cos mul add 3 1 roll 90.000 sin mul add 2 copy
pop pop pop pop
12291 4510 12291 4321 Sln
12456 4226 0
/Helvetica-0 findfont 472 yratio mul scalefont setfont
(9-10) stringwidth pop add
xratio div
dup 4 3 roll exch 90.000 cos mul sub 3 1 roll 90.000 sin mul sub 2 copy
/fntsize {/Helvetica-0 findfont exch scalefont setfont } def
90.000 472
(9-10) Stxtl
(9-10) stringwidth pop xratio div
dup 4 3 roll exch 90.000 cos mul add 3 1 roll 90.000 sin mul add 2 copy
pop pop pop pop
13809 4510 13809 4321 Sln
13974 4226 0
/Helvetica-0 findfont 472 yratio mul scalefont setfont
(11-12) stringwidth pop add
xratio div
dup 4 3 roll exch 90.000 cos mul sub 3 1 roll 90.000 sin mul sub 2 copy
/fntsize {/Helvetica-0 findfont exch scalefont setfont } def
90.000 472
(11-12) Stxtl
(11-12) stringwidth pop xratio div
dup 4 3 roll exch 90.000 cos mul add 3 1 roll 90.000 sin mul add 2 copy
pop pop pop pop
15327 4510 15327 4321 Sln
15492 4226 0
/Helvetica-0 findfont 472 yratio mul scalefont setfont
(13-14) stringwidth pop add
xratio div
dup 4 3 roll exch 90.000 cos mul sub 3 1 roll 90.000 sin mul sub 2 copy
/fntsize {/Helvetica-0 findfont exch scalefont setfont } def
90.000 472
(13-14) Stxtl
(13-14) stringwidth pop xratio div
dup 4 3 roll exch 90.000 cos mul add 3 1 roll 90.000 sin mul add 2 copy
pop pop pop pop
19106 4510 31248 4510 Sln
19865 4510 19865 4321 Sln
20030 4226 0
/Helvetica-0 findfont 472 yratio mul scalefont setfont
(0) stringwidth pop add
xratio div
dup 4 3 roll exch 90.000 cos mul sub 3 1 roll 90.000 sin mul sub 2 copy
/fntsize {/Helvetica-0 findfont exch scalefont setfont } def
90.000 472
(0) Stxtl
(0) stringwidth pop xratio div
dup 4 3 roll exch 90.000 cos mul add 3 1 roll 90.000 sin mul add 2 copy
pop pop pop pop
21383 4510 21383 4321 Sln
21548 4226 0
/Helvetica-0 findfont 472 yratio mul scalefont setfont
(1-2) stringwidth pop add
xratio div
dup 4 3 roll exch 90.000 cos mul sub 3 1 roll 90.000 sin mul sub 2 copy
/fntsize {/Helvetica-0 findfont exch scalefont setfont } def
90.000 472
(1-2) Stxtl
(1-2) stringwidth pop xratio div
dup 4 3 roll exch 90.000 cos mul add 3 1 roll 90.000 sin mul add 2 copy
pop pop pop pop
22901 4510 22901 4321 Sln
23066 4226 0
/Helvetica-0 findfont 472 yratio mul scalefont setfont
(3-4) stringwidth pop add
xratio div
dup 4 3 roll exch 90.000 cos mul sub 3 1 roll 90.000 sin mul sub 2 copy
/fntsize {/Helvetica-0 findfont exch scalefont setfont } def
90.000 472
(3-4) Stxtl
(3-4) stringwidth pop xratio div
dup 4 3 roll exch 90.000 cos mul add 3 1 roll 90.000 sin mul add 2 copy
pop pop pop pop
24418 4510 24418 4321 Sln
24583 4226 0
/Helvetica-0 findfont 472 yratio mul scalefont setfont
(5-6) stringwidth pop add
xratio div
dup 4 3 roll exch 90.000 cos mul sub 3 1 roll 90.000 sin mul sub 2 copy
/fntsize {/Helvetica-0 findfont exch scalefont setfont } def
90.000 472
(5-6) Stxtl
(5-6) stringwidth pop xratio div
dup 4 3 roll exch 90.000 cos mul add 3 1 roll 90.000 sin mul add 2 copy
pop pop pop pop
25936 4510 25936 4321 Sln
26101 4226 0
/Helvetica-0 findfont 472 yratio mul scalefont setfont
(7-8) stringwidth pop add
xratio div
dup 4 3 roll exch 90.000 cos mul sub 3 1 roll 90.000 sin mul sub 2 copy
/fntsize {/Helvetica-0 findfont exch scalefont setfont } def
90.000 472
(7-8) Stxtl
(7-8) stringwidth pop xratio div
dup 4 3 roll exch 90.000 cos mul add 3 1 roll 90.000 sin mul add 2 copy
pop pop pop pop
27454 4510 27454 4321 Sln
27619 4226 0
/Helvetica-0 findfont 472 yratio mul scalefont setfont
(9-10) stringwidth pop add
xratio div
dup 4 3 roll exch 90.000 cos mul sub 3 1 roll 90.000 sin mul sub 2 copy
/fntsize {/Helvetica-0 findfont exch scalefont setfont } def
90.000 472
(9-10) Stxtl
(9-10) stringwidth pop xratio div
dup 4 3 roll exch 90.000 cos mul add 3 1 roll 90.000 sin mul add 2 copy
pop pop pop pop
28971 4510 28971 4321 Sln
29136 4226 0
/Helvetica-0 findfont 472 yratio mul scalefont setfont
(11-12) stringwidth pop add
xratio div
dup 4 3 roll exch 90.000 cos mul sub 3 1 roll 90.000 sin mul sub 2 copy
/fntsize {/Helvetica-0 findfont exch scalefont setfont } def
90.000 472
(11-12) Stxtl
(11-12) stringwidth pop xratio div
dup 4 3 roll exch 90.000 cos mul add 3 1 roll 90.000 sin mul add 2 copy
pop pop pop pop
30489 4510 30489 4321 Sln
30654 4226 0
/Helvetica-0 findfont 472 yratio mul scalefont setfont
(13-14) stringwidth pop add
xratio div
dup 4 3 roll exch 90.000 cos mul sub 3 1 roll 90.000 sin mul sub 2 copy
/fntsize {/Helvetica-0 findfont exch scalefont setfont } def
90.000 472
(13-14) Stxtl
(13-14) stringwidth pop xratio div
dup 4 3 roll exch 90.000 cos mul add 3 1 roll 90.000 sin mul add 2 copy
pop pop pop pop
/Ssrgb {0.816 0.816 0.816} def
3944 14565 16086 15248 1 Srect
10015 14803 0
/Helvetica-0 findfont 519 yratio mul scalefont setfont
(Smoking \(MSM\)) stringwidth pop add
2 div xratio div
dup 4 3 roll exch 0.000 cos mul sub 3 1 roll 0.000 sin mul sub 2 copy
/fntsize {/Helvetica-0 findfont exch scalefont setfont } def
0.000 519
(Smoking \(MSM\)) Stxtl
(Smoking \(MSM\)) stringwidth pop xratio div
dup 4 3 roll exch 0.000 cos mul add 3 1 roll 0.000 sin mul add 2 copy
pop pop pop pop
19106 14565 31248 15248 1 Srect
25177 14803 0
/Helvetica-0 findfont 519 yratio mul scalefont setfont
(Smoking \(FE\)) stringwidth pop add
2 div xratio div
dup 4 3 roll exch 0.000 cos mul sub 3 1 roll 0.000 sin mul sub 2 copy
/fntsize {/Helvetica-0 findfont exch scalefont setfont } def
0.000 519
(Smoking \(FE\)) Stxtl
(Smoking \(FE\)) stringwidth pop xratio div
dup 4 3 roll exch 0.000 cos mul add 3 1 roll 0.000 sin mul add 2 copy
pop pop pop pop
/Ssrgb {1.000 1.000 1.000} def
/Slw 0.576 def
11729 752 20827 1788 1 Srect
/Slrgb {0.376 0.376 0.376} def
11969 1270 14049 1270 Sln
/Slrgb {0.627 0.627 0.627} def
16294 1270 16422 1270 Sln
16534 1270 16662 1270 Sln
16774 1270 16902 1270 Sln
17015 1270 17143 1270 Sln
17255 1270 17383 1270 Sln
17495 1270 17623 1270 Sln
17735 1270 17863 1270 Sln
17976 1270 18104 1270 Sln
18216 1270 18344 1270 Sln
14382 1076 2 copy
/fntsize {/Helvetica-0 findfont exch scalefont setfont } def
0.000 556
(men) Stxtl
(men) stringwidth pop xratio div
dup 4 3 roll exch 0.000 cos mul add 3 1 roll 0.000 sin mul add 2 copy
pop pop pop pop
18707 1076 2 copy
/fntsize {/Helvetica-0 findfont exch scalefont setfont } def
0.000 556
(women) Stxtl
(women) stringwidth pop xratio div
dup 4 3 roll exch 0.000 cos mul add 3 1 roll 0.000 sin mul add 2 copy
pop pop pop pop
949 8988 0
/Helvetica-0 findfont 556 yratio mul scalefont setfont
(Marginal effect) stringwidth pop add
2 div xratio div
dup 4 3 roll exch 90.000 cos mul sub 3 1 roll 90.000 sin mul sub 2 copy
/fntsize {/Helvetica-0 findfont exch scalefont setfont } def
90.000 556
(Marginal effect) Stxtl
(Marginal effect) stringwidth pop xratio div
dup 4 3 roll exch 90.000 cos mul add 3 1 roll 90.000 sin mul add 2 copy
pop pop pop pop
16278 2147 0
/Helvetica-0 findfont 556 yratio mul scalefont setfont
(Years after diagnosis) stringwidth pop add
2 div xratio div
dup 4 3 roll exch 0.000 cos mul sub 3 1 roll 0.000 sin mul sub 2 copy
/fntsize {/Helvetica-0 findfont exch scalefont setfont } def
0.000 556
(Years after diagnosis) Stxtl
(Years after diagnosis) stringwidth pop xratio div
dup 4 3 roll exch 0.000 cos mul add 3 1 roll 0.000 sin mul add 2 copy
pop pop pop pop
S showpage
%%EOF
