%!PS-Adobe-2.0 EPSF-2.0
%% This is a Stata generated postscript file
%%BoundingBox: 0 0 396 288
%%HiResBoundingBox: 0.000 0.000 396.000 288.000
%%DocumentNeededResources: font Helvetica
/xratio 0.012375 def
/yratio 0.012375 def
/Sbgfill {
	/y1 exch def
	/x1 exch def
	/y0 exch def
	/x0 exch def
	x0 y0 moveto
	x0 y1 lineto x1 y1 lineto x1 y0 lineto x0 y0 lineto
	fill
} def
/Spt {
	yratio mul
	/yp exch def
	xratio mul
	/xp exch def
	Slrgb setrgbcolor
	xp yp .5 0 360 arc fill
} def
/Sln {
	yratio mul
	/y1p exch def
	xratio mul
	/x1p exch def
	yratio mul
	/y0p exch def
	xratio mul
	/x0p exch def
	Slw setlinewidth
	Slrgb setrgbcolor
	x0p y0p M x1p y1p lineto S
} def
/Scrv {
	yratio mul
	/y3p exch def
	xratio mul
	/x3p exch def
	yratio mul
	/y2p exch def
	xratio mul
	/x2p exch def
	yratio mul
	/y1p exch def
	xratio mul
	/x1p exch def
	Slw setlinewidth
	Slrgb setrgbcolor
	x1p y1p x2p y2p x3p y3p curveto
	stroke
} def
/Stxtl {
	/sp exch def
	yratio mul
	/sizep exch def
	dup
	/anglep exch def
	0 exch sub
	/angle2p exch def
	yratio mul
	/y0p exch def
	xratio mul
	/x0p exch def
	Strgb setrgbcolor
	x0p y0p M anglep rotate sizep fntsize sp show stroke angle2p rotate
} def
/Stxtc {
	/sp exch def
	yratio mul
	/sizep exch def
	dup
	/anglep exch def
	0 exch sub
	/angle2p exch def
	yratio mul
	/y0p exch def
	xratio mul
	/x0p exch def
	Strgb setrgbcolor
	x0p y0p M anglep rotate sizep fntsize sp stringwidth exch -2 div exch rm sp show stroke angle2p rotate
} def
/Stxtr {
	/sp exch def
	yratio mul
	/sizep exch def
	dup
	/anglep exch def
	0 exch sub
	/angle2p exch def
	yratio mul
	/y0p exch def
	xratio mul
	/x0p exch def
	Strgb setrgbcolor
	x0p y0p M anglep rotate sizep fntsize sp stringwidth 1 index -1 mul exch rm pop sp show stroke angle2p rotate
} def
/Srect {
	/sfill exch def
	yratio mul
	/y1 exch def
	xratio mul
	/x1 exch def
	yratio mul
	/y0 exch def
	xratio mul
	/x0 exch def
	newpath x0 y0 moveto x0 y1 lineto x1 y1 lineto x1 y0 lineto x0 y0 lineto closepath
	sfill 1 eq {
		Ssrgb setrgbcolor
		gsave
		fill
		grestore
	} if
	Slw setlinewidth
	Slrgb setrgbcolor
	stroke
} def
/Sellipse {
	/sfill exch def
	yratio mul
	/yrad exch def
	xratio mul
	/xrad exch def
	yratio mul
	/y exch def
	xratio mul
	/x exch def
	/savematrix matrix currentmatrix def
	x y translate
	xrad yrad scale
	0 0 1 0 360 arc
	savematrix setmatrix
	sfill 1 eq {
		Ssrgb setrgbcolor
		gsave
		fill
		grestore
	} if
	Slw setlinewidth
	Slrgb setrgbcolor
	stroke
} def
/Stri {
	/sfill exch def
	xratio mul
	/r exch def
	yratio mul
	/y0 exch def
	xratio mul
	/x0 exch def
	/xcen x0 def
	y0 r add
	/ytop exch def
	r 2 div
	y0 exch sub
	/ybot exch def
	r 3 sqrt 2 div mul dup
	xcen exch sub
	/xleft exch def
	xcen add
	/xright exch def
	newpath xcen ytop moveto xright ybot lineto xleft ybot lineto xcen ytop lineto closepath
	sfill 1 eq {
		Ssrgb setrgbcolor
		gsave
		fill
		grestore
	} if
	Slw setlinewidth
	Slrgb setrgbcolor
	stroke
} def
/Soldtri {
	/sfill exch def
	xratio mul
	/r exch def
	yratio mul
	/y0 exch def
	xratio mul
	/x0 exch def
	x0 r sub
	/x1 exch def
	y0 r sub
	/y1 exch def
	x0 r add
	/x2 exch def
	y0 r sub
	/y2 exch def
	/x3 x0 def
	y0 r add
	/y3 exch def
	newpath x1 y1 moveto x2 y2 lineto x3 y3 lineto x1 y1 lineto closepath
	sfill 1 eq {
		Ssrgb setrgbcolor
		gsave
		fill
		grestore
	} if
	Slw setlinewidth
	Slrgb setrgbcolor
	stroke
} def
/Sdia {
	/sfill exch def
	xratio mul
	/r exch def
	yratio mul
	/y exch def
	xratio mul
	/x exch def
	x r sub
	/x0 exch def
	/y0 y def
	/x1 x def
	y r sub
	/y1 exch def
	x r add
	/x2 exch def
	/y2 y def
	/x3 x def
	y r add
	/y3 exch def
	newpath x0 y0 moveto x1 y1 lineto x2 y2 lineto x3 y3 lineto x0 y0 lineto closepath
	sfill 1 eq {
		Ssrgb setrgbcolor
		gsave
		fill
		grestore
	} if
	Slw setlinewidth
	Slrgb setrgbcolor
	stroke
} def
/Scc {
	/sfill exch def
	xratio mul
	/r0 exch def
	yratio mul
	/y0 exch def
	xratio mul
	/x0 exch def
	x0 y0 r0 0 360 arc closepath
	sfill 1 eq {
		Ssrgb setrgbcolor
		gsave
		fill
		grestore
	} if
	Slw setlinewidth
	Slrgb setrgbcolor
	stroke
} def
/Spie {
	/sfill exch def
	/a1 exch def
	/a0 exch def
	xratio mul
	/r exch def
	yratio mul
	/y exch def
	xratio mul
	/x exch def
	newpath x y moveto x y r a0 a1 arc closepath
	sfill 1 eq {
		Ssrgb setrgbcolor
		gsave
		fill
		grestore
	} if
	Slw setlinewidth
	Slrgb setrgbcolor
	stroke
} def
/Splu {
	xratio mul
	/r exch def
	yratio mul
	/y exch def
	xratio mul
	/x exch def
	x r sub
	/x0 exch def
	x r add
	/x1 exch def
	x0 y M x1 y L
	y r sub
	/y0 exch def
	y r add
	/y1 exch def
	x y0 M x y1 L
} def
/Scro {
	xratio mul
	/r exch def
	yratio mul
	/y exch def
	xratio mul
	/x exch def
	x r sub
	/x0 exch def
	y r sub
	/y0 exch def
	x r add
	/x1 exch def
	y r add
	/y1 exch def
	x0 y0 M x1 y1 L
	x r add
	/x0 exch def
	y r sub
	/y0 exch def
	x r sub
	/x1 exch def
	y r add
	/y1 exch def
	x0 y0 M x1 y1 L
} def
/Sm {
	yratio mul
	/y exch def
	xratio mul
	/x exch def
	x y M
} def
/Sl {
	yratio mul
	/y exch def
	xratio mul
	/x exch def
	x y L
} def
/SPl {
	yratio mul
	/y exch def
	xratio mul
	/x exch def
	x y PL
} def
/Lcs {
	currentlinecap
	1 setlinecap
} def
/Lcr {
	setlinecap
} def
/Sbp {
	newpath
} def
/Sep {
	/sfill exch def
	closepath
	sfill 1 eq  {
		Ssrgb setrgbcolor
		gsave
		fill
		grestore
	} if
	Slw setlinewidth
	Slrgb setrgbcolor
	Lcs
	stroke
	Lcr
} def
/cp {currentpoint} def 
/M {moveto} def 
/rm {rmoveto} def 
/S {stroke} def 
/L {Slw setlinewidth Slrgb setrgbcolor lineto Lcs S Lcr} def 
/PL {Slw setlinewidth Slrgb setrgbcolor lineto} def 
/MF-Helvetica {
  /newfontname exch def
  /fontname exch def
  /fontdict fontname findfont def
  /newfont fontdict maxlength dict def
  fontdict {
  exch dup /FID eq {pop pop} {exch newfont 3 1 roll put} ifelse
  } forall
  newfont /FontName newfontname put
  newfont /Encoding ISOLatin1Encoding put
  newfontname newfont definefont pop
} def
/Helvetica /Helvetica-0 MF-Helvetica
/Slw 0.120 def
1.000 1.000 1.000 setrgbcolor
0 0 396.000 288.000 Sbgfill
/Slrgb {1.000 1.000 1.000} def
/Strgb {1.000 1.000 1.000} def
/Ssrgb {1.000 1.000 1.000} def
/Slw 0.576 def
0 0 31999 23272 1 Srect
/Slw 0.461 def
/Slrgb {0.000 0.000 0.000} def
4703 14168 10659 21244 0 Srect
/Strgb {0.000 0.000 0.000} def
/Slw 0.691 def
/Slrgb {0.188 0.188 0.188} def
4703 18331 10659 18331 Sln
/Slw 0.461 def
/Slrgb {0.000 0.000 0.000} def
14826 14168 20782 21244 0 Srect
/Slw 0.691 def
/Slrgb {0.188 0.188 0.188} def
14826 17803 20782 17803 Sln
/Slw 0.461 def
/Slrgb {0.000 0.000 0.000} def
24950 14168 30905 21244 0 Srect
/Slw 0.691 def
/Slrgb {0.188 0.188 0.188} def
24950 17727 30905 17727 Sln
/Slw 0.461 def
/Slrgb {0.000 0.000 0.000} def
4703 5599 10659 12675 0 Srect
/Slw 0.691 def
/Slrgb {0.188 0.188 0.188} def
4703 10180 10659 10180 Sln
/Slw 0.461 def
/Slrgb {0.000 0.000 0.000} def
14826 5599 20782 12675 0 Srect
/Slw 0.691 def
/Slrgb {0.188 0.188 0.188} def
14826 9312 20782 9312 Sln
/Slw 0.461 def
/Slrgb {0.000 0.000 0.000} def
24950 5599 30905 12675 0 Srect
/Slw 0.691 def
/Slrgb {0.188 0.188 0.188} def
24950 9648 30905 9648 Sln
/Ssrgb {0.502 0.502 0.502} def
/Slw 0.461 def
/Slrgb {0.376 0.376 0.376} def
4951 18074 4951 19766 Sln
5696 17817 5696 18742 Sln
6440 17525 6440 18623 Sln
7185 16391 7185 18283 Sln
7929 18134 7929 19951 Sln
8673 16245 8673 19536 Sln
9418 16410 9418 20321 Sln
10162 16533 10162 20489 Sln
4951 18920 Sm
5695 18279 Sl
5695 18279 Sm
6440 18073 Sl
6440 18073 Sm
7184 17336 Sl
7184 17336 Sm
7928 19042 Sl
7928 19042 Sm
8673 17890 Sl
8673 17890 Sm
9417 18365 Sl
9417 18365 Sm
10162 18511 Sl
/Ssrgb {0.702 0.702 0.702} def
/Slrgb {0.627 0.627 0.627} def
5199 16714 5199 20265 Sln
5944 17063 5944 17823 Sln
6688 16475 6688 17742 Sln
7433 16569 7433 18111 Sln
8177 15925 8177 17652 Sln
8922 15330 8922 17750 Sln
9666 15601 9666 18385 Sln
10410 15351 10410 19114 Sln
5199 18489 5307 18337 Sln
5401 18205 5509 18053 Sln
5603 17920 5711 17768 Sln
5806 17635 5914 17484 Sln
6045 17396 6215 17320 Sln
6364 17253 6533 17178 Sln
6682 17111 6688 17108 Sln
6688 17108 6860 17161 Sln
7015 17210 7193 17265 Sln
7349 17313 7432 17339 Sln
7432 17339 7512 17280 Sln
7643 17184 7792 17073 Sln
7923 16976 8073 16865 Sln
8209 16777 8385 16718 Sln
8540 16667 8716 16608 Sln
8871 16556 8921 16539 Sln
8921 16539 9035 16608 Sln
9174 16693 9333 16790 Sln
9472 16874 9632 16971 Sln
9783 17030 9960 17087 Sln
10115 17137 10292 17194 Sln
/Ssrgb {0.502 0.502 0.502} def
/Slrgb {0.376 0.376 0.376} def
15075 16186 15075 18776 Sln
15819 16845 15819 17965 Sln
16563 16993 16563 18501 Sln
17308 16629 17308 18795 Sln
18052 14577 18052 17794 Sln
18797 16053 18797 19571 Sln
19541 16122 19541 20387 Sln
20286 18336 20286 20811 Sln
15074 17480 Sm
15818 17404 Sl
15818 17404 Sm
16563 17746 Sl
16563 17746 Sm
17307 17711 Sl
17307 17711 Sm
18052 16185 Sl
18052 16185 Sm
18796 17812 Sl
18796 17812 Sm
19541 18254 Sl
19541 18254 Sm
20285 19573 Sl
/Ssrgb {0.702 0.702 0.702} def
/Slrgb {0.627 0.627 0.627} def
15323 17453 15323 18198 Sln
16067 17444 16067 17740 Sln
16812 17476 16812 17831 Sln
17556 17018 17556 18065 Sln
18300 17556 18300 18485 Sln
19045 17332 19045 18709 Sln
19789 16646 19789 18016 Sln
20534 17452 20534 17820 Sln
15322 17825 15500 17769 Sln
15655 17721 15833 17665 Sln
15989 17617 16067 17592 Sln
16067 17592 16170 17600 Sln
16333 17614 16518 17629 Sln
16681 17642 16811 17653 Sln
16811 17653 16866 17645 Sln
17027 17621 17211 17593 Sln
17372 17568 17555 17541 Sln
17555 17541 17556 17541 Sln
17693 17630 17850 17730 Sln
17986 17818 18143 17919 Sln
18280 18007 18300 18020 Sln
18300 18020 18462 18020 Sln
18625 18020 18811 18020 Sln
18974 18020 19044 18020 Sln
19044 18020 19129 17941 Sln
19249 17830 19385 17704 Sln
19505 17593 19641 17467 Sln
19761 17356 19789 17330 Sln
19789 17330 19926 17386 Sln
20076 17448 20249 17519 Sln
20399 17581 20533 17636 Sln
/Ssrgb {0.502 0.502 0.502} def
/Slrgb {0.376 0.376 0.376} def
25198 16044 25198 20421 Sln
25942 16058 25942 17162 Sln
26687 16405 26687 17969 Sln
27431 15882 27431 17712 Sln
28176 14577 28176 17537 Sln
28920 16699 28920 20728 Sln
29664 14970 29664 18006 Sln
30409 14863 30409 18766 Sln
25197 18232 Sm
25942 16610 Sl
25942 16610 Sm
26686 17186 Sl
26686 17186 Sm
27431 16796 Sl
27431 16796 Sm
28175 16057 Sl
28175 16057 Sm
28920 18713 Sl
28920 18713 Sm
29664 16488 Sl
29664 16488 Sm
30408 16814 Sl
/Ssrgb {0.702 0.702 0.702} def
/Slrgb {0.627 0.627 0.627} def
25446 17179 25446 17678 Sln
26190 17451 26190 17568 Sln
26935 17439 26935 17585 Sln
27679 17362 27679 17989 Sln
28424 17501 28424 17607 Sln
29168 17494 29168 17592 Sln
29913 17486 29913 17633 Sln
30657 17448 30657 17632 Sln
25445 17428 25630 17448 Sln
25792 17466 25977 17486 Sln
26139 17504 26190 17509 Sln
26190 17509 26325 17509 Sln
26488 17510 26674 17511 Sln
26837 17511 26934 17512 Sln
26934 17512 27021 17531 Sln
27180 17566 27361 17605 Sln
27520 17640 27679 17675 Sln
27679 17675 27702 17671 Sln
27863 17645 28047 17615 Sln
28208 17589 28391 17559 Sln
28554 17551 28740 17549 Sln
28903 17546 29089 17544 Sln
29252 17545 29438 17549 Sln
29601 17552 29787 17556 Sln
29950 17558 30136 17553 Sln
30299 17549 30485 17544 Sln
30648 17539 30657 17539 Sln
/Ssrgb {0.502 0.502 0.502} def
/Slrgb {0.376 0.376 0.376} def
4951 9087 4951 11581 Sln
5696 9224 5696 10022 Sln
6440 8978 6440 10352 Sln
7185 8596 7185 9958 Sln
7929 8805 7929 10567 Sln
8673 7033 8673 9565 Sln
9418 7103 9418 10240 Sln
10162 6451 10162 11612 Sln
4951 10334 Sm
5695 9623 Sl
5695 9623 Sm
6440 9664 Sl
6440 9664 Sm
7184 9276 Sl
7184 9276 Sm
7928 9686 Sl
7928 9686 Sm
8673 8298 Sl
8673 8298 Sm
9417 8671 Sl
9417 8671 Sm
10162 9031 Sl
/Ssrgb {0.702 0.702 0.702} def
/Slrgb {0.627 0.627 0.627} def
5199 8145 5199 11717 Sln
5944 9469 5944 10893 Sln
6688 8794 6688 10563 Sln
7433 8861 7433 10149 Sln
8177 8307 8177 9813 Sln
8922 8163 8922 10636 Sln
9666 7786 9666 11874 Sln
10410 8947 10410 12034 Sln
5199 9931 5376 9990 Sln
5530 10042 5706 10101 Sln
5861 10152 5943 10180 Sln
5943 10180 6025 10124 Sln
6161 10033 6315 9929 Sln
6450 9838 6604 9734 Sln
6749 9664 6930 9621 Sln
7088 9584 7269 9542 Sln
7428 9505 7432 9504 Sln
7432 9504 7588 9411 Sln
7728 9327 7888 9232 Sln
8028 9149 8177 9060 Sln
8177 9060 8189 9065 Sln
8337 9133 8507 9210 Sln
8655 9278 8824 9355 Sln
8970 9427 9131 9520 Sln
9272 9602 9433 9696 Sln
9574 9777 9665 9830 Sln
9665 9830 9726 9884 Sln
9848 9992 9987 10115 Sln
10109 10223 10248 10347 Sln
10370 10455 10410 10490 Sln
/Ssrgb {0.502 0.502 0.502} def
/Slrgb {0.376 0.376 0.376} def
15075 9011 15075 10958 Sln
15819 8623 15819 9385 Sln
16563 8334 16563 9270 Sln
17308 8605 17308 9825 Sln
18052 8106 18052 9886 Sln
18797 6008 18797 8470 Sln
19541 6480 19541 9583 Sln
20286 8026 20286 9104 Sln
15074 9984 Sm
15818 9003 Sl
15818 9003 Sm
16563 8801 Sl
16563 8801 Sm
17307 9214 Sl
17307 9214 Sm
18052 8995 Sl
18052 8995 Sm
18796 7239 Sl
18796 7239 Sm
19541 8031 Sl
19541 8031 Sm
20285 8564 Sl
/Ssrgb {0.702 0.702 0.702} def
/Slrgb {0.627 0.627 0.627} def
15323 6908 15323 11021 Sln
16067 9203 16067 9923 Sln
16812 8995 16812 10258 Sln
17556 8876 17556 10012 Sln
18300 8356 18300 9382 Sln
19045 8633 19045 10832 Sln
19789 7282 19789 10468 Sln
20534 8707 20534 11492 Sln
15322 8964 15467 9081 Sln
15594 9183 15740 9299 Sln
15867 9401 16012 9518 Sln
16159 9570 16344 9586 Sln
16507 9600 16692 9616 Sln
16853 9616 17034 9571 Sln
17192 9533 17373 9488 Sln
17531 9449 17555 9443 Sln
17555 9443 17683 9344 Sln
17812 9245 17959 9131 Sln
18088 9032 18236 8919 Sln
18353 8931 18475 9072 Sln
18581 9195 18703 9336 Sln
18809 9460 18931 9600 Sln
19037 9724 19044 9732 Sln
19044 9732 19159 9599 Sln
19266 9476 19388 9336 Sln
19495 9213 19617 9072 Sln
19724 8949 19789 8874 Sln
19789 8874 19834 8948 Sln
19918 9087 20015 9246 Sln
20099 9385 20196 9544 Sln
20281 9684 20377 9843 Sln
20462 9982 20533 10099 Sln
/Ssrgb {0.502 0.502 0.502} def
/Slrgb {0.376 0.376 0.376} def
25198 7237 25198 11712 Sln
25942 7459 25942 9363 Sln
26687 7751 26687 9840 Sln
27431 7857 27431 10594 Sln
28176 6916 28176 9421 Sln
28920 6607 28920 10586 Sln
29664 8445 29664 11971 Sln
30409 8686 30409 11074 Sln
25197 9474 Sm
25942 8410 Sl
25942 8410 Sm
26686 8795 Sl
26686 8795 Sm
27431 9225 Sl
27431 9225 Sm
28175 8168 Sl
28175 8168 Sm
28920 8596 Sl
28920 8596 Sm
29664 10207 Sl
29664 10207 Sm
30408 9880 Sl
/Ssrgb {0.702 0.702 0.702} def
/Slrgb {0.627 0.627 0.627} def
25446 7240 25446 10561 Sln
26190 8657 26190 9834 Sln
26935 9095 26935 10726 Sln
27679 8404 27679 10252 Sln
28424 7709 28424 10491 Sln
29168 8539 29168 12265 Sln
29913 8105 29913 11795 Sln
30657 6444 30657 8820 Sln
25445 8900 25614 8978 Sln
25761 9047 25930 9125 Sln
26078 9193 26190 9245 Sln
26190 9245 26237 9287 Sln
26358 9396 26497 9520 Sln
26619 9628 26757 9752 Sln
26879 9860 26934 9910 Sln
26934 9910 27022 9841 Sln
27151 9741 27297 9626 Sln
27426 9526 27573 9411 Sln
27706 9320 27883 9265 Sln
28039 9217 28217 9162 Sln
28373 9115 28423 9099 Sln
28423 9099 28489 9215 Sln
28570 9356 28663 9517 Sln
28743 9659 28836 9820 Sln
28917 9961 29009 10123 Sln
29089 10264 29168 10402 Sln
29168 10402 29192 10388 Sln
29331 10303 29490 10207 Sln
29630 10122 29789 10025 Sln
29918 9933 29975 9756 Sln
30024 9600 30081 9423 Sln
30131 9268 30188 9091 Sln
30238 8936 30295 8759 Sln
30345 8604 30402 8426 Sln
30452 8271 30509 8094 Sln
30559 7939 30616 7762 Sln
/Slrgb {0.000 0.000 0.000} def
4703 14168 4703 21244 Sln
4703 14577 4444 14577 Sln
4315 14351 0
/Helvetica-0 findfont 646 yratio mul scalefont setfont
(-.6) stringwidth pop add
xratio div
dup 4 3 roll exch 0.000 cos mul sub 3 1 roll 0.000 sin mul sub 2 copy
/fntsize {/Helvetica-0 findfont exch scalefont setfont } def
0.000 646
(-.6) Stxtl
(-.6) stringwidth pop xratio div
dup 4 3 roll exch 0.000 cos mul add 3 1 roll 0.000 sin mul add 2 copy
pop pop pop pop
4703 15829 4444 15829 Sln
4315 15603 0
/Helvetica-0 findfont 646 yratio mul scalefont setfont
(-.4) stringwidth pop add
xratio div
dup 4 3 roll exch 0.000 cos mul sub 3 1 roll 0.000 sin mul sub 2 copy
/fntsize {/Helvetica-0 findfont exch scalefont setfont } def
0.000 646
(-.4) Stxtl
(-.4) stringwidth pop xratio div
dup 4 3 roll exch 0.000 cos mul add 3 1 roll 0.000 sin mul add 2 copy
pop pop pop pop
4703 17080 4444 17080 Sln
4315 16854 0
/Helvetica-0 findfont 646 yratio mul scalefont setfont
(-.2) stringwidth pop add
xratio div
dup 4 3 roll exch 0.000 cos mul sub 3 1 roll 0.000 sin mul sub 2 copy
/fntsize {/Helvetica-0 findfont exch scalefont setfont } def
0.000 646
(-.2) Stxtl
(-.2) stringwidth pop xratio div
dup 4 3 roll exch 0.000 cos mul add 3 1 roll 0.000 sin mul add 2 copy
pop pop pop pop
4703 18331 4444 18331 Sln
4315 18105 0
/Helvetica-0 findfont 646 yratio mul scalefont setfont
(0) stringwidth pop add
xratio div
dup 4 3 roll exch 0.000 cos mul sub 3 1 roll 0.000 sin mul sub 2 copy
/fntsize {/Helvetica-0 findfont exch scalefont setfont } def
0.000 646
(0) Stxtl
(0) stringwidth pop xratio div
dup 4 3 roll exch 0.000 cos mul add 3 1 roll 0.000 sin mul add 2 copy
pop pop pop pop
4703 19583 4444 19583 Sln
4315 19357 0
/Helvetica-0 findfont 646 yratio mul scalefont setfont
(.2) stringwidth pop add
xratio div
dup 4 3 roll exch 0.000 cos mul sub 3 1 roll 0.000 sin mul sub 2 copy
/fntsize {/Helvetica-0 findfont exch scalefont setfont } def
0.000 646
(.2) Stxtl
(.2) stringwidth pop xratio div
dup 4 3 roll exch 0.000 cos mul add 3 1 roll 0.000 sin mul add 2 copy
pop pop pop pop
4703 20834 4444 20834 Sln
4315 20608 0
/Helvetica-0 findfont 646 yratio mul scalefont setfont
(.4) stringwidth pop add
xratio div
dup 4 3 roll exch 0.000 cos mul sub 3 1 roll 0.000 sin mul sub 2 copy
/fntsize {/Helvetica-0 findfont exch scalefont setfont } def
0.000 646
(.4) Stxtl
(.4) stringwidth pop xratio div
dup 4 3 roll exch 0.000 cos mul add 3 1 roll 0.000 sin mul add 2 copy
pop pop pop pop
14826 14168 14826 21244 Sln
14826 14772 14568 14772 Sln
14439 14546 0
/Helvetica-0 findfont 646 yratio mul scalefont setfont
(-.4) stringwidth pop add
xratio div
dup 4 3 roll exch 0.000 cos mul sub 3 1 roll 0.000 sin mul sub 2 copy
/fntsize {/Helvetica-0 findfont exch scalefont setfont } def
0.000 646
(-.4) Stxtl
(-.4) stringwidth pop xratio div
dup 4 3 roll exch 0.000 cos mul add 3 1 roll 0.000 sin mul add 2 copy
pop pop pop pop
14826 16287 14568 16287 Sln
14439 16061 0
/Helvetica-0 findfont 646 yratio mul scalefont setfont
(-.2) stringwidth pop add
xratio div
dup 4 3 roll exch 0.000 cos mul sub 3 1 roll 0.000 sin mul sub 2 copy
/fntsize {/Helvetica-0 findfont exch scalefont setfont } def
0.000 646
(-.2) Stxtl
(-.2) stringwidth pop xratio div
dup 4 3 roll exch 0.000 cos mul add 3 1 roll 0.000 sin mul add 2 copy
pop pop pop pop
14826 17803 14568 17803 Sln
14439 17577 0
/Helvetica-0 findfont 646 yratio mul scalefont setfont
(0) stringwidth pop add
xratio div
dup 4 3 roll exch 0.000 cos mul sub 3 1 roll 0.000 sin mul sub 2 copy
/fntsize {/Helvetica-0 findfont exch scalefont setfont } def
0.000 646
(0) Stxtl
(0) stringwidth pop xratio div
dup 4 3 roll exch 0.000 cos mul add 3 1 roll 0.000 sin mul add 2 copy
pop pop pop pop
14826 19318 14568 19318 Sln
14439 19092 0
/Helvetica-0 findfont 646 yratio mul scalefont setfont
(.2) stringwidth pop add
xratio div
dup 4 3 roll exch 0.000 cos mul sub 3 1 roll 0.000 sin mul sub 2 copy
/fntsize {/Helvetica-0 findfont exch scalefont setfont } def
0.000 646
(.2) Stxtl
(.2) stringwidth pop xratio div
dup 4 3 roll exch 0.000 cos mul add 3 1 roll 0.000 sin mul add 2 copy
pop pop pop pop
14826 20834 14568 20834 Sln
14439 20608 0
/Helvetica-0 findfont 646 yratio mul scalefont setfont
(.4) stringwidth pop add
xratio div
dup 4 3 roll exch 0.000 cos mul sub 3 1 roll 0.000 sin mul sub 2 copy
/fntsize {/Helvetica-0 findfont exch scalefont setfont } def
0.000 646
(.4) Stxtl
(.4) stringwidth pop xratio div
dup 4 3 roll exch 0.000 cos mul add 3 1 roll 0.000 sin mul add 2 copy
pop pop pop pop
24950 14168 24950 21244 Sln
24950 14621 24691 14621 Sln
24562 14395 0
/Helvetica-0 findfont 646 yratio mul scalefont setfont
(-.4) stringwidth pop add
xratio div
dup 4 3 roll exch 0.000 cos mul sub 3 1 roll 0.000 sin mul sub 2 copy
/fntsize {/Helvetica-0 findfont exch scalefont setfont } def
0.000 646
(-.4) Stxtl
(-.4) stringwidth pop xratio div
dup 4 3 roll exch 0.000 cos mul add 3 1 roll 0.000 sin mul add 2 copy
pop pop pop pop
24950 16174 24691 16174 Sln
24562 15948 0
/Helvetica-0 findfont 646 yratio mul scalefont setfont
(-.2) stringwidth pop add
xratio div
dup 4 3 roll exch 0.000 cos mul sub 3 1 roll 0.000 sin mul sub 2 copy
/fntsize {/Helvetica-0 findfont exch scalefont setfont } def
0.000 646
(-.2) Stxtl
(-.2) stringwidth pop xratio div
dup 4 3 roll exch 0.000 cos mul add 3 1 roll 0.000 sin mul add 2 copy
pop pop pop pop
24950 17727 24691 17727 Sln
24562 17501 0
/Helvetica-0 findfont 646 yratio mul scalefont setfont
(0) stringwidth pop add
xratio div
dup 4 3 roll exch 0.000 cos mul sub 3 1 roll 0.000 sin mul sub 2 copy
/fntsize {/Helvetica-0 findfont exch scalefont setfont } def
0.000 646
(0) Stxtl
(0) stringwidth pop xratio div
dup 4 3 roll exch 0.000 cos mul add 3 1 roll 0.000 sin mul add 2 copy
pop pop pop pop
24950 19281 24691 19281 Sln
24562 19055 0
/Helvetica-0 findfont 646 yratio mul scalefont setfont
(.2) stringwidth pop add
xratio div
dup 4 3 roll exch 0.000 cos mul sub 3 1 roll 0.000 sin mul sub 2 copy
/fntsize {/Helvetica-0 findfont exch scalefont setfont } def
0.000 646
(.2) Stxtl
(.2) stringwidth pop xratio div
dup 4 3 roll exch 0.000 cos mul add 3 1 roll 0.000 sin mul add 2 copy
pop pop pop pop
24950 20834 24691 20834 Sln
24562 20608 0
/Helvetica-0 findfont 646 yratio mul scalefont setfont
(.4) stringwidth pop add
xratio div
dup 4 3 roll exch 0.000 cos mul sub 3 1 roll 0.000 sin mul sub 2 copy
/fntsize {/Helvetica-0 findfont exch scalefont setfont } def
0.000 646
(.4) Stxtl
(.4) stringwidth pop xratio div
dup 4 3 roll exch 0.000 cos mul add 3 1 roll 0.000 sin mul add 2 copy
pop pop pop pop
4703 5599 4703 12675 Sln
4703 6008 4444 6008 Sln
4315 5782 0
/Helvetica-0 findfont 646 yratio mul scalefont setfont
(-4) stringwidth pop add
xratio div
dup 4 3 roll exch 0.000 cos mul sub 3 1 roll 0.000 sin mul sub 2 copy
/fntsize {/Helvetica-0 findfont exch scalefont setfont } def
0.000 646
(-4) Stxtl
(-4) stringwidth pop xratio div
dup 4 3 roll exch 0.000 cos mul add 3 1 roll 0.000 sin mul add 2 copy
pop pop pop pop
4703 7051 4444 7051 Sln
4315 6825 0
/Helvetica-0 findfont 646 yratio mul scalefont setfont
(-3) stringwidth pop add
xratio div
dup 4 3 roll exch 0.000 cos mul sub 3 1 roll 0.000 sin mul sub 2 copy
/fntsize {/Helvetica-0 findfont exch scalefont setfont } def
0.000 646
(-3) Stxtl
(-3) stringwidth pop xratio div
dup 4 3 roll exch 0.000 cos mul add 3 1 roll 0.000 sin mul add 2 copy
pop pop pop pop
4703 8094 4444 8094 Sln
4315 7868 0
/Helvetica-0 findfont 646 yratio mul scalefont setfont
(-2) stringwidth pop add
xratio div
dup 4 3 roll exch 0.000 cos mul sub 3 1 roll 0.000 sin mul sub 2 copy
/fntsize {/Helvetica-0 findfont exch scalefont setfont } def
0.000 646
(-2) Stxtl
(-2) stringwidth pop xratio div
dup 4 3 roll exch 0.000 cos mul add 3 1 roll 0.000 sin mul add 2 copy
pop pop pop pop
4703 9137 4444 9137 Sln
4315 8911 0
/Helvetica-0 findfont 646 yratio mul scalefont setfont
(-1) stringwidth pop add
xratio div
dup 4 3 roll exch 0.000 cos mul sub 3 1 roll 0.000 sin mul sub 2 copy
/fntsize {/Helvetica-0 findfont exch scalefont setfont } def
0.000 646
(-1) Stxtl
(-1) stringwidth pop xratio div
dup 4 3 roll exch 0.000 cos mul add 3 1 roll 0.000 sin mul add 2 copy
pop pop pop pop
4703 10180 4444 10180 Sln
4315 9954 0
/Helvetica-0 findfont 646 yratio mul scalefont setfont
(0) stringwidth pop add
xratio div
dup 4 3 roll exch 0.000 cos mul sub 3 1 roll 0.000 sin mul sub 2 copy
/fntsize {/Helvetica-0 findfont exch scalefont setfont } def
0.000 646
(0) Stxtl
(0) stringwidth pop xratio div
dup 4 3 roll exch 0.000 cos mul add 3 1 roll 0.000 sin mul add 2 copy
pop pop pop pop
4703 11222 4444 11222 Sln
4315 10996 0
/Helvetica-0 findfont 646 yratio mul scalefont setfont
(1) stringwidth pop add
xratio div
dup 4 3 roll exch 0.000 cos mul sub 3 1 roll 0.000 sin mul sub 2 copy
/fntsize {/Helvetica-0 findfont exch scalefont setfont } def
0.000 646
(1) Stxtl
(1) stringwidth pop xratio div
dup 4 3 roll exch 0.000 cos mul add 3 1 roll 0.000 sin mul add 2 copy
pop pop pop pop
4703 12265 4444 12265 Sln
4315 12039 0
/Helvetica-0 findfont 646 yratio mul scalefont setfont
(2) stringwidth pop add
xratio div
dup 4 3 roll exch 0.000 cos mul sub 3 1 roll 0.000 sin mul sub 2 copy
/fntsize {/Helvetica-0 findfont exch scalefont setfont } def
0.000 646
(2) Stxtl
(2) stringwidth pop xratio div
dup 4 3 roll exch 0.000 cos mul add 3 1 roll 0.000 sin mul add 2 copy
pop pop pop pop
14826 5599 14826 12675 Sln
14826 6360 14568 6360 Sln
14439 6134 0
/Helvetica-0 findfont 646 yratio mul scalefont setfont
(-10) stringwidth pop add
xratio div
dup 4 3 roll exch 0.000 cos mul sub 3 1 roll 0.000 sin mul sub 2 copy
/fntsize {/Helvetica-0 findfont exch scalefont setfont } def
0.000 646
(-10) Stxtl
(-10) stringwidth pop xratio div
dup 4 3 roll exch 0.000 cos mul add 3 1 roll 0.000 sin mul add 2 copy
pop pop pop pop
14826 7836 14568 7836 Sln
14439 7610 0
/Helvetica-0 findfont 646 yratio mul scalefont setfont
(-5) stringwidth pop add
xratio div
dup 4 3 roll exch 0.000 cos mul sub 3 1 roll 0.000 sin mul sub 2 copy
/fntsize {/Helvetica-0 findfont exch scalefont setfont } def
0.000 646
(-5) Stxtl
(-5) stringwidth pop xratio div
dup 4 3 roll exch 0.000 cos mul add 3 1 roll 0.000 sin mul add 2 copy
pop pop pop pop
14826 9312 14568 9312 Sln
14439 9086 0
/Helvetica-0 findfont 646 yratio mul scalefont setfont
(0) stringwidth pop add
xratio div
dup 4 3 roll exch 0.000 cos mul sub 3 1 roll 0.000 sin mul sub 2 copy
/fntsize {/Helvetica-0 findfont exch scalefont setfont } def
0.000 646
(0) Stxtl
(0) stringwidth pop xratio div
dup 4 3 roll exch 0.000 cos mul add 3 1 roll 0.000 sin mul add 2 copy
pop pop pop pop
14826 10789 14568 10789 Sln
14439 10563 0
/Helvetica-0 findfont 646 yratio mul scalefont setfont
(5) stringwidth pop add
xratio div
dup 4 3 roll exch 0.000 cos mul sub 3 1 roll 0.000 sin mul sub 2 copy
/fntsize {/Helvetica-0 findfont exch scalefont setfont } def
0.000 646
(5) Stxtl
(5) stringwidth pop xratio div
dup 4 3 roll exch 0.000 cos mul add 3 1 roll 0.000 sin mul add 2 copy
pop pop pop pop
14826 12265 14568 12265 Sln
14439 12039 0
/Helvetica-0 findfont 646 yratio mul scalefont setfont
(10) stringwidth pop add
xratio div
dup 4 3 roll exch 0.000 cos mul sub 3 1 roll 0.000 sin mul sub 2 copy
/fntsize {/Helvetica-0 findfont exch scalefont setfont } def
0.000 646
(10) Stxtl
(10) stringwidth pop xratio div
dup 4 3 roll exch 0.000 cos mul add 3 1 roll 0.000 sin mul add 2 copy
pop pop pop pop
24950 5599 24950 12675 Sln
24950 6008 24691 6008 Sln
24562 5782 0
/Helvetica-0 findfont 646 yratio mul scalefont setfont
(-600) stringwidth pop add
xratio div
dup 4 3 roll exch 0.000 cos mul sub 3 1 roll 0.000 sin mul sub 2 copy
/fntsize {/Helvetica-0 findfont exch scalefont setfont } def
0.000 646
(-600) Stxtl
(-600) stringwidth pop xratio div
dup 4 3 roll exch 0.000 cos mul add 3 1 roll 0.000 sin mul add 2 copy
pop pop pop pop
24950 7222 24691 7222 Sln
24562 6996 0
/Helvetica-0 findfont 646 yratio mul scalefont setfont
(-400) stringwidth pop add
xratio div
dup 4 3 roll exch 0.000 cos mul sub 3 1 roll 0.000 sin mul sub 2 copy
/fntsize {/Helvetica-0 findfont exch scalefont setfont } def
0.000 646
(-400) Stxtl
(-400) stringwidth pop xratio div
dup 4 3 roll exch 0.000 cos mul add 3 1 roll 0.000 sin mul add 2 copy
pop pop pop pop
24950 8435 24691 8435 Sln
24562 8209 0
/Helvetica-0 findfont 646 yratio mul scalefont setfont
(-200) stringwidth pop add
xratio div
dup 4 3 roll exch 0.000 cos mul sub 3 1 roll 0.000 sin mul sub 2 copy
/fntsize {/Helvetica-0 findfont exch scalefont setfont } def
0.000 646
(-200) Stxtl
(-200) stringwidth pop xratio div
dup 4 3 roll exch 0.000 cos mul add 3 1 roll 0.000 sin mul add 2 copy
pop pop pop pop
24950 9648 24691 9648 Sln
24562 9422 0
/Helvetica-0 findfont 646 yratio mul scalefont setfont
(0) stringwidth pop add
xratio div
dup 4 3 roll exch 0.000 cos mul sub 3 1 roll 0.000 sin mul sub 2 copy
/fntsize {/Helvetica-0 findfont exch scalefont setfont } def
0.000 646
(0) Stxtl
(0) stringwidth pop xratio div
dup 4 3 roll exch 0.000 cos mul add 3 1 roll 0.000 sin mul add 2 copy
pop pop pop pop
24950 10862 24691 10862 Sln
24562 10636 0
/Helvetica-0 findfont 646 yratio mul scalefont setfont
(200) stringwidth pop add
xratio div
dup 4 3 roll exch 0.000 cos mul sub 3 1 roll 0.000 sin mul sub 2 copy
/fntsize {/Helvetica-0 findfont exch scalefont setfont } def
0.000 646
(200) Stxtl
(200) stringwidth pop xratio div
dup 4 3 roll exch 0.000 cos mul add 3 1 roll 0.000 sin mul add 2 copy
pop pop pop pop
24950 12075 24691 12075 Sln
24562 11849 0
/Helvetica-0 findfont 646 yratio mul scalefont setfont
(400) stringwidth pop add
xratio div
dup 4 3 roll exch 0.000 cos mul sub 3 1 roll 0.000 sin mul sub 2 copy
/fntsize {/Helvetica-0 findfont exch scalefont setfont } def
0.000 646
(400) Stxtl
(400) stringwidth pop xratio div
dup 4 3 roll exch 0.000 cos mul add 3 1 roll 0.000 sin mul add 2 copy
pop pop pop pop
4703 5599 10659 5599 Sln
5075 5599 5075 5340 Sln
5301 5211 0
/Helvetica-0 findfont 646 yratio mul scalefont setfont
(0) stringwidth pop add
xratio div
dup 4 3 roll exch 90.000 cos mul sub 3 1 roll 90.000 sin mul sub 2 copy
/fntsize {/Helvetica-0 findfont exch scalefont setfont } def
90.000 646
(0) Stxtl
(0) stringwidth pop xratio div
dup 4 3 roll exch 90.000 cos mul add 3 1 roll 90.000 sin mul add 2 copy
pop pop pop pop
5820 5599 5820 5340 Sln
6046 5211 0
/Helvetica-0 findfont 646 yratio mul scalefont setfont
(1-2) stringwidth pop add
xratio div
dup 4 3 roll exch 90.000 cos mul sub 3 1 roll 90.000 sin mul sub 2 copy
/fntsize {/Helvetica-0 findfont exch scalefont setfont } def
90.000 646
(1-2) Stxtl
(1-2) stringwidth pop xratio div
dup 4 3 roll exch 90.000 cos mul add 3 1 roll 90.000 sin mul add 2 copy
pop pop pop pop
6564 5599 6564 5340 Sln
6790 5211 0
/Helvetica-0 findfont 646 yratio mul scalefont setfont
(3-4) stringwidth pop add
xratio div
dup 4 3 roll exch 90.000 cos mul sub 3 1 roll 90.000 sin mul sub 2 copy
/fntsize {/Helvetica-0 findfont exch scalefont setfont } def
90.000 646
(3-4) Stxtl
(3-4) stringwidth pop xratio div
dup 4 3 roll exch 90.000 cos mul add 3 1 roll 90.000 sin mul add 2 copy
pop pop pop pop
7309 5599 7309 5340 Sln
7535 5211 0
/Helvetica-0 findfont 646 yratio mul scalefont setfont
(5-6) stringwidth pop add
xratio div
dup 4 3 roll exch 90.000 cos mul sub 3 1 roll 90.000 sin mul sub 2 copy
/fntsize {/Helvetica-0 findfont exch scalefont setfont } def
90.000 646
(5-6) Stxtl
(5-6) stringwidth pop xratio div
dup 4 3 roll exch 90.000 cos mul add 3 1 roll 90.000 sin mul add 2 copy
pop pop pop pop
8053 5599 8053 5340 Sln
8279 5211 0
/Helvetica-0 findfont 646 yratio mul scalefont setfont
(7-8) stringwidth pop add
xratio div
dup 4 3 roll exch 90.000 cos mul sub 3 1 roll 90.000 sin mul sub 2 copy
/fntsize {/Helvetica-0 findfont exch scalefont setfont } def
90.000 646
(7-8) Stxtl
(7-8) stringwidth pop xratio div
dup 4 3 roll exch 90.000 cos mul add 3 1 roll 90.000 sin mul add 2 copy
pop pop pop pop
8797 5599 8797 5340 Sln
9023 5211 0
/Helvetica-0 findfont 646 yratio mul scalefont setfont
(9-10) stringwidth pop add
xratio div
dup 4 3 roll exch 90.000 cos mul sub 3 1 roll 90.000 sin mul sub 2 copy
/fntsize {/Helvetica-0 findfont exch scalefont setfont } def
90.000 646
(9-10) Stxtl
(9-10) stringwidth pop xratio div
dup 4 3 roll exch 90.000 cos mul add 3 1 roll 90.000 sin mul add 2 copy
pop pop pop pop
9542 5599 9542 5340 Sln
9768 5211 0
/Helvetica-0 findfont 646 yratio mul scalefont setfont
(11-12) stringwidth pop add
xratio div
dup 4 3 roll exch 90.000 cos mul sub 3 1 roll 90.000 sin mul sub 2 copy
/fntsize {/Helvetica-0 findfont exch scalefont setfont } def
90.000 646
(11-12) Stxtl
(11-12) stringwidth pop xratio div
dup 4 3 roll exch 90.000 cos mul add 3 1 roll 90.000 sin mul add 2 copy
pop pop pop pop
10286 5599 10286 5340 Sln
10512 5211 0
/Helvetica-0 findfont 646 yratio mul scalefont setfont
(13-14) stringwidth pop add
xratio div
dup 4 3 roll exch 90.000 cos mul sub 3 1 roll 90.000 sin mul sub 2 copy
/fntsize {/Helvetica-0 findfont exch scalefont setfont } def
90.000 646
(13-14) Stxtl
(13-14) stringwidth pop xratio div
dup 4 3 roll exch 90.000 cos mul add 3 1 roll 90.000 sin mul add 2 copy
pop pop pop pop
14826 5599 20782 5599 Sln
15199 5599 15199 5340 Sln
15425 5211 0
/Helvetica-0 findfont 646 yratio mul scalefont setfont
(0) stringwidth pop add
xratio div
dup 4 3 roll exch 90.000 cos mul sub 3 1 roll 90.000 sin mul sub 2 copy
/fntsize {/Helvetica-0 findfont exch scalefont setfont } def
90.000 646
(0) Stxtl
(0) stringwidth pop xratio div
dup 4 3 roll exch 90.000 cos mul add 3 1 roll 90.000 sin mul add 2 copy
pop pop pop pop
15943 5599 15943 5340 Sln
16169 5211 0
/Helvetica-0 findfont 646 yratio mul scalefont setfont
(1-2) stringwidth pop add
xratio div
dup 4 3 roll exch 90.000 cos mul sub 3 1 roll 90.000 sin mul sub 2 copy
/fntsize {/Helvetica-0 findfont exch scalefont setfont } def
90.000 646
(1-2) Stxtl
(1-2) stringwidth pop xratio div
dup 4 3 roll exch 90.000 cos mul add 3 1 roll 90.000 sin mul add 2 copy
pop pop pop pop
16687 5599 16687 5340 Sln
16913 5211 0
/Helvetica-0 findfont 646 yratio mul scalefont setfont
(3-4) stringwidth pop add
xratio div
dup 4 3 roll exch 90.000 cos mul sub 3 1 roll 90.000 sin mul sub 2 copy
/fntsize {/Helvetica-0 findfont exch scalefont setfont } def
90.000 646
(3-4) Stxtl
(3-4) stringwidth pop xratio div
dup 4 3 roll exch 90.000 cos mul add 3 1 roll 90.000 sin mul add 2 copy
pop pop pop pop
17432 5599 17432 5340 Sln
17658 5211 0
/Helvetica-0 findfont 646 yratio mul scalefont setfont
(5-6) stringwidth pop add
xratio div
dup 4 3 roll exch 90.000 cos mul sub 3 1 roll 90.000 sin mul sub 2 copy
/fntsize {/Helvetica-0 findfont exch scalefont setfont } def
90.000 646
(5-6) Stxtl
(5-6) stringwidth pop xratio div
dup 4 3 roll exch 90.000 cos mul add 3 1 roll 90.000 sin mul add 2 copy
pop pop pop pop
18176 5599 18176 5340 Sln
18402 5211 0
/Helvetica-0 findfont 646 yratio mul scalefont setfont
(7-8) stringwidth pop add
xratio div
dup 4 3 roll exch 90.000 cos mul sub 3 1 roll 90.000 sin mul sub 2 copy
/fntsize {/Helvetica-0 findfont exch scalefont setfont } def
90.000 646
(7-8) Stxtl
(7-8) stringwidth pop xratio div
dup 4 3 roll exch 90.000 cos mul add 3 1 roll 90.000 sin mul add 2 copy
pop pop pop pop
18921 5599 18921 5340 Sln
19147 5211 0
/Helvetica-0 findfont 646 yratio mul scalefont setfont
(9-10) stringwidth pop add
xratio div
dup 4 3 roll exch 90.000 cos mul sub 3 1 roll 90.000 sin mul sub 2 copy
/fntsize {/Helvetica-0 findfont exch scalefont setfont } def
90.000 646
(9-10) Stxtl
(9-10) stringwidth pop xratio div
dup 4 3 roll exch 90.000 cos mul add 3 1 roll 90.000 sin mul add 2 copy
pop pop pop pop
19665 5599 19665 5340 Sln
19891 5211 0
/Helvetica-0 findfont 646 yratio mul scalefont setfont
(11-12) stringwidth pop add
xratio div
dup 4 3 roll exch 90.000 cos mul sub 3 1 roll 90.000 sin mul sub 2 copy
/fntsize {/Helvetica-0 findfont exch scalefont setfont } def
90.000 646
(11-12) Stxtl
(11-12) stringwidth pop xratio div
dup 4 3 roll exch 90.000 cos mul add 3 1 roll 90.000 sin mul add 2 copy
pop pop pop pop
20410 5599 20410 5340 Sln
20636 5211 0
/Helvetica-0 findfont 646 yratio mul scalefont setfont
(13-14) stringwidth pop add
xratio div
dup 4 3 roll exch 90.000 cos mul sub 3 1 roll 90.000 sin mul sub 2 copy
/fntsize {/Helvetica-0 findfont exch scalefont setfont } def
90.000 646
(13-14) Stxtl
(13-14) stringwidth pop xratio div
dup 4 3 roll exch 90.000 cos mul add 3 1 roll 90.000 sin mul add 2 copy
pop pop pop pop
24950 5599 30905 5599 Sln
25322 5599 25322 5340 Sln
25548 5211 0
/Helvetica-0 findfont 646 yratio mul scalefont setfont
(0) stringwidth pop add
xratio div
dup 4 3 roll exch 90.000 cos mul sub 3 1 roll 90.000 sin mul sub 2 copy
/fntsize {/Helvetica-0 findfont exch scalefont setfont } def
90.000 646
(0) Stxtl
(0) stringwidth pop xratio div
dup 4 3 roll exch 90.000 cos mul add 3 1 roll 90.000 sin mul add 2 copy
pop pop pop pop
26066 5599 26066 5340 Sln
26292 5211 0
/Helvetica-0 findfont 646 yratio mul scalefont setfont
(1-2) stringwidth pop add
xratio div
dup 4 3 roll exch 90.000 cos mul sub 3 1 roll 90.000 sin mul sub 2 copy
/fntsize {/Helvetica-0 findfont exch scalefont setfont } def
90.000 646
(1-2) Stxtl
(1-2) stringwidth pop xratio div
dup 4 3 roll exch 90.000 cos mul add 3 1 roll 90.000 sin mul add 2 copy
pop pop pop pop
26811 5599 26811 5340 Sln
27037 5211 0
/Helvetica-0 findfont 646 yratio mul scalefont setfont
(3-4) stringwidth pop add
xratio div
dup 4 3 roll exch 90.000 cos mul sub 3 1 roll 90.000 sin mul sub 2 copy
/fntsize {/Helvetica-0 findfont exch scalefont setfont } def
90.000 646
(3-4) Stxtl
(3-4) stringwidth pop xratio div
dup 4 3 roll exch 90.000 cos mul add 3 1 roll 90.000 sin mul add 2 copy
pop pop pop pop
27555 5599 27555 5340 Sln
27781 5211 0
/Helvetica-0 findfont 646 yratio mul scalefont setfont
(5-6) stringwidth pop add
xratio div
dup 4 3 roll exch 90.000 cos mul sub 3 1 roll 90.000 sin mul sub 2 copy
/fntsize {/Helvetica-0 findfont exch scalefont setfont } def
90.000 646
(5-6) Stxtl
(5-6) stringwidth pop xratio div
dup 4 3 roll exch 90.000 cos mul add 3 1 roll 90.000 sin mul add 2 copy
pop pop pop pop
28300 5599 28300 5340 Sln
28526 5211 0
/Helvetica-0 findfont 646 yratio mul scalefont setfont
(7-8) stringwidth pop add
xratio div
dup 4 3 roll exch 90.000 cos mul sub 3 1 roll 90.000 sin mul sub 2 copy
/fntsize {/Helvetica-0 findfont exch scalefont setfont } def
90.000 646
(7-8) Stxtl
(7-8) stringwidth pop xratio div
dup 4 3 roll exch 90.000 cos mul add 3 1 roll 90.000 sin mul add 2 copy
pop pop pop pop
29044 5599 29044 5340 Sln
29270 5211 0
/Helvetica-0 findfont 646 yratio mul scalefont setfont
(9-10) stringwidth pop add
xratio div
dup 4 3 roll exch 90.000 cos mul sub 3 1 roll 90.000 sin mul sub 2 copy
/fntsize {/Helvetica-0 findfont exch scalefont setfont } def
90.000 646
(9-10) Stxtl
(9-10) stringwidth pop xratio div
dup 4 3 roll exch 90.000 cos mul add 3 1 roll 90.000 sin mul add 2 copy
pop pop pop pop
29789 5599 29789 5340 Sln
30015 5211 0
/Helvetica-0 findfont 646 yratio mul scalefont setfont
(11-12) stringwidth pop add
xratio div
dup 4 3 roll exch 90.000 cos mul sub 3 1 roll 90.000 sin mul sub 2 copy
/fntsize {/Helvetica-0 findfont exch scalefont setfont } def
90.000 646
(11-12) Stxtl
(11-12) stringwidth pop xratio div
dup 4 3 roll exch 90.000 cos mul add 3 1 roll 90.000 sin mul add 2 copy
pop pop pop pop
30533 5599 30533 5340 Sln
30759 5211 0
/Helvetica-0 findfont 646 yratio mul scalefont setfont
(13-14) stringwidth pop add
xratio div
dup 4 3 roll exch 90.000 cos mul sub 3 1 roll 90.000 sin mul sub 2 copy
/fntsize {/Helvetica-0 findfont exch scalefont setfont } def
90.000 646
(13-14) Stxtl
(13-14) stringwidth pop xratio div
dup 4 3 roll exch 90.000 cos mul add 3 1 roll 90.000 sin mul add 2 copy
pop pop pop pop
/Ssrgb {0.816 0.816 0.816} def
4703 21244 10659 22178 1 Srect
7681 21568 0
/Helvetica-0 findfont 711 yratio mul scalefont setfont
(Employed) stringwidth pop add
2 div xratio div
dup 4 3 roll exch 0.000 cos mul sub 3 1 roll 0.000 sin mul sub 2 copy
/fntsize {/Helvetica-0 findfont exch scalefont setfont } def
0.000 711
(Employed) Stxtl
(Employed) stringwidth pop xratio div
dup 4 3 roll exch 0.000 cos mul add 3 1 roll 0.000 sin mul add 2 copy
pop pop pop pop
14826 21244 20782 22178 1 Srect
17804 21568 0
/Helvetica-0 findfont 711 yratio mul scalefont setfont
(Smoking) stringwidth pop add
2 div xratio div
dup 4 3 roll exch 0.000 cos mul sub 3 1 roll 0.000 sin mul sub 2 copy
/fntsize {/Helvetica-0 findfont exch scalefont setfont } def
0.000 711
(Smoking) Stxtl
(Smoking) stringwidth pop xratio div
dup 4 3 roll exch 0.000 cos mul add 3 1 roll 0.000 sin mul add 2 copy
pop pop pop pop
24950 21244 30905 22178 1 Srect
27927 21568 0
/Helvetica-0 findfont 711 yratio mul scalefont setfont
(Alcohol) stringwidth pop add
2 div xratio div
dup 4 3 roll exch 0.000 cos mul sub 3 1 roll 0.000 sin mul sub 2 copy
/fntsize {/Helvetica-0 findfont exch scalefont setfont } def
0.000 711
(Alcohol) Stxtl
(Alcohol) stringwidth pop xratio div
dup 4 3 roll exch 0.000 cos mul add 3 1 roll 0.000 sin mul add 2 copy
pop pop pop pop
4703 12675 10659 13609 1 Srect
7681 12999 0
/Helvetica-0 findfont 711 yratio mul scalefont setfont
(BMI) stringwidth pop add
2 div xratio div
dup 4 3 roll exch 0.000 cos mul sub 3 1 roll 0.000 sin mul sub 2 copy
/fntsize {/Helvetica-0 findfont exch scalefont setfont } def
0.000 711
(BMI) Stxtl
(BMI) stringwidth pop xratio div
dup 4 3 roll exch 0.000 cos mul add 3 1 roll 0.000 sin mul add 2 copy
pop pop pop pop
14826 12675 20782 13609 1 Srect
17804 12999 0
/Helvetica-0 findfont 711 yratio mul scalefont setfont
(Waist \(cm\)) stringwidth pop add
2 div xratio div
dup 4 3 roll exch 0.000 cos mul sub 3 1 roll 0.000 sin mul sub 2 copy
/fntsize {/Helvetica-0 findfont exch scalefont setfont } def
0.000 711
(Waist \(cm\)) Stxtl
(Waist \(cm\)) stringwidth pop xratio div
dup 4 3 roll exch 0.000 cos mul add 3 1 roll 0.000 sin mul add 2 copy
pop pop pop pop
24950 12675 30905 13609 1 Srect
27927 12999 0
/Helvetica-0 findfont 711 yratio mul scalefont setfont
(Kcal) stringwidth pop add
2 div xratio div
dup 4 3 roll exch 0.000 cos mul sub 3 1 roll 0.000 sin mul sub 2 copy
/fntsize {/Helvetica-0 findfont exch scalefont setfont } def
0.000 711
(Kcal) Stxtl
(Kcal) stringwidth pop xratio div
dup 4 3 roll exch 0.000 cos mul add 3 1 roll 0.000 sin mul add 2 copy
pop pop pop pop
/Ssrgb {1.000 1.000 1.000} def
/Slw 0.576 def
9383 1094 22616 2600 1 Srect
/Slrgb {0.376 0.376 0.376} def
9732 1847 12757 1847 Sln
/Slrgb {0.627 0.627 0.627} def
16023 1847 16209 1847 Sln
16372 1847 16558 1847 Sln
16721 1847 16907 1847 Sln
17070 1847 17256 1847 Sln
17419 1847 17605 1847 Sln
17768 1847 17954 1847 Sln
18117 1847 18304 1847 Sln
18466 1847 18653 1847 Sln
18816 1847 19002 1847 Sln
13242 1564 2 copy
/fntsize {/Helvetica-0 findfont exch scalefont setfont } def
0.000 808
(men) Stxtl
(men) stringwidth pop xratio div
dup 4 3 roll exch 0.000 cos mul add 3 1 roll 0.000 sin mul add 2 copy
pop pop pop pop
19533 1564 2 copy
/fntsize {/Helvetica-0 findfont exch scalefont setfont } def
0.000 808
(women) Stxtl
(women) stringwidth pop xratio div
dup 4 3 roll exch 0.000 cos mul add 3 1 roll 0.000 sin mul add 2 copy
pop pop pop pop
S showpage
%%EOF
